----------------------------------------
Begin PBS Prologue Thu Aug 31 08:01:10 PDT 2017
Job ID:            24124974.hpc-pbs1.hpcc.usc.edu
Username:          amulyaya
Accountname:       default
Group:             csci-ar
Project:           default
Name:              6.pbs
Queue:             tambe
Shared Access:     no
All Cores:         no
Has MIC:           no
Is hsda:           false
Nodes:             hpc3443 
TMPDIR:            /tmp/24124974.hpc-pbs1.hpcc.usc.edu
End PBS Prologue Thu Aug 31 08:01:11 PDT 2017
----------------------------------------
******************************************************************************
METIS 5.0 Copyright 1998-13, Regents of the University of Minnesota
 (HEAD: , Built on: Oct 20 2015, 01:33:37)
 size of idx_t: 64bits, real_t: 32bits, idx_t *: 64bits

Graph Information -----------------------------------------------------------
 Name: /home/rcf-proj/mj1/amulyaya/pomcp-ve/src/PBSbGdYbQD.txt, #Vertices: 100, #Edges: 703, #Parts: 10

Options ---------------------------------------------------------------------
 ptype=kway, objtype=cut, ctype=shem, rtype=greedy, iptype=metisrb
 dbglvl=0, ufactor=1.030, no2hop=NO, minconn=NO, contig=NO, nooutput=NO
 seed=-1, niter=10, ncuts=1

Direct k-way Partitioning ---------------------------------------------------
 - Edgecut: 499, communication volume: 616.

 - Balance:
     constraint #0:  1.000 out of 0.100

 - Most overweight partition:
     pid: 0, actual: 10, desired: 10, ratio: 1.00.

 - Subdomain connectivity: max: 9, min: 9, avg: 9.00

 - Each partition is contiguous.

Timing Information ----------------------------------------------------------
  I/O:          		   0.001 sec
  Partitioning: 		   0.016 sec   (METIS time)
  Reporting:    		   0.000 sec

Memory Information ----------------------------------------------------------
  Max memory used:		   0.140 MB
******************************************************************************
Initialising fast UCB table... done
Main runs
Starting run 1 with 1024 simulations... 

Presence: 0000000000000000000000000000000000000000000000000000000000000000000000000000000000000000000000000000
Invited Nodes: 
Actions left: 3
Session index: 1
About to find best action in Step: 0
Values: 17.82(endSession) 18.7173(query) 18.2703(invite)
Foind best action in Step: 0
Coolie

Action Type: 0
Active Nodes: 44 75 

Presence: 0000000000000000000000000000000000000000000000000000000000000000000000000000000000000000000000000000
Invited Nodes: 
Actions left: 2
Session index: 1

Observation: ..
Reward -0
About to find best action in Step: 1
Values: 12.815(endSession) 18.8816(query) 18.1074(invite)
Foind best action in Step: 1
Coolie

Action Type: 0
Active Nodes: 75 91 

Presence: 0000000000000000000000000000000000000000000000000000000000000000000000000000000000000000000000000000
Invited Nodes: 
Actions left: 1
Session index: 1

Observation: ..
Reward -0
About to find best action in Step: 2
Values: 21.035(endSession) 18.5595(query) 18.5351(invite)
Foind best action in Step: 2
Coolie

Action Type: 2

Presence: 1111111111111111111111111111111111111111111111111111111111111111111111111111111111111111111111111111
Invited Nodes: 
Actions left: 3
Session index: 2

Observation: ..
Reward 0
About to find best action in Step: 3
Values: 19.201(endSession) 18.072(query) 17.8897(invite)
Foind best action in Step: 3
Coolie

Action Type: 2

Presence: 0000000000000000000000000000000000000000000000000000000000000000000000000000000000000000000000000000
Invited Nodes: 
Actions left: 3
Session index: 3

Observation: ..
Reward 0
About to find best action in Step: 4
Values: 0(endSession) 18.4063(query) 17.5912(invite)
Foind best action in Step: 4
Coolie

Action Type: 0
Active Nodes: 8 48 

Presence: 0000000000000000000000000000000000000000000000000000000000000000000000000000000000000000000000000000
Invited Nodes: 
Actions left: 2
Session index: 3

Observation: ..
Reward -0
About to find best action in Step: 5
Values: 19.528(endSession) 16.6834(query) 17.1643(invite)
Foind best action in Step: 5
Coolie

Action Type: 2

Presence: 1111111111111111111111111111111111111111111111111111111111111111111111111111111111111111111111111111
Invited Nodes: 
Actions left: 3
Session index: 4

Observation: ..
Reward 0
About to find best action in Step: 6
Values: 17.033(endSession) 17.6112(query) 16.7901(invite)
Foind best action in Step: 6
Coolie

Action Type: 0
Active Nodes: 19 29 

Presence: 1111111111111111111111111111111111111111111111111111111111111111111111111111111111111111111111111111
Invited Nodes: 
Actions left: 2
Session index: 4

Observation: ..11
Reward -0
About to find best action in Step: 7
Values: 16.82(endSession) 15.2439(query) 17.0119(invite)
Foind best action in Step: 7
Coolie

Action Type: 1
Active Nodes: 43 69 

Presence: 1111111111111111111111111111111111111111111111111111111111111111111111111111111111111111111111111111
Invited Nodes: 43 69 
Actions left: 1
Session index: 4

Observation: ..11
Reward -0
About to find best action in Step: 8
Foind best action in Step: 8
Coolie

Action Type: 2

Presence: 1111111111111111111111111111111111111111111111111111111111111111111111111111111111111111111111111111
Invited Nodes: 43 69 
Actions left: 3
Session index: 5

Observation: ..
Reward 0
About to find best action in Step: 9
Foind best action in Step: 9
Coolie

Action Type: 2

Presence: 1111111111111111111111111111111111111111111111111111111111111111111111111111111111111111111111111111
Invited Nodes: 43 69 
Actions left: 3
Session index: 6

Observation: ..
Reward 0
About to find best action in Step: 10
Foind best action in Step: 10
Coolie

Action Type: 2

Presence: 1111111111111111111111111111111111111111111111111111111111111111111111111111111111111111111111111111
Invited Nodes: 43 69 
Actions left: 3
Session index: 7

Observation: ..
Reward 22.234
Terminated
Discounted return = 22.234, average = 22.234
Undiscounted return = 22.234, average = 22.234
Starting run 2 with 1024 simulations... 

Presence: 0000000000000000000000000000000000000000000000000000000000000000000000000000000000000000000000000000
Invited Nodes: 
Actions left: 3
Session index: 1
About to find best action in Step: 0
Values: 20.49(endSession) 18.4216(query) 18.3784(invite)
Foind best action in Step: 0
Coolie

Action Type: 2

Presence: 1111111111111111111111111111111111111111111111111111111111111111111111111111111111111111111111111111
Invited Nodes: 
Actions left: 3
Session index: 2

Observation: ..
Reward 0
About to find best action in Step: 1
Values: 20.372(endSession) 18.2817(query) 18.381(invite)
Foind best action in Step: 1
Coolie

Action Type: 2

Presence: 0000000000000000000000000000000000000000000000000000000000000000000000000000000000000000000000000000
Invited Nodes: 
Actions left: 3
Session index: 3

Observation: ..
Reward 0
About to find best action in Step: 2
Values: 16.952(endSession) 17.6155(query) 17.6418(invite)
Foind best action in Step: 2
Coolie

Action Type: 1
Active Nodes: 15 28 

Presence: 0000000000000000000000000000000000000000000000000000000000000000000000000000000000000000000000000000
Invited Nodes: 
Actions left: 2
Session index: 3

Observation: ..
Reward -0
About to find best action in Step: 3
Values: 16.075(endSession) 17.2054(query) 17.6393(invite)
Foind best action in Step: 3
Coolie

Action Type: 1
Active Nodes: 0 27 

Presence: 0000000000000000000000000000000000000000000000000000000000000000000000000000000000000000000000000000
Invited Nodes: 
Actions left: 1
Session index: 3

Observation: ..
Reward -0
About to find best action in Step: 4
Values: 18.475(endSession) 17.0819(query) 17.5923(invite)
Foind best action in Step: 4
Coolie

Action Type: 2

Presence: 0000000000000000000000000000000000000000000000000000000000000000000000000000000000000000000000000000
Invited Nodes: 
Actions left: 3
Session index: 4

Observation: ..
Reward 0
About to find best action in Step: 5
Values: 0(endSession) 17.3175(query) 16.9675(invite)
Foind best action in Step: 5
Coolie

Action Type: 0
Active Nodes: 14 26 

Presence: 0000000000000000000000000000000000000000000000000000000000000000000000000000000000000000000000000000
Invited Nodes: 
Actions left: 2
Session index: 4

Observation: ..
Reward -0
About to find best action in Step: 6
Values: 16.112(endSession) 15.4334(query) 16.6052(invite)
Foind best action in Step: 6
Coolie

Action Type: 1
Active Nodes: 65 70 

Presence: 0000000000000000000000000000000000000000000000000000000000000000000000000000000000000000000000000000
Invited Nodes: 
Actions left: 1
Session index: 4

Observation: ..
Reward -0
About to find best action in Step: 7
Values: 14.72(endSession) 15.6638(query) 17.0299(invite)
Foind best action in Step: 7
Coolie

Action Type: 1
Active Nodes: 28 98 

Presence: 0000000000000000000000000000000000000000000000000000000000000000000000000000000000000000000000000000
Invited Nodes: 
Actions left: 0
Session index: 4

Observation: ..
Reward -0
About to find best action in Step: 8
Foind best action in Step: 8
Coolie

Action Type: 2

Presence: 0000000000000000000000000000000000000000000000000000000000000000000000000000000000000000000000000000
Invited Nodes: 
Actions left: 3
Session index: 5

Observation: ..
Reward 0
About to find best action in Step: 9
Values: 18.857(endSession) 15.2346(query) 14.4576(invite)
Foind best action in Step: 9
Coolie

Action Type: 2

Presence: 0000000000000000000000000000000000000000000000000000000000000000000000000000000000000000000000000000
Invited Nodes: 
Actions left: 3
Session index: 6

Observation: ..
Reward 0
About to find best action in Step: 10
Values: 0(endSession) 10.5634(query) 11.2779(invite)
Foind best action in Step: 10
Coolie

Action Type: 1
Active Nodes: 69 96 

Presence: 0000000000000000000000000000000000000000000000000000000000000000000000000000000000000000000000000000
Invited Nodes: 
Actions left: 2
Session index: 6

Observation: ..
Reward -0
About to find best action in Step: 11
Values: 0(endSession) 0(query) 9.40092(invite)
Foind best action in Step: 11
Coolie

Action Type: 1
Active Nodes: 16 32 

Presence: 0000000000000000000000000000000000000000000000000000000000000000000000000000000000000000000000000000
Invited Nodes: 
Actions left: 1
Session index: 6

Observation: ..
Reward -0
About to find best action in Step: 12
Values: 0(endSession) 0(query) 8.12202(invite)
Foind best action in Step: 12
Coolie

Action Type: 1
Active Nodes: 74 90 

Presence: 0000000000000000000000000000000000000000000000000000000000000000000000000000000000000000000000000000
Invited Nodes: 
Actions left: 0
Session index: 6

Observation: ..
Reward -0
About to find best action in Step: 13
Foind best action in Step: 13
Coolie

Action Type: 2

Presence: 1111111111111111111111111111111111111111111111111111111111111111111111111111111111111111111111111111
Invited Nodes: 
Actions left: 3
Session index: 7

Observation: ..
Reward 0
Terminated
Discounted return = 0, average = 11.117
Undiscounted return = 0, average = 11.117
Starting run 3 with 1024 simulations... 

Presence: 0000000000000000000000000000000000000000000000000000000000000000000000000000000000000000000000000000
Invited Nodes: 
Actions left: 3
Session index: 1
About to find best action in Step: 0
Values: 18.24(endSession) 18.477(query) 18.0533(invite)
Foind best action in Step: 0
Coolie

Action Type: 0
Active Nodes: 41 44 

Presence: 0000000000000000000000000000000000000000000000000000000000000000000000000000000000000000000000000000
Invited Nodes: 
Actions left: 2
Session index: 1

Observation: ..
Reward -0
About to find best action in Step: 1
Values: 17.8(endSession) 18.5444(query) 18.0154(invite)
Foind best action in Step: 1
Coolie

Action Type: 0
Active Nodes: 61 70 

Presence: 0000000000000000000000000000000000000000000000000000000000000000000000000000000000000000000000000000
Invited Nodes: 
Actions left: 1
Session index: 1

Observation: ..
Reward -0
About to find best action in Step: 2
Values: 22.964(endSession) 18.419(query) 18.1093(invite)
Foind best action in Step: 2
Coolie

Action Type: 2

Presence: 1111111111111111111111111111111111111111111111111111111111111111111111111111111111111111111111111111
Invited Nodes: 
Actions left: 3
Session index: 2

Observation: ..
Reward 0
About to find best action in Step: 3
Values: 18.067(endSession) 18.5994(query) 18.4918(invite)
Foind best action in Step: 3
Coolie

Action Type: 0
Active Nodes: 35 67 

Presence: 1111111111111111111111111111111111111111111111111111111111111111111111111111111111111111111111111111
Invited Nodes: 
Actions left: 2
Session index: 2

Observation: ..11
Reward -0
About to find best action in Step: 4
Values: 18.638(endSession) 17.9493(query) 18.2479(invite)
Foind best action in Step: 4
Coolie

Action Type: 2

Presence: 0000000000000000000000000000000000000000000000000000000000000000000000000000000000000000000000000000
Invited Nodes: 
Actions left: 3
Session index: 3

Observation: ..
Reward 0
About to find best action in Step: 5
Values: 20.694(endSession) 17.5598(query) 17.5357(invite)
Foind best action in Step: 5
Coolie

Action Type: 2

Presence: 1111111111111111111111111111111111111111111111111111111111111111111111111111111111111111111111111111
Invited Nodes: 
Actions left: 3
Session index: 4

Observation: ..
Reward 0
About to find best action in Step: 6
Values: 18.033(endSession) 16.7859(query) 16.87(invite)
Foind best action in Step: 6
Coolie

Action Type: 2

Presence: 0000000000000000000000000000000000000000000000000000000000000000000000000000000000000000000000000000
Invited Nodes: 
Actions left: 3
Session index: 5

Observation: ..
Reward 0
About to find best action in Step: 7
Values: 19.115(endSession) 15.4874(query) 14.7752(invite)
Foind best action in Step: 7
Coolie

Action Type: 2

Presence: 0000000000000000000000000000000000000000000000000000000000000000000000000000000000000000000000000000
Invited Nodes: 
Actions left: 3
Session index: 6

Observation: ..
Reward 0
About to find best action in Step: 8
Values: 0(endSession) 11.0406(query) 11.4958(invite)
Foind best action in Step: 8
Coolie

Action Type: 1
Active Nodes: 74 88 

Presence: 0000000000000000000000000000000000000000000000000000000000000000000000000000000000000000000000000000
Invited Nodes: 
Actions left: 2
Session index: 6

Observation: ..
Reward -0
About to find best action in Step: 9
Values: 0(endSession) 0(query) 8.85611(invite)
Foind best action in Step: 9
Coolie

Action Type: 1
Active Nodes: 32 93 

Presence: 0000000000000000000000000000000000000000000000000000000000000000000000000000000000000000000000000000
Invited Nodes: 
Actions left: 1
Session index: 6

Observation: ..
Reward -0
About to find best action in Step: 10
Values: 0(endSession) 0(query) 7.72263(invite)
Foind best action in Step: 10
Coolie

Action Type: 1
Active Nodes: 61 98 

Presence: 0000000000000000000000000000000000000000000000000000000000000000000000000000000000000000000000000000
Invited Nodes: 
Actions left: 0
Session index: 6

Observation: ..
Reward -0
About to find best action in Step: 11
Foind best action in Step: 11
Coolie

Action Type: 2

Presence: 1111111111111111111111111111111111111111111111111111111111111111111111111111111111111111111111111111
Invited Nodes: 
Actions left: 3
Session index: 7

Observation: ..
Reward 0
Terminated
Discounted return = 0, average = 7.41133
Undiscounted return = 0, average = 7.41133
Starting run 4 with 1024 simulations... 

Presence: 1111111111111111111111111111111111111111111111111111111111111111111111111111111111111111111111111111
Invited Nodes: 
Actions left: 3
Session index: 1
About to find best action in Step: 0
Values: 17.623(endSession) 18.9027(query) 18.2342(invite)
Foind best action in Step: 0
Coolie

Action Type: 0
Active Nodes: 24 36 

Presence: 1111111111111111111111111111111111111111111111111111111111111111111111111111111111111111111111111111
Invited Nodes: 
Actions left: 2
Session index: 1

Observation: ..11
Reward -0
About to find best action in Step: 1
Values: 17.835(endSession) 18.2526(query) 18.6463(invite)
Foind best action in Step: 1
Coolie

Action Type: 1
Active Nodes: 15 28 

Presence: 1111111111111111111111111111111111111111111111111111111111111111111111111111111111111111111111111111
Invited Nodes: 15 28 
Actions left: 1
Session index: 1

Observation: ..11
Reward -0
About to find best action in Step: 2
Foind best action in Step: 2
Coolie

Action Type: 2

Presence: 1011110111111101111111111111111111111111111111111111111111111111111111111111111111111111111111111111
Invited Nodes: 15 28 
Actions left: 3
Session index: 2

Observation: ..
Reward 0
About to find best action in Step: 3
Foind best action in Step: 3
Coolie

Action Type: 2

Presence: 1111111111111111111111111111111111111111111111111111111111111111111111111111111111111111111111111111
Invited Nodes: 15 28 
Actions left: 3
Session index: 3

Observation: ..
Reward 0
About to find best action in Step: 4
Foind best action in Step: 4
Coolie

Action Type: 2

Presence: 0000000000000000000000000000000000000000000000000000000000000000000000000000000000000000000000000000
Invited Nodes: 15 28 
Actions left: 3
Session index: 4

Observation: ..
Reward 0
About to find best action in Step: 5
Foind best action in Step: 5
Coolie

Action Type: 2

Presence: 1111111111111111111111111111111111111111111111111111111111111111111111111111111111111111111111111111
Invited Nodes: 15 28 
Actions left: 3
Session index: 5

Observation: ..
Reward 0
About to find best action in Step: 6
Foind best action in Step: 6
Coolie

Action Type: 2

Presence: 1111111111111111111111111111111111111111111111111111111111111111111111111111111111111111111111111111
Invited Nodes: 15 28 
Actions left: 3
Session index: 6

Observation: ..
Reward 0
About to find best action in Step: 7
Foind best action in Step: 7
Coolie

Action Type: 2

Presence: 1111111111111111111111111111111111111111111111111111111111111111111111111111111111111111111111111111
Invited Nodes: 15 28 
Actions left: 3
Session index: 7

Observation: ..
Reward 23.856
Terminated
Discounted return = 23.856, average = 11.5225
Undiscounted return = 23.856, average = 11.5225
Starting run 5 with 1024 simulations... 

Presence: 1111111111111111111111111111111111111111111111111111111111111111111111111111111111111111111111111111
Invited Nodes: 
Actions left: 3
Session index: 1
About to find best action in Step: 0
Values: 17.005(endSession) 18.4938(query) 18.4756(invite)
Foind best action in Step: 0
Coolie

Action Type: 0
Active Nodes: 45 49 

Presence: 1111111111111111111111111111111111111111111111111111111111111111111111111111111111111111111111111111
Invited Nodes: 
Actions left: 2
Session index: 1

Observation: ..11
Reward -0
About to find best action in Step: 1
Values: 20.796(endSession) 17.9683(query) 18.4947(invite)
Foind best action in Step: 1
Coolie

Action Type: 2

Presence: 1111111111111111111111111111111111111111111111111111111111111111111111111111111111111111111111111111
Invited Nodes: 
Actions left: 3
Session index: 2

Observation: ..
Reward 0
About to find best action in Step: 2
Values: 17.584(endSession) 18.628(query) 18.1897(invite)
Foind best action in Step: 2
Coolie

Action Type: 0
Active Nodes: 12 15 

Presence: 1111111111111111111111111111111111111111111111111111111111111111111111111111111111111111111111111111
Invited Nodes: 
Actions left: 2
Session index: 2

Observation: ..11
Reward -0
About to find best action in Step: 3
Values: 14.513(endSession) 17.5197(query) 18.995(invite)
Foind best action in Step: 3
Coolie

Action Type: 1
Active Nodes: 16 74 

Presence: 1111111111111111111111111111111111111111111111111111111111111111111111111111111111111111111111111111
Invited Nodes: 16 74 
Actions left: 1
Session index: 2

Observation: ..11
Reward -0
About to find best action in Step: 4
Foind best action in Step: 4
Coolie

Action Type: 2

Presence: 0000000000000000000000000000000000000000000000000000000000000000000000000000000000000000000000000000
Invited Nodes: 16 74 
Actions left: 3
Session index: 3

Observation: ..
Reward 0
About to find best action in Step: 5
Foind best action in Step: 5
Coolie

Action Type: 2

Presence: 0000000000000000000000000000000000000000000000000000000000000000000000000000000000000000000000000000
Invited Nodes: 16 74 
Actions left: 3
Session index: 4

Observation: ..
Reward 0
About to find best action in Step: 6
Foind best action in Step: 6
Coolie

Action Type: 2

Presence: 1111111111111111111111111111111111111111111111111111111111111111111111111111111111111111111111111111
Invited Nodes: 16 74 
Actions left: 3
Session index: 5

Observation: ..
Reward 0
About to find best action in Step: 7
Foind best action in Step: 7
Coolie

Action Type: 2

Presence: 1111111111111111111111111111111111111111111111111111111111111111111111111111111111111111111111111111
Invited Nodes: 16 74 
Actions left: 3
Session index: 6

Observation: ..
Reward 0
About to find best action in Step: 8
Foind best action in Step: 8
Coolie

Action Type: 2

Presence: 1111111111111111111111111111111111111111111111111111111111111111111111111111111111111111111111111111
Invited Nodes: 16 74 
Actions left: 3
Session index: 7

Observation: ..
Reward 25.272
Terminated
Discounted return = 25.272, average = 14.2724
Undiscounted return = 25.272, average = 14.2724
Starting run 6 with 1024 simulations... 

Presence: 0000000000000000000000000000000000000000000000000000000000000000000000000000000000000000000000000000
Invited Nodes: 
Actions left: 3
Session index: 1
About to find best action in Step: 0
Values: 18.961(endSession) 18.3097(query) 18.4461(invite)
Foind best action in Step: 0
Coolie

Action Type: 2

Presence: 1111111111111111111111111111111111111111111111111111111111111111111111111111111111111111111111111111
Invited Nodes: 
Actions left: 3
Session index: 2

Observation: ..
Reward 0
About to find best action in Step: 1
Values: 19.638(endSession) 18.394(query) 18.8724(invite)
Foind best action in Step: 1
Coolie

Action Type: 2

Presence: 1111111111111111111111111111111111111111111111111111111111111111111111111111111111111111111111111111
Invited Nodes: 
Actions left: 3
Session index: 3

Observation: ..
Reward 0
About to find best action in Step: 2
Values: 23.925(endSession) 18.0615(query) 18.014(invite)
Foind best action in Step: 2
Coolie

Action Type: 2

Presence: 0000000000000000000000000000000000000000000000000000000000000000000000000000000000000000000000000000
Invited Nodes: 
Actions left: 3
Session index: 4

Observation: ..
Reward 0
About to find best action in Step: 3
Values: 18.955(endSession) 17.756(query) 17.4667(invite)
Foind best action in Step: 3
Coolie

Action Type: 2

Presence: 0000000000000000000000000000000000000000000000000000000000000000000000000000000000000000000000000000
Invited Nodes: 
Actions left: 3
Session index: 5

Observation: ..
Reward 0
About to find best action in Step: 4
Values: 19.177(endSession) 15.2432(query) 14.9791(invite)
Foind best action in Step: 4
Coolie

Action Type: 2

Presence: 1111111111111111111111111111111111111111111111111111111111111111111111111111111111111111111111111111
Invited Nodes: 
Actions left: 3
Session index: 6

Observation: ..
Reward 0
About to find best action in Step: 5
Values: 0(endSession) 10.6409(query) 11.1103(invite)
Foind best action in Step: 5
Coolie

Action Type: 1
Active Nodes: 32 69 

Presence: 1111111111111111111111111111111111111111111111111111111111111111111111111111111111111111111111111111
Invited Nodes: 32 69 
Actions left: 2
Session index: 6

Observation: ..11
Reward -0
About to find best action in Step: 6
Foind best action in Step: 6
Coolie

Action Type: 2

Presence: 1111111111111111111111111111111111111111111111111111111111111111111111111111111111111111111111111111
Invited Nodes: 32 69 
Actions left: 3
Session index: 7

Observation: ..
Reward 21.824
Terminated
Discounted return = 21.824, average = 15.531
Undiscounted return = 21.824, average = 15.531
Starting run 7 with 1024 simulations... 

Presence: 1111111111111111111111111111111111111111111111111111111111111111111111111111111111111111111111111111
Invited Nodes: 
Actions left: 3
Session index: 1
About to find best action in Step: 0
Values: 18.991(endSession) 18.6542(query) 18.9397(invite)
Foind best action in Step: 0
Coolie

Action Type: 2

Presence: 1111111111111111111111111111111111111111111111111111111111111111111111111111111111111111111111111111
Invited Nodes: 
Actions left: 3
Session index: 2

Observation: ..
Reward 0
About to find best action in Step: 1
Values: 0(endSession) 18.1016(query) 18.5037(invite)
Foind best action in Step: 1
Coolie

Action Type: 1
Active Nodes: 15 28 

Presence: 1111111111111111111111111111111111111111111111111111111111111111111111111111111111111111111111111111
Invited Nodes: 15 28 
Actions left: 2
Session index: 2

Observation: ..11
Reward -0
About to find best action in Step: 2
Foind best action in Step: 2
Coolie

Action Type: 2

Presence: 1111111111111111111111111111111111111111111111111111111111111111111111111111111111111111111111111111
Invited Nodes: 15 28 
Actions left: 3
Session index: 3

Observation: ..
Reward 0
About to find best action in Step: 3
Foind best action in Step: 3
Coolie

Action Type: 2

Presence: 1111111111111111111111111111111111111111111111111111111111111111111111111111111111111111111111111111
Invited Nodes: 15 28 
Actions left: 3
Session index: 4

Observation: ..
Reward 0
About to find best action in Step: 4
Foind best action in Step: 4
Coolie

Action Type: 2

Presence: 0000000000000000000000000000000000000000000000000000000000000000000000000000000000000000000000000000
Invited Nodes: 15 28 
Actions left: 3
Session index: 5

Observation: ..
Reward 0
About to find best action in Step: 5
Foind best action in Step: 5
Coolie

Action Type: 2

Presence: 0000000000000000000000000000000000000000000000000000000000000000000000000000000000000000000000000000
Invited Nodes: 15 28 
Actions left: 3
Session index: 6

Observation: ..
Reward 0
About to find best action in Step: 6
Foind best action in Step: 6
Coolie

Action Type: 2

Presence: 1111111111111111111111111111111111111111111111111111111111111111111111111111111111111111111111111111
Invited Nodes: 15 28 
Actions left: 3
Session index: 7

Observation: ..
Reward 23.841
Terminated
Discounted return = 23.841, average = 16.7181
Undiscounted return = 23.841, average = 16.7181
Starting run 8 with 1024 simulations... 

Presence: 1111111111111111111111111111111111111111111111111111111111111111111111111111111111111111111111111111
Invited Nodes: 
Actions left: 3
Session index: 1
About to find best action in Step: 0
Values: 16.586(endSession) 18.5852(query) 18.4881(invite)
Foind best action in Step: 0
Coolie

Action Type: 0
Active Nodes: 64 90 

Presence: 1111111111111111111111111111111111111111111111111111111111111111111111111111111111111111111111111111
Invited Nodes: 
Actions left: 2
Session index: 1

Observation: ..11
Reward -0
About to find best action in Step: 1
Values: 16.93(endSession) 18.3275(query) 18.3233(invite)
Foind best action in Step: 1
Coolie

Action Type: 0
Active Nodes: 20 28 

Presence: 1111111111111111111111111111111111111111111111111111111111111111111111111111111111111111111111111111
Invited Nodes: 
Actions left: 1
Session index: 1

Observation: ..11
Reward -0
About to find best action in Step: 2
Values: 13.632(endSession) 18.2652(query) 19.1661(invite)
Foind best action in Step: 2
Coolie

Action Type: 1
Active Nodes: 16 74 

Presence: 1111111111111111111111111111111111111111111111111111111111111111111111111111111111111111111111111111
Invited Nodes: 16 74 
Actions left: 0
Session index: 1

Observation: ..11
Reward -0
About to find best action in Step: 3
Foind best action in Step: 3
Coolie

Action Type: 2

Presence: 1111111111111111111111111111111111111111111111111111111111111111111111111111111111111111111111111111
Invited Nodes: 16 74 
Actions left: 3
Session index: 2

Observation: ..
Reward 0
About to find best action in Step: 4
Foind best action in Step: 4
Coolie

Action Type: 2

Presence: 0000000000000000000000000000000000000000000000000000000000000000000000000000000000000000000000000000
Invited Nodes: 16 74 
Actions left: 3
Session index: 3

Observation: ..
Reward 0
About to find best action in Step: 5
Foind best action in Step: 5
Coolie

Action Type: 2

Presence: 1111111111111111111111111111111111111111111111111111111111111111111111111111111111111111111111111111
Invited Nodes: 16 74 
Actions left: 3
Session index: 4

Observation: ..
Reward 0
About to find best action in Step: 6
Foind best action in Step: 6
Coolie

Action Type: 2

Presence: 0000000000000000000000000000000000000000000000000000000000000000000000000000000000000000000000000000
Invited Nodes: 16 74 
Actions left: 3
Session index: 5

Observation: ..
Reward 0
About to find best action in Step: 7
Foind best action in Step: 7
Coolie

Action Type: 2

Presence: 1111111111111111111111111111111111111111111111111111111111111111111111111111111111111111111111111111
Invited Nodes: 16 74 
Actions left: 3
Session index: 6

Observation: ..
Reward 0
About to find best action in Step: 8
Foind best action in Step: 8
Coolie

Action Type: 2

Presence: 0000000000000000000000000000000000000000000000000000000000000000000000000000000000000000000000000000
Invited Nodes: 16 74 
Actions left: 3
Session index: 7

Observation: ..
Reward 25.29
Terminated
Discounted return = 25.29, average = 17.7896
Undiscounted return = 25.29, average = 17.7896
Starting run 9 with 1024 simulations... 

Presence: 0000000000000000000000000000000000000000000000000000000000000000000000000000000000000000000000000000
Invited Nodes: 
Actions left: 3
Session index: 1
About to find best action in Step: 0
Values: 18.059(endSession) 18.7417(query) 18.2222(invite)
Foind best action in Step: 0
Coolie

Action Type: 0
Active Nodes: 16 74 

Presence: 0000000000000000000000000000000000000000000000000000000000000000000000000000000000000000000000000000
Invited Nodes: 
Actions left: 2
Session index: 1

Observation: ..
Reward -0
About to find best action in Step: 1
Values: 20.317(endSession) 18.3737(query) 18.1597(invite)
Foind best action in Step: 1
Coolie

Action Type: 2

Presence: 0000000000000000000000000000000000000000000000000000000000000000000000000000000000000000000000000000
Invited Nodes: 
Actions left: 3
Session index: 2

Observation: ..
Reward 0
About to find best action in Step: 2
Values: 16.879(endSession) 18.4783(query) 18.6776(invite)
Foind best action in Step: 2
Coolie

Action Type: 1
Active Nodes: 15 28 

Presence: 0000000000000000000000000000000000000000000000000000000000000000000000000000000000000000000000000000
Invited Nodes: 
Actions left: 2
Session index: 2

Observation: ..
Reward -0
About to find best action in Step: 3
Values: 16.416(endSession) 17.6145(query) 18.1622(invite)
Foind best action in Step: 3
Coolie

Action Type: 1
Active Nodes: 23 74 

Presence: 0000000000000000000000000000000000000000000000000000000000000000000000000000000000000000000000000000
Invited Nodes: 
Actions left: 1
Session index: 2

Observation: ..
Reward -0
About to find best action in Step: 4
Values: 18.592(endSession) 17.7918(query) 17.9365(invite)
Foind best action in Step: 4
Coolie

Action Type: 2

Presence: 0000000000000000000000000000000000000000000000000000000000000000000000000000000000000000000000000000
Invited Nodes: 
Actions left: 3
Session index: 3

Observation: ..
Reward 0
About to find best action in Step: 5
Values: 15.361(endSession) 18.3039(query) 17.6692(invite)
Foind best action in Step: 5
Coolie

Action Type: 0
Active Nodes: 57 82 

Presence: 0000000000000000000000000000000000000000000000000000000000000000000000000000000000000000000000000000
Invited Nodes: 
Actions left: 2
Session index: 3

Observation: ..
Reward -0
About to find best action in Step: 6
Values: 0(endSession) 16.9073(query) 18.2606(invite)
Foind best action in Step: 6
Coolie

Action Type: 1
Active Nodes: 16 74 

Presence: 0000000000000000000000000000000000000000000000000000000000000000000000000000000000000000000000000000
Invited Nodes: 
Actions left: 1
Session index: 3

Observation: ..
Reward -0
About to find best action in Step: 7
Values: 20.206(endSession) 16.679(query) 16.9024(invite)
Foind best action in Step: 7
Coolie

Action Type: 2

Presence: 1111111111111111111111111111111111111111111111111111111111111111111111111111111111111111111111111111
Invited Nodes: 
Actions left: 3
Session index: 4

Observation: ..
Reward 0
About to find best action in Step: 8
Values: 17.256(endSession) 16.3837(query) 16.321(invite)
Foind best action in Step: 8
Coolie

Action Type: 2

Presence: 0000000000000000000000000000000000000000000000000100000000000000000000000000000000000000000000000000
Invited Nodes: 
Actions left: 3
Session index: 5

Observation: ..
Reward 0
About to find best action in Step: 9
Values: 0(endSession) 15.5074(query) 15.4337(invite)
Foind best action in Step: 9
Coolie

Action Type: 0
Active Nodes: 13 52 

Presence: 0000000000000000000000000000000000000000000000000100000000000000000000000000000000000000000000000000
Invited Nodes: 
Actions left: 2
Session index: 5

Observation: ..
Reward -0
About to find best action in Step: 10
Values: 17.129(endSession) 11.5196(query) 15.1982(invite)
Foind best action in Step: 10
Coolie

Action Type: 2

Presence: 0000000000000000000000000000000000000000000000000000000000000000000000000000000000000000000000000000
Invited Nodes: 
Actions left: 3
Session index: 6

Observation: ..
Reward 0
About to find best action in Step: 11
Values: 0(endSession) 10.9965(query) 11.7956(invite)
Foind best action in Step: 11
Coolie

Action Type: 1
Active Nodes: 16 74 

Presence: 0000000000000000000000000000000000000000000000000000000000000000000000000000000000000000000000000000
Invited Nodes: 
Actions left: 2
Session index: 6

Observation: ..
Reward -0
About to find best action in Step: 12
Values: 0(endSession) 0(query) 8.53578(invite)
Foind best action in Step: 12
Coolie

Action Type: 1
Active Nodes: 17 87 

Presence: 0000000000000000000000000000000000000000000000000000000000000000000000000000000000000000000000000000
Invited Nodes: 
Actions left: 1
Session index: 6

Observation: ..
Reward -0
About to find best action in Step: 13
Values: 0(endSession) 0(query) 7.62901(invite)
Foind best action in Step: 13
Coolie

Action Type: 1
Active Nodes: 23 35 

Presence: 0000000000000000000000000000000000000000000000000000000000000000000000000000000000000000000000000000
Invited Nodes: 
Actions left: 0
Session index: 6

Observation: ..
Reward -0
About to find best action in Step: 14
Foind best action in Step: 14
Coolie

Action Type: 2

Presence: 0000000000000000000000000000000000000000000000000000000000000000000000000000000000000000000000000000
Invited Nodes: 
Actions left: 3
Session index: 7

Observation: ..
Reward 0
Terminated
Discounted return = 0, average = 15.813
Undiscounted return = 0, average = 15.813
Starting run 10 with 1024 simulations... 

Presence: 1111111111111111111111111111111111111111111111111111111111111111111111111111111111111111111111111111
Invited Nodes: 
Actions left: 3
Session index: 1
About to find best action in Step: 0
Values: 17.707(endSession) 18.8555(query) 19.09(invite)
Foind best action in Step: 0
Coolie

Action Type: 1
Active Nodes: 16 74 

Presence: 1111111111111111111111111111111111111111111111111111111111111111111111111111111111111111111111111111
Invited Nodes: 16 74 
Actions left: 2
Session index: 1

Observation: ..11
Reward -0
About to find best action in Step: 1
Foind best action in Step: 1
Coolie

Action Type: 2

Presence: 1111111111111111111111111111111111111111111111111111111111111111111111111111111111111111111111111111
Invited Nodes: 16 74 
Actions left: 3
Session index: 2

Observation: ..
Reward 0
About to find best action in Step: 2
Foind best action in Step: 2
Coolie

Action Type: 2

Presence: 1111111111111111111111111111111111111111111111111111111111111111111111111111111111111111111111111111
Invited Nodes: 16 74 
Actions left: 3
Session index: 3

Observation: ..
Reward 0
About to find best action in Step: 3
Foind best action in Step: 3
Coolie

Action Type: 2

Presence: 1111111111111111111111111111111111111111111111111111111111111111111111111111111111111111111111111111
Invited Nodes: 16 74 
Actions left: 3
Session index: 4

Observation: ..
Reward 0
About to find best action in Step: 4
Foind best action in Step: 4
Coolie

Action Type: 2

Presence: 1111111111111111111111111111111111111111111111111111111111111111111111111111111111111111111111111111
Invited Nodes: 16 74 
Actions left: 3
Session index: 5

Observation: ..
Reward 0
About to find best action in Step: 5
Foind best action in Step: 5
Coolie

Action Type: 2

Presence: 0000000000000000000000000000000000000000000000000000000000000000000000000000000000000000000000000000
Invited Nodes: 16 74 
Actions left: 3
Session index: 6

Observation: ..
Reward 0
About to find best action in Step: 6
Foind best action in Step: 6
Coolie

Action Type: 2

Presence: 1111111111111111111111111111111111111111111111111111111111111111111111111111111111111111111111111111
Invited Nodes: 16 74 
Actions left: 3
Session index: 7

Observation: ..
Reward 25.058
Terminated
Discounted return = 25.058, average = 16.7375
Undiscounted return = 25.058, average = 16.7375
Starting run 11 with 1024 simulations... 

Presence: 1111111111111111111111111111111111111111111111111111111111111111111111111111111111111111111111111111
Invited Nodes: 
Actions left: 3
Session index: 1
About to find best action in Step: 0
Values: 16.697(endSession) 18.5764(query) 18.5288(invite)
Foind best action in Step: 0
Coolie

Action Type: 0
Active Nodes: 15 17 

Presence: 1111111111111111111111111111111111111111111111111111111111111111111111111111111111111111111111111111
Invited Nodes: 
Actions left: 2
Session index: 1

Observation: ..11
Reward -0
About to find best action in Step: 1
Values: 16.345(endSession) 18.2051(query) 18.8097(invite)
Foind best action in Step: 1
Coolie

Action Type: 1
Active Nodes: 74 97 

Presence: 1111111111111111111111111111111111111111111111111111111111111111111111111111111111111111111111111111
Invited Nodes: 74 97 
Actions left: 1
Session index: 1

Observation: ..11
Reward -0
About to find best action in Step: 2
Foind best action in Step: 2
Coolie

Action Type: 2

Presence: 0000000000000000000000000000000000000000000000000000000000000000000000000000000000000000000000000000
Invited Nodes: 74 97 
Actions left: 3
Session index: 2

Observation: ..
Reward 0
About to find best action in Step: 3
Foind best action in Step: 3
Coolie

Action Type: 2

Presence: 0000000000000000000000000000000000000000000000000000000000000000000000000000000000000000000000000000
Invited Nodes: 74 97 
Actions left: 3
Session index: 3

Observation: ..
Reward 0
About to find best action in Step: 4
Foind best action in Step: 4
Coolie

Action Type: 2

Presence: 0000000000000000000000000000000000000000000000000000000000000000000000000000000000000000000000000000
Invited Nodes: 74 97 
Actions left: 3
Session index: 4

Observation: ..
Reward 0
About to find best action in Step: 5
Foind best action in Step: 5
Coolie

Action Type: 2

Presence: 0000000000000000000000000000000000000000000000000000000000000000000000000000000000000000000000000000
Invited Nodes: 74 97 
Actions left: 3
Session index: 5

Observation: ..
Reward 0
About to find best action in Step: 6
Foind best action in Step: 6
Coolie

Action Type: 2

Presence: 1111111111111111111111111111111111111111111111111111111111111111111111111111111111111111111111111111
Invited Nodes: 74 97 
Actions left: 3
Session index: 6

Observation: ..
Reward 0
About to find best action in Step: 7
Foind best action in Step: 7
Coolie

Action Type: 2

Presence: 0000000000000000000000000000000000000000000000000000000000000000000000000000000000000000000000000000
Invited Nodes: 74 97 
Actions left: 3
Session index: 7

Observation: ..
Reward 24.322
Terminated
Discounted return = 24.322, average = 17.427
Undiscounted return = 24.322, average = 17.427
Starting run 12 with 1024 simulations... 

Presence: 1111111111111111111111111111111111111111111111111111111111111111111111111111111111111111111111111111
Invited Nodes: 
Actions left: 3
Session index: 1
About to find best action in Step: 0
Values: 14.677(endSession) 18.6428(query) 18.6717(invite)
Foind best action in Step: 0
Coolie

Action Type: 1
Active Nodes: 28 98 

Presence: 1111111111111111111111111111111111111111111111111111111111111111111111111111111111111111111111111111
Invited Nodes: 28 98 
Actions left: 2
Session index: 1

Observation: ..11
Reward -0
About to find best action in Step: 1
Foind best action in Step: 1
Coolie

Action Type: 2

Presence: 0000000000000000000000000000000000000000000000000000000000000000000000000000000000000000000000000000
Invited Nodes: 28 98 
Actions left: 3
Session index: 2

Observation: ..
Reward 0
About to find best action in Step: 2
Foind best action in Step: 2
Coolie

Action Type: 2

Presence: 0000000000000000000000000000000000000000000000000000000000000000000000000000000000000000000000000000
Invited Nodes: 28 98 
Actions left: 3
Session index: 3

Observation: ..
Reward 0
About to find best action in Step: 3
Foind best action in Step: 3
Coolie

Action Type: 2

Presence: 1111111111111111111111111111111111111111111111111111111111111111111111111111111111111111111111111111
Invited Nodes: 28 98 
Actions left: 3
Session index: 4

Observation: ..
Reward 0
About to find best action in Step: 4
Foind best action in Step: 4
Coolie

Action Type: 2

Presence: 0000000000000000000000000000000000000000000000000000000000000000000000000000000000000000000000000000
Invited Nodes: 28 98 
Actions left: 3
Session index: 5

Observation: ..
Reward 0
About to find best action in Step: 5
Foind best action in Step: 5
Coolie

Action Type: 2

Presence: 1111111111111111111111111111111111111111111111111111111111111111111111111111111111111111111111111111
Invited Nodes: 28 98 
Actions left: 3
Session index: 6

Observation: ..
Reward 0
About to find best action in Step: 6
Foind best action in Step: 6
Coolie

Action Type: 2

Presence: 0000000000000000000000000000000000000000000000000000000000000000000000000000000000000000000000000000
Invited Nodes: 28 98 
Actions left: 3
Session index: 7

Observation: ..
Reward 23.683
Terminated
Discounted return = 23.683, average = 17.9483
Undiscounted return = 23.683, average = 17.9483
Starting run 13 with 1024 simulations... 

Presence: 0000000000000000000000000000000000000000000000000000000000000000000000000000000000000000000000000000
Invited Nodes: 
Actions left: 3
Session index: 1
About to find best action in Step: 0
Values: 0(endSession) 18.814(query) 18.4073(invite)
Foind best action in Step: 0
Coolie

Action Type: 0
Active Nodes: 64 66 

Presence: 0000000000000000000000000000000000000000000000000000000000000000000000000000000000000000000000000000
Invited Nodes: 
Actions left: 2
Session index: 1

Observation: ..
Reward -0
About to find best action in Step: 1
Values: 14.73(endSession) 17.942(query) 18.8154(invite)
Foind best action in Step: 1
Coolie

Action Type: 1
Active Nodes: 81 96 

Presence: 0000000000000000000000000000000000000000000000000000000000000000000000000000000000000000000000000000
Invited Nodes: 
Actions left: 1
Session index: 1

Observation: ..
Reward -0
About to find best action in Step: 2
Values: 13.939(endSession) 18.5243(query) 18.2878(invite)
Foind best action in Step: 2
Coolie

Action Type: 0
Active Nodes: 24 44 

Presence: 0000000000000000000000000000000000000000000000000000000000000000000000000000000000000000000000000000
Invited Nodes: 
Actions left: 0
Session index: 1

Observation: ..
Reward -0
About to find best action in Step: 3
Foind best action in Step: 3
Coolie

Action Type: 2

Presence: 1111111111111111111111111111111111111111111111111111111111111111111111111111111111111111111111111111
Invited Nodes: 
Actions left: 3
Session index: 2

Observation: ..
Reward 0
About to find best action in Step: 4
Values: 16.323(endSession) 18.3774(query) 18.2528(invite)
Foind best action in Step: 4
Coolie

Action Type: 0
Active Nodes: 15 85 

Presence: 1111111111111111111111111111111111111111111111111111111111111111111111111111111111111111111111111111
Invited Nodes: 
Actions left: 2
Session index: 2

Observation: ..11
Reward -0
About to find best action in Step: 5
Values: 16.644(endSession) 17.4625(query) 18.0334(invite)
Foind best action in Step: 5
Coolie

Action Type: 1
Active Nodes: 1 74 

Presence: 1111111111111111111111111111111111111111111111111111111111111111111111111111111111111111111111111111
Invited Nodes: 1 74 
Actions left: 1
Session index: 2

Observation: ..11
Reward -0
About to find best action in Step: 6
Foind best action in Step: 6
Coolie

Action Type: 2

Presence: 1111111111111111111111111111111111111111111111111111111111111111111111111111111111111111111111111111
Invited Nodes: 1 74 
Actions left: 3
Session index: 3

Observation: ..
Reward 0
About to find best action in Step: 7
Foind best action in Step: 7
Coolie

Action Type: 2

Presence: 0000000000000000000000000000000000000000000000000000000000000000000000000000000000000000000000000000
Invited Nodes: 1 74 
Actions left: 3
Session index: 4

Observation: ..
Reward 0
About to find best action in Step: 8
Foind best action in Step: 8
Coolie

Action Type: 2

Presence: 0000000000000000000000000000000000000000000000000000000000000000000000000000000000000000000000000000
Invited Nodes: 1 74 
Actions left: 3
Session index: 5

Observation: ..
Reward 0
About to find best action in Step: 9
Foind best action in Step: 9
Coolie

Action Type: 2

Presence: 0000000000000000000000000000000000000000000000000000000000000000000000000000000000000000000000000000
Invited Nodes: 1 74 
Actions left: 3
Session index: 6

Observation: ..
Reward 0
About to find best action in Step: 10
Foind best action in Step: 10
Coolie

Action Type: 2

Presence: 0000000000000000000000000000000000000000000000000000000000000000000000000000000000000000000000000000
Invited Nodes: 1 74 
Actions left: 3
Session index: 7

Observation: ..
Reward 23.697
Terminated
Discounted return = 23.697, average = 18.3905
Undiscounted return = 23.697, average = 18.3905
Starting run 14 with 1024 simulations... 

Presence: 1111111111111111111111111111111111111111111111111111111111111111111111111111111111111111111111111111
Invited Nodes: 
Actions left: 3
Session index: 1
About to find best action in Step: 0
Values: 19.58(endSession) 18.6924(query) 18.3653(invite)
Foind best action in Step: 0
Coolie

Action Type: 2

Presence: 1111111111111111111111111111111111111111111111111111111111111111111111111111111111111111111111111111
Invited Nodes: 
Actions left: 3
Session index: 2

Observation: ..
Reward 0
About to find best action in Step: 1
Values: 20.305(endSession) 18.4648(query) 18.8794(invite)
Foind best action in Step: 1
Coolie

Action Type: 2

Presence: 1111111111111111111111111111111111111111111111111111111111111111111111111111111111111111111111111111
Invited Nodes: 
Actions left: 3
Session index: 3

Observation: ..
Reward 0
About to find best action in Step: 2
Values: 18.249(endSession) 18.0978(query) 18.0137(invite)
Foind best action in Step: 2
Coolie

Action Type: 2

Presence: 1111111111111111111111111111111111111111111111111111111111111111111111111111111111111111111111111111
Invited Nodes: 
Actions left: 3
Session index: 4

Observation: ..
Reward 0
About to find best action in Step: 3
Values: 15.726(endSession) 16.8706(query) 17.3178(invite)
Foind best action in Step: 3
Coolie

Action Type: 1
Active Nodes: 7 95 

Presence: 1111111111111111111111111111111111111111111111111111111111111111111111111111111111111111111111111111
Invited Nodes: 7 95 
Actions left: 2
Session index: 4

Observation: ..11
Reward -0
About to find best action in Step: 4
Foind best action in Step: 4
Coolie

Action Type: 2

Presence: 1111111111111111111111111111111111111111111111111111111111111111111111111111111111111111111111111111
Invited Nodes: 7 95 
Actions left: 3
Session index: 5

Observation: ..
Reward 0
About to find best action in Step: 5
Foind best action in Step: 5
Coolie

Action Type: 2

Presence: 0000000000000000000000000000000000000000000000000000000000000000000000000000000000000000000000000000
Invited Nodes: 7 95 
Actions left: 3
Session index: 6

Observation: ..
Reward 0
About to find best action in Step: 6
Foind best action in Step: 6
Coolie

Action Type: 2

Presence: 0000000000000000000000000000000000000000000000000000000000000000000000000000000000000000000000000000
Invited Nodes: 7 95 
Actions left: 3
Session index: 7

Observation: ..
Reward 23.23
Terminated
Discounted return = 23.23, average = 18.7362
Undiscounted return = 23.23, average = 18.7362
Starting run 15 with 1024 simulations... 

Presence: 0000000000000000000000000000000000000000000000000000000000000000000000000000000000000000000000000000
Invited Nodes: 
Actions left: 3
Session index: 1
About to find best action in Step: 0
Values: 21.497(endSession) 18.5896(query) 18.8284(invite)
Foind best action in Step: 0
Coolie

Action Type: 2

Presence: 1111111111111111111111111111111111111111111111111111111111111111111111111111111111111111111111111111
Invited Nodes: 
Actions left: 3
Session index: 2

Observation: ..
Reward 0
About to find best action in Step: 1
Values: 17.879(endSession) 18.3746(query) 18.7418(invite)
Foind best action in Step: 1
Coolie

Action Type: 1
Active Nodes: 16 74 

Presence: 1111111111111111111111111111111111111111111111111111111111111111111111111111111111111111111111111111
Invited Nodes: 16 74 
Actions left: 2
Session index: 2

Observation: ..11
Reward -0
About to find best action in Step: 2
Foind best action in Step: 2
Coolie

Action Type: 2

Presence: 0000000000000000000000000000000000000000000000000000000000000000000000000000000000000000000000000000
Invited Nodes: 16 74 
Actions left: 3
Session index: 3

Observation: ..
Reward 0
About to find best action in Step: 3
Foind best action in Step: 3
Coolie

Action Type: 2

Presence: 1111111111111111111111111111111111111111111101111111111111111111111111111111111111111111111111111111
Invited Nodes: 16 74 
Actions left: 3
Session index: 4

Observation: ..
Reward 0
About to find best action in Step: 4
Foind best action in Step: 4
Coolie

Action Type: 2

Presence: 0000000000000000000000000000000000000000000000000000000000000000000000000000000000000000000000000000
Invited Nodes: 16 74 
Actions left: 3
Session index: 5

Observation: ..
Reward 0
About to find best action in Step: 5
Foind best action in Step: 5
Coolie

Action Type: 2

Presence: 0000000000000000000000000000000000000000000000000000000000000000000000000000000000000000000000000000
Invited Nodes: 16 74 
Actions left: 3
Session index: 6

Observation: ..
Reward 0
About to find best action in Step: 6
Foind best action in Step: 6
Coolie

Action Type: 2

Presence: 1111111111111111111111111111111111111111111111111111111111111111111111111111111111111111111111111111
Invited Nodes: 16 74 
Actions left: 3
Session index: 7

Observation: ..
Reward 25.366
Terminated
Discounted return = 25.366, average = 19.1782
Undiscounted return = 25.366, average = 19.1782
Starting run 16 with 1024 simulations... 

Presence: 1111111111111111111111111111111111111111111111111111111111111111111111111111111111111111111111111111
Invited Nodes: 
Actions left: 3
Session index: 1
About to find best action in Step: 0
Values: 16.559(endSession) 18.5025(query) 18.4587(invite)
Foind best action in Step: 0
Coolie

Action Type: 0
Active Nodes: 58 77 

Presence: 1111111111111111111111111111111111111111111111111111111111111111111111111111111111111111111111111111
Invited Nodes: 
Actions left: 2
Session index: 1

Observation: ..11
Reward -0
About to find best action in Step: 1
Values: 18.788(endSession) 18.3646(query) 18.7418(invite)
Foind best action in Step: 1
Coolie

Action Type: 2

Presence: 0000000000000000000000000000000000000000000000000000000000000000000000000000000000000000000000000000
Invited Nodes: 
Actions left: 3
Session index: 2

Observation: ..
Reward 0
About to find best action in Step: 2
Values: 19.566(endSession) 18.08(query) 18.1679(invite)
Foind best action in Step: 2
Coolie

Action Type: 2

Presence: 1111111111111111111111111111111111111111111111111111111111111111111111111111111111111111111111111111
Invited Nodes: 
Actions left: 3
Session index: 3

Observation: ..
Reward 0
About to find best action in Step: 3
Values: 17.48(endSession) 17.6038(query) 17.7259(invite)
Foind best action in Step: 3
Coolie

Action Type: 1
Active Nodes: 16 74 

Presence: 1111111111111111111111111111111111111111111111111111111111111111111111111111111111111111111111111111
Invited Nodes: 16 74 
Actions left: 2
Session index: 3

Observation: ..11
Reward -0
About to find best action in Step: 4
Foind best action in Step: 4
Coolie

Action Type: 2

Presence: 1111111111111111111111111111111111111111111111111111111111111111111111111111111111111111111111111111
Invited Nodes: 16 74 
Actions left: 3
Session index: 4

Observation: ..
Reward 0
About to find best action in Step: 5
Foind best action in Step: 5
Coolie

Action Type: 2

Presence: 1111111111111111111111111111111111111111111111111111111111111111111111111111111111111111111111111111
Invited Nodes: 16 74 
Actions left: 3
Session index: 5

Observation: ..
Reward 0
About to find best action in Step: 6
Foind best action in Step: 6
Coolie

Action Type: 2

Presence: 1111111111111111111111111111111111111111111111111111111111111111111111111111111111111111111111111111
Invited Nodes: 16 74 
Actions left: 3
Session index: 6

Observation: ..
Reward 0
About to find best action in Step: 7
Foind best action in Step: 7
Coolie

Action Type: 2

Presence: 0000000000000000000000000000000000000000000000000000000000000000000000000000000000000000000000000000
Invited Nodes: 16 74 
Actions left: 3
Session index: 7

Observation: ..
Reward 25.326
Terminated
Discounted return = 25.326, average = 19.5624
Undiscounted return = 25.326, average = 19.5624
Starting run 17 with 1024 simulations... 

Presence: 0000000000000000000000000000000000000000000000000000000000000000000000000000000000000000000000000000
Invited Nodes: 
Actions left: 3
Session index: 1
About to find best action in Step: 0
Values: 19.376(endSession) 18.6045(query) 18.3425(invite)
Foind best action in Step: 0
Coolie

Action Type: 2

Presence: 0000000000000000000000000000000000000000000000000000000000000000000000000000000000000000000000000000
Invited Nodes: 
Actions left: 3
Session index: 2

Observation: ..
Reward 0
About to find best action in Step: 1
Values: 17.567(endSession) 18.2991(query) 18.9096(invite)
Foind best action in Step: 1
Coolie

Action Type: 1
Active Nodes: 16 74 

Presence: 0000000000000000000000000000000000000000000000000000000000000000000000000000000000000000000000000000
Invited Nodes: 
Actions left: 2
Session index: 2

Observation: ..
Reward -0
About to find best action in Step: 2
Values: 21.1(endSession) 18.0252(query) 18.0258(invite)
Foind best action in Step: 2
Coolie

Action Type: 2

Presence: 0000000000000000000000000000000000000000000000000000000000000000000000000000000000000000000000000000
Invited Nodes: 
Actions left: 3
Session index: 3

Observation: ..
Reward 0
About to find best action in Step: 3
Values: 14.825(endSession) 17.7811(query) 17.644(invite)
Foind best action in Step: 3
Coolie

Action Type: 0
Active Nodes: 32 81 

Presence: 0000000000000000000000000000000000000000000000000000000000000000000000000000000000000000000000000000
Invited Nodes: 
Actions left: 2
Session index: 3

Observation: ..
Reward -0
About to find best action in Step: 4
Values: 16.233(endSession) 17.0698(query) 17.2996(invite)
Foind best action in Step: 4
Coolie

Action Type: 1
Active Nodes: 16 74 

Presence: 0000000000000000000000000000000000000000000000000000000000000000000000000000000000000000000000000000
Invited Nodes: 
Actions left: 1
Session index: 3

Observation: ..
Reward -0
About to find best action in Step: 5
Values: 17.001(endSession) 17.6099(query) 17.5879(invite)
Foind best action in Step: 5
Coolie

Action Type: 0
Active Nodes: 41 42 

Presence: 0000000000000000000000000000000000000000000000000000000000000000000000000000000000000000000000000000
Invited Nodes: 
Actions left: 0
Session index: 3

Observation: ..
Reward -0
About to find best action in Step: 6
Foind best action in Step: 6
Coolie

Action Type: 2

Presence: 1111111111111111111111111111111111111111111111111111111111111111111111111111111111111111111111111111
Invited Nodes: 
Actions left: 3
Session index: 4

Observation: ..
Reward 0
About to find best action in Step: 7
Values: 17.471(endSession) 16.9423(query) 16.285(invite)
Foind best action in Step: 7
Coolie

Action Type: 2

Presence: 1111111111111111111111111111111111111111111111111111111111111111111111111111111111111111111111111111
Invited Nodes: 
Actions left: 3
Session index: 5

Observation: ..
Reward 0
About to find best action in Step: 8
Values: 0(endSession) 15.5296(query) 14.5553(invite)
Foind best action in Step: 8
Coolie

Action Type: 0
Active Nodes: 36 37 

Presence: 1111111111111111111111111111111111111111111111111111111111111111111111111111111111111111111111111111
Invited Nodes: 
Actions left: 2
Session index: 5

Observation: ..11
Reward -0
About to find best action in Step: 9
Values: 16.266(endSession) 12.4243(query) 15.9143(invite)
Foind best action in Step: 9
Coolie

Action Type: 2

Presence: 1111111111111111111111111111111111111111111111111111111111111111111111111111111111111111111111111111
Invited Nodes: 
Actions left: 3
Session index: 6

Observation: ..
Reward 0
About to find best action in Step: 10
Values: 0(endSession) 11.1779(query) 11.4573(invite)
Foind best action in Step: 10
Coolie

Action Type: 1
Active Nodes: 28 98 

Presence: 1111111111111111111111111111111111111111111111111111111111111111111111111111111111111111111111111111
Invited Nodes: 28 98 
Actions left: 2
Session index: 6

Observation: ..11
Reward -0
About to find best action in Step: 11
Foind best action in Step: 11
Coolie

Action Type: 2

Presence: 0000000000000000000000000000000000000000000000000000000000000000000000000000000000000000000000000000
Invited Nodes: 28 98 
Actions left: 3
Session index: 7

Observation: ..
Reward 23.607
Terminated
Discounted return = 23.607, average = 19.8004
Undiscounted return = 23.607, average = 19.8004
Starting run 18 with 1024 simulations... 

Presence: 0000000000000000000000000000000000000000000000000000000000000000000000000000000000000000000000000000
Invited Nodes: 
Actions left: 3
Session index: 1
About to find best action in Step: 0
Values: 21.919(endSession) 18.6444(query) 18.2683(invite)
Foind best action in Step: 0
Coolie

Action Type: 2

Presence: 0000000000000000000000000000000000000000000000000000000000000000000000000000000000000000000000000000
Invited Nodes: 
Actions left: 3
Session index: 2

Observation: ..
Reward 0
About to find best action in Step: 1
Values: 17.393(endSession) 18.5105(query) 17.9151(invite)
Foind best action in Step: 1
Coolie

Action Type: 0
Active Nodes: 54 71 

Presence: 0000000000000000000000000000000000000000000000000000000000000000000000000000000000000000000000000000
Invited Nodes: 
Actions left: 2
Session index: 2

Observation: ..
Reward -0
About to find best action in Step: 2
Values: 14.841(endSession) 18.0078(query) 18.4046(invite)
Foind best action in Step: 2
Coolie

Action Type: 1
Active Nodes: 15 28 

Presence: 0000000000000000000000000000000000000000000000000000000000000000000000000000000000000000000000000000
Invited Nodes: 
Actions left: 1
Session index: 2

Observation: ..
Reward -0
About to find best action in Step: 3
Values: 20.491(endSession) 18.0197(query) 18.0015(invite)
Foind best action in Step: 3
Coolie

Action Type: 2

Presence: 0000000000000000000000000000000000000000000000000000000000000000000000000000000000000000000000000000
Invited Nodes: 
Actions left: 3
Session index: 3

Observation: ..
Reward 0
About to find best action in Step: 4
Values: 17.17(endSession) 18.0614(query) 17.4532(invite)
Foind best action in Step: 4
Coolie

Action Type: 0
Active Nodes: 46 89 

Presence: 0000000000000000000000000000000000000000000000000000000000000000000000000000000000000000000000000000
Invited Nodes: 
Actions left: 2
Session index: 3

Observation: ..
Reward -0
About to find best action in Step: 5
Values: 16.232(endSession) 16.4554(query) 17.8921(invite)
Foind best action in Step: 5
Coolie

Action Type: 1
Active Nodes: 28 98 

Presence: 0000000000000000000000000000000000000000000000000000000000000000000000000000000000000000000000000000
Invited Nodes: 
Actions left: 1
Session index: 3

Observation: ..
Reward -0
About to find best action in Step: 6
Values: 16.487(endSession) 16.499(query) 17.3564(invite)
Foind best action in Step: 6
Coolie

Action Type: 1
Active Nodes: 65 94 

Presence: 0000000000000000000000000000000000000000000000000000000000000000000000000000000000000000000000000000
Invited Nodes: 
Actions left: 0
Session index: 3

Observation: ..
Reward -0
About to find best action in Step: 7
Foind best action in Step: 7
Coolie

Action Type: 2

Presence: 1111111111111111111111111111111111111111111111111111111111111111111111111111111111111111111111111111
Invited Nodes: 
Actions left: 3
Session index: 4

Observation: ..
Reward 0
About to find best action in Step: 8
Values: 19.225(endSession) 16.4379(query) 17.1117(invite)
Foind best action in Step: 8
Coolie

Action Type: 2

Presence: 1111111111111111111111111111111111111111111111111111111111111111111111111111111111111111111111111111
Invited Nodes: 
Actions left: 3
Session index: 5

Observation: ..
Reward 0
About to find best action in Step: 9
Values: 19.792(endSession) 15.7264(query) 14.6821(invite)
Foind best action in Step: 9
Coolie

Action Type: 2

Presence: 0000000000000000000000000000000000000000000000000000000000000000000000000000000000000000000000000000
Invited Nodes: 
Actions left: 3
Session index: 6

Observation: ..
Reward 0
About to find best action in Step: 10
Values: 0(endSession) 11.4651(query) 11.7877(invite)
Foind best action in Step: 10
Coolie

Action Type: 1
Active Nodes: 28 98 

Presence: 0000000000000000000000000000000000000000000000000000000000000000000000000000000000000000000000000000
Invited Nodes: 
Actions left: 2
Session index: 6

Observation: ..
Reward -0
About to find best action in Step: 11
Values: 0(endSession) 0(query) 8.83415(invite)
Foind best action in Step: 11
Coolie

Action Type: 1
Active Nodes: 11 27 

Presence: 0000000000000000000000000000000000000000000000000000000000000000000000000000000000000000000000000000
Invited Nodes: 
Actions left: 1
Session index: 6

Observation: ..
Reward -0
About to find best action in Step: 12
Values: 0(endSession) 0(query) 7.88624(invite)
Foind best action in Step: 12
Coolie

Action Type: 1
Active Nodes: 9 75 

Presence: 0000000000000000000000000000000000000000000000000000000000000000000000000000000000000000000000000000
Invited Nodes: 
Actions left: 0
Session index: 6

Observation: ..
Reward -0
About to find best action in Step: 13
Foind best action in Step: 13
Coolie

Action Type: 2

Presence: 0000000000000000000000000000000000000000000000000000000000000000000000000000000000000000000000000000
Invited Nodes: 
Actions left: 3
Session index: 7

Observation: ..
Reward 0
Terminated
Discounted return = 0, average = 18.7003
Undiscounted return = 0, average = 18.7003
Starting run 19 with 1024 simulations... 

Presence: 0000000000000000000000000000000000000000000000000000000000000000000000000000000000000000000000000000
Invited Nodes: 
Actions left: 3
Session index: 1
About to find best action in Step: 0
Values: 17.835(endSession) 18.7028(query) 18.5641(invite)
Foind best action in Step: 0
Coolie

Action Type: 0
Active Nodes: 11 23 

Presence: 0000000000000000000000000000000000000000000000000000000000000000000000000000000000000000000000000000
Invited Nodes: 
Actions left: 2
Session index: 1

Observation: ..
Reward -0
About to find best action in Step: 1
Values: 15.682(endSession) 18.6739(query) 18.6148(invite)
Foind best action in Step: 1
Coolie

Action Type: 0
Active Nodes: 9 59 

Presence: 0000000000000000000000000000000000000000000000000000000000000000000000000000000000000000000000000000
Invited Nodes: 
Actions left: 1
Session index: 1

Observation: ..
Reward -0
About to find best action in Step: 2
Values: 18.256(endSession) 18.5967(query) 18.6225(invite)
Foind best action in Step: 2
Coolie

Action Type: 1
Active Nodes: 58 74 

Presence: 0000000000000000000000000000000000000000000000000000000000000000000000000000000000000000000000000000
Invited Nodes: 
Actions left: 0
Session index: 1

Observation: ..
Reward -0
About to find best action in Step: 3
Foind best action in Step: 3
Coolie

Action Type: 2

Presence: 1111111111111111111111111111111111111111111111111111111111111111111111111111111111111111111111111111
Invited Nodes: 
Actions left: 3
Session index: 2

Observation: ..
Reward 0
About to find best action in Step: 4
Values: 14.548(endSession) 18.3631(query) 18.1371(invite)
Foind best action in Step: 4
Coolie

Action Type: 0
Active Nodes: 6 49 

Presence: 1111111111111111111111111111111111111111111111111111111111111111111111111111111111111111111111111111
Invited Nodes: 
Actions left: 2
Session index: 2

Observation: ..11
Reward -0
About to find best action in Step: 5
Values: 16.744(endSession) 18.0459(query) 18.7747(invite)
Foind best action in Step: 5
Coolie

Action Type: 1
Active Nodes: 16 74 

Presence: 1111111111111111111111111111111111111111111111111111111111111111111111111111111111111111111111111111
Invited Nodes: 16 74 
Actions left: 1
Session index: 2

Observation: ..11
Reward -0
About to find best action in Step: 6
Foind best action in Step: 6
Coolie

Action Type: 2

Presence: 1111111111111111111111111111111111111111111111111111111111111111111111111111111111111111111111111111
Invited Nodes: 16 74 
Actions left: 3
Session index: 3

Observation: ..
Reward 0
About to find best action in Step: 7
Foind best action in Step: 7
Coolie

Action Type: 2

Presence: 0000000000000000000000000000000000000000000000000000000000000000000000000000000000000000000000000000
Invited Nodes: 16 74 
Actions left: 3
Session index: 4

Observation: ..
Reward 0
About to find best action in Step: 8
Foind best action in Step: 8
Coolie

Action Type: 2

Presence: 0000000000000000000000000000000000000000000000000000000000000000000000000000000000000000000000000000
Invited Nodes: 16 74 
Actions left: 3
Session index: 5

Observation: ..
Reward 0
About to find best action in Step: 9
Foind best action in Step: 9
Coolie

Action Type: 2

Presence: 1111111111111111111111111111111111111111111111111111111111111111111111111111111111111111111111111111
Invited Nodes: 16 74 
Actions left: 3
Session index: 6

Observation: ..
Reward 0
About to find best action in Step: 10
Foind best action in Step: 10
Coolie

Action Type: 2

Presence: 0000000000000000000000000000000000000000000000000000000000000000000000000000000000000000000000000000
Invited Nodes: 16 74 
Actions left: 3
Session index: 7

Observation: ..
Reward 25.391
Terminated
Discounted return = 25.391, average = 19.0525
Undiscounted return = 25.391, average = 19.0525
Starting run 20 with 1024 simulations... 

Presence: 0000000000000000000000000000000000000000000000000000000000000000000000000000000000000000000000000000
Invited Nodes: 
Actions left: 3
Session index: 1
About to find best action in Step: 0
Values: 17.531(endSession) 18.7049(query) 18.6049(invite)
Foind best action in Step: 0
Coolie

Action Type: 0
Active Nodes: 44 94 

Presence: 0000000000000000000000000000000000000000000000000000000000000000000000000000000000000000000000000000
Invited Nodes: 
Actions left: 2
Session index: 1

Observation: ..
Reward -0
About to find best action in Step: 1
Values: 19.742(endSession) 18.5148(query) 18.1457(invite)
Foind best action in Step: 1
Coolie

Action Type: 2

Presence: 0000000000000000000000000000000000000000000000000000000000000000000000000000000000000000000000000000
Invited Nodes: 
Actions left: 3
Session index: 2

Observation: ..
Reward 0
About to find best action in Step: 2
Values: 19.712(endSession) 18.1407(query) 18.1197(invite)
Foind best action in Step: 2
Coolie

Action Type: 2

Presence: 1111111111111111111111111111111111111111111111111111111111111111111111111111111111111111111111111111
Invited Nodes: 
Actions left: 3
Session index: 3

Observation: ..
Reward 0
About to find best action in Step: 3
Values: 14.527(endSession) 18.4293(query) 17.8887(invite)
Foind best action in Step: 3
Coolie

Action Type: 0
Active Nodes: 8 39 

Presence: 1111111111111111111111111111111111111111111111111111111111111111111111111111111111111111111111111111
Invited Nodes: 
Actions left: 2
Session index: 3

Observation: ..11
Reward -0
About to find best action in Step: 4
Values: 19.926(endSession) 17.3519(query) 18.5149(invite)
Foind best action in Step: 4
Coolie

Action Type: 2

Presence: 1111111111111111111111111111111111111111111111111111111111111111111111111111111111111111111111111111
Invited Nodes: 
Actions left: 3
Session index: 4

Observation: ..
Reward 0
About to find best action in Step: 5
Values: 14.11(endSession) 17.2098(query) 16.8426(invite)
Foind best action in Step: 5
Coolie

Action Type: 0
Active Nodes: 7 29 

Presence: 1111111111111111111111111111111111111111111111111111111111111111111111111111111111111111111111111111
Invited Nodes: 
Actions left: 2
Session index: 4

Observation: ..11
Reward -0
About to find best action in Step: 6
Values: 21.429(endSession) 15.2339(query) 18.3786(invite)
Foind best action in Step: 6
Coolie

Action Type: 2

Presence: 1111111111111111111111110111111111111111111111111111111111111111111111111111111111111111111111111111
Invited Nodes: 
Actions left: 3
Session index: 5

Observation: ..
Reward 0
About to find best action in Step: 7
Values: 18.176(endSession) 14.978(query) 14.9352(invite)
Foind best action in Step: 7
Coolie

Action Type: 2

Presence: 1111111111111111111111111111111111111111111111111111111111111111111111111111111111111111111111111111
Invited Nodes: 
Actions left: 3
Session index: 6

Observation: ..
Reward 0
About to find best action in Step: 8
Values: 0(endSession) 11.0392(query) 11.5327(invite)
Foind best action in Step: 8
Coolie

Action Type: 1
Active Nodes: 23 87 

Presence: 1111111111111111111111111111111111111111111111111111111111111111111111111111111111111111111111111111
Invited Nodes: 23 87 
Actions left: 2
Session index: 6

Observation: ..11
Reward -0
About to find best action in Step: 9
Foind best action in Step: 9
Coolie

Action Type: 2

Presence: 1111111111111111111111111111111111111111111111111111111111111111111111111111111111111111111111111111
Invited Nodes: 23 87 
Actions left: 3
Session index: 7

Observation: ..
Reward 22.852
Terminated
Discounted return = 22.852, average = 19.2424
Undiscounted return = 22.852, average = 19.2424
Simulations = 1024
Runs = 20
Undiscounted return = 19.2424 +- 2.16306
Discounted return = 19.2424 +- 2.16306
Time = 41.1745
----------------------------------------
Begin PBS Epilogue Thu Aug 31 08:15:01 PDT 2017
Job ID:           24124974.hpc-pbs1.hpcc.usc.edu
Username:         amulyaya
Accountname:      default
Group:            csci-ar
Job Name:         6.pbs
Session:          5056
Limits:           neednodes=1:ppn=16:sl230s,nodes=1:ppn=16:sl230s,walltime=24:00:00
Resources:        cput=00:13:49,energy_used=0,mem=74925724kb,vmem=74966068kb,walltime=00:13:50
Queue:            tambe
Shared Access:    no
Has MIC:          no
Is hsda:          false
removed '/scratch'
End PBS Epilogue Thu Aug 31 08:15:01 PDT 2017
----------------------------------------
