----------------------------------------
Begin PBS Prologue Thu Aug 31 02:50:21 PDT 2017
Job ID:            24124949.hpc-pbs1.hpcc.usc.edu
Username:          amulyaya
Accountname:       default
Group:             csci-ar
Project:           default
Name:              1.pbs
Queue:             tambe
Shared Access:     no
All Cores:         no
Has MIC:           no
Is hsda:           false
Nodes:             hpc3443 
TMPDIR:            /tmp/24124949.hpc-pbs1.hpcc.usc.edu
End PBS Prologue Thu Aug 31 02:50:22 PDT 2017
----------------------------------------
******************************************************************************
METIS 5.0 Copyright 1998-13, Regents of the University of Minnesota
 (HEAD: , Built on: Oct 20 2015, 01:33:37)
 size of idx_t: 64bits, real_t: 32bits, idx_t *: 64bits

Graph Information -----------------------------------------------------------
 Name: /home/rcf-proj/mj1/amulyaya/pomcp-ve/src/pB1wTlGd4z.txt, #Vertices: 80, #Edges: 439, #Parts: 8

Options ---------------------------------------------------------------------
 ptype=kway, objtype=cut, ctype=shem, rtype=greedy, iptype=metisrb
 dbglvl=0, ufactor=1.030, no2hop=NO, minconn=NO, contig=NO, nooutput=NO
 seed=-1, niter=10, ncuts=1

Direct k-way Partitioning ---------------------------------------------------
 - Edgecut: 297, communication volume: 379.

 - Balance:
     constraint #0:  1.000 out of 0.100

 - Most overweight partition:
     pid: 0, actual: 10, desired: 10, ratio: 1.00.

 - Subdomain connectivity: max: 7, min: 7, avg: 7.00

 - There are 1 non-contiguous partitions.
   Total components after removing the cut edges: 10,
   max components: 3 for pid: 2.

Timing Information ----------------------------------------------------------
  I/O:          		   0.001 sec
  Partitioning: 		   0.009 sec   (METIS time)
  Reporting:    		   0.000 sec

Memory Information ----------------------------------------------------------
  Max memory used:		   0.105 MB
******************************************************************************
Initialising fast UCB table... done
Main runs
Starting run 1 with 1024 simulations... 

Presence: 11111111111111111111111111111111111111111111111111111111111111111111111111111111
Invited Nodes: 
Actions left: 3
Session index: 1
About to find best action in Step: 0
Values: 15.622(endSession) 15.1965(query) 14.968(invite)
Foind best action in Step: 0
Coolie

Action Type: 2

Presence: 11111111111111111111111111111111111111111111111111111111111111111111111111111111
Invited Nodes: 
Actions left: 3
Session index: 2

Observation: ..
Reward 0
About to find best action in Step: 1
Values: 15.401(endSession) 15.0056(query) 14.5512(invite)
Foind best action in Step: 1
Coolie

Action Type: 2

Presence: 11111111111111111111111111111111111111111111111111111111111111111111111111111111
Invited Nodes: 
Actions left: 3
Session index: 3

Observation: ..
Reward 0
About to find best action in Step: 2
Values: 11.867(endSession) 14.4896(query) 14.5213(invite)
Foind best action in Step: 2
Coolie

Action Type: 1
Active Nodes: 21 39 

Presence: 11111111111111111111111111111111111111111111111111111111111111111111111111111111
Invited Nodes: 21 39 
Actions left: 2
Session index: 3

Observation: ..11
Reward -0
About to find best action in Step: 3
Foind best action in Step: 3
Coolie

Action Type: 2

Presence: 00000000000000000000000000000000000000000000000000000000000000000000000000000000
Invited Nodes: 21 39 
Actions left: 3
Session index: 4

Observation: ..
Reward 0
About to find best action in Step: 4
Foind best action in Step: 4
Coolie

Action Type: 2

Presence: 11111111111111111111111111111111111111111111111111111111111111111111111111111111
Invited Nodes: 21 39 
Actions left: 3
Session index: 5

Observation: ..
Reward 0
About to find best action in Step: 5
Foind best action in Step: 5
Coolie

Action Type: 2

Presence: 00000000000000000000000000000000000000000000000000000000000000000000000000000000
Invited Nodes: 21 39 
Actions left: 3
Session index: 6

Observation: ..
Reward 0
About to find best action in Step: 6
Foind best action in Step: 6
Coolie

Action Type: 2

Presence: 11111111111111111111111111111111111111111111111111111111111111111111111111111111
Invited Nodes: 21 39 
Actions left: 3
Session index: 7

Observation: ..
Reward 17.811
Terminated
Discounted return = 17.811, average = 17.811
Undiscounted return = 17.811, average = 17.811
Starting run 2 with 1024 simulations... 

Presence: 00000000000000000000000000000000000000000000000000000000000000000000000000000000
Invited Nodes: 
Actions left: 3
Session index: 1
About to find best action in Step: 0
Values: 11.583(endSession) 15.1766(query) 14.7499(invite)
Foind best action in Step: 0
Coolie

Action Type: 0
Active Nodes: 5 61 

Presence: 00000000000000000000000000000000000000000000000000000000000000000000000000000000
Invited Nodes: 
Actions left: 2
Session index: 1

Observation: ..
Reward -0
About to find best action in Step: 1
Values: 14.258(endSession) 14.9046(query) 14.9828(invite)
Foind best action in Step: 1
Coolie

Action Type: 1
Active Nodes: 10 41 

Presence: 00000000000000000000000000000000000000000000000000000000000000000000000000000000
Invited Nodes: 
Actions left: 1
Session index: 1

Observation: ..
Reward -0
About to find best action in Step: 2
Values: 11.111(endSession) 14.9758(query) 14.7619(invite)
Foind best action in Step: 2
Coolie

Action Type: 0
Active Nodes: 70 75 

Presence: 00000000000000000000000000000000000000000000000000000000000000000000000000000000
Invited Nodes: 
Actions left: 0
Session index: 1

Observation: ..
Reward -0
About to find best action in Step: 3
Foind best action in Step: 3
Coolie

Action Type: 2

Presence: 00000000000000000000000000000000000000000000000000000000000000000000000000000000
Invited Nodes: 
Actions left: 3
Session index: 2

Observation: ..
Reward 0
About to find best action in Step: 4
Values: 14.175(endSession) 14.7861(query) 14.4762(invite)
Foind best action in Step: 4
Coolie

Action Type: 0
Active Nodes: 10 19 

Presence: 00000000000000000000000000000000000000000000000000000000000000000000000000000000
Invited Nodes: 
Actions left: 2
Session index: 2

Observation: ..
Reward -0
About to find best action in Step: 5
Values: 16.867(endSession) 14.7802(query) 14.6917(invite)
Foind best action in Step: 5
Coolie

Action Type: 2

Presence: 11111111111111111111111111111111111111111111111111111111111111111111111111111111
Invited Nodes: 
Actions left: 3
Session index: 3

Observation: ..
Reward 0
About to find best action in Step: 6
Values: 14.424(endSession) 14.4148(query) 14.7591(invite)
Foind best action in Step: 6
Coolie

Action Type: 1
Active Nodes: 39 58 

Presence: 11111111111111111111111111111111111111111111111111111111111111111111111111111111
Invited Nodes: 39 58 
Actions left: 2
Session index: 3

Observation: ..11
Reward -0
About to find best action in Step: 7
Foind best action in Step: 7
Coolie

Action Type: 2

Presence: 00000000000000000000000000000000000000000000000000000000000000000000000000000000
Invited Nodes: 39 58 
Actions left: 3
Session index: 4

Observation: ..
Reward 0
About to find best action in Step: 8
Foind best action in Step: 8
Coolie

Action Type: 2

Presence: 00000000000000000000000000000000000000000000001000000000000000000000000000000000
Invited Nodes: 39 58 
Actions left: 3
Session index: 5

Observation: ..
Reward 0
About to find best action in Step: 9
Foind best action in Step: 9
Coolie

Action Type: 2

Presence: 11111111111111111111111111111111111111111111111111111111111111111111111111111111
Invited Nodes: 39 58 
Actions left: 3
Session index: 6

Observation: ..
Reward 0
About to find best action in Step: 10
Foind best action in Step: 10
Coolie

Action Type: 2

Presence: 00000000000000000000000000000000000000000000000000000000000000000000000000000000
Invited Nodes: 39 58 
Actions left: 3
Session index: 7

Observation: ..
Reward 20.866
Terminated
Discounted return = 20.866, average = 19.3385
Undiscounted return = 20.866, average = 19.3385
Starting run 3 with 1024 simulations... 

Presence: 00000000000000000000000000000000000000000000000000000000000000000000000000000000
Invited Nodes: 
Actions left: 3
Session index: 1
About to find best action in Step: 0
Values: 11.655(endSession) 15.1804(query) 14.9832(invite)
Foind best action in Step: 0
Coolie

Action Type: 0
Active Nodes: 9 67 

Presence: 00000000000000000000000000000000000000000000000000000000000000000000000000000000
Invited Nodes: 
Actions left: 2
Session index: 1

Observation: ..
Reward -0
About to find best action in Step: 1
Values: 17.838(endSession) 14.74(query) 14.7554(invite)
Foind best action in Step: 1
Coolie

Action Type: 2

Presence: 11111111111111111111111111111111111111111111111111111111111111111111111111111111
Invited Nodes: 
Actions left: 3
Session index: 2

Observation: ..
Reward 0
About to find best action in Step: 2
Values: 12.956(endSession) 14.6502(query) 14.7515(invite)
Foind best action in Step: 2
Coolie

Action Type: 1
Active Nodes: 53 64 

Presence: 11111111111111111111111111111111111111111111111111111111111111111111111111111111
Invited Nodes: 53 64 
Actions left: 2
Session index: 2

Observation: ..11
Reward -0
About to find best action in Step: 3
Foind best action in Step: 3
Coolie

Action Type: 2

Presence: 11111111111111111111111111111111111111111111111111111111111111111111111111111111
Invited Nodes: 53 64 
Actions left: 3
Session index: 3

Observation: ..
Reward 0
About to find best action in Step: 4
Foind best action in Step: 4
Coolie

Action Type: 2

Presence: 00000000000000000000000000000000000000000000000000000000000000000000000000000000
Invited Nodes: 53 64 
Actions left: 3
Session index: 4

Observation: ..
Reward 0
About to find best action in Step: 5
Foind best action in Step: 5
Coolie

Action Type: 2

Presence: 11111111111111111111111111111111111111111111111111111111111111111111111111111111
Invited Nodes: 53 64 
Actions left: 3
Session index: 5

Observation: ..
Reward 0
About to find best action in Step: 6
Foind best action in Step: 6
Coolie

Action Type: 2

Presence: 00000000000000000000000000000000000000000000000000000000000000000000000000000000
Invited Nodes: 53 64 
Actions left: 3
Session index: 6

Observation: ..
Reward 0
About to find best action in Step: 7
Foind best action in Step: 7
Coolie

Action Type: 2

Presence: 00000000000000000000000000000000000000000000000000000000000000000000000000000000
Invited Nodes: 53 64 
Actions left: 3
Session index: 7

Observation: ..
Reward 18.573
Terminated
Discounted return = 18.573, average = 19.0833
Undiscounted return = 18.573, average = 19.0833
Starting run 4 with 1024 simulations... 

Presence: 11111111111111111111111111111111111111111111111111111111111111111111111111111111
Invited Nodes: 
Actions left: 3
Session index: 1
About to find best action in Step: 0
Values: 15.946(endSession) 14.8866(query) 15.1752(invite)
Foind best action in Step: 0
Coolie

Action Type: 2

Presence: 00000000000000000000000000000000000000000000000000000000000000000000000000000000
Invited Nodes: 
Actions left: 3
Session index: 2

Observation: ..
Reward 0
About to find best action in Step: 1
Values: 8.859(endSession) 14.6875(query) 15.0562(invite)
Foind best action in Step: 1
Coolie

Action Type: 1
Active Nodes: 30 39 

Presence: 00000000000000000000000000000000000000000000000000000000000000000000000000000000
Invited Nodes: 
Actions left: 2
Session index: 2

Observation: ..
Reward -0
About to find best action in Step: 2
Values: 11.023(endSession) 14.5092(query) 14.6791(invite)
Foind best action in Step: 2
Coolie

Action Type: 1
Active Nodes: 12 64 

Presence: 00000000000000000000000000000000000000000000000000000000000000000000000000000000
Invited Nodes: 
Actions left: 1
Session index: 2

Observation: ..
Reward -0
About to find best action in Step: 3
Values: 11.658(endSession) 14.4259(query) 14.8262(invite)
Foind best action in Step: 3
Coolie

Action Type: 1
Active Nodes: 62 68 

Presence: 00000000000000000000000000000000000000000000000000000000000000000000000000000000
Invited Nodes: 
Actions left: 0
Session index: 2

Observation: ..
Reward -0
About to find best action in Step: 4
Foind best action in Step: 4
Coolie

Action Type: 2

Presence: 00000000000000000000000000000000000000000000000000000000000000000000000000000000
Invited Nodes: 
Actions left: 3
Session index: 3

Observation: ..
Reward 0
About to find best action in Step: 5
Values: 14.766(endSession) 14.2265(query) 14.4715(invite)
Foind best action in Step: 5
Coolie

Action Type: 2

Presence: 11111111111111111111111111111111111111111111111111111111111111111111111111111111
Invited Nodes: 
Actions left: 3
Session index: 4

Observation: ..
Reward 0
About to find best action in Step: 6
Values: 13.857(endSession) 13.6976(query) 13.8695(invite)
Foind best action in Step: 6
Coolie

Action Type: 1
Active Nodes: 17 58 

Presence: 11111111111111111111111111111111111111111111111111111111111111111111111111111111
Invited Nodes: 17 58 
Actions left: 2
Session index: 4

Observation: ..11
Reward -0
About to find best action in Step: 7
Foind best action in Step: 7
Coolie

Action Type: 2

Presence: 00000000000000000000000000000000000000000000000000000000000000000000000000000000
Invited Nodes: 17 58 
Actions left: 3
Session index: 5

Observation: ..
Reward 0
About to find best action in Step: 8
Foind best action in Step: 8
Coolie

Action Type: 2

Presence: 00000000000000000000000000000000000000000000000000000000000000000000000000000000
Invited Nodes: 17 58 
Actions left: 3
Session index: 6

Observation: ..
Reward 0
About to find best action in Step: 9
Foind best action in Step: 9
Coolie

Action Type: 2

Presence: 11111111111111111111111111111111111111111111110111111111111111111111111111111111
Invited Nodes: 17 58 
Actions left: 3
Session index: 7

Observation: ..
Reward 19.037
Terminated
Discounted return = 19.037, average = 19.0717
Undiscounted return = 19.037, average = 19.0717
Starting run 5 with 1024 simulations... 

Presence: 11111111111111111111111111111111111111111111111111111111111111111111111111111111
Invited Nodes: 
Actions left: 3
Session index: 1
About to find best action in Step: 0
Values: 16.001(endSession) 15.1321(query) 14.692(invite)
Foind best action in Step: 0
Coolie

Action Type: 2

Presence: 00000000000000000000000000000000000000000000000000000000000000000000000000000000
Invited Nodes: 
Actions left: 3
Session index: 2

Observation: ..
Reward 0
About to find best action in Step: 1
Values: 13.409(endSession) 14.9619(query) 14.973(invite)
Foind best action in Step: 1
Coolie

Action Type: 1
Active Nodes: 22 39 

Presence: 00000000000000000000000000000000000000000000000000000000000000000000000000000000
Invited Nodes: 
Actions left: 2
Session index: 2

Observation: ..
Reward -0
About to find best action in Step: 2
Values: 10.58(endSession) 14.7324(query) 14.4498(invite)
Foind best action in Step: 2
Coolie

Action Type: 0
Active Nodes: 44 67 

Presence: 00000000000000000000000000000000000000000000000000000000000000000000000000000000
Invited Nodes: 
Actions left: 1
Session index: 2

Observation: ..
Reward -0
About to find best action in Step: 3
Values: 14.633(endSession) 14.4208(query) 14.5219(invite)
Foind best action in Step: 3
Coolie

Action Type: 2

Presence: 11111111111110111111111111111111110111111111111111111111111111111111111111111111
Invited Nodes: 
Actions left: 3
Session index: 3

Observation: ..
Reward 0
About to find best action in Step: 4
Values: 12.877(endSession) 14.7414(query) 14.3629(invite)
Foind best action in Step: 4
Coolie

Action Type: 0
Active Nodes: 50 75 

Presence: 11111111111110111111111111111111110111111111111111111111111111111111111111111111
Invited Nodes: 
Actions left: 2
Session index: 3

Observation: ..11
Reward -0
About to find best action in Step: 5
Values: 0(endSession) 13.6637(query) 15.1841(invite)
Foind best action in Step: 5
Coolie

Action Type: 1
Active Nodes: 12 39 

Presence: 11111111111110111111111111111111110111111111111111111111111111111111111111111111
Invited Nodes: 12 39 
Actions left: 1
Session index: 3

Observation: ..11
Reward -0
About to find best action in Step: 6
Foind best action in Step: 6
Coolie

Action Type: 2

Presence: 11111111111111111111111111111111111111111111111111111111111111111111111111111111
Invited Nodes: 12 39 
Actions left: 3
Session index: 4

Observation: ..
Reward 0
About to find best action in Step: 7
Foind best action in Step: 7
Coolie

Action Type: 2

Presence: 00000000000000000000000000000000000000000000000000000000000000000000000000000000
Invited Nodes: 12 39 
Actions left: 3
Session index: 5

Observation: ..
Reward 0
About to find best action in Step: 8
Foind best action in Step: 8
Coolie

Action Type: 2

Presence: 11111111111111111111111111111111111111111111111111111111111111111111111111111111
Invited Nodes: 12 39 
Actions left: 3
Session index: 6

Observation: ..
Reward 0
About to find best action in Step: 9
Foind best action in Step: 9
Coolie

Action Type: 2

Presence: 00000000000000000000000000000000000000000000000000000000000000000000000000000000
Invited Nodes: 12 39 
Actions left: 3
Session index: 7

Observation: ..
Reward 20.824
Terminated
Discounted return = 20.824, average = 19.4222
Undiscounted return = 20.824, average = 19.4222
Starting run 6 with 1024 simulations... 

Presence: 11111111111111111110111111111111111111111111111111111111111111111111111111111111
Invited Nodes: 
Actions left: 3
Session index: 1
About to find best action in Step: 0
Values: 15.61(endSession) 14.8588(query) 14.6844(invite)
Foind best action in Step: 0
Coolie

Action Type: 2

Presence: 00000000000000000000000000000000000000000000000000000000000000000000000000000000
Invited Nodes: 
Actions left: 3
Session index: 2

Observation: ..
Reward 0
About to find best action in Step: 1
Values: 16.972(endSession) 15.0623(query) 15.254(invite)
Foind best action in Step: 1
Coolie

Action Type: 2

Presence: 00000000000000000000000000000000000000000000000000000000000000000000000000000000
Invited Nodes: 
Actions left: 3
Session index: 3

Observation: ..
Reward 0
About to find best action in Step: 2
Values: 15.455(endSession) 14.4315(query) 14.3769(invite)
Foind best action in Step: 2
Coolie

Action Type: 2

Presence: 00000000000000000000000000000000000000000000000000000000000000000000000000000000
Invited Nodes: 
Actions left: 3
Session index: 4

Observation: ..
Reward 0
About to find best action in Step: 3
Values: 0(endSession) 13.6787(query) 13.9415(invite)
Foind best action in Step: 3
Coolie

Action Type: 1
Active Nodes: 30 39 

Presence: 00000000000000000000000000000000000000000000000000000000000000000000000000000000
Invited Nodes: 
Actions left: 2
Session index: 4

Observation: ..
Reward -0
About to find best action in Step: 4
Values: 16.629(endSession) 12.1481(query) 13.2877(invite)
Foind best action in Step: 4
Coolie

Action Type: 2

Presence: 00000000000000000000000000000000000000000000000000000000000000000000000000000000
Invited Nodes: 
Actions left: 3
Session index: 5

Observation: ..
Reward 0
About to find best action in Step: 5
Values: 0(endSession) 11.5668(query) 12.1573(invite)
Foind best action in Step: 5
Coolie

Action Type: 1
Active Nodes: 22 61 

Presence: 00000000000000000000000000000000000000000000000000000000000000000000000000000000
Invited Nodes: 
Actions left: 2
Session index: 5

Observation: ..
Reward -0
About to find best action in Step: 6
Values: 14.799(endSession) 9.20612(query) 10.9495(invite)
Foind best action in Step: 6
Coolie

Action Type: 2

Presence: 00000000000000000000000000000000000000000000000000000000000000000000000000000000
Invited Nodes: 
Actions left: 3
Session index: 6

Observation: ..
Reward 0
About to find best action in Step: 7
Values: 0(endSession) 8.77427(query) 8.49958(invite)
Foind best action in Step: 7
Coolie

Action Type: 0
Active Nodes: 40 70 

Presence: 00000000000000000000000000000000000000000000000000000000000000000000000000000000
Invited Nodes: 
Actions left: 2
Session index: 6

Observation: ..
Reward -0
About to find best action in Step: 8
Values: 0(endSession) 0(query) 7.75403(invite)
Foind best action in Step: 8
Coolie

Action Type: 1
Active Nodes: 8 39 

Presence: 00000000000000000000000000000000000000000000000000000000000000000000000000000000
Invited Nodes: 
Actions left: 1
Session index: 6

Observation: ..
Reward -0
About to find best action in Step: 9
Values: 0(endSession) 0(query) 4.69401(invite)
Foind best action in Step: 9
Coolie

Action Type: 1
Active Nodes: 62 71 

Presence: 00000000000000000000000000000000000000000000000000000000000000000000000000000000
Invited Nodes: 
Actions left: 0
Session index: 6

Observation: ..
Reward -0
About to find best action in Step: 10
Foind best action in Step: 10
Coolie

Action Type: 2

Presence: 00000000000000000000000000000000000000000000000000000000000000000000000000000000
Invited Nodes: 
Actions left: 3
Session index: 7

Observation: ..
Reward 0
Terminated
Discounted return = 0, average = 16.1852
Undiscounted return = 0, average = 16.1852
Starting run 7 with 1024 simulations... 

Presence: 11111111111111111111111111111111111111111111111111111111111111111111111111111111
Invited Nodes: 
Actions left: 3
Session index: 1
About to find best action in Step: 0
Values: 12.944(endSession) 15.1491(query) 15.6396(invite)
Foind best action in Step: 0
Coolie

Action Type: 1
Active Nodes: 30 39 

Presence: 11111111111111111111111111111111111111111111111111111111111111111111111111111111
Invited Nodes: 30 39 
Actions left: 2
Session index: 1

Observation: ..11
Reward -0
About to find best action in Step: 1
Foind best action in Step: 1
Coolie

Action Type: 2

Presence: 11111111111111111111111111111111111111111111111111111111111111111111111111111111
Invited Nodes: 30 39 
Actions left: 3
Session index: 2

Observation: ..
Reward 0
About to find best action in Step: 2
Foind best action in Step: 2
Coolie

Action Type: 2

Presence: 00000000000000000000000000000000000000000000000000000000000000000000000000000000
Invited Nodes: 30 39 
Actions left: 3
Session index: 3

Observation: ..
Reward 0
About to find best action in Step: 3
Foind best action in Step: 3
Coolie

Action Type: 2

Presence: 11111111111111111111111111111111111111111111111111111111111111111111111111111111
Invited Nodes: 30 39 
Actions left: 3
Session index: 4

Observation: ..
Reward 0
About to find best action in Step: 4
Foind best action in Step: 4
Coolie

Action Type: 2

Presence: 00000000000000000000000000000000000000000000000000000000000000000000000000000000
Invited Nodes: 30 39 
Actions left: 3
Session index: 5

Observation: ..
Reward 0
About to find best action in Step: 5
Foind best action in Step: 5
Coolie

Action Type: 2

Presence: 11111111111111111111111111111111111111111111111111111111111111111111111111111111
Invited Nodes: 30 39 
Actions left: 3
Session index: 6

Observation: ..
Reward 0
About to find best action in Step: 6
Foind best action in Step: 6
Coolie

Action Type: 2

Presence: 00000000000000000000000000000000000000000000000000000000000000000000000000000000
Invited Nodes: 30 39 
Actions left: 3
Session index: 7

Observation: ..
Reward 20.608
Terminated
Discounted return = 20.608, average = 16.817
Undiscounted return = 20.608, average = 16.817
Starting run 8 with 1024 simulations... 

Presence: 00000000000000000000000000000000000000000000000000000000000000000000000000000000
Invited Nodes: 
Actions left: 3
Session index: 1
About to find best action in Step: 0
Values: 16.233(endSession) 15.032(query) 15.0471(invite)
Foind best action in Step: 0
Coolie

Action Type: 2

Presence: 11111111111111111111111111111111111111111111111111111111111111111111111111111111
Invited Nodes: 
Actions left: 3
Session index: 2

Observation: ..
Reward 0
About to find best action in Step: 1
Values: 11.779(endSession) 14.631(query) 14.7792(invite)
Foind best action in Step: 1
Coolie

Action Type: 1
Active Nodes: 30 74 

Presence: 11111111111111111111111111111111111111111111111111111111111111111111111111111111
Invited Nodes: 30 74 
Actions left: 2
Session index: 2

Observation: ..11
Reward -0
About to find best action in Step: 2
Foind best action in Step: 2
Coolie

Action Type: 2

Presence: 00000000000000000000000000000000000000000000000000000000000000000000000000000000
Invited Nodes: 30 74 
Actions left: 3
Session index: 3

Observation: ..
Reward 0
About to find best action in Step: 3
Foind best action in Step: 3
Coolie

Action Type: 2

Presence: 11111111111111111111111111111111111111111111111111111111111111111111111111111111
Invited Nodes: 30 74 
Actions left: 3
Session index: 4

Observation: ..
Reward 0
About to find best action in Step: 4
Foind best action in Step: 4
Coolie

Action Type: 2

Presence: 00000000000000000000000000000000000000000000000000000000000000000000000000000000
Invited Nodes: 30 74 
Actions left: 3
Session index: 5

Observation: ..
Reward 0
About to find best action in Step: 5
Foind best action in Step: 5
Coolie

Action Type: 2

Presence: 00000000000000000000000000000000000000000000000000000000000000000000000000000000
Invited Nodes: 30 74 
Actions left: 3
Session index: 6

Observation: ..
Reward 0
About to find best action in Step: 6
Foind best action in Step: 6
Coolie

Action Type: 2

Presence: 00000000000000000000000000000000000000000000001000000000000000000000000000000000
Invited Nodes: 30 74 
Actions left: 3
Session index: 7

Observation: ..
Reward 17.863
Terminated
Discounted return = 17.863, average = 16.9477
Undiscounted return = 17.863, average = 16.9477
Starting run 9 with 1024 simulations... 

Presence: 00000000000000000000000000000000000000000000000000000000000000000000000000000000
Invited Nodes: 
Actions left: 3
Session index: 1
About to find best action in Step: 0
Values: 12.193(endSession) 14.8824(query) 14.9556(invite)
Foind best action in Step: 0
Coolie

Action Type: 1
Active Nodes: 54 58 

Presence: 00000000000000000000000000000000000000000000000000000000000000000000000000000000
Invited Nodes: 
Actions left: 2
Session index: 1

Observation: ..
Reward -0
About to find best action in Step: 1
Values: 19.108(endSession) 14.7882(query) 15.0479(invite)
Foind best action in Step: 1
Coolie

Action Type: 2

Presence: 00000000000000000000000000000000000000000000000000000000000000000000000000000000
Invited Nodes: 
Actions left: 3
Session index: 2

Observation: ..
Reward 0
About to find best action in Step: 2
Values: 9.975(endSession) 15.0857(query) 14.5514(invite)
Foind best action in Step: 2
Coolie

Action Type: 0
Active Nodes: 54 56 

Presence: 00000000000000000000000000000000000000000000000000000000000000000000000000000000
Invited Nodes: 
Actions left: 2
Session index: 2

Observation: ..
Reward -0
About to find best action in Step: 3
Values: 12.468(endSession) 14.487(query) 14.7833(invite)
Foind best action in Step: 3
Coolie

Action Type: 1
Active Nodes: 5 8 

Presence: 00000000000000000000000000000000000000000000000000000000000000000000000000000000
Invited Nodes: 
Actions left: 1
Session index: 2

Observation: ..
Reward -0
About to find best action in Step: 4
Values: 14.057(endSession) 14.6306(query) 14.6099(invite)
Foind best action in Step: 4
Coolie

Action Type: 0
Active Nodes: 77 78 

Presence: 00000000000000000000000000000000000000000000000000000000000000000000000000000000
Invited Nodes: 
Actions left: 0
Session index: 2

Observation: ..
Reward -0
About to find best action in Step: 5
Foind best action in Step: 5
Coolie

Action Type: 2

Presence: 00000000000000000000000000000000000000000000000000000000000000000000000000000000
Invited Nodes: 
Actions left: 3
Session index: 3

Observation: ..
Reward 0
About to find best action in Step: 6
Values: 12.805(endSession) 14.5269(query) 15.0157(invite)
Foind best action in Step: 6
Coolie

Action Type: 1
Active Nodes: 30 39 

Presence: 00000000000000000000000000000000000000000000000000000000000000000000000000000000
Invited Nodes: 
Actions left: 2
Session index: 3

Observation: ..
Reward -0
About to find best action in Step: 7
Values: 13.462(endSession) 13.4586(query) 14.174(invite)
Foind best action in Step: 7
Coolie

Action Type: 1
Active Nodes: 10 41 

Presence: 00000000000000000000000000000000000000000000000000000000000000000000000000000000
Invited Nodes: 
Actions left: 1
Session index: 3

Observation: ..
Reward -0
About to find best action in Step: 8
Values: 0(endSession) 13.6703(query) 13.9978(invite)
Foind best action in Step: 8
Coolie

Action Type: 1
Active Nodes: 30 46 

Presence: 00000000000000000000000000000000000000000000000000000000000000000000000000000000
Invited Nodes: 
Actions left: 0
Session index: 3

Observation: ..
Reward -0
About to find best action in Step: 9
Foind best action in Step: 9
Coolie

Action Type: 2

Presence: 11111111111111111111111111111111111111111111111111111111111111111111111111111111
Invited Nodes: 
Actions left: 3
Session index: 4

Observation: ..
Reward 0
About to find best action in Step: 10
Values: 15.736(endSession) 13.6886(query) 14.0121(invite)
Foind best action in Step: 10
Coolie

Action Type: 2

Presence: 00000000000000000000000000000000000000000000000000000000000000000000000000000000
Invited Nodes: 
Actions left: 3
Session index: 5

Observation: ..
Reward 0
About to find best action in Step: 11
Values: 13.693(endSession) 11.9087(query) 12.7768(invite)
Foind best action in Step: 11
Coolie

Action Type: 2

Presence: 00000000000000000000000000000000000000000000000000000000000000000000000000000000
Invited Nodes: 
Actions left: 3
Session index: 6

Observation: ..
Reward 0
About to find best action in Step: 12
Values: 0(endSession) 9.10539(query) 9.65867(invite)
Foind best action in Step: 12
Coolie

Action Type: 1
Active Nodes: 39 53 

Presence: 00000000000000000000000000000000000000000000000000000000000000000000000000000000
Invited Nodes: 
Actions left: 2
Session index: 6

Observation: ..
Reward -0
About to find best action in Step: 13
Values: 0(endSession) 0(query) 6.09036(invite)
Foind best action in Step: 13
Coolie

Action Type: 1
Active Nodes: 38 70 

Presence: 00000000000000000000000000000000000000000000000000000000000000000000000000000000
Invited Nodes: 
Actions left: 1
Session index: 6

Observation: ..
Reward -0
About to find best action in Step: 14
Values: 0(endSession) 0(query) 5.59613(invite)
Foind best action in Step: 14
Coolie

Action Type: 1
Active Nodes: 5 21 

Presence: 00000000000000000000000000000000000000000000000000000000000000000000000000000000
Invited Nodes: 
Actions left: 0
Session index: 6

Observation: ..
Reward -0
About to find best action in Step: 15
Foind best action in Step: 15
Coolie

Action Type: 2

Presence: 11111111111111111111111111111111111111111111111111111111111111111111111111111111
Invited Nodes: 
Actions left: 3
Session index: 7

Observation: ..
Reward 0
Terminated
Discounted return = 0, average = 15.0647
Undiscounted return = 0, average = 15.0647
Starting run 10 with 1024 simulations... 

Presence: 00000000000000000000000000000000000000000000000000000000000000000000000000000000
Invited Nodes: 
Actions left: 3
Session index: 1
About to find best action in Step: 0
Values: 14.07(endSession) 14.9025(query) 14.9657(invite)
Foind best action in Step: 0
Coolie

Action Type: 1
Active Nodes: 30 74 

Presence: 00000000000000000000000000000000000000000000000000000000000000000000000000000000
Invited Nodes: 
Actions left: 2
Session index: 1

Observation: ..
Reward -0
About to find best action in Step: 1
Values: 17.024(endSession) 14.9072(query) 14.9855(invite)
Foind best action in Step: 1
Coolie

Action Type: 2

Presence: 00000000000000000000000000000000000000000000000000000000000000000000000000000000
Invited Nodes: 
Actions left: 3
Session index: 2

Observation: ..
Reward 0
About to find best action in Step: 2
Values: 15.224(endSession) 14.7415(query) 15.0139(invite)
Foind best action in Step: 2
Coolie

Action Type: 2

Presence: 11111111111111111111111111111111111111111111111111111111111111111111111111111111
Invited Nodes: 
Actions left: 3
Session index: 3

Observation: ..
Reward 0
About to find best action in Step: 3
Values: 14.436(endSession) 14.3985(query) 14.5351(invite)
Foind best action in Step: 3
Coolie

Action Type: 1
Active Nodes: 30 39 

Presence: 11111111111111111111111111111111111111111111111111111111111111111111111111111111
Invited Nodes: 30 39 
Actions left: 2
Session index: 3

Observation: ..11
Reward -0
About to find best action in Step: 4
Foind best action in Step: 4
Coolie

Action Type: 2

Presence: 00000000000000000000000000000000000000000000000000000000000000000000000000000000
Invited Nodes: 30 39 
Actions left: 3
Session index: 4

Observation: ..
Reward 0
About to find best action in Step: 5
Foind best action in Step: 5
Coolie

Action Type: 2

Presence: 11111111111111111111111111111111111111111111111111111111111111111111111111111111
Invited Nodes: 30 39 
Actions left: 3
Session index: 5

Observation: ..
Reward 0
About to find best action in Step: 6
Foind best action in Step: 6
Coolie

Action Type: 2

Presence: 11111111111111111111111111111111111111111111111111111111111111111111111111111111
Invited Nodes: 30 39 
Actions left: 3
Session index: 6

Observation: ..
Reward 0
About to find best action in Step: 7
Foind best action in Step: 7
Coolie

Action Type: 2

Presence: 00000000000000000000000000000000000000000000000000000000000000000000000000000000
Invited Nodes: 30 39 
Actions left: 3
Session index: 7

Observation: ..
Reward 20.579
Terminated
Discounted return = 20.579, average = 15.6161
Undiscounted return = 20.579, average = 15.6161
Starting run 11 with 1024 simulations... 

Presence: 00000000000000000000000000000000000000000000000000000000000000000000000000000000
Invited Nodes: 
Actions left: 3
Session index: 1
About to find best action in Step: 0
Values: 13.155(endSession) 14.8171(query) 14.8447(invite)
Foind best action in Step: 0
Coolie

Action Type: 1
Active Nodes: 10 41 

Presence: 00000000000000000000000000000000000000000000000000000000000000000000000000000000
Invited Nodes: 
Actions left: 2
Session index: 1

Observation: ..
Reward -0
About to find best action in Step: 1
Values: 15.981(endSession) 14.7248(query) 15.1182(invite)
Foind best action in Step: 1
Coolie

Action Type: 2

Presence: 00000000000000000000000000000000000000000000000000000000000000000000000000000000
Invited Nodes: 
Actions left: 3
Session index: 2

Observation: ..
Reward 0
About to find best action in Step: 2
Values: 5.756(endSession) 14.6322(query) 15.0221(invite)
Foind best action in Step: 2
Coolie

Action Type: 1
Active Nodes: 18 19 

Presence: 00000000000000000000000000000000000000000000000000000000000000000000000000000000
Invited Nodes: 
Actions left: 2
Session index: 2

Observation: ..
Reward -0
About to find best action in Step: 3
Values: 15.147(endSession) 14.5652(query) 14.8543(invite)
Foind best action in Step: 3
Coolie

Action Type: 2

Presence: 00000000000000000000000000000000000000000000000000000000000000000000000000000000
Invited Nodes: 
Actions left: 3
Session index: 3

Observation: ..
Reward 0
About to find best action in Step: 4
Values: 15.728(endSession) 14.284(query) 14.8871(invite)
Foind best action in Step: 4
Coolie

Action Type: 2

Presence: 00000000000000000000000000000000000000000000000000000000000000000000000000000000
Invited Nodes: 
Actions left: 3
Session index: 4

Observation: ..
Reward 0
About to find best action in Step: 5
Values: 10.269(endSession) 13.8005(query) 14.1964(invite)
Foind best action in Step: 5
Coolie

Action Type: 1
Active Nodes: 39 47 

Presence: 00000000000000000000000000000000000000000000000000000000000000000000000000000000
Invited Nodes: 
Actions left: 2
Session index: 4

Observation: ..
Reward -0
About to find best action in Step: 6
Values: 15.533(endSession) 12.7866(query) 12.7703(invite)
Foind best action in Step: 6
Coolie

Action Type: 2

Presence: 11111111111111111111111111111111111111111111111111111111111111111111111111111111
Invited Nodes: 
Actions left: 3
Session index: 5

Observation: ..
Reward 0
About to find best action in Step: 7
Values: 0(endSession) 12.2314(query) 12.0354(invite)
Foind best action in Step: 7
Coolie

Action Type: 0
Active Nodes: 37 79 

Presence: 11111111111111111111111111111111111111111111111111111111111111111111111111111111
Invited Nodes: 
Actions left: 2
Session index: 5

Observation: ..11
Reward -0
About to find best action in Step: 8
Values: 0(endSession) 9.84284(query) 13.2608(invite)
Foind best action in Step: 8
Coolie

Action Type: 1
Active Nodes: 39 56 

Presence: 11111111111111111111111111111111111111111111111111111111111111111111111111111111
Invited Nodes: 39 56 
Actions left: 1
Session index: 5

Observation: ..11
Reward -0
About to find best action in Step: 9
Foind best action in Step: 9
Coolie

Action Type: 2

Presence: 00000000000000000000000000000000000000000000000000000000000000000000000000000000
Invited Nodes: 39 56 
Actions left: 3
Session index: 6

Observation: ..
Reward 0
About to find best action in Step: 10
Foind best action in Step: 10
Coolie

Action Type: 2

Presence: 00000000000000000000000000000000000000000000001000000000000000000000000000000000
Invited Nodes: 39 56 
Actions left: 3
Session index: 7

Observation: ..
Reward 18.893
Terminated
Discounted return = 18.893, average = 15.914
Undiscounted return = 18.893, average = 15.914
Starting run 12 with 1024 simulations... 

Presence: 11111111111111111111111111111111111111111111111111111111111111111111111111111111
Invited Nodes: 
Actions left: 3
Session index: 1
About to find best action in Step: 0
Values: 14.246(endSession) 15.19(query) 15.053(invite)
Foind best action in Step: 0
Coolie

Action Type: 0
Active Nodes: 66 74 

Presence: 11111111111111111111111111111111111111111111111111111111111111111111111111111111
Invited Nodes: 
Actions left: 2
Session index: 1

Observation: ..11
Reward -0
About to find best action in Step: 1
Values: 13.868(endSession) 15.0608(query) 15.7575(invite)
Foind best action in Step: 1
Coolie

Action Type: 1
Active Nodes: 39 58 

Presence: 11111111111111111111111111111111111111111111111111111111111111111111111111111111
Invited Nodes: 39 58 
Actions left: 1
Session index: 1

Observation: ..11
Reward -0
About to find best action in Step: 2
Foind best action in Step: 2
Coolie

Action Type: 2

Presence: 00000000000000000000000000000000000000000000000000000000000000000000000000000000
Invited Nodes: 39 58 
Actions left: 3
Session index: 2

Observation: ..
Reward 0
About to find best action in Step: 3
Foind best action in Step: 3
Coolie

Action Type: 2

Presence: 11111111111111111111111111111111111111111111111111111111111111111111111111111111
Invited Nodes: 39 58 
Actions left: 3
Session index: 3

Observation: ..
Reward 0
About to find best action in Step: 4
Foind best action in Step: 4
Coolie

Action Type: 2

Presence: 11111111111111111111111111111111111111111111111111111111111111111111111111111111
Invited Nodes: 39 58 
Actions left: 3
Session index: 4

Observation: ..
Reward 0
About to find best action in Step: 5
Foind best action in Step: 5
Coolie

Action Type: 2

Presence: 11111111111111111111111111111111111111111111111111111111111111111111111111111111
Invited Nodes: 39 58 
Actions left: 3
Session index: 5

Observation: ..
Reward 0
About to find best action in Step: 6
Foind best action in Step: 6
Coolie

Action Type: 2

Presence: 11111111111111111111111111111111111111111111111111111111111111111111111111111111
Invited Nodes: 39 58 
Actions left: 3
Session index: 6

Observation: ..
Reward 0
About to find best action in Step: 7
Foind best action in Step: 7
Coolie

Action Type: 2

Presence: 00000000000000000000000000000000000000000000001000000000000000000000000000000000
Invited Nodes: 39 58 
Actions left: 3
Session index: 7

Observation: ..
Reward 20.862
Terminated
Discounted return = 20.862, average = 16.3263
Undiscounted return = 20.862, average = 16.3263
Starting run 13 with 1024 simulations... 

Presence: 11111111111111111111111111111111111111111111111111111111111111111111111111111111
Invited Nodes: 
Actions left: 3
Session index: 1
About to find best action in Step: 0
Values: 15.12(endSession) 15.1568(query) 15.6389(invite)
Foind best action in Step: 0
Coolie

Action Type: 1
Active Nodes: 30 39 

Presence: 11111111111111111111111111111111111111111111111111111111111111111111111111111111
Invited Nodes: 30 39 
Actions left: 2
Session index: 1

Observation: ..11
Reward -0
About to find best action in Step: 1
Foind best action in Step: 1
Coolie

Action Type: 2

Presence: 11111111111111111111111111111111111111111111111111111111111111111111111111111111
Invited Nodes: 30 39 
Actions left: 3
Session index: 2

Observation: ..
Reward 0
About to find best action in Step: 2
Foind best action in Step: 2
Coolie

Action Type: 2

Presence: 00000000000000000000000000000000000000000000000000000000000000000000000000000000
Invited Nodes: 30 39 
Actions left: 3
Session index: 3

Observation: ..
Reward 0
About to find best action in Step: 3
Foind best action in Step: 3
Coolie

Action Type: 2

Presence: 11111111111111111111111111111111111111111111111111111111111111111111111111111111
Invited Nodes: 30 39 
Actions left: 3
Session index: 4

Observation: ..
Reward 0
About to find best action in Step: 4
Foind best action in Step: 4
Coolie

Action Type: 2

Presence: 11111111111111111111111111111111111111111111111111111111111111111111111111111111
Invited Nodes: 30 39 
Actions left: 3
Session index: 5

Observation: ..
Reward 0
About to find best action in Step: 5
Foind best action in Step: 5
Coolie

Action Type: 2

Presence: 11111111111111111111111111111111111111111111111111111111111111111111111111111111
Invited Nodes: 30 39 
Actions left: 3
Session index: 6

Observation: ..
Reward 0
About to find best action in Step: 6
Foind best action in Step: 6
Coolie

Action Type: 2

Presence: 00000000000000000000000000000000000000000000000000000000000000000000000000000000
Invited Nodes: 30 39 
Actions left: 3
Session index: 7

Observation: ..
Reward 20.709
Terminated
Discounted return = 20.709, average = 16.6635
Undiscounted return = 20.709, average = 16.6635
Starting run 14 with 1024 simulations... 

Presence: 00000000000000000000000000000000000000000000000000000000000000000000000000000000
Invited Nodes: 
Actions left: 3
Session index: 1
About to find best action in Step: 0
Values: 18.686(endSession) 14.9885(query) 15.1592(invite)
Foind best action in Step: 0
Coolie

Action Type: 2

Presence: 00000000000000000000000000000000000000000000000000000000000000000000000000000000
Invited Nodes: 
Actions left: 3
Session index: 2

Observation: ..
Reward 0
About to find best action in Step: 1
Values: 15.43(endSession) 14.6956(query) 14.9721(invite)
Foind best action in Step: 1
Coolie

Action Type: 2

Presence: 00000000000000000000000000000000000000000000000000000000000000000000000000000000
Invited Nodes: 
Actions left: 3
Session index: 3

Observation: ..
Reward 0
About to find best action in Step: 2
Values: 13.289(endSession) 14.5972(query) 14.2561(invite)
Foind best action in Step: 2
Coolie

Action Type: 0
Active Nodes: 43 49 

Presence: 00000000000000000000000000000000000000000000000000000000000000000000000000000000
Invited Nodes: 
Actions left: 2
Session index: 3

Observation: ..
Reward -0
About to find best action in Step: 3
Values: 15.88(endSession) 13.727(query) 14.7632(invite)
Foind best action in Step: 3
Coolie

Action Type: 2

Presence: 00000000000000000000000000000000000000000000000000000000000000000000000000000000
Invited Nodes: 
Actions left: 3
Session index: 4

Observation: ..
Reward 0
About to find best action in Step: 4
Values: 19.594(endSession) 13.7134(query) 13.2069(invite)
Foind best action in Step: 4
Coolie

Action Type: 2

Presence: 00000000000000000000000000000000000000000000000000000000000000000000000000000000
Invited Nodes: 
Actions left: 3
Session index: 5

Observation: ..
Reward 0
About to find best action in Step: 5
Values: 17.04(endSession) 12.5621(query) 11.8611(invite)
Foind best action in Step: 5
Coolie

Action Type: 2

Presence: 11111111111111111111111111111111111111111111111111111111111111111111111111111111
Invited Nodes: 
Actions left: 3
Session index: 6

Observation: ..
Reward 0
About to find best action in Step: 6
Values: 0(endSession) 8.92301(query) 8.95035(invite)
Foind best action in Step: 6
Coolie

Action Type: 1
Active Nodes: 10 43 

Presence: 11111111111111111111111111111111111111111111111111111111111111111111111111111111
Invited Nodes: 10 43 
Actions left: 2
Session index: 6

Observation: ..11
Reward -0
About to find best action in Step: 7
Foind best action in Step: 7
Coolie

Action Type: 2

Presence: 11111111111111111111111111111111111111111111111111111111111111111111111111111111
Invited Nodes: 10 43 
Actions left: 3
Session index: 7

Observation: ..
Reward 14.856
Terminated
Discounted return = 14.856, average = 16.5344
Undiscounted return = 14.856, average = 16.5344
Starting run 15 with 1024 simulations... 

Presence: 11111111111111111111111111111111111111111111111111111111111111111111111111111111
Invited Nodes: 
Actions left: 3
Session index: 1
About to find best action in Step: 0
Values: 13.108(endSession) 14.8799(query) 14.8686(invite)
Foind best action in Step: 0
Coolie

Action Type: 0
Active Nodes: 37 38 

Presence: 11111111111111111111111111111111111111111111111111111111111111111111111111111111
Invited Nodes: 
Actions left: 2
Session index: 1

Observation: ..11
Reward -0
About to find best action in Step: 1
Values: 13.393(endSession) 14.7212(query) 15.6571(invite)
Foind best action in Step: 1
Coolie

Action Type: 1
Active Nodes: 30 39 

Presence: 11111111111111111111111111111111111111111111111111111111111111111111111111111111
Invited Nodes: 30 39 
Actions left: 1
Session index: 1

Observation: ..11
Reward -0
About to find best action in Step: 2
Foind best action in Step: 2
Coolie

Action Type: 2

Presence: 00000000000000000000000000000000000000000000000000000000000000000000000000000000
Invited Nodes: 30 39 
Actions left: 3
Session index: 2

Observation: ..
Reward 0
About to find best action in Step: 3
Foind best action in Step: 3
Coolie

Action Type: 2

Presence: 00000000000000000000000000000000000000000000000000000000000000000000000000000000
Invited Nodes: 30 39 
Actions left: 3
Session index: 3

Observation: ..
Reward 0
About to find best action in Step: 4
Foind best action in Step: 4
Coolie

Action Type: 2

Presence: 11111111111111111111111111111111111111111111111111111111111111111111111111111111
Invited Nodes: 30 39 
Actions left: 3
Session index: 4

Observation: ..
Reward 0
About to find best action in Step: 5
Foind best action in Step: 5
Coolie

Action Type: 2

Presence: 11111111111111111111111111111111111111111111111111111111111111111111111111111111
Invited Nodes: 30 39 
Actions left: 3
Session index: 5

Observation: ..
Reward 0
About to find best action in Step: 6
Foind best action in Step: 6
Coolie

Action Type: 2

Presence: 11111111111111111111111111111111111111111111111111111111111111111111111111111111
Invited Nodes: 30 39 
Actions left: 3
Session index: 6

Observation: ..
Reward 0
About to find best action in Step: 7
Foind best action in Step: 7
Coolie

Action Type: 2

Presence: 00000000000000000000000000000000000000000000000000000000000000000000000000000000
Invited Nodes: 30 39 
Actions left: 3
Session index: 7

Observation: ..
Reward 20.488
Terminated
Discounted return = 20.488, average = 16.7979
Undiscounted return = 20.488, average = 16.7979
Starting run 16 with 1024 simulations... 

Presence: 11111111111111111111111111111111111111111111111111111111111111111111111111111111
Invited Nodes: 
Actions left: 3
Session index: 1
About to find best action in Step: 0
Values: 12.06(endSession) 15.0631(query) 15.0812(invite)
Foind best action in Step: 0
Coolie

Action Type: 1
Active Nodes: 6 12 

Presence: 11111111111111111111111111111111111111111111111111111111111111111111111111111111
Invited Nodes: 6 12 
Actions left: 2
Session index: 1

Observation: ..11
Reward -0
About to find best action in Step: 1
Foind best action in Step: 1
Coolie

Action Type: 2

Presence: 11111111111111111111111111111111111111111111111111111111111011111111111111111111
Invited Nodes: 6 12 
Actions left: 3
Session index: 2

Observation: ..
Reward 0
About to find best action in Step: 2
Foind best action in Step: 2
Coolie

Action Type: 2

Presence: 11111111111111111111111111111111111111111111111111111111111111111111111111111111
Invited Nodes: 6 12 
Actions left: 3
Session index: 3

Observation: ..
Reward 0
About to find best action in Step: 3
Foind best action in Step: 3
Coolie

Action Type: 2

Presence: 11111111111111111111111111111111111111111111111111111111111111111111111111111111
Invited Nodes: 6 12 
Actions left: 3
Session index: 4

Observation: ..
Reward 0
About to find best action in Step: 4
Foind best action in Step: 4
Coolie

Action Type: 2

Presence: 11111111111111111111111111111111111111111111111111111111111111111111111111111111
Invited Nodes: 6 12 
Actions left: 3
Session index: 5

Observation: ..
Reward 0
About to find best action in Step: 5
Foind best action in Step: 5
Coolie

Action Type: 2

Presence: 00000000000000000000000000000000000000000000000000000010000000000000000000000000
Invited Nodes: 6 12 
Actions left: 3
Session index: 6

Observation: ..
Reward 0
About to find best action in Step: 6
Foind best action in Step: 6
Coolie

Action Type: 2

Presence: 00000000000000000000000000000000000000000000000000000000010000000000000000000000
Invited Nodes: 6 12 
Actions left: 3
Session index: 7

Observation: ..
Reward 17.469
Terminated
Discounted return = 17.469, average = 16.8399
Undiscounted return = 17.469, average = 16.8399
Starting run 17 with 1024 simulations... 

Presence: 00000000000000000000000000000000000000000000001000000000000000000000000000000000
Invited Nodes: 
Actions left: 3
Session index: 1
About to find best action in Step: 0
Values: 15.769(endSession) 15.1597(query) 14.9845(invite)
Foind best action in Step: 0
Coolie

Action Type: 2

Presence: 00000000000000000000000000000000000000000000000000000000000000000000000000000000
Invited Nodes: 
Actions left: 3
Session index: 2

Observation: ..
Reward 0
About to find best action in Step: 1
Values: 14.441(endSession) 14.7163(query) 14.559(invite)
Foind best action in Step: 1
Coolie

Action Type: 0
Active Nodes: 4 38 

Presence: 00000000000000000000000000000000000000000000000000000000000000000000000000000000
Invited Nodes: 
Actions left: 2
Session index: 2

Observation: ..
Reward -0
About to find best action in Step: 2
Values: 13.712(endSession) 14.626(query) 14.6762(invite)
Foind best action in Step: 2
Coolie

Action Type: 1
Active Nodes: 68 77 

Presence: 00000000000000000000000000000000000000000000000000000000000000000000000000000000
Invited Nodes: 
Actions left: 1
Session index: 2

Observation: ..
Reward -0
About to find best action in Step: 3
Values: 0(endSession) 14.5784(query) 14.4078(invite)
Foind best action in Step: 3
Coolie

Action Type: 0
Active Nodes: 33 39 

Presence: 00000000000000000000000000000000000000000000000000000000000000000000000000000000
Invited Nodes: 
Actions left: 0
Session index: 2

Observation: ..
Reward -0
About to find best action in Step: 4
Foind best action in Step: 4
Coolie

Action Type: 2

Presence: 11111111111111111111111111111111111111111111111111111111111111111111111111111111
Invited Nodes: 
Actions left: 3
Session index: 3

Observation: ..
Reward 0
About to find best action in Step: 5
Values: 14.965(endSession) 14.1807(query) 14.2256(invite)
Foind best action in Step: 5
Coolie

Action Type: 2

Presence: 11111111111111111111111111111111111111111111111111111111111111111111111111111111
Invited Nodes: 
Actions left: 3
Session index: 4

Observation: ..
Reward 0
About to find best action in Step: 6
Values: 16.937(endSession) 13.748(query) 13.257(invite)
Foind best action in Step: 6
Coolie

Action Type: 2

Presence: 11111111111111111111111111111111111111111111111111111111111111111111111111111111
Invited Nodes: 
Actions left: 3
Session index: 5

Observation: ..
Reward 0
About to find best action in Step: 7
Values: 12.183(endSession) 12.3047(query) 12.7357(invite)
Foind best action in Step: 7
Coolie

Action Type: 1
Active Nodes: 26 35 

Presence: 11111111111111111111111111111111111111111111111111111111111111111111111111111111
Invited Nodes: 26 35 
Actions left: 2
Session index: 5

Observation: ..11
Reward -0
About to find best action in Step: 8
Foind best action in Step: 8
Coolie

Action Type: 2

Presence: 00000000000000000000000000000000000000000000000000000000000000000000000000000000
Invited Nodes: 26 35 
Actions left: 3
Session index: 6

Observation: ..
Reward 0
About to find best action in Step: 9
Foind best action in Step: 9
Coolie

Action Type: 2

Presence: 00000000000000000000000000000000000000000000000000000000000000000000000000000000
Invited Nodes: 26 35 
Actions left: 3
Session index: 7

Observation: ..
Reward 16.775
Terminated
Discounted return = 16.775, average = 16.8361
Undiscounted return = 16.775, average = 16.8361
Starting run 18 with 1024 simulations... 

Presence: 11111111111111111111111111111111111111111111111111111111111111111111111111111111
Invited Nodes: 
Actions left: 3
Session index: 1
About to find best action in Step: 0
Values: 13.422(endSession) 14.948(query) 14.9335(invite)
Foind best action in Step: 0
Coolie

Action Type: 0
Active Nodes: 62 66 

Presence: 11111111111111111111111111111111111111111111111111111111111111111111111111111111
Invited Nodes: 
Actions left: 2
Session index: 1

Observation: ..11
Reward -0
About to find best action in Step: 1
Values: 12.182(endSession) 14.9531(query) 15.0126(invite)
Foind best action in Step: 1
Coolie

Action Type: 1
Active Nodes: 22 49 

Presence: 11111111111111111111111111111111111111111111111111111111111111111111111111111111
Invited Nodes: 22 49 
Actions left: 1
Session index: 1

Observation: ..11
Reward -0
About to find best action in Step: 2
Foind best action in Step: 2
Coolie

Action Type: 2

Presence: 00000000000000000000000000000000000000000000000000000000000000000000010000000000
Invited Nodes: 22 49 
Actions left: 3
Session index: 2

Observation: ..
Reward 0
About to find best action in Step: 3
Foind best action in Step: 3
Coolie

Action Type: 2

Presence: 00000000000000000000000000000000000000000000000000000000000000000000000000000000
Invited Nodes: 22 49 
Actions left: 3
Session index: 3

Observation: ..
Reward 0
About to find best action in Step: 4
Foind best action in Step: 4
Coolie

Action Type: 2

Presence: 00000000000000000000000000000000000000000000000000000000000000000000000000000000
Invited Nodes: 22 49 
Actions left: 3
Session index: 4

Observation: ..
Reward 0
About to find best action in Step: 5
Foind best action in Step: 5
Coolie

Action Type: 2

Presence: 11111111111111111111111111111111111111111111111111111111111111111111111111111111
Invited Nodes: 22 49 
Actions left: 3
Session index: 5

Observation: ..
Reward 0
About to find best action in Step: 6
Foind best action in Step: 6
Coolie

Action Type: 2

Presence: 11111111111111111111111111111111111111111111111111111111111111111111111111111111
Invited Nodes: 22 49 
Actions left: 3
Session index: 6

Observation: ..
Reward 0
About to find best action in Step: 7
Foind best action in Step: 7
Coolie

Action Type: 2

Presence: 11111111111111111111111111111111111111111111111111111111111111111111111111111111
Invited Nodes: 22 49 
Actions left: 3
Session index: 7

Observation: ..
Reward 17.658
Terminated
Discounted return = 17.658, average = 16.8817
Undiscounted return = 17.658, average = 16.8817
Starting run 19 with 1024 simulations... 

Presence: 11111111111111111111111111111111111111111111111111111111111111111111111111111111
Invited Nodes: 
Actions left: 3
Session index: 1
About to find best action in Step: 0
Values: 0(endSession) 15.1949(query) 15.6952(invite)
Foind best action in Step: 0
Coolie

Action Type: 1
Active Nodes: 30 39 

Presence: 11111111111111111111111111111111111111111111111111111111111111111111111111111111
Invited Nodes: 30 39 
Actions left: 2
Session index: 1

Observation: ..11
Reward -0
About to find best action in Step: 1
Foind best action in Step: 1
Coolie

Action Type: 2

Presence: 11111111111111111111111111111111111111111111111111111111111111111111111111111111
Invited Nodes: 30 39 
Actions left: 3
Session index: 2

Observation: ..
Reward 0
About to find best action in Step: 2
Foind best action in Step: 2
Coolie

Action Type: 2

Presence: 11111111111111111111111111111111111111111111111111111111111111111111111111111111
Invited Nodes: 30 39 
Actions left: 3
Session index: 3

Observation: ..
Reward 0
About to find best action in Step: 3
Foind best action in Step: 3
Coolie

Action Type: 2

Presence: 00000000000000000000000000000000000000000000000000000000000000000000000000000000
Invited Nodes: 30 39 
Actions left: 3
Session index: 4

Observation: ..
Reward 0
About to find best action in Step: 4
Foind best action in Step: 4
Coolie

Action Type: 2

Presence: 00000000000000000000000000000000000000000000000000000000000000000000000000000000
Invited Nodes: 30 39 
Actions left: 3
Session index: 5

Observation: ..
Reward 0
About to find best action in Step: 5
Foind best action in Step: 5
Coolie

Action Type: 2

Presence: 11111111111111111111111111111111111111111111110111111111111111111111111111111111
Invited Nodes: 30 39 
Actions left: 3
Session index: 6

Observation: ..
Reward 0
About to find best action in Step: 6
Foind best action in Step: 6
Coolie

Action Type: 2

Presence: 00000000000000000000000000000000000000000000000000000000000000000000000000000000
Invited Nodes: 30 39 
Actions left: 3
Session index: 7

Observation: ..
Reward 20.537
Terminated
Discounted return = 20.537, average = 17.0741
Undiscounted return = 20.537, average = 17.0741
Starting run 20 with 1024 simulations... 

Presence: 11111111111111111111111111111111111111111111111111111111111111111111111111111111
Invited Nodes: 
Actions left: 3
Session index: 1
About to find best action in Step: 0
Values: 15.68(endSession) 15.0762(query) 14.9151(invite)
Foind best action in Step: 0
Coolie

Action Type: 2

Presence: 11111111111111111111111111111111111111111111111111111111111111111111111111111111
Invited Nodes: 
Actions left: 3
Session index: 2

Observation: ..
Reward 0
About to find best action in Step: 1
Values: 11.257(endSession) 14.6171(query) 14.6207(invite)
Foind best action in Step: 1
Coolie

Action Type: 1
Active Nodes: 6 48 

Presence: 11111111111111111111111111111111111111111111111111111111111111111111111111111111
Invited Nodes: 6 48 
Actions left: 2
Session index: 2

Observation: ..11
Reward -0
About to find best action in Step: 2
Foind best action in Step: 2
Coolie

Action Type: 2

Presence: 11111111111111111111111111111111111111111111110111111111111111111111111111111111
Invited Nodes: 6 48 
Actions left: 3
Session index: 3

Observation: ..
Reward 0
About to find best action in Step: 3
Foind best action in Step: 3
Coolie

Action Type: 2

Presence: 11111111111111111111111111111111111111111111111111111111111111111111111111111111
Invited Nodes: 6 48 
Actions left: 3
Session index: 4

Observation: ..
Reward 0
About to find best action in Step: 4
Foind best action in Step: 4
Coolie

Action Type: 2

Presence: 00000000000000000000000000000000000000000000000000000000000000000000000000000000
Invited Nodes: 6 48 
Actions left: 3
Session index: 5

Observation: ..
Reward 0
About to find best action in Step: 5
Foind best action in Step: 5
Coolie

Action Type: 2

Presence: 11111111111111111111111111111111111111111111111111111111111111111111111111111111
Invited Nodes: 6 48 
Actions left: 3
Session index: 6

Observation: ..
Reward 0
About to find best action in Step: 6
Foind best action in Step: 6
Coolie

Action Type: 2

Presence: 11111111111111111111111111111111111111111111111111111111111111111111111111111111
Invited Nodes: 6 48 
Actions left: 3
Session index: 7

Observation: ..
Reward 17.8
Terminated
Discounted return = 17.8, average = 17.1104
Undiscounted return = 17.8, average = 17.1104
Simulations = 1024
Runs = 20
Undiscounted return = 17.1104 +- 1.3267
Discounted return = 17.1104 +- 1.3267
Time = 29.582
----------------------------------------
Begin PBS Epilogue Thu Aug 31 03:00:19 PDT 2017
Job ID:           24124949.hpc-pbs1.hpcc.usc.edu
Username:         amulyaya
Accountname:      default
Group:            csci-ar
Job Name:         1.pbs
Session:          56718
Limits:           neednodes=1:ppn=16:sl230s,nodes=1:ppn=16:sl230s,walltime=24:00:00
Resources:        cput=00:09:56,energy_used=0,mem=53828472kb,vmem=51752208kb,walltime=00:09:57
Queue:            tambe
Shared Access:    no
Has MIC:          no
Is hsda:          false
removed '/scratch'
End PBS Epilogue Thu Aug 31 03:00:19 PDT 2017
----------------------------------------
