----------------------------------------
Begin PBS Prologue Thu Aug 31 05:35:01 PDT 2017
Job ID:            24124963.hpc-pbs1.hpcc.usc.edu
Username:          amulyaya
Accountname:       default
Group:             csci-ar
Project:           default
Name:              15.pbs
Queue:             tambe
Shared Access:     no
All Cores:         no
Has MIC:           no
Is hsda:           false
Nodes:             hpc3443 
TMPDIR:            /tmp/24124963.hpc-pbs1.hpcc.usc.edu
End PBS Prologue Thu Aug 31 05:35:02 PDT 2017
----------------------------------------
******************************************************************************
METIS 5.0 Copyright 1998-13, Regents of the University of Minnesota
 (HEAD: , Built on: Oct 20 2015, 01:33:37)
 size of idx_t: 64bits, real_t: 32bits, idx_t *: 64bits

Graph Information -----------------------------------------------------------
 Name: /home/rcf-proj/mj1/amulyaya/pomcp-ve/src/G0DPxs77OZ.txt, #Vertices: 80, #Edges: 461, #Parts: 8

Options ---------------------------------------------------------------------
 ptype=kway, objtype=cut, ctype=shem, rtype=greedy, iptype=metisrb
 dbglvl=0, ufactor=1.030, no2hop=NO, minconn=NO, contig=NO, nooutput=NO
 seed=-1, niter=10, ncuts=1

Direct k-way Partitioning ---------------------------------------------------
 - Edgecut: 264, communication volume: 365.

 - Balance:
     constraint #0:  1.000 out of 0.100

 - Most overweight partition:
     pid: 0, actual: 10, desired: 10, ratio: 1.00.

 - Subdomain connectivity: max: 7, min: 7, avg: 7.00

 - Each partition is contiguous.

Timing Information ----------------------------------------------------------
  I/O:          		   0.001 sec
  Partitioning: 		   0.008 sec   (METIS time)
  Reporting:    		   0.000 sec

Memory Information ----------------------------------------------------------
  Max memory used:		   0.106 MB
******************************************************************************
Initialising fast UCB table... done
Main runs
Starting run 1 with 1024 simulations... 

Presence: 00000000000000000000000000000000000000000000000000000000000000000000000000000000
Invited Nodes: 
Actions left: 3
Session index: 1
About to find best action in Step: 0
Values: 10.829(endSession) 15.4377(query) 15.1393(invite)
Foind best action in Step: 0
Coolie

Action Type: 0
Active Nodes: 70 73 

Presence: 00000000000000000000000000000000000000000000000000000000000000000000000000000000
Invited Nodes: 
Actions left: 2
Session index: 1

Observation: ..
Reward -0
About to find best action in Step: 1
Values: 16.056(endSession) 15.727(query) 15.2346(invite)
Foind best action in Step: 1
Coolie

Action Type: 2

Presence: 11111111111111111111111111111111111111111111111111111111111111111111111111111111
Invited Nodes: 
Actions left: 3
Session index: 2

Observation: ..
Reward 0
About to find best action in Step: 2
Values: 10.979(endSession) 15.4097(query) 15.0079(invite)
Foind best action in Step: 2
Coolie

Action Type: 0
Active Nodes: 9 53 

Presence: 11111111111111111111111111111111111111111111111111111111111111111111111111111111
Invited Nodes: 
Actions left: 2
Session index: 2

Observation: ..11
Reward -0
About to find best action in Step: 3
Values: 14.333(endSession) 14.8505(query) 15.3237(invite)
Foind best action in Step: 3
Coolie

Action Type: 1
Active Nodes: 29 38 

Presence: 11111111111111111111111111111111111111111111111111111111111111111111111111111111
Invited Nodes: 29 38 
Actions left: 1
Session index: 2

Observation: ..11
Reward -0
About to find best action in Step: 4
Foind best action in Step: 4
Coolie

Action Type: 2

Presence: 11111111111111111111111111111111111111111111111111111111111111111111111111111111
Invited Nodes: 29 38 
Actions left: 3
Session index: 3

Observation: ..
Reward 0
About to find best action in Step: 5
Foind best action in Step: 5
Coolie

Action Type: 2

Presence: 00000000000000000000000000000000000000000000000000000000000000000000000000000000
Invited Nodes: 29 38 
Actions left: 3
Session index: 4

Observation: ..
Reward 0
About to find best action in Step: 6
Foind best action in Step: 6
Coolie

Action Type: 2

Presence: 00000000000000000000000000000000000000000000000000000000000000000000000000000000
Invited Nodes: 29 38 
Actions left: 3
Session index: 5

Observation: ..
Reward 0
About to find best action in Step: 7
Foind best action in Step: 7
Coolie

Action Type: 2

Presence: 11111111111111111111111111111111111111111111111111111111111111111111111111111111
Invited Nodes: 29 38 
Actions left: 3
Session index: 6

Observation: ..
Reward 0
About to find best action in Step: 8
Foind best action in Step: 8
Coolie

Action Type: 2

Presence: 11111111111111111111111111111111111111111111111111111111111111111111111111111111
Invited Nodes: 29 38 
Actions left: 3
Session index: 7

Observation: ..
Reward 18.273
Terminated
Discounted return = 18.273, average = 18.273
Undiscounted return = 18.273, average = 18.273
Starting run 2 with 1024 simulations... 

Presence: 11111111111111111111111111111111111111111111111111111111111111111111111111111111
Invited Nodes: 
Actions left: 3
Session index: 1
About to find best action in Step: 0
Values: 14.605(endSession) 15.5996(query) 15.5547(invite)
Foind best action in Step: 0
Coolie

Action Type: 0
Active Nodes: 25 29 

Presence: 11111111111111111111111111111111111111111111111111111111111111111111111111111111
Invited Nodes: 
Actions left: 2
Session index: 1

Observation: ..11
Reward -0
About to find best action in Step: 1
Values: 17.175(endSession) 15.332(query) 15.6249(invite)
Foind best action in Step: 1
Coolie

Action Type: 2

Presence: 00000000000000000000000000000000000000000000000000000000000000000000000000000000
Invited Nodes: 
Actions left: 3
Session index: 2

Observation: ..
Reward 0
About to find best action in Step: 2
Values: 0(endSession) 15.3183(query) 14.9346(invite)
Foind best action in Step: 2
Coolie

Action Type: 0
Active Nodes: 21 74 

Presence: 00000000000000000000000000000000000000000000000000000000000000000000000000000000
Invited Nodes: 
Actions left: 2
Session index: 2

Observation: ..
Reward -0
About to find best action in Step: 3
Values: 13.812(endSession) 15.0606(query) 15.2363(invite)
Foind best action in Step: 3
Coolie

Action Type: 1
Active Nodes: 27 29 

Presence: 00000000000000000000000000000000000000000000000000000000000000000000000000000000
Invited Nodes: 
Actions left: 1
Session index: 2

Observation: ..
Reward -0
About to find best action in Step: 4
Values: 16.88(endSession) 14.9385(query) 14.9806(invite)
Foind best action in Step: 4
Coolie

Action Type: 2

Presence: 00000000000000000000000000000000000000000000000000000000000000000000000000000000
Invited Nodes: 
Actions left: 3
Session index: 3

Observation: ..
Reward 0
About to find best action in Step: 5
Values: 14.3(endSession) 14.6587(query) 14.992(invite)
Foind best action in Step: 5
Coolie

Action Type: 1
Active Nodes: 13 26 

Presence: 00000000000000000000000000000000000000000000000000000000000000000000000000000000
Invited Nodes: 
Actions left: 2
Session index: 3

Observation: ..
Reward -0
About to find best action in Step: 6
Values: 14.165(endSession) 14.0502(query) 14.4132(invite)
Foind best action in Step: 6
Coolie

Action Type: 1
Active Nodes: 2 38 

Presence: 00000000000000000000000000000000000000000000000000000000000000000000000000000000
Invited Nodes: 
Actions left: 1
Session index: 3

Observation: ..
Reward -0
About to find best action in Step: 7
Values: 16.052(endSession) 13.8717(query) 14.9771(invite)
Foind best action in Step: 7
Coolie

Action Type: 2

Presence: 11111111111111111111111111111111111111111111111111111111111111111111111111111111
Invited Nodes: 
Actions left: 3
Session index: 4

Observation: ..
Reward 0
About to find best action in Step: 8
Values: 0(endSession) 14.5691(query) 14.1534(invite)
Foind best action in Step: 8
Coolie

Action Type: 0
Active Nodes: 8 58 

Presence: 11111111111111111111111111111111111111111111111111111111111111111111111111111111
Invited Nodes: 
Actions left: 2
Session index: 4

Observation: ..11
Reward -0
About to find best action in Step: 9
Values: 13.499(endSession) 13.314(query) 14.7403(invite)
Foind best action in Step: 9
Coolie

Action Type: 1
Active Nodes: 6 60 

Presence: 11111111111111111111111111111111111111111111111111111111111111111111111111111111
Invited Nodes: 6 60 
Actions left: 1
Session index: 4

Observation: ..11
Reward -0
About to find best action in Step: 10
Foind best action in Step: 10
Coolie

Action Type: 2

Presence: 00000000000000000000000000000000000000000000000000000000000000000000000000000000
Invited Nodes: 6 60 
Actions left: 3
Session index: 5

Observation: ..
Reward 0
About to find best action in Step: 11
Foind best action in Step: 11
Coolie

Action Type: 2

Presence: 11111111111111111111111111111111111111111111111111111111111111111111111111111111
Invited Nodes: 6 60 
Actions left: 3
Session index: 6

Observation: ..
Reward 0
About to find best action in Step: 12
Foind best action in Step: 12
Coolie

Action Type: 2

Presence: 00000000000000000000000000000000000000000000000000000000000000000000000000000000
Invited Nodes: 6 60 
Actions left: 3
Session index: 7

Observation: ..
Reward 20.222
Terminated
Discounted return = 20.222, average = 19.2475
Undiscounted return = 20.222, average = 19.2475
Starting run 3 with 1024 simulations... 

Presence: 11111111111111111111111111111111111111111111111111111111111111111111111111111111
Invited Nodes: 
Actions left: 3
Session index: 1
About to find best action in Step: 0
Values: 16.189(endSession) 15.5578(query) 15.4963(invite)
Foind best action in Step: 0
Coolie

Action Type: 2

Presence: 00000000000000000000000000000000000000000000000000000000000000000000000000000000
Invited Nodes: 
Actions left: 3
Session index: 2

Observation: ..
Reward 0
About to find best action in Step: 1
Values: 12.362(endSession) 15.493(query) 15.2501(invite)
Foind best action in Step: 1
Coolie

Action Type: 0
Active Nodes: 31 34 

Presence: 00000000000000000000000000000000000000000000000000000000000000000000000000000000
Invited Nodes: 
Actions left: 2
Session index: 2

Observation: ..
Reward -0
About to find best action in Step: 2
Values: 14.284(endSession) 15.0375(query) 15.3409(invite)
Foind best action in Step: 2
Coolie

Action Type: 1
Active Nodes: 19 38 

Presence: 00000000000000000000000000000000000000000000000000000000000000000000000000000000
Invited Nodes: 
Actions left: 1
Session index: 2

Observation: ..
Reward -0
About to find best action in Step: 3
Values: 12.587(endSession) 14.986(query) 15.1801(invite)
Foind best action in Step: 3
Coolie

Action Type: 1
Active Nodes: 4 6 

Presence: 00000000000000000000000000000000000000000000000000000000000000000000000000000000
Invited Nodes: 
Actions left: 0
Session index: 2

Observation: ..
Reward -0
About to find best action in Step: 4
Foind best action in Step: 4
Coolie

Action Type: 2

Presence: 00000000000000000000000000000000000000000000000000000000000000000000000000000000
Invited Nodes: 
Actions left: 3
Session index: 3

Observation: ..
Reward 0
About to find best action in Step: 5
Values: 17.818(endSession) 14.7571(query) 14.7981(invite)
Foind best action in Step: 5
Coolie

Action Type: 2

Presence: 11111111111111111111111111111111111111111111111111111111111111111111111111111111
Invited Nodes: 
Actions left: 3
Session index: 4

Observation: ..
Reward 0
About to find best action in Step: 6
Values: 14.811(endSession) 13.8694(query) 14.349(invite)
Foind best action in Step: 6
Coolie

Action Type: 2

Presence: 00000000000000000000000000000000000000000000000000000000000000000000000000000000
Invited Nodes: 
Actions left: 3
Session index: 5

Observation: ..
Reward 0
About to find best action in Step: 7
Values: 0(endSession) 12.6112(query) 13.0352(invite)
Foind best action in Step: 7
Coolie

Action Type: 1
Active Nodes: 60 73 

Presence: 00000000000000000000000000000000000000000000000000000000000000000000000000000000
Invited Nodes: 
Actions left: 2
Session index: 5

Observation: ..
Reward -0
About to find best action in Step: 8
Values: 0(endSession) 9.67536(query) 11.1899(invite)
Foind best action in Step: 8
Coolie

Action Type: 1
Active Nodes: 4 36 

Presence: 00000000000000000000000000000000000000000000000000000000000000000000000000000000
Invited Nodes: 
Actions left: 1
Session index: 5

Observation: ..
Reward -0
About to find best action in Step: 9
Values: 0(endSession) 9.54424(query) 10.9189(invite)
Foind best action in Step: 9
Coolie

Action Type: 1
Active Nodes: 17 66 

Presence: 00000000000000000000000000000000000000000000000000000000000000000000000000000000
Invited Nodes: 
Actions left: 0
Session index: 5

Observation: ..
Reward -0
About to find best action in Step: 10
Foind best action in Step: 10
Coolie

Action Type: 2

Presence: 00000000000000000000000000000000000000000000000000000000000000000000000000000000
Invited Nodes: 
Actions left: 3
Session index: 6

Observation: ..
Reward 0
About to find best action in Step: 11
Values: 0(endSession) 8.57395(query) 9.34387(invite)
Foind best action in Step: 11
Coolie

Action Type: 1
Active Nodes: 34 52 

Presence: 00000000000000000000000000000000000000000000000000000000000000000000000000000000
Invited Nodes: 
Actions left: 2
Session index: 6

Observation: ..
Reward -0
About to find best action in Step: 12
Values: 0(endSession) 1.17195(query) 8.69429(invite)
Foind best action in Step: 12
Coolie

Action Type: 1
Active Nodes: 2 66 

Presence: 00000000000000000000000000000000000000000000000000000000000000000000000000000000
Invited Nodes: 
Actions left: 1
Session index: 6

Observation: ..
Reward -0
About to find best action in Step: 13
Values: 0(endSession) 0(query) 5.51295(invite)
Foind best action in Step: 13
Coolie

Action Type: 1
Active Nodes: 60 62 

Presence: 00000000000000000000000000000000000000000000000000000000000000000000000000000000
Invited Nodes: 
Actions left: 0
Session index: 6

Observation: ..
Reward -0
About to find best action in Step: 14
Foind best action in Step: 14
Coolie

Action Type: 2

Presence: 11111111111111111111111111111111111111111111111111111111111111111111111111111111
Invited Nodes: 
Actions left: 3
Session index: 7

Observation: ..
Reward 0
Terminated
Discounted return = 0, average = 12.8317
Undiscounted return = 0, average = 12.8317
Starting run 4 with 1024 simulations... 

Presence: 11111111111111111111111111111111111111111111111111111111111111111111111111111111
Invited Nodes: 
Actions left: 3
Session index: 1
About to find best action in Step: 0
Values: 17.335(endSession) 15.7033(query) 15.2452(invite)
Foind best action in Step: 0
Coolie

Action Type: 2

Presence: 11111111111111111111111111111111111111111111111111111111111111111111111111111111
Invited Nodes: 
Actions left: 3
Session index: 2

Observation: ..
Reward 0
About to find best action in Step: 1
Values: 0(endSession) 15.2652(query) 15.0584(invite)
Foind best action in Step: 1
Coolie

Action Type: 0
Active Nodes: 70 74 

Presence: 11111111111111111111111111111111111111111111111111111111111111111111111111111111
Invited Nodes: 
Actions left: 2
Session index: 2

Observation: ..11
Reward -0
About to find best action in Step: 2
Values: 14.681(endSession) 14.8746(query) 15.3346(invite)
Foind best action in Step: 2
Coolie

Action Type: 1
Active Nodes: 10 20 

Presence: 11111111111111111111111111111111111111111111111111111111111111111111111111111111
Invited Nodes: 10 20 
Actions left: 1
Session index: 2

Observation: ..11
Reward -0
About to find best action in Step: 3
Foind best action in Step: 3
Coolie

Action Type: 2

Presence: 00000000000000000000000000000000000000000000000000000000000000000000000000000000
Invited Nodes: 10 20 
Actions left: 3
Session index: 3

Observation: ..
Reward 0
About to find best action in Step: 4
Foind best action in Step: 4
Coolie

Action Type: 2

Presence: 11111111111111111111111111111111111111111111111111111111111111111111111111111111
Invited Nodes: 10 20 
Actions left: 3
Session index: 4

Observation: ..
Reward 0
About to find best action in Step: 5
Foind best action in Step: 5
Coolie

Action Type: 2

Presence: 11111111111111111111111111111111111111111111111111111111111111111111111111111111
Invited Nodes: 10 20 
Actions left: 3
Session index: 5

Observation: ..
Reward 0
About to find best action in Step: 6
Foind best action in Step: 6
Coolie

Action Type: 2

Presence: 00000000000000000000000000000000000000000000000000000000000000000000000000000000
Invited Nodes: 10 20 
Actions left: 3
Session index: 6

Observation: ..
Reward 0
About to find best action in Step: 7
Foind best action in Step: 7
Coolie

Action Type: 2

Presence: 11111111111111111111111111111111111111111111111111111111111111111111111111111111
Invited Nodes: 10 20 
Actions left: 3
Session index: 7

Observation: ..
Reward 19.059
Terminated
Discounted return = 19.059, average = 14.3885
Undiscounted return = 19.059, average = 14.3885
Starting run 5 with 1024 simulations... 

Presence: 11111111111111111111111111111111111111111111111111111111111111111111111111111111
Invited Nodes: 
Actions left: 3
Session index: 1
About to find best action in Step: 0
Values: 13.824(endSession) 15.6341(query) 15.279(invite)
Foind best action in Step: 0
Coolie

Action Type: 0
Active Nodes: 22 29 

Presence: 11111111111111111111111111111111111111111111111111111111111111111111111111111111
Invited Nodes: 
Actions left: 2
Session index: 1

Observation: ..11
Reward -0
About to find best action in Step: 1
Values: 14.301(endSession) 15.2333(query) 16.2017(invite)
Foind best action in Step: 1
Coolie

Action Type: 1
Active Nodes: 20 60 

Presence: 11111111111111111111111111111111111111111111111111111111111111111111111111111111
Invited Nodes: 20 60 
Actions left: 1
Session index: 1

Observation: ..11
Reward -0
About to find best action in Step: 2
Foind best action in Step: 2
Coolie

Action Type: 2

Presence: 11111111111111111111111111111111111111111111111111111111111111111111111111111111
Invited Nodes: 20 60 
Actions left: 3
Session index: 2

Observation: ..
Reward 0
About to find best action in Step: 3
Foind best action in Step: 3
Coolie

Action Type: 2

Presence: 11111111111111111111111111111111111111111111111111111111111111111111111111111111
Invited Nodes: 20 60 
Actions left: 3
Session index: 3

Observation: ..
Reward 0
About to find best action in Step: 4
Foind best action in Step: 4
Coolie

Action Type: 2

Presence: 00000000000000000000000000000000000000000000000000000000000000000000000000000000
Invited Nodes: 20 60 
Actions left: 3
Session index: 4

Observation: ..
Reward 0
About to find best action in Step: 5
Foind best action in Step: 5
Coolie

Action Type: 2

Presence: 00000000000000000000000000000000000000000000000000000000000000000000000000000000
Invited Nodes: 20 60 
Actions left: 3
Session index: 5

Observation: ..
Reward 0
About to find best action in Step: 6
Foind best action in Step: 6
Coolie

Action Type: 2

Presence: 11111111111111111111111111111111111111111111111111111111111111111111111111111111
Invited Nodes: 20 60 
Actions left: 3
Session index: 6

Observation: ..
Reward 0
About to find best action in Step: 7
Foind best action in Step: 7
Coolie

Action Type: 2

Presence: 11111111111111111111111111111111111111111111111111111111111111111111111111111111
Invited Nodes: 20 60 
Actions left: 3
Session index: 7

Observation: ..
Reward 20.688
Terminated
Discounted return = 20.688, average = 15.6484
Undiscounted return = 20.688, average = 15.6484
Starting run 6 with 1024 simulations... 

Presence: 00000000000000000000000000000000000000000000000000000000000000000000000000000000
Invited Nodes: 
Actions left: 3
Session index: 1
About to find best action in Step: 0
Values: 16.123(endSession) 15.7466(query) 15.5225(invite)
Foind best action in Step: 0
Coolie

Action Type: 2

Presence: 11111111111111111111111111111111111111111111111111111111111111111111111111111111
Invited Nodes: 
Actions left: 3
Session index: 2

Observation: ..
Reward 0
About to find best action in Step: 1
Values: 0(endSession) 15.5269(query) 15.21(invite)
Foind best action in Step: 1
Coolie

Action Type: 0
Active Nodes: 24 34 

Presence: 11111111111111111111111111111111111111111111111111111111111111111111111111111111
Invited Nodes: 
Actions left: 2
Session index: 2

Observation: ..11
Reward -0
About to find best action in Step: 2
Values: 15.464(endSession) 14.9733(query) 15.226(invite)
Foind best action in Step: 2
Coolie

Action Type: 2

Presence: 00000000000000000000000000000000000000000000000000000000000000000000000000000000
Invited Nodes: 
Actions left: 3
Session index: 3

Observation: ..
Reward 0
About to find best action in Step: 3
Values: 14.322(endSession) 15.1652(query) 15.2079(invite)
Foind best action in Step: 3
Coolie

Action Type: 1
Active Nodes: 13 38 

Presence: 00000000000000000000000000000000000000000000000000000000000000000000000000000000
Invited Nodes: 
Actions left: 2
Session index: 3

Observation: ..
Reward -0
About to find best action in Step: 4
Values: 0(endSession) 14.1447(query) 14.4458(invite)
Foind best action in Step: 4
Coolie

Action Type: 1
Active Nodes: 25 60 

Presence: 00000000000000000000000000000000000000000000000000000000000000000000000000000000
Invited Nodes: 
Actions left: 1
Session index: 3

Observation: ..
Reward -0
About to find best action in Step: 5
Values: 13.52(endSession) 13.918(query) 14.2584(invite)
Foind best action in Step: 5
Coolie

Action Type: 1
Active Nodes: 10 18 

Presence: 00000000000000000000000000000000000000000000000000000000000000000000000000000000
Invited Nodes: 
Actions left: 0
Session index: 3

Observation: ..
Reward -0
About to find best action in Step: 6
Foind best action in Step: 6
Coolie

Action Type: 2

Presence: 00000000000000000000000000000000000000000000000000000000000000000000000000000000
Invited Nodes: 
Actions left: 3
Session index: 4

Observation: ..
Reward 0
About to find best action in Step: 7
Values: 0(endSession) 14.2802(query) 14.1117(invite)
Foind best action in Step: 7
Coolie

Action Type: 0
Active Nodes: 8 9 

Presence: 00000000000000000000000000000000000000000000000000000000000000000000000000000000
Invited Nodes: 
Actions left: 2
Session index: 4

Observation: ..
Reward -0
About to find best action in Step: 8
Values: 15.465(endSession) 12.3805(query) 13.9182(invite)
Foind best action in Step: 8
Coolie

Action Type: 2

Presence: 11111111111111111111111111111111111111111111111111111111111111111111111111111111
Invited Nodes: 
Actions left: 3
Session index: 5

Observation: ..
Reward 0
About to find best action in Step: 9
Values: 14.141(endSession) 12.9568(query) 13.1695(invite)
Foind best action in Step: 9
Coolie

Action Type: 2

Presence: 00000000000000000000000000000000000000000000000000000000000000000000000000000000
Invited Nodes: 
Actions left: 3
Session index: 6

Observation: ..
Reward 0
About to find best action in Step: 10
Values: 0(endSession) 8.15448(query) 9.25028(invite)
Foind best action in Step: 10
Coolie

Action Type: 1
Active Nodes: 16 33 

Presence: 00000000000000000000000000000000000000000000000000000000000000000000000000000000
Invited Nodes: 
Actions left: 2
Session index: 6

Observation: ..
Reward -0
About to find best action in Step: 11
Values: 0(endSession) 1.14923(query) 8.77449(invite)
Foind best action in Step: 11
Coolie

Action Type: 1
Active Nodes: 10 60 

Presence: 00000000000000000000000000000000000000000000000000000000000000000000000000000000
Invited Nodes: 
Actions left: 1
Session index: 6

Observation: ..
Reward -0
About to find best action in Step: 12
Values: 0(endSession) 0(query) 4.9696(invite)
Foind best action in Step: 12
Coolie

Action Type: 1
Active Nodes: 2 44 

Presence: 00000000000000000000000000000000000000000000000000000000000000000000000000000000
Invited Nodes: 
Actions left: 0
Session index: 6

Observation: ..
Reward -0
About to find best action in Step: 13
Foind best action in Step: 13
Coolie

Action Type: 2

Presence: 00000000000000000000000000000000000000000000000000000000000000000000000000000000
Invited Nodes: 
Actions left: 3
Session index: 7

Observation: ..
Reward 0
Terminated
Discounted return = 0, average = 13.0403
Undiscounted return = 0, average = 13.0403
Starting run 7 with 1024 simulations... 

Presence: 11111111111111111111111111111111111111111111111111111111111111111111111111111111
Invited Nodes: 
Actions left: 3
Session index: 1
About to find best action in Step: 0
Values: 15.111(endSession) 15.6932(query) 15.4245(invite)
Foind best action in Step: 0
Coolie

Action Type: 0
Active Nodes: 0 8 

Presence: 11111111111111111111111111111111111111111111111111111111111111111111111111111111
Invited Nodes: 
Actions left: 2
Session index: 1

Observation: ..11
Reward -0
About to find best action in Step: 1
Values: 12.01(endSession) 15.475(query) 15.5066(invite)
Foind best action in Step: 1
Coolie

Action Type: 1
Active Nodes: 22 60 

Presence: 11111111111111111111111111111111111111111111111111111111111111111111111111111111
Invited Nodes: 22 60 
Actions left: 1
Session index: 1

Observation: ..11
Reward -0
About to find best action in Step: 2
Foind best action in Step: 2
Coolie

Action Type: 2

Presence: 00000000000000000000000000000000000000000000000000000000000000000000000000000000
Invited Nodes: 22 60 
Actions left: 3
Session index: 2

Observation: ..
Reward 0
About to find best action in Step: 3
Foind best action in Step: 3
Coolie

Action Type: 2

Presence: 11111111111111111111111111111111111111111111111111111111111111111111111111111111
Invited Nodes: 22 60 
Actions left: 3
Session index: 3

Observation: ..
Reward 0
About to find best action in Step: 4
Foind best action in Step: 4
Coolie

Action Type: 2

Presence: 11111111111111111111111111111111111111111111111111111111111111111111111111111111
Invited Nodes: 22 60 
Actions left: 3
Session index: 4

Observation: ..
Reward 0
About to find best action in Step: 5
Foind best action in Step: 5
Coolie

Action Type: 2

Presence: 11111111111111111111111111111111111111111111111111111111111111111111111111111111
Invited Nodes: 22 60 
Actions left: 3
Session index: 5

Observation: ..
Reward 0
About to find best action in Step: 6
Foind best action in Step: 6
Coolie

Action Type: 2

Presence: 11111111111111111111111111111111111111111111111111111111111111111111111111111111
Invited Nodes: 22 60 
Actions left: 3
Session index: 6

Observation: ..
Reward 0
About to find best action in Step: 7
Foind best action in Step: 7
Coolie

Action Type: 2

Presence: 11111111111111111111111111111111111111111111111111111111111111111111111111111111
Invited Nodes: 22 60 
Actions left: 3
Session index: 7

Observation: ..
Reward 19.148
Terminated
Discounted return = 19.148, average = 13.9129
Undiscounted return = 19.148, average = 13.9129
Starting run 8 with 1024 simulations... 

Presence: 11111111111111111111111111111111111111111111111111111111111111111111111111111111
Invited Nodes: 
Actions left: 3
Session index: 1
About to find best action in Step: 0
Values: 12.816(endSession) 15.6204(query) 15.6307(invite)
Foind best action in Step: 0
Coolie

Action Type: 1
Active Nodes: 10 20 

Presence: 11111111111111111111111111111111111111111111111111111111111111111111111111111111
Invited Nodes: 10 20 
Actions left: 2
Session index: 1

Observation: ..11
Reward -0
About to find best action in Step: 1
Foind best action in Step: 1
Coolie

Action Type: 2

Presence: 11111111111111111111111111111111111111111111111111111111111111111111111111111111
Invited Nodes: 10 20 
Actions left: 3
Session index: 2

Observation: ..
Reward 0
About to find best action in Step: 2
Foind best action in Step: 2
Coolie

Action Type: 2

Presence: 11111111111111111111111111111111111111111111111111111111111111111111111111111111
Invited Nodes: 10 20 
Actions left: 3
Session index: 3

Observation: ..
Reward 0
About to find best action in Step: 3
Foind best action in Step: 3
Coolie

Action Type: 2

Presence: 11111111111111111111111111111111111111111111111111111111111111111111111111111111
Invited Nodes: 10 20 
Actions left: 3
Session index: 4

Observation: ..
Reward 0
About to find best action in Step: 4
Foind best action in Step: 4
Coolie

Action Type: 2

Presence: 11111111111111111111111111111111111111111111111111111111111111111111111111111111
Invited Nodes: 10 20 
Actions left: 3
Session index: 5

Observation: ..
Reward 0
About to find best action in Step: 5
Foind best action in Step: 5
Coolie

Action Type: 2

Presence: 11111111111111111111111111111111111111111111111111111111111111111111111111111111
Invited Nodes: 10 20 
Actions left: 3
Session index: 6

Observation: ..
Reward 0
About to find best action in Step: 6
Foind best action in Step: 6
Coolie

Action Type: 2

Presence: 00000000000000000000000000000000000000000000000000000000000000000000000000000000
Invited Nodes: 10 20 
Actions left: 3
Session index: 7

Observation: ..
Reward 19.048
Terminated
Discounted return = 19.048, average = 14.5547
Undiscounted return = 19.048, average = 14.5547
Starting run 9 with 1024 simulations... 

Presence: 00000000000000000000000000000000000000000000000000000000000000000000000000000000
Invited Nodes: 
Actions left: 3
Session index: 1
About to find best action in Step: 0
Values: 17.103(endSession) 15.4416(query) 15.1889(invite)
Foind best action in Step: 0
Coolie

Action Type: 2

Presence: 11111111111111111111111111111111111111111111111111111111111111111111111111111111
Invited Nodes: 
Actions left: 3
Session index: 2

Observation: ..
Reward 0
About to find best action in Step: 1
Values: 18.387(endSession) 15.024(query) 15.1566(invite)
Foind best action in Step: 1
Coolie

Action Type: 2

Presence: 11111111111111111111111111111111111111111111111111111111111111111111111111111111
Invited Nodes: 
Actions left: 3
Session index: 3

Observation: ..
Reward 0
About to find best action in Step: 2
Values: 15.827(endSession) 15.0825(query) 14.6947(invite)
Foind best action in Step: 2
Coolie

Action Type: 2

Presence: 11111111111111111111111111111111111111111111111111111111111111111111111111111111
Invited Nodes: 
Actions left: 3
Session index: 4

Observation: ..
Reward 0
About to find best action in Step: 3
Values: 16.229(endSession) 14.1476(query) 14.4001(invite)
Foind best action in Step: 3
Coolie

Action Type: 2

Presence: 11111111111111111111111111111111111111111111111111111111111111111111111111111111
Invited Nodes: 
Actions left: 3
Session index: 5

Observation: ..
Reward 0
About to find best action in Step: 4
Values: 0(endSession) 12.4257(query) 13.0751(invite)
Foind best action in Step: 4
Coolie

Action Type: 1
Active Nodes: 43 66 

Presence: 11111111111111111111111111111111111111111111111111111111111111111111111111111111
Invited Nodes: 43 66 
Actions left: 2
Session index: 5

Observation: ..11
Reward -0
About to find best action in Step: 5
Foind best action in Step: 5
Coolie

Action Type: 2

Presence: 00000000000000000000000000000000000000000000000000000000000000000000000000000000
Invited Nodes: 43 66 
Actions left: 3
Session index: 6

Observation: ..
Reward 0
About to find best action in Step: 6
Foind best action in Step: 6
Coolie

Action Type: 2

Presence: 11111111111111111111111111111111111111111111111111111111111111111111111111111111
Invited Nodes: 43 66 
Actions left: 3
Session index: 7

Observation: ..
Reward 17.892
Terminated
Discounted return = 17.892, average = 14.9256
Undiscounted return = 17.892, average = 14.9256
Starting run 10 with 1024 simulations... 

Presence: 00000000000000000000000000000000000000000000000000000000000000000000000000000000
Invited Nodes: 
Actions left: 3
Session index: 1
About to find best action in Step: 0
Values: 15.069(endSession) 15.6379(query) 15.4331(invite)
Foind best action in Step: 0
Coolie

Action Type: 0
Active Nodes: 10 12 

Presence: 00000000000000000000000000000000000000000000000000000000000000000000000000000000
Invited Nodes: 
Actions left: 2
Session index: 1

Observation: ..
Reward -0
About to find best action in Step: 1
Values: 18.346(endSession) 15.4132(query) 15.4499(invite)
Foind best action in Step: 1
Coolie

Action Type: 2

Presence: 11111111111111111111111111111111111111111111111111111111111111111111111111111111
Invited Nodes: 
Actions left: 3
Session index: 2

Observation: ..
Reward 0
About to find best action in Step: 2
Values: 17.75(endSession) 15.3044(query) 14.9317(invite)
Foind best action in Step: 2
Coolie

Action Type: 2

Presence: 00000000000000000000000000000000000000000000000000000000000000000000000000000000
Invited Nodes: 
Actions left: 3
Session index: 3

Observation: ..
Reward 0
About to find best action in Step: 3
Values: 12.49(endSession) 14.8565(query) 14.8221(invite)
Foind best action in Step: 3
Coolie

Action Type: 0
Active Nodes: 7 9 

Presence: 00000000000000000000000000000000000000000000000000000000000000000000000000000000
Invited Nodes: 
Actions left: 2
Session index: 3

Observation: ..
Reward -0
About to find best action in Step: 4
Values: 0(endSession) 14.5305(query) 14.564(invite)
Foind best action in Step: 4
Coolie

Action Type: 1
Active Nodes: 47 69 

Presence: 00000000000000000000000000000000000000000000000000000000000000000000000000000000
Invited Nodes: 
Actions left: 1
Session index: 3

Observation: ..
Reward -0
About to find best action in Step: 5
Values: 15.5(endSession) 14.5954(query) 14.5853(invite)
Foind best action in Step: 5
Coolie

Action Type: 2

Presence: 11111111111111111111111111111111111111111111111111111111111111111111111111111111
Invited Nodes: 
Actions left: 3
Session index: 4

Observation: ..
Reward 0
About to find best action in Step: 6
Values: 16.729(endSession) 14.5212(query) 14.5914(invite)
Foind best action in Step: 6
Coolie

Action Type: 2

Presence: 11111111111111111111111111111111111111111111111111111111111111111111111111111111
Invited Nodes: 
Actions left: 3
Session index: 5

Observation: ..
Reward 0
About to find best action in Step: 7
Values: 0(endSession) 12.8058(query) 12.4819(invite)
Foind best action in Step: 7
Coolie

Action Type: 0
Active Nodes: 52 72 

Presence: 11111111111111111111111111111111111111111111111111111111111111111111111111111111
Invited Nodes: 
Actions left: 2
Session index: 5

Observation: ..11
Reward -0
About to find best action in Step: 8
Values: 13.078(endSession) 9.47754(query) 14.1491(invite)
Foind best action in Step: 8
Coolie

Action Type: 1
Active Nodes: 13 38 

Presence: 11111111111111111111111111111111111111111111111111111111111111111111111111111111
Invited Nodes: 13 38 
Actions left: 1
Session index: 5

Observation: ..11
Reward -0
About to find best action in Step: 9
Foind best action in Step: 9
Coolie

Action Type: 2

Presence: 11111111111111111111111111111111111111111111111111111111111111111111111111111111
Invited Nodes: 13 38 
Actions left: 3
Session index: 6

Observation: ..
Reward 0
About to find best action in Step: 10
Foind best action in Step: 10
Coolie

Action Type: 2

Presence: 11111111111111111111111111111111111111111111111111111111111111111111111111111111
Invited Nodes: 13 38 
Actions left: 3
Session index: 7

Observation: ..
Reward 20.426
Terminated
Discounted return = 20.426, average = 15.4756
Undiscounted return = 20.426, average = 15.4756
Starting run 11 with 1024 simulations... 

Presence: 00000000000000000000000000000000000000000000000000000000000000000000000000000000
Invited Nodes: 
Actions left: 3
Session index: 1
About to find best action in Step: 0
Values: 16.052(endSession) 15.6549(query) 15.4847(invite)
Foind best action in Step: 0
Coolie

Action Type: 2

Presence: 00000000000000000000000000000000000000000000000000000000000000000000000000000000
Invited Nodes: 
Actions left: 3
Session index: 2

Observation: ..
Reward 0
About to find best action in Step: 1
Values: 15.938(endSession) 15.2939(query) 15.2591(invite)
Foind best action in Step: 1
Coolie

Action Type: 2

Presence: 11111111111111111111111111111111111111111111111111111111111111111111111111111111
Invited Nodes: 
Actions left: 3
Session index: 3

Observation: ..
Reward 0
About to find best action in Step: 2
Values: 15.432(endSession) 15.0763(query) 14.6343(invite)
Foind best action in Step: 2
Coolie

Action Type: 2

Presence: 11111111111111111111111111111111111111111111111111111111111111111111111111111111
Invited Nodes: 
Actions left: 3
Session index: 4

Observation: ..
Reward 0
About to find best action in Step: 3
Values: 12.233(endSession) 14.4166(query) 14.0867(invite)
Foind best action in Step: 3
Coolie

Action Type: 0
Active Nodes: 31 32 

Presence: 11111111111111111111111111111111111111111111111111111111111111111111111111111111
Invited Nodes: 
Actions left: 2
Session index: 4

Observation: ..11
Reward -0
About to find best action in Step: 4
Values: 15.873(endSession) 12.7094(query) 15.329(invite)
Foind best action in Step: 4
Coolie

Action Type: 2

Presence: 11111111111111111111111111111111111111111111111111111111111111111111111111111111
Invited Nodes: 
Actions left: 3
Session index: 5

Observation: ..
Reward 0
About to find best action in Step: 5
Values: 15.445(endSession) 12.2375(query) 12.7028(invite)
Foind best action in Step: 5
Coolie

Action Type: 2

Presence: 11111111111111111111111111111111111111111111111111111111111111111111111111111111
Invited Nodes: 
Actions left: 3
Session index: 6

Observation: ..
Reward 0
About to find best action in Step: 6
Values: 0(endSession) 8.87169(query) 9.11289(invite)
Foind best action in Step: 6
Coolie

Action Type: 1
Active Nodes: 2 62 

Presence: 11111111111111111111111111111111111111111111111111111111111111111111111111111111
Invited Nodes: 2 62 
Actions left: 2
Session index: 6

Observation: ..11
Reward -0
About to find best action in Step: 7
Foind best action in Step: 7
Coolie

Action Type: 2

Presence: 11111111111111111111111111111111111111111111111111111111111111111111111111111111
Invited Nodes: 2 62 
Actions left: 3
Session index: 7

Observation: ..
Reward 16.66
Terminated
Discounted return = 16.66, average = 15.5833
Undiscounted return = 16.66, average = 15.5833
Starting run 12 with 1024 simulations... 

Presence: 11111111111111111111111111111111111111111111111111111111111111111111111111111111
Invited Nodes: 
Actions left: 3
Session index: 1
About to find best action in Step: 0
Values: 16.933(endSession) 15.7385(query) 15.3712(invite)
Foind best action in Step: 0
Coolie

Action Type: 2

Presence: 11111111111111111111111111111111111111111111111111111111111111111111111111111111
Invited Nodes: 
Actions left: 3
Session index: 2

Observation: ..
Reward 0
About to find best action in Step: 1
Values: 13.492(endSession) 15.2546(query) 15.2469(invite)
Foind best action in Step: 1
Coolie

Action Type: 0
Active Nodes: 55 59 

Presence: 11111111111111111111111111111111111111111111111111111111111111111111111111111111
Invited Nodes: 
Actions left: 2
Session index: 2

Observation: ..11
Reward -0
About to find best action in Step: 2
Values: 16.924(endSession) 15.2388(query) 15.404(invite)
Foind best action in Step: 2
Coolie

Action Type: 2

Presence: 11111111111111111111111111111111111111111111111111111111111111111111111111111111
Invited Nodes: 
Actions left: 3
Session index: 3

Observation: ..
Reward 0
About to find best action in Step: 3
Values: 15.324(endSession) 15.3181(query) 14.9497(invite)
Foind best action in Step: 3
Coolie

Action Type: 2

Presence: 11111111111111111111111111111111111111111111111111111111111111111111111111111111
Invited Nodes: 
Actions left: 3
Session index: 4

Observation: ..
Reward 0
About to find best action in Step: 4
Values: 12.392(endSession) 14.5231(query) 14.6649(invite)
Foind best action in Step: 4
Coolie

Action Type: 1
Active Nodes: 38 75 

Presence: 11111111111111111111111111111111111111111111111111111111111111111111111111111111
Invited Nodes: 38 75 
Actions left: 2
Session index: 4

Observation: ..11
Reward -0
About to find best action in Step: 5
Foind best action in Step: 5
Coolie

Action Type: 2

Presence: 11111111111111111111111111111111111111111111111111111111111111111111111111111111
Invited Nodes: 38 75 
Actions left: 3
Session index: 5

Observation: ..
Reward 0
About to find best action in Step: 6
Foind best action in Step: 6
Coolie

Action Type: 2

Presence: 11111111111111111111111111111111111111111111111111111111111111111111111111111111
Invited Nodes: 38 75 
Actions left: 3
Session index: 6

Observation: ..
Reward 0
About to find best action in Step: 7
Foind best action in Step: 7
Coolie

Action Type: 2

Presence: 11111111111111111111111111111111111111111111111111111111111111111111111111111111
Invited Nodes: 38 75 
Actions left: 3
Session index: 7

Observation: ..
Reward 19.601
Terminated
Discounted return = 19.601, average = 15.9181
Undiscounted return = 19.601, average = 15.9181
Starting run 13 with 1024 simulations... 

Presence: 11111111111111111111111111111111111111111111111111111111111111111111111111111111
Invited Nodes: 
Actions left: 3
Session index: 1
About to find best action in Step: 0
Values: 15.628(endSession) 15.5739(query) 15.3605(invite)
Foind best action in Step: 0
Coolie

Action Type: 2

Presence: 00000000000000000000000000000000000000000000000000000000000000000000000000000000
Invited Nodes: 
Actions left: 3
Session index: 2

Observation: ..
Reward 0
About to find best action in Step: 1
Values: 15.329(endSession) 15.5183(query) 15.0167(invite)
Foind best action in Step: 1
Coolie

Action Type: 0
Active Nodes: 36 39 

Presence: 00000000000000000000000000000000000000000000000000000000000000000000000000000000
Invited Nodes: 
Actions left: 2
Session index: 2

Observation: ..
Reward -0
About to find best action in Step: 2
Values: 12.382(endSession) 15.1035(query) 15.1113(invite)
Foind best action in Step: 2
Coolie

Action Type: 1
Active Nodes: 10 12 

Presence: 00000000000000000000000000000000000000000000000000000000000000000000000000000000
Invited Nodes: 
Actions left: 1
Session index: 2

Observation: ..
Reward -0
About to find best action in Step: 3
Values: 17.065(endSession) 15.2842(query) 14.9891(invite)
Foind best action in Step: 3
Coolie

Action Type: 2

Presence: 00000000000000000000000000000000000000000000000000000000000000000000000000000000
Invited Nodes: 
Actions left: 3
Session index: 3

Observation: ..
Reward 0
About to find best action in Step: 4
Values: 0(endSession) 14.7824(query) 14.6525(invite)
Foind best action in Step: 4
Coolie

Action Type: 0
Active Nodes: 45 76 

Presence: 00000000000000000000000000000000000000000000000000000000000000000000000000000000
Invited Nodes: 
Actions left: 2
Session index: 3

Observation: ..
Reward -0
About to find best action in Step: 5
Values: 14.108(endSession) 14.3812(query) 14.9002(invite)
Foind best action in Step: 5
Coolie

Action Type: 1
Active Nodes: 23 43 

Presence: 00000000000000000000000000000000000000000000000000000000000000000000000000000000
Invited Nodes: 
Actions left: 1
Session index: 3

Observation: ..
Reward -0
About to find best action in Step: 6
Values: 14.125(endSession) 14.3526(query) 14.052(invite)
Foind best action in Step: 6
Coolie

Action Type: 0
Active Nodes: 43 48 

Presence: 00000000000000000000000000000000000000000000000000000000000000000000000000000000
Invited Nodes: 
Actions left: 0
Session index: 3

Observation: ..
Reward -0
About to find best action in Step: 7
Foind best action in Step: 7
Coolie

Action Type: 2

Presence: 11111111111111111111111111111111111111111111111111111111111111111111111111111111
Invited Nodes: 
Actions left: 3
Session index: 4

Observation: ..
Reward 0
About to find best action in Step: 8
Values: 0(endSession) 13.9593(query) 13.7002(invite)
Foind best action in Step: 8
Coolie

Action Type: 0
Active Nodes: 63 66 

Presence: 11111111111111111111111111111111111111111111111111111111111111111111111111111111
Invited Nodes: 
Actions left: 2
Session index: 4

Observation: ..11
Reward -0
About to find best action in Step: 9
Values: 15.615(endSession) 12.6811(query) 13.9697(invite)
Foind best action in Step: 9
Coolie

Action Type: 2

Presence: 00000000000000000000000000000000000000000000000000000000000000000000000000000000
Invited Nodes: 
Actions left: 3
Session index: 5

Observation: ..
Reward 0
About to find best action in Step: 10
Values: 17.31(endSession) 12.6494(query) 12.3305(invite)
Foind best action in Step: 10
Coolie

Action Type: 2

Presence: 10011011011111111111111111011100001000000000000000111111111101000001000010111100
Invited Nodes: 
Actions left: 3
Session index: 6

Observation: ..
Reward 0
About to find best action in Step: 11
Values: 0(endSession) 8.81386(query) 9.54978(invite)
Foind best action in Step: 11
Coolie

Action Type: 1
Active Nodes: 5 24 

Presence: 10011011011111111111111111011100001000000000000000111111111101000001000010111100
Invited Nodes: 24 
Actions left: 2
Session index: 6

Observation: ..10
Reward -0
About to find best action in Step: 12
Values: 9.383(endSession) 9.4139(query) 13.2403(invite)
Foind best action in Step: 12
Coolie

Action Type: 1
Active Nodes: 13 

Presence: 10011011011111111111111111011100001000000000000000111111111101000001000010111100
Invited Nodes: 13 24 
Actions left: 1
Session index: 6

Observation: ..1
Reward -0
About to find best action in Step: 13
Foind best action in Step: 13
Coolie

Action Type: 2

Presence: 00000000000000000000000000000000000000000000000000000000000000000000000000000000
Invited Nodes: 13 24 
Actions left: 3
Session index: 7

Observation: ..
Reward 18.271
Terminated
Discounted return = 18.271, average = 16.0991
Undiscounted return = 18.271, average = 16.0991
Starting run 14 with 1024 simulations... 

Presence: 11111111111111111111111111111111111111111111111111111111111111111111111111111111
Invited Nodes: 
Actions left: 3
Session index: 1
About to find best action in Step: 0
Values: 14.128(endSession) 15.5459(query) 15.5303(invite)
Foind best action in Step: 0
Coolie

Action Type: 0
Active Nodes: 61 64 

Presence: 11111111111111111111111111111111111111111111111111111111111111111111111111111111
Invited Nodes: 
Actions left: 2
Session index: 1

Observation: ..11
Reward -0
About to find best action in Step: 1
Values: 15.578(endSession) 15.1509(query) 15.3282(invite)
Foind best action in Step: 1
Coolie

Action Type: 2

Presence: 00000000000000000000000000000000000000000000000000000000000000000000000000000000
Invited Nodes: 
Actions left: 3
Session index: 2

Observation: ..
Reward 0
About to find best action in Step: 2
Values: 14.535(endSession) 15.4013(query) 15.4498(invite)
Foind best action in Step: 2
Coolie

Action Type: 1
Active Nodes: 20 60 

Presence: 00000000000000000000000000000000000000000000000000000000000000000000000000000000
Invited Nodes: 
Actions left: 2
Session index: 2

Observation: ..
Reward -0
About to find best action in Step: 3
Values: 15.919(endSession) 15.0899(query) 15.142(invite)
Foind best action in Step: 3
Coolie

Action Type: 2

Presence: 00000000000000000000000000000000000000000000000000000000000000000000000000000000
Invited Nodes: 
Actions left: 3
Session index: 3

Observation: ..
Reward 0
About to find best action in Step: 4
Values: 14.731(endSession) 14.9194(query) 14.6099(invite)
Foind best action in Step: 4
Coolie

Action Type: 0
Active Nodes: 60 64 

Presence: 00000000000000000000000000000000000000000000000000000000000000000000000000000000
Invited Nodes: 
Actions left: 2
Session index: 3

Observation: ..
Reward -0
About to find best action in Step: 5
Values: 17.712(endSession) 14.1212(query) 14.6746(invite)
Foind best action in Step: 5
Coolie

Action Type: 2

Presence: 00000000000000000000000000000000000000000000000000000000000000000000000000000000
Invited Nodes: 
Actions left: 3
Session index: 4

Observation: ..
Reward 0
About to find best action in Step: 6
Values: 13.406(endSession) 13.6963(query) 15.0444(invite)
Foind best action in Step: 6
Coolie

Action Type: 1
Active Nodes: 13 38 

Presence: 00000000000000000000000000000000000000000000000000000000000000000000000000000000
Invited Nodes: 
Actions left: 2
Session index: 4

Observation: ..
Reward -0
About to find best action in Step: 7
Values: 13.315(endSession) 12.2411(query) 12.8672(invite)
Foind best action in Step: 7
Coolie

Action Type: 2

Presence: 11111111111111111111111111111111111111111111111111111111111111111111111111111111
Invited Nodes: 
Actions left: 3
Session index: 5

Observation: ..
Reward 0
About to find best action in Step: 8
Values: 14.83(endSession) 12.1191(query) 12.3076(invite)
Foind best action in Step: 8
Coolie

Action Type: 2

Presence: 11111111111111111111111111111111111111111111111111111111111111111111111111111111
Invited Nodes: 
Actions left: 3
Session index: 6

Observation: ..
Reward 0
About to find best action in Step: 9
Values: 0(endSession) 9.05577(query) 8.974(invite)
Foind best action in Step: 9
Coolie

Action Type: 0
Active Nodes: 37 39 

Presence: 11111111111111111111111111111111111111111111111111111111111111111111111111111111
Invited Nodes: 
Actions left: 2
Session index: 6

Observation: ..11
Reward -0
About to find best action in Step: 10
Values: 0(endSession) 1.52635(query) 10.9414(invite)
Foind best action in Step: 10
Coolie

Action Type: 1
Active Nodes: 38 53 

Presence: 11111111111111111111111111111111111111111111111111111111111111111111111111111111
Invited Nodes: 38 53 
Actions left: 1
Session index: 6

Observation: ..11
Reward -0
About to find best action in Step: 11
Foind best action in Step: 11
Coolie

Action Type: 2

Presence: 11111111111111111111111111111111111111111111111111111111111111111111111111111111
Invited Nodes: 38 53 
Actions left: 3
Session index: 7

Observation: ..
Reward 19.293
Terminated
Discounted return = 19.293, average = 16.3272
Undiscounted return = 19.293, average = 16.3272
Starting run 15 with 1024 simulations... 

Presence: 11111111111111111111111111111111111111111111111111111111111111111111111111111111
Invited Nodes: 
Actions left: 3
Session index: 1
About to find best action in Step: 0
Values: 14.313(endSession) 15.4417(query) 15.4017(invite)
Foind best action in Step: 0
Coolie

Action Type: 0
Active Nodes: 9 35 

Presence: 11111111111111111111111111111111111111111111111111111111111111111111111111111111
Invited Nodes: 
Actions left: 2
Session index: 1

Observation: ..11
Reward -0
About to find best action in Step: 1
Values: 14.905(endSession) 15.4612(query) 15.9975(invite)
Foind best action in Step: 1
Coolie

Action Type: 1
Active Nodes: 60 73 

Presence: 11111111111111111111111111111111111111111111111111111111111111111111111111111111
Invited Nodes: 60 73 
Actions left: 1
Session index: 1

Observation: ..11
Reward -0
About to find best action in Step: 2
Foind best action in Step: 2
Coolie

Action Type: 2

Presence: 00000000000000000000000000000000000000000000000000000000000000000000000000000000
Invited Nodes: 60 73 
Actions left: 3
Session index: 2

Observation: ..
Reward 0
About to find best action in Step: 3
Foind best action in Step: 3
Coolie

Action Type: 2

Presence: 00000000000000000000000000000000000000000000000000000000000000000000000000000000
Invited Nodes: 60 73 
Actions left: 3
Session index: 3

Observation: ..
Reward 0
About to find best action in Step: 4
Foind best action in Step: 4
Coolie

Action Type: 2

Presence: 00000000000000000000000000000000000000000000000000000000000000000000000000000000
Invited Nodes: 60 73 
Actions left: 3
Session index: 4

Observation: ..
Reward 0
About to find best action in Step: 5
Foind best action in Step: 5
Coolie

Action Type: 2

Presence: 11111111111111111111111111111111111111111111111111111111111111111111111111111111
Invited Nodes: 60 73 
Actions left: 3
Session index: 5

Observation: ..
Reward 0
About to find best action in Step: 6
Foind best action in Step: 6
Coolie

Action Type: 2

Presence: 00000000000000000000000000000000000000000000000000000000000000000000000000000000
Invited Nodes: 60 73 
Actions left: 3
Session index: 6

Observation: ..
Reward 0
About to find best action in Step: 7
Foind best action in Step: 7
Coolie

Action Type: 2

Presence: 11111111111111111111111111111111111111111111111111111111111111110111111111111111
Invited Nodes: 60 73 
Actions left: 3
Session index: 7

Observation: ..
Reward 20.784
Terminated
Discounted return = 20.784, average = 16.6243
Undiscounted return = 20.784, average = 16.6243
Starting run 16 with 1024 simulations... 

Presence: 00000000000000000000000000000000000000000000000000000000000000000000000000000000
Invited Nodes: 
Actions left: 3
Session index: 1
About to find best action in Step: 0
Values: 17.089(endSession) 15.7563(query) 15.2382(invite)
Foind best action in Step: 0
Coolie

Action Type: 2

Presence: 00000000000000000000000000000000000000000000000000000000000000000000000000000000
Invited Nodes: 
Actions left: 3
Session index: 2

Observation: ..
Reward 0
About to find best action in Step: 1
Values: 15.666(endSession) 15.508(query) 15.863(invite)
Foind best action in Step: 1
Coolie

Action Type: 1
Active Nodes: 13 38 

Presence: 00000000000000000000000000000000000000000000000000000000000000000000000000000000
Invited Nodes: 
Actions left: 2
Session index: 2

Observation: ..
Reward -0
About to find best action in Step: 2
Values: 17.831(endSession) 14.9721(query) 15.1523(invite)
Foind best action in Step: 2
Coolie

Action Type: 2

Presence: 00000000000000000000000000000000000000000000000000000000000000000000000000000000
Invited Nodes: 
Actions left: 3
Session index: 3

Observation: ..
Reward 0
About to find best action in Step: 3
Values: 14.963(endSession) 14.9702(query) 14.8635(invite)
Foind best action in Step: 3
Coolie

Action Type: 0
Active Nodes: 75 79 

Presence: 00000000000000000000000000000000000000000000000000000000000000000000000000000000
Invited Nodes: 
Actions left: 2
Session index: 3

Observation: ..
Reward -0
About to find best action in Step: 4
Values: 16.566(endSession) 14.4668(query) 14.631(invite)
Foind best action in Step: 4
Coolie

Action Type: 2

Presence: 11111111111111111111111111111111111111111111111111111111111111111111111111111111
Invited Nodes: 
Actions left: 3
Session index: 4

Observation: ..
Reward 0
About to find best action in Step: 5
Values: 7.007(endSession) 13.8946(query) 13.7633(invite)
Foind best action in Step: 5
Coolie

Action Type: 0
Active Nodes: 48 49 

Presence: 11111111111111111111111111111111111111111111111111111111111111111111111111111111
Invited Nodes: 
Actions left: 2
Session index: 4

Observation: ..11
Reward -0
About to find best action in Step: 6
Values: 18.868(endSession) 12.9817(query) 14.3141(invite)
Foind best action in Step: 6
Coolie

Action Type: 2

Presence: 00000000000000000000000000000000000000000000000000000000000000000000000000000000
Invited Nodes: 
Actions left: 3
Session index: 5

Observation: ..
Reward 0
About to find best action in Step: 7
Values: 15.477(endSession) 12.3552(query) 12.6777(invite)
Foind best action in Step: 7
Coolie

Action Type: 2

Presence: 11111111111111111111111111111111111111111111111111111111111111111111111111111111
Invited Nodes: 
Actions left: 3
Session index: 6

Observation: ..
Reward 0
About to find best action in Step: 8
Values: 0(endSession) 9.27422(query) 10.1814(invite)
Foind best action in Step: 8
Coolie

Action Type: 1
Active Nodes: 10 20 

Presence: 11111111111111111111111111111111111111111111111111111111111111111111111111111111
Invited Nodes: 10 20 
Actions left: 2
Session index: 6

Observation: ..11
Reward -0
About to find best action in Step: 9
Foind best action in Step: 9
Coolie

Action Type: 2

Presence: 00000000000000000000000000000000000000000000000000000000000000000000000000000000
Invited Nodes: 10 20 
Actions left: 3
Session index: 7

Observation: ..
Reward 19.059
Terminated
Discounted return = 19.059, average = 16.7765
Undiscounted return = 19.059, average = 16.7765
Starting run 17 with 1024 simulations... 

Presence: 11111111111111111111111111111111111111111111111111111111111111111111111111111111
Invited Nodes: 
Actions left: 3
Session index: 1
About to find best action in Step: 0
Values: 13.727(endSession) 15.7862(query) 15.05(invite)
Foind best action in Step: 0
Coolie

Action Type: 0
Active Nodes: 11 12 

Presence: 11111111111111111111111111111111111111111111111111111111111111111111111111111111
Invited Nodes: 
Actions left: 2
Session index: 1

Observation: ..11
Reward -0
About to find best action in Step: 1
Values: 13.299(endSession) 15.617(query) 15.533(invite)
Foind best action in Step: 1
Coolie

Action Type: 0
Active Nodes: 11 15 

Presence: 11111111111111111111111111111111111111111111111111111111111111111111111111111111
Invited Nodes: 
Actions left: 1
Session index: 1

Observation: ..11
Reward -0
About to find best action in Step: 2
Values: 15.203(endSession) 15.3677(query) 15.4925(invite)
Foind best action in Step: 2
Coolie

Action Type: 1
Active Nodes: 13 66 

Presence: 11111111111111111111111111111111111111111111111111111111111111111111111111111111
Invited Nodes: 13 66 
Actions left: 0
Session index: 1

Observation: ..11
Reward -0
About to find best action in Step: 3
Foind best action in Step: 3
Coolie

Action Type: 2

Presence: 00000000000000000000000000000000000000000000000000000000000000000000000000000000
Invited Nodes: 13 66 
Actions left: 3
Session index: 2

Observation: ..
Reward 0
About to find best action in Step: 4
Foind best action in Step: 4
Coolie

Action Type: 2

Presence: 00000000000000000000000000000000000000000000000000000000000000000000000000000000
Invited Nodes: 13 66 
Actions left: 3
Session index: 3

Observation: ..
Reward 0
About to find best action in Step: 5
Foind best action in Step: 5
Coolie

Action Type: 2

Presence: 11111111111111111111111111111111111111111111111111111111111111111111111111111111
Invited Nodes: 13 66 
Actions left: 3
Session index: 4

Observation: ..
Reward 0
About to find best action in Step: 6
Foind best action in Step: 6
Coolie

Action Type: 2

Presence: 11111111111111111111111111111111111111111111111111111111111111111111111111111111
Invited Nodes: 13 66 
Actions left: 3
Session index: 5

Observation: ..
Reward 0
About to find best action in Step: 7
Foind best action in Step: 7
Coolie

Action Type: 2

Presence: 00000000000000000000000000000000000000000000000000000000000000000000000000000000
Invited Nodes: 13 66 
Actions left: 3
Session index: 6

Observation: ..
Reward 0
About to find best action in Step: 8
Foind best action in Step: 8
Coolie

Action Type: 2

Presence: 00000000000000000000000000000000000000000000000000000000000000000000000000000000
Invited Nodes: 13 66 
Actions left: 3
Session index: 7

Observation: ..
Reward 19.874
Terminated
Discounted return = 19.874, average = 16.9587
Undiscounted return = 19.874, average = 16.9587
Starting run 18 with 1024 simulations... 

Presence: 11111111111111111111111111111111111111111111111111111111111111111111111111111111
Invited Nodes: 
Actions left: 3
Session index: 1
About to find best action in Step: 0
Values: 14.494(endSession) 15.4736(query) 15.8287(invite)
Foind best action in Step: 0
Coolie

Action Type: 1
Active Nodes: 19 60 

Presence: 11111111111111111111111111111111111111111111111111111111111111111111111111111111
Invited Nodes: 19 60 
Actions left: 2
Session index: 1

Observation: ..11
Reward -0
About to find best action in Step: 1
Foind best action in Step: 1
Coolie

Action Type: 2

Presence: 11111111111111111111111111111111111111111111111111111111111111111111111111111111
Invited Nodes: 19 60 
Actions left: 3
Session index: 2

Observation: ..
Reward 0
About to find best action in Step: 2
Foind best action in Step: 2
Coolie

Action Type: 2

Presence: 11111111111111111111111111111111111111111111111111111111111111111111111111111111
Invited Nodes: 19 60 
Actions left: 3
Session index: 3

Observation: ..
Reward 0
About to find best action in Step: 3
Foind best action in Step: 3
Coolie

Action Type: 2

Presence: 11111111111111111111111111111111111111111111111111111111111111111111111111111111
Invited Nodes: 19 60 
Actions left: 3
Session index: 4

Observation: ..
Reward 0
About to find best action in Step: 4
Foind best action in Step: 4
Coolie

Action Type: 2

Presence: 11111111111111111111111111111111111111111111111111111111111111111111111111111111
Invited Nodes: 19 60 
Actions left: 3
Session index: 5

Observation: ..
Reward 0
About to find best action in Step: 5
Foind best action in Step: 5
Coolie

Action Type: 2

Presence: 00000000000000000000000000000000000000000000000000000000000000000000000000000000
Invited Nodes: 19 60 
Actions left: 3
Session index: 6

Observation: ..
Reward 0
About to find best action in Step: 6
Foind best action in Step: 6
Coolie

Action Type: 2

Presence: 00000000000000000000000000000000000000000000000000000000000000000000000000000000
Invited Nodes: 19 60 
Actions left: 3
Session index: 7

Observation: ..
Reward 20.972
Terminated
Discounted return = 20.972, average = 17.1817
Undiscounted return = 20.972, average = 17.1817
Starting run 19 with 1024 simulations... 

Presence: 11111111111111111111111111111111111111111111111111111111111111111111111111111111
Invited Nodes: 
Actions left: 3
Session index: 1
About to find best action in Step: 0
Values: 13.045(endSession) 15.5223(query) 15.2064(invite)
Foind best action in Step: 0
Coolie

Action Type: 0
Active Nodes: 44 46 

Presence: 11111111111111111111111111111111111111111111111111111111111111111111111111111111
Invited Nodes: 
Actions left: 2
Session index: 1

Observation: ..11
Reward -0
About to find best action in Step: 1
Values: 13.675(endSession) 15.2846(query) 15.5318(invite)
Foind best action in Step: 1
Coolie

Action Type: 1
Active Nodes: 18 53 

Presence: 11111111111111111111111111111111111111111111111111111111111111111111111111111111
Invited Nodes: 18 53 
Actions left: 1
Session index: 1

Observation: ..11
Reward -0
About to find best action in Step: 2
Foind best action in Step: 2
Coolie

Action Type: 2

Presence: 00000000000000000000000000000000000000000000000000000000000000000000000000000000
Invited Nodes: 18 53 
Actions left: 3
Session index: 2

Observation: ..
Reward 0
About to find best action in Step: 3
Foind best action in Step: 3
Coolie

Action Type: 2

Presence: 00000000000000000000000000000000000000000000000000000000000000000000000000000000
Invited Nodes: 18 53 
Actions left: 3
Session index: 3

Observation: ..
Reward 0
About to find best action in Step: 4
Foind best action in Step: 4
Coolie

Action Type: 2

Presence: 11111111111111111111111111111111111111111111111111111111111111111111111111111111
Invited Nodes: 18 53 
Actions left: 3
Session index: 4

Observation: ..
Reward 0
About to find best action in Step: 5
Foind best action in Step: 5
Coolie

Action Type: 2

Presence: 00000000000000000000000000000000000000000000000000000000000000000000000000000000
Invited Nodes: 18 53 
Actions left: 3
Session index: 5

Observation: ..
Reward 0
About to find best action in Step: 6
Foind best action in Step: 6
Coolie

Action Type: 2

Presence: 11111111111111111111111111111111111111111111111111111111111111111111111111111111
Invited Nodes: 18 53 
Actions left: 3
Session index: 6

Observation: ..
Reward 0
About to find best action in Step: 7
Foind best action in Step: 7
Coolie

Action Type: 2

Presence: 00000000000000000000000000000000000000000000000000000000000000000000000000000000
Invited Nodes: 18 53 
Actions left: 3
Session index: 7

Observation: ..
Reward 18.047
Terminated
Discounted return = 18.047, average = 17.2272
Undiscounted return = 18.047, average = 17.2272
Starting run 20 with 1024 simulations... 

Presence: 00000000000000000000000000000000000000000000000000000000000000000000000000000000
Invited Nodes: 
Actions left: 3
Session index: 1
About to find best action in Step: 0
Values: 16.149(endSession) 15.8167(query) 15.4871(invite)
Foind best action in Step: 0
Coolie

Action Type: 2

Presence: 00000000000000000000000000000000000000000000000000000000000000000000000000000000
Invited Nodes: 
Actions left: 3
Session index: 2

Observation: ..
Reward 0
About to find best action in Step: 1
Values: 15.856(endSession) 15.4122(query) 15.0692(invite)
Foind best action in Step: 1
Coolie

Action Type: 2

Presence: 00000000000000000000000000000000000000000000000000000000000000000000000000000000
Invited Nodes: 
Actions left: 3
Session index: 3

Observation: ..
Reward 0
About to find best action in Step: 2
Values: 14.062(endSession) 14.6599(query) 15.502(invite)
Foind best action in Step: 2
Coolie

Action Type: 1
Active Nodes: 13 38 

Presence: 00000000000000000000000000000000000000000000000000000000000000000000000000000000
Invited Nodes: 
Actions left: 2
Session index: 3

Observation: ..
Reward -0
About to find best action in Step: 3
Values: 15.526(endSession) 14.1659(query) 14.3886(invite)
Foind best action in Step: 3
Coolie

Action Type: 2

Presence: 00000000000000000000000000000000000000000000000000000000000000000000000000000000
Invited Nodes: 
Actions left: 3
Session index: 4

Observation: ..
Reward 0
About to find best action in Step: 4
Values: 15.768(endSession) 14.6344(query) 14.2811(invite)
Foind best action in Step: 4
Coolie

Action Type: 2

Presence: 00000000000000000000000000000000000000000000000000000000000000000000000000000000
Invited Nodes: 
Actions left: 3
Session index: 5

Observation: ..
Reward 0
About to find best action in Step: 5
Values: 0(endSession) 12.3784(query) 13.0065(invite)
Foind best action in Step: 5
Coolie

Action Type: 1
Active Nodes: 10 20 

Presence: 00000000000000000000000000000000000000000000000000000000000000000000000000000000
Invited Nodes: 
Actions left: 2
Session index: 5

Observation: ..
Reward -0
About to find best action in Step: 6
Values: 0(endSession) 9.44233(query) 12.1535(invite)
Foind best action in Step: 6
Coolie

Action Type: 1
Active Nodes: 28 37 

Presence: 00000000000000000000000000000000000000000000000000000000000000000000000000000000
Invited Nodes: 
Actions left: 1
Session index: 5

Observation: ..
Reward -0
About to find best action in Step: 7
Values: 12.366(endSession) 9.47418(query) 11.2082(invite)
Foind best action in Step: 7
Coolie

Action Type: 2

Presence: 11111111111111111111111111111111111111111111111111111111111111111111111111111111
Invited Nodes: 
Actions left: 3
Session index: 6

Observation: ..
Reward 0
About to find best action in Step: 8
Values: 0(endSession) 8.75265(query) 9.59381(invite)
Foind best action in Step: 8
Coolie

Action Type: 1
Active Nodes: 16 65 

Presence: 11111111111111111111111111111111111111111111111111111111111111111111111111111111
Invited Nodes: 16 65 
Actions left: 2
Session index: 6

Observation: ..11
Reward -0
About to find best action in Step: 9
Foind best action in Step: 9
Coolie

Action Type: 2

Presence: 00000000000000000000000000000000000000000000000000000000000000000000000000000000
Invited Nodes: 16 65 
Actions left: 3
Session index: 7

Observation: ..
Reward 16.134
Terminated
Discounted return = 16.134, average = 17.1725
Undiscounted return = 16.134, average = 17.1725
Simulations = 1024
Runs = 20
Undiscounted return = 17.1725 +- 1.31033
Discounted return = 17.1725 +- 1.31033
Time = 33.62
----------------------------------------
Begin PBS Epilogue Thu Aug 31 05:46:20 PDT 2017
Job ID:           24124963.hpc-pbs1.hpcc.usc.edu
Username:         amulyaya
Accountname:      default
Group:            csci-ar
Job Name:         15.pbs
Session:          63895
Limits:           neednodes=1:ppn=16:sl230s,nodes=1:ppn=16:sl230s,walltime=24:00:00
Resources:        cput=00:11:18,energy_used=0,mem=63782788kb,vmem=59664912kb,walltime=00:11:18
Queue:            tambe
Shared Access:    no
Has MIC:          no
Is hsda:          false
removed '/scratch'
End PBS Epilogue Thu Aug 31 05:46:20 PDT 2017
----------------------------------------
