----------------------------------------
Begin PBS Prologue Thu Aug 31 06:11:29 PDT 2017
Job ID:            24124966.hpc-pbs1.hpcc.usc.edu
Username:          amulyaya
Accountname:       default
Group:             csci-ar
Project:           default
Name:              18.pbs
Queue:             tambe
Shared Access:     no
All Cores:         no
Has MIC:           no
Is hsda:           false
Nodes:             hpc3443 
TMPDIR:            /tmp/24124966.hpc-pbs1.hpcc.usc.edu
End PBS Prologue Thu Aug 31 06:11:30 PDT 2017
----------------------------------------
******************************************************************************
METIS 5.0 Copyright 1998-13, Regents of the University of Minnesota
 (HEAD: , Built on: Oct 20 2015, 01:33:37)
 size of idx_t: 64bits, real_t: 32bits, idx_t *: 64bits

Graph Information -----------------------------------------------------------
 Name: /home/rcf-proj/mj1/amulyaya/pomcp-ve/src/Ak03tOWyM2.txt, #Vertices: 80, #Edges: 448, #Parts: 8

Options ---------------------------------------------------------------------
 ptype=kway, objtype=cut, ctype=shem, rtype=greedy, iptype=metisrb
 dbglvl=0, ufactor=1.030, no2hop=NO, minconn=NO, contig=NO, nooutput=NO
 seed=-1, niter=10, ncuts=1

Direct k-way Partitioning ---------------------------------------------------
 - Edgecut: 265, communication volume: 351.

 - Balance:
     constraint #0:  1.000 out of 0.100

 - Most overweight partition:
     pid: 0, actual: 10, desired: 10, ratio: 1.00.

 - Subdomain connectivity: max: 7, min: 7, avg: 7.00

 - Each partition is contiguous.

Timing Information ----------------------------------------------------------
  I/O:          		   0.001 sec
  Partitioning: 		   0.011 sec   (METIS time)
  Reporting:    		   0.000 sec

Memory Information ----------------------------------------------------------
  Max memory used:		   0.105 MB
******************************************************************************
Initialising fast UCB table... done
Main runs
Starting run 1 with 1024 simulations... 

Presence: 00000000000000000000000000000000000000000000000000000000000000000000000000000000
Invited Nodes: 
Actions left: 3
Session index: 1
About to find best action in Step: 0
Values: 14.848(endSession) 15.2329(query) 14.8903(invite)
Foind best action in Step: 0
Coolie

Action Type: 0
Active Nodes: 31 35 

Presence: 00000000000000000000000000000000000000000000000000000000000000000000000000000000
Invited Nodes: 
Actions left: 2
Session index: 1

Observation: ..
Reward -0
About to find best action in Step: 1
Values: 13.054(endSession) 14.9366(query) 15.6005(invite)
Foind best action in Step: 1
Coolie

Action Type: 1
Active Nodes: 56 72 

Presence: 00000000000000000000000000000000000000000000000000000000000000000000000000000000
Invited Nodes: 
Actions left: 1
Session index: 1

Observation: ..
Reward -0
About to find best action in Step: 2
Values: 15.987(endSession) 15.0428(query) 15.2569(invite)
Foind best action in Step: 2
Coolie

Action Type: 2

Presence: 00000000000000000000000000000000000000000000000000000000000000000000000000000000
Invited Nodes: 
Actions left: 3
Session index: 2

Observation: ..
Reward 0
About to find best action in Step: 3
Values: 15.929(endSession) 14.943(query) 15.8858(invite)
Foind best action in Step: 3
Coolie

Action Type: 2

Presence: 11111111111111111111111111111111111111111111111111111111111111111111111111111111
Invited Nodes: 
Actions left: 3
Session index: 3

Observation: ..
Reward 0
About to find best action in Step: 4
Values: 11.881(endSession) 14.6287(query) 14.7495(invite)
Foind best action in Step: 4
Coolie

Action Type: 1
Active Nodes: 6 36 

Presence: 11111111111111111111111111111111111111111111111111111111111111111111111111111111
Invited Nodes: 6 36 
Actions left: 2
Session index: 3

Observation: ..11
Reward -0
About to find best action in Step: 5
Foind best action in Step: 5
Coolie

Action Type: 2

Presence: 11111111111111111111111111111111111111111111111111111111111111111111111111111111
Invited Nodes: 6 36 
Actions left: 3
Session index: 4

Observation: ..
Reward 0
About to find best action in Step: 6
Foind best action in Step: 6
Coolie

Action Type: 2

Presence: 11111111111111111111111111111111111111111111111111111111111111111111111111111111
Invited Nodes: 6 36 
Actions left: 3
Session index: 5

Observation: ..
Reward 0
About to find best action in Step: 7
Foind best action in Step: 7
Coolie

Action Type: 2

Presence: 11111111111111111111111111111111111111111111111111111111111111111111111111111111
Invited Nodes: 6 36 
Actions left: 3
Session index: 6

Observation: ..
Reward 0
About to find best action in Step: 8
Foind best action in Step: 8
Coolie

Action Type: 2

Presence: 00000000000000000000000000000000000000000000000000000000000000000000000000000000
Invited Nodes: 6 36 
Actions left: 3
Session index: 7

Observation: ..
Reward 18.912
Terminated
Discounted return = 18.912, average = 18.912
Undiscounted return = 18.912, average = 18.912
Starting run 2 with 1024 simulations... 

Presence: 00000000000000000000000000000000000000000000000000000000000000000000000000000000
Invited Nodes: 
Actions left: 3
Session index: 1
About to find best action in Step: 0
Values: 13.886(endSession) 15.3849(query) 14.913(invite)
Foind best action in Step: 0
Coolie

Action Type: 0
Active Nodes: 60 69 

Presence: 00000000000000000000000000000000000000000000000000000000000000000000000000000000
Invited Nodes: 
Actions left: 2
Session index: 1

Observation: ..
Reward -0
About to find best action in Step: 1
Values: 0(endSession) 15.0071(query) 15.4731(invite)
Foind best action in Step: 1
Coolie

Action Type: 1
Active Nodes: 3 63 

Presence: 00000000000000000000000000000000000000000000000000000000000000000000000000000000
Invited Nodes: 
Actions left: 1
Session index: 1

Observation: ..
Reward -0
About to find best action in Step: 2
Values: 15.626(endSession) 15.1638(query) 15.1216(invite)
Foind best action in Step: 2
Coolie

Action Type: 2

Presence: 11111111111111111111111111111111111111011111111111111111111111111111111111111111
Invited Nodes: 
Actions left: 3
Session index: 2

Observation: ..
Reward 0
About to find best action in Step: 3
Values: 17.61(endSession) 15.0956(query) 14.6458(invite)
Foind best action in Step: 3
Coolie

Action Type: 2

Presence: 11111111111111111111111111111111111111111111111111111111111111111111111111111111
Invited Nodes: 
Actions left: 3
Session index: 3

Observation: ..
Reward 0
About to find best action in Step: 4
Values: 11.083(endSession) 14.6664(query) 14.3229(invite)
Foind best action in Step: 4
Coolie

Action Type: 0
Active Nodes: 18 51 

Presence: 11111111111111111111111111111111111111111111111111111111111111111111111111111111
Invited Nodes: 
Actions left: 2
Session index: 3

Observation: ..11
Reward -0
About to find best action in Step: 5
Values: 15.934(endSession) 14.1341(query) 15.6027(invite)
Foind best action in Step: 5
Coolie

Action Type: 2

Presence: 00000000000000000000000000000000000000000000000000000000000000000000000000000000
Invited Nodes: 
Actions left: 3
Session index: 4

Observation: ..
Reward 0
About to find best action in Step: 6
Values: 0(endSession) 13.9422(query) 14.0136(invite)
Foind best action in Step: 6
Coolie

Action Type: 1
Active Nodes: 44 56 

Presence: 00000000000000000000000000000000000000000000000000000000000000000000000000000000
Invited Nodes: 
Actions left: 2
Session index: 4

Observation: ..
Reward -0
About to find best action in Step: 7
Values: 15.348(endSession) 12.5838(query) 13.4416(invite)
Foind best action in Step: 7
Coolie

Action Type: 2

Presence: 11111111111111111111111111111111111111111111111111111111111111111111111111111111
Invited Nodes: 
Actions left: 3
Session index: 5

Observation: ..
Reward 0
About to find best action in Step: 8
Values: 12.902(endSession) 12.456(query) 12.9012(invite)
Foind best action in Step: 8
Coolie

Action Type: 2

Presence: 00000000000000000000000000000000000000000000000000000000000000000000000000001000
Invited Nodes: 
Actions left: 3
Session index: 6

Observation: ..
Reward 0
About to find best action in Step: 9
Values: 0(endSession) 8.75793(query) 9.55544(invite)
Foind best action in Step: 9
Coolie

Action Type: 1
Active Nodes: 18 36 

Presence: 00000000000000000000000000000000000000000000000000000000000000000000000000001000
Invited Nodes: 
Actions left: 2
Session index: 6

Observation: ..
Reward -0
About to find best action in Step: 10
Values: 0(endSession) 0.957163(query) 7.15772(invite)
Foind best action in Step: 10
Coolie

Action Type: 1
Active Nodes: 3 79 

Presence: 00000000000000000000000000000000000000000000000000000000000000000000000000001000
Invited Nodes: 
Actions left: 1
Session index: 6

Observation: ..
Reward -0
About to find best action in Step: 11
Values: 0(endSession) 0(query) 4.74391(invite)
Foind best action in Step: 11
Coolie

Action Type: 1
Active Nodes: 44 70 

Presence: 00000000000000000000000000000000000000000000000000000000000000000000000000001000
Invited Nodes: 
Actions left: 0
Session index: 6

Observation: ..
Reward -0
About to find best action in Step: 12
Foind best action in Step: 12
Coolie

Action Type: 2

Presence: 00000000000000000000000000000000000000000000000000000000000000000000000000000000
Invited Nodes: 
Actions left: 3
Session index: 7

Observation: ..
Reward 0
Terminated
Discounted return = 0, average = 9.456
Undiscounted return = 0, average = 9.456
Starting run 3 with 1024 simulations... 

Presence: 00000000000000000000000000000000000000000000000000000000000000000000000000000000
Invited Nodes: 
Actions left: 3
Session index: 1
About to find best action in Step: 0
Values: 14.369(endSession) 15.2312(query) 15.691(invite)
Foind best action in Step: 0
Coolie

Action Type: 1
Active Nodes: 44 63 

Presence: 00000000000000000000000000000000000000000000000000000000000000000000000000000000
Invited Nodes: 
Actions left: 2
Session index: 1

Observation: ..
Reward -0
About to find best action in Step: 1
Values: 14.851(endSession) 15.2081(query) 14.7297(invite)
Foind best action in Step: 1
Coolie

Action Type: 0
Active Nodes: 72 76 

Presence: 00000000000000000000000000000000000000000000000000000000000000000000000000000000
Invited Nodes: 
Actions left: 1
Session index: 1

Observation: ..
Reward -0
About to find best action in Step: 2
Values: 14.185(endSession) 15.092(query) 14.8253(invite)
Foind best action in Step: 2
Coolie

Action Type: 0
Active Nodes: 15 71 

Presence: 00000000000000000000000000000000000000000000000000000000000000000000000000000000
Invited Nodes: 
Actions left: 0
Session index: 1

Observation: ..
Reward -0
About to find best action in Step: 3
Foind best action in Step: 3
Coolie

Action Type: 2

Presence: 11111111111111111111111111111111111111111111111111111111111111111111111111111111
Invited Nodes: 
Actions left: 3
Session index: 2

Observation: ..
Reward 0
About to find best action in Step: 4
Values: 17.499(endSession) 14.8169(query) 14.6941(invite)
Foind best action in Step: 4
Coolie

Action Type: 2

Presence: 11111111111111111111111111111111111111111111111111111111111111111111111111111111
Invited Nodes: 
Actions left: 3
Session index: 3

Observation: ..
Reward 0
About to find best action in Step: 5
Values: 17.66(endSession) 14.7333(query) 14.5986(invite)
Foind best action in Step: 5
Coolie

Action Type: 2

Presence: 11111111111111111111111111111111111111111111111111111111111111111111111111111111
Invited Nodes: 
Actions left: 3
Session index: 4

Observation: ..
Reward 0
About to find best action in Step: 6
Values: 14.244(endSession) 14.1296(query) 13.9532(invite)
Foind best action in Step: 6
Coolie

Action Type: 2

Presence: 11111111111111111111111111111111111111111111111111111111111111111111111111111111
Invited Nodes: 
Actions left: 3
Session index: 5

Observation: ..
Reward 0
About to find best action in Step: 7
Values: 14.795(endSession) 11.9709(query) 12.1585(invite)
Foind best action in Step: 7
Coolie

Action Type: 2

Presence: 00000000000000000000000000000000000000000000000000000000000000000000000000000000
Invited Nodes: 
Actions left: 3
Session index: 6

Observation: ..
Reward 0
About to find best action in Step: 8
Values: 0(endSession) 8.74448(query) 10.6625(invite)
Foind best action in Step: 8
Coolie

Action Type: 1
Active Nodes: 56 72 

Presence: 00000000000000000000000000000000000000000000000000000000000000000000000000000000
Invited Nodes: 
Actions left: 2
Session index: 6

Observation: ..
Reward -0
About to find best action in Step: 9
Values: 0(endSession) 0(query) 6.66035(invite)
Foind best action in Step: 9
Coolie

Action Type: 1
Active Nodes: 0 51 

Presence: 00000000000000000000000000000000000000000000000000000000000000000000000000000000
Invited Nodes: 
Actions left: 1
Session index: 6

Observation: ..
Reward -0
About to find best action in Step: 10
Values: 0(endSession) 0(query) 4.72994(invite)
Foind best action in Step: 10
Coolie

Action Type: 1
Active Nodes: 44 70 

Presence: 00000000000000000000000000000000000000000000000000000000000000000000000000000000
Invited Nodes: 
Actions left: 0
Session index: 6

Observation: ..
Reward -0
About to find best action in Step: 11
Foind best action in Step: 11
Coolie

Action Type: 2

Presence: 00000000000000000000000000000000000000000000000000000000000000000000000000000000
Invited Nodes: 
Actions left: 3
Session index: 7

Observation: ..
Reward 0
Terminated
Discounted return = 0, average = 6.304
Undiscounted return = 0, average = 6.304
Starting run 4 with 1024 simulations... 

Presence: 11111111111111111111111111111111111111111111111111111111111111111111111111111111
Invited Nodes: 
Actions left: 3
Session index: 1
About to find best action in Step: 0
Values: 13.04(endSession) 15.0285(query) 15.3758(invite)
Foind best action in Step: 0
Coolie

Action Type: 1
Active Nodes: 3 37 

Presence: 11111111111111111111111111111111111111111111111111111111111111111111111111111111
Invited Nodes: 3 37 
Actions left: 2
Session index: 1

Observation: ..11
Reward -0
About to find best action in Step: 1
Foind best action in Step: 1
Coolie

Action Type: 2

Presence: 00000000000000000000000000000000000000000000000000000000000000000000000000000000
Invited Nodes: 3 37 
Actions left: 3
Session index: 2

Observation: ..
Reward 0
About to find best action in Step: 2
Foind best action in Step: 2
Coolie

Action Type: 2

Presence: 11111111111111111111111111111111111111111111111111111111111111111111111111111111
Invited Nodes: 3 37 
Actions left: 3
Session index: 3

Observation: ..
Reward 0
About to find best action in Step: 3
Foind best action in Step: 3
Coolie

Action Type: 2

Presence: 11111111011111111111111111111111111111111111111111111111111111111111111111111111
Invited Nodes: 3 37 
Actions left: 3
Session index: 4

Observation: ..
Reward 0
About to find best action in Step: 4
Foind best action in Step: 4
Coolie

Action Type: 2

Presence: 00000000000000000000000000000000000000000000000000000000000000000000000000000000
Invited Nodes: 3 37 
Actions left: 3
Session index: 5

Observation: ..
Reward 0
About to find best action in Step: 5
Foind best action in Step: 5
Coolie

Action Type: 2

Presence: 11111111111111111111111111111111111111111111111111111111111111111111111111111111
Invited Nodes: 3 37 
Actions left: 3
Session index: 6

Observation: ..
Reward 0
About to find best action in Step: 6
Foind best action in Step: 6
Coolie

Action Type: 2

Presence: 11111111111111111111111111111111111111111111111111111111111111111111111111111111
Invited Nodes: 3 37 
Actions left: 3
Session index: 7

Observation: ..
Reward 18.089
Terminated
Discounted return = 18.089, average = 9.25025
Undiscounted return = 18.089, average = 9.25025
Starting run 5 with 1024 simulations... 

Presence: 00000000000000000000000000000000000000000000000000000000000000000000000000000000
Invited Nodes: 
Actions left: 3
Session index: 1
About to find best action in Step: 0
Values: 19.967(endSession) 15.1522(query) 14.8178(invite)
Foind best action in Step: 0
Coolie

Action Type: 2

Presence: 00000000000000000000000000000000000000000000000000000000000000000000000000000000
Invited Nodes: 
Actions left: 3
Session index: 2

Observation: ..
Reward 0
About to find best action in Step: 1
Values: 12.247(endSession) 15.1068(query) 14.9418(invite)
Foind best action in Step: 1
Coolie

Action Type: 0
Active Nodes: 34 43 

Presence: 00000000000000000000000000000000000000000000000000000000000000000000000000000000
Invited Nodes: 
Actions left: 2
Session index: 2

Observation: ..
Reward -0
About to find best action in Step: 2
Values: 13.488(endSession) 14.801(query) 14.7672(invite)
Foind best action in Step: 2
Coolie

Action Type: 0
Active Nodes: 32 67 

Presence: 00000000000000000000000000000000000000000000000000000000000000000000000000000000
Invited Nodes: 
Actions left: 1
Session index: 2

Observation: ..
Reward -0
About to find best action in Step: 3
Values: 14.613(endSession) 14.4326(query) 14.4716(invite)
Foind best action in Step: 3
Coolie

Action Type: 2

Presence: 11111111111111111111111111111111111111111111111111111111111111111111111111111111
Invited Nodes: 
Actions left: 3
Session index: 3

Observation: ..
Reward 0
About to find best action in Step: 4
Values: 15.316(endSession) 14.5086(query) 14.569(invite)
Foind best action in Step: 4
Coolie

Action Type: 2

Presence: 11111111111111111111111111111111111111111111111111111111111111111111111111110111
Invited Nodes: 
Actions left: 3
Session index: 4

Observation: ..
Reward 0
About to find best action in Step: 5
Values: 16.705(endSession) 13.7113(query) 13.8078(invite)
Foind best action in Step: 5
Coolie

Action Type: 2

Presence: 00000000000000000000000000000000000000000000000000000000000000000000000000000000
Invited Nodes: 
Actions left: 3
Session index: 5

Observation: ..
Reward 0
About to find best action in Step: 6
Values: 0(endSession) 12.466(query) 12.0756(invite)
Foind best action in Step: 6
Coolie

Action Type: 0
Active Nodes: 22 74 

Presence: 00000000000000000000000000000000000000000000000000000000000000000000000000000000
Invited Nodes: 
Actions left: 2
Session index: 5

Observation: ..
Reward -0
About to find best action in Step: 7
Values: 0(endSession) 9.50385(query) 11.8766(invite)
Foind best action in Step: 7
Coolie

Action Type: 1
Active Nodes: 44 68 

Presence: 00000000000000000000000000000000000000000000000000000000000000000000000000000000
Invited Nodes: 
Actions left: 1
Session index: 5

Observation: ..
Reward -0
About to find best action in Step: 8
Values: 0(endSession) 9.15628(query) 10.9135(invite)
Foind best action in Step: 8
Coolie

Action Type: 1
Active Nodes: 1 19 

Presence: 00000000000000000000000000000000000000000000000000000000000000000000000000000000
Invited Nodes: 
Actions left: 0
Session index: 5

Observation: ..
Reward -0
About to find best action in Step: 9
Foind best action in Step: 9
Coolie

Action Type: 2

Presence: 11111111111111111111111111111111111111111111111111111111111111111111111111111111
Invited Nodes: 
Actions left: 3
Session index: 6

Observation: ..
Reward 0
About to find best action in Step: 10
Values: 0(endSession) 8.00292(query) 9.3461(invite)
Foind best action in Step: 10
Coolie

Action Type: 1
Active Nodes: 56 61 

Presence: 11111111111111111111111111111111111111111111111111111111111111111111111111111111
Invited Nodes: 56 61 
Actions left: 2
Session index: 6

Observation: ..11
Reward -0
About to find best action in Step: 11
Foind best action in Step: 11
Coolie

Action Type: 2

Presence: 00000000000000000000000000000000000000000000000000000000000000000000000000000000
Invited Nodes: 56 61 
Actions left: 3
Session index: 7

Observation: ..
Reward 15.416
Terminated
Discounted return = 15.416, average = 10.4834
Undiscounted return = 15.416, average = 10.4834
Starting run 6 with 1024 simulations... 

Presence: 00000000000000000000000000000000000000000000000000000000000000000000000000000000
Invited Nodes: 
Actions left: 3
Session index: 1
About to find best action in Step: 0
Values: 16.213(endSession) 15.4199(query) 14.7934(invite)
Foind best action in Step: 0
Coolie

Action Type: 2

Presence: 11111111111111111111111111111111111111111111111111111111111111111111111111111111
Invited Nodes: 
Actions left: 3
Session index: 2

Observation: ..
Reward 0
About to find best action in Step: 1
Values: 17.482(endSession) 14.9993(query) 15.2494(invite)
Foind best action in Step: 1
Coolie

Action Type: 2

Presence: 00000000000000000000000000000000000000000000000000000000000000000000000000000000
Invited Nodes: 
Actions left: 3
Session index: 3

Observation: ..
Reward 0
About to find best action in Step: 2
Values: 16.861(endSession) 14.6747(query) 15.1292(invite)
Foind best action in Step: 2
Coolie

Action Type: 2

Presence: 00000000000000000000000000000000000000000000000000000000000000000000000000000000
Invited Nodes: 
Actions left: 3
Session index: 4

Observation: ..
Reward 0
About to find best action in Step: 3
Values: 0(endSession) 13.5381(query) 13.5548(invite)
Foind best action in Step: 3
Coolie

Action Type: 1
Active Nodes: 19 52 

Presence: 00000000000000000000000000000000000000000000000000000000000000000000000000000000
Invited Nodes: 
Actions left: 2
Session index: 4

Observation: ..
Reward -0
About to find best action in Step: 4
Values: 11.265(endSession) 12.7001(query) 13.6119(invite)
Foind best action in Step: 4
Coolie

Action Type: 1
Active Nodes: 6 24 

Presence: 00000000000000000000000000000000000000000000000000000000000000000000000000000000
Invited Nodes: 
Actions left: 1
Session index: 4

Observation: ..
Reward -0
About to find best action in Step: 5
Values: 0(endSession) 12.5292(query) 13.0665(invite)
Foind best action in Step: 5
Coolie

Action Type: 1
Active Nodes: 4 33 

Presence: 00000000000000000000000000000000000000000000000000000000000000000000000000000000
Invited Nodes: 
Actions left: 0
Session index: 4

Observation: ..
Reward -0
About to find best action in Step: 6
Foind best action in Step: 6
Coolie

Action Type: 2

Presence: 00000000000000000000000000000000000000000000000000000000000000000000000000000000
Invited Nodes: 
Actions left: 3
Session index: 5

Observation: ..
Reward 0
About to find best action in Step: 7
Values: 0(endSession) 12.3101(query) 12.279(invite)
Foind best action in Step: 7
Coolie

Action Type: 0
Active Nodes: 30 69 

Presence: 00000000000000000000000000000000000000000000000000000000000000000000000000000000
Invited Nodes: 
Actions left: 2
Session index: 5

Observation: ..
Reward -0
About to find best action in Step: 8
Values: 0(endSession) 9.37426(query) 11.5758(invite)
Foind best action in Step: 8
Coolie

Action Type: 1
Active Nodes: 6 43 

Presence: 00000000000000000000000000000000000000000000000000000000000000000000000000000000
Invited Nodes: 
Actions left: 1
Session index: 5

Observation: ..
Reward -0
About to find best action in Step: 9
Values: 0(endSession) 9.71429(query) 10.8923(invite)
Foind best action in Step: 9
Coolie

Action Type: 1
Active Nodes: 44 51 

Presence: 00000000000000000000000000000000000000000000000000000000000000000000000000000000
Invited Nodes: 
Actions left: 0
Session index: 5

Observation: ..
Reward -0
About to find best action in Step: 10
Foind best action in Step: 10
Coolie

Action Type: 2

Presence: 00000000000000000000000000000000000000000000000000000000000000000000000000000000
Invited Nodes: 
Actions left: 3
Session index: 6

Observation: ..
Reward 0
About to find best action in Step: 11
Values: 0(endSession) 8.35766(query) 8.96278(invite)
Foind best action in Step: 11
Coolie

Action Type: 1
Active Nodes: 29 66 

Presence: 00000000000000000000000000000000000000000000000000000000000000000000000000000000
Invited Nodes: 
Actions left: 2
Session index: 6

Observation: ..
Reward -0
About to find best action in Step: 12
Values: 0(endSession) 0(query) 7.25602(invite)
Foind best action in Step: 12
Coolie

Action Type: 1
Active Nodes: 44 70 

Presence: 00000000000000000000000000000000000000000000000000000000000000000000000000000000
Invited Nodes: 
Actions left: 1
Session index: 6

Observation: ..
Reward -0
About to find best action in Step: 13
Values: 0(endSession) 0(query) 4.50461(invite)
Foind best action in Step: 13
Coolie

Action Type: 1
Active Nodes: 3 6 

Presence: 00000000000000000000000000000000000000000000000000000000000000000000000000000000
Invited Nodes: 
Actions left: 0
Session index: 6

Observation: ..
Reward -0
About to find best action in Step: 14
Foind best action in Step: 14
Coolie

Action Type: 2

Presence: 11111111111111111111111111111111111111111111111111111111111111111111111111111111
Invited Nodes: 
Actions left: 3
Session index: 7

Observation: ..
Reward 0
Terminated
Discounted return = 0, average = 8.73617
Undiscounted return = 0, average = 8.73617
Starting run 7 with 1024 simulations... 

Presence: 11111111111111111111111111111111111111111111111111111111111111111111111111111111
Invited Nodes: 
Actions left: 3
Session index: 1
About to find best action in Step: 0
Values: 11.607(endSession) 15.3001(query) 15.0545(invite)
Foind best action in Step: 0
Coolie

Action Type: 0
Active Nodes: 26 78 

Presence: 11111111111111111111111111111111111111111111111111111111111111111111111111111111
Invited Nodes: 
Actions left: 2
Session index: 1

Observation: ..11
Reward -0
About to find best action in Step: 1
Values: 18.069(endSession) 15.0839(query) 15.4708(invite)
Foind best action in Step: 1
Coolie

Action Type: 2

Presence: 00000000100000000000000000000000000000000000000000000000000000000000000000000000
Invited Nodes: 
Actions left: 3
Session index: 2

Observation: ..
Reward 0
About to find best action in Step: 2
Values: 10.334(endSession) 15.0745(query) 15.0125(invite)
Foind best action in Step: 2
Coolie

Action Type: 0
Active Nodes: 53 56 

Presence: 00000000100000000000000000000000000000000000000000000000000000000000000000000000
Invited Nodes: 
Actions left: 2
Session index: 2

Observation: ..
Reward -0
About to find best action in Step: 3
Values: 17.747(endSession) 14.5586(query) 15.0486(invite)
Foind best action in Step: 3
Coolie

Action Type: 2

Presence: 11111111111111111111111111111111111111111111111111111111111111111111111111111111
Invited Nodes: 
Actions left: 3
Session index: 3

Observation: ..
Reward 0
About to find best action in Step: 4
Values: 14.474(endSession) 14.7327(query) 14.946(invite)
Foind best action in Step: 4
Coolie

Action Type: 1
Active Nodes: 52 72 

Presence: 11111111111111111111111111111111111111111111111111111111111111111111111111111111
Invited Nodes: 52 72 
Actions left: 2
Session index: 3

Observation: ..11
Reward -0
About to find best action in Step: 5
Foind best action in Step: 5
Coolie

Action Type: 2

Presence: 00000000000000000000000000000000000000000000000000000000000000000000000000000000
Invited Nodes: 52 72 
Actions left: 3
Session index: 4

Observation: ..
Reward 0
About to find best action in Step: 6
Foind best action in Step: 6
Coolie

Action Type: 2

Presence: 11111111111111111111111111111111111111111111111111111111111111111111111111111111
Invited Nodes: 52 72 
Actions left: 3
Session index: 5

Observation: ..
Reward 0
About to find best action in Step: 7
Foind best action in Step: 7
Coolie

Action Type: 2

Presence: 11111111111111111111111111111111111111111111111111111111111111111111111111111111
Invited Nodes: 52 72 
Actions left: 3
Session index: 6

Observation: ..
Reward 0
About to find best action in Step: 8
Foind best action in Step: 8
Coolie

Action Type: 2

Presence: 11111111111111111111111111111111111111111111111111111111111111111111111111111111
Invited Nodes: 52 72 
Actions left: 3
Session index: 7

Observation: ..
Reward 20.296
Terminated
Discounted return = 20.296, average = 10.3876
Undiscounted return = 20.296, average = 10.3876
Starting run 8 with 1024 simulations... 

Presence: 11111111111111111111111111111111111111111111111111111111111111111111111111111111
Invited Nodes: 
Actions left: 3
Session index: 1
About to find best action in Step: 0
Values: 16.116(endSession) 15.2572(query) 15.4437(invite)
Foind best action in Step: 0
Coolie

Action Type: 2

Presence: 11111111111111111111111111111111111111111111111111111111111111111111111111111111
Invited Nodes: 
Actions left: 3
Session index: 2

Observation: ..
Reward 0
About to find best action in Step: 1
Values: 0(endSession) 15.3031(query) 15.0546(invite)
Foind best action in Step: 1
Coolie

Action Type: 0
Active Nodes: 21 31 

Presence: 11111111111111111111111111111111111111111111111111111111111111111111111111111111
Invited Nodes: 
Actions left: 2
Session index: 2

Observation: ..11
Reward -0
About to find best action in Step: 2
Values: 15.204(endSession) 14.7623(query) 14.7667(invite)
Foind best action in Step: 2
Coolie

Action Type: 2

Presence: 11111111111111111111111111111111111111111111111111111111111111111111111111111111
Invited Nodes: 
Actions left: 3
Session index: 3

Observation: ..
Reward 0
About to find best action in Step: 3
Values: 15.726(endSession) 14.8343(query) 15.1333(invite)
Foind best action in Step: 3
Coolie

Action Type: 2

Presence: 11111111111111111111111111111111111111111111111111111111111111111111111111111111
Invited Nodes: 
Actions left: 3
Session index: 4

Observation: ..
Reward 0
About to find best action in Step: 4
Values: 10.31(endSession) 13.5702(query) 13.2854(invite)
Foind best action in Step: 4
Coolie

Action Type: 0
Active Nodes: 7 79 

Presence: 11111111111111111111111111111111111111111111111111111111111111111111111111111111
Invited Nodes: 
Actions left: 2
Session index: 4

Observation: ..11
Reward -0
About to find best action in Step: 5
Values: 0(endSession) 12.3836(query) 14.3164(invite)
Foind best action in Step: 5
Coolie

Action Type: 1
Active Nodes: 3 24 

Presence: 11111111111111111111111111111111111111111111111111111111111111111111111111111111
Invited Nodes: 3 24 
Actions left: 1
Session index: 4

Observation: ..11
Reward -0
About to find best action in Step: 6
Foind best action in Step: 6
Coolie

Action Type: 2

Presence: 00000000000000000000000000000000000000000000000000000000000000000000000000000000
Invited Nodes: 3 24 
Actions left: 3
Session index: 5

Observation: ..
Reward 0
About to find best action in Step: 7
Foind best action in Step: 7
Coolie

Action Type: 2

Presence: 00000000000000000000000000000000000000000000000000000000000000000000000000000000
Invited Nodes: 3 24 
Actions left: 3
Session index: 6

Observation: ..
Reward 0
About to find best action in Step: 8
Foind best action in Step: 8
Coolie

Action Type: 2

Presence: 11111111111111111111111111111111111111111111111111111111111111111111111111111111
Invited Nodes: 3 24 
Actions left: 3
Session index: 7

Observation: ..
Reward 20.33
Terminated
Discounted return = 20.33, average = 11.6304
Undiscounted return = 20.33, average = 11.6304
Starting run 9 with 1024 simulations... 

Presence: 00000000000000000000000000000000000000000000000000000000000000000000000000000000
Invited Nodes: 
Actions left: 3
Session index: 1
About to find best action in Step: 0
Values: 13.046(endSession) 15.3194(query) 14.998(invite)
Foind best action in Step: 0
Coolie

Action Type: 0
Active Nodes: 51 58 

Presence: 00000000000000000000000000000000000000000000000000000000000000000000000000000000
Invited Nodes: 
Actions left: 2
Session index: 1

Observation: ..
Reward -0
About to find best action in Step: 1
Values: 16.912(endSession) 15.1383(query) 15.2955(invite)
Foind best action in Step: 1
Coolie

Action Type: 2

Presence: 00000000000000000000000000000000000000000000000000000000000000000000000000000000
Invited Nodes: 
Actions left: 3
Session index: 2

Observation: ..
Reward 0
About to find best action in Step: 2
Values: 14.218(endSession) 15.1574(query) 15.4912(invite)
Foind best action in Step: 2
Coolie

Action Type: 1
Active Nodes: 44 56 

Presence: 00000000000000000000000000000000000000000000000000000000000000000000000000000000
Invited Nodes: 
Actions left: 2
Session index: 2

Observation: ..
Reward -0
About to find best action in Step: 3
Values: 16.202(endSession) 14.9896(query) 14.8901(invite)
Foind best action in Step: 3
Coolie

Action Type: 2

Presence: 11111111111111111111111111111111111111111111111111111111111111111111111111111111
Invited Nodes: 
Actions left: 3
Session index: 3

Observation: ..
Reward 0
About to find best action in Step: 4
Values: 15.59(endSession) 15.0277(query) 14.5995(invite)
Foind best action in Step: 4
Coolie

Action Type: 2

Presence: 00000000000000000000000000000000000000000000000000000000000000000000000000000000
Invited Nodes: 
Actions left: 3
Session index: 4

Observation: ..
Reward 0
About to find best action in Step: 5
Values: 15.161(endSession) 13.8566(query) 14.7992(invite)
Foind best action in Step: 5
Coolie

Action Type: 2

Presence: 11111111111111111111111111111111111111111111111111111111111111111111111111111111
Invited Nodes: 
Actions left: 3
Session index: 5

Observation: ..
Reward 0
About to find best action in Step: 6
Values: 12.545(endSession) 12.4253(query) 12.5216(invite)
Foind best action in Step: 6
Coolie

Action Type: 2

Presence: 11111111111111111111111111111111111111111111111111111111111111111111111111111111
Invited Nodes: 
Actions left: 3
Session index: 6

Observation: ..
Reward 0
About to find best action in Step: 7
Values: 0(endSession) 8.85718(query) 9.45287(invite)
Foind best action in Step: 7
Coolie

Action Type: 1
Active Nodes: 34 49 

Presence: 11111111111111111111111111111111111111111111111111111111111111111111111111111111
Invited Nodes: 34 49 
Actions left: 2
Session index: 6

Observation: ..11
Reward -0
About to find best action in Step: 8
Foind best action in Step: 8
Coolie

Action Type: 2

Presence: 00000000001111111111111111111101011110011111111111111110111110000010011010111000
Invited Nodes: 34 49 
Actions left: 3
Session index: 7

Observation: ..
Reward 16.383
Terminated
Discounted return = 16.383, average = 12.1584
Undiscounted return = 16.383, average = 12.1584
Starting run 10 with 1024 simulations... 

Presence: 00000000000000000000000000000000000000000000000000000000000000000000000000000000
Invited Nodes: 
Actions left: 3
Session index: 1
About to find best action in Step: 0
Values: 16.012(endSession) 15.3511(query) 15.5928(invite)
Foind best action in Step: 0
Coolie

Action Type: 2

Presence: 11111111111111111111111111111111111111111111111111111111111111111111111111111111
Invited Nodes: 
Actions left: 3
Session index: 2

Observation: ..
Reward 0
About to find best action in Step: 1
Values: 18.849(endSession) 15.2561(query) 15.0744(invite)
Foind best action in Step: 1
Coolie

Action Type: 2

Presence: 11111111111111111111111111111111111111111111111111111111111111111111111111111111
Invited Nodes: 
Actions left: 3
Session index: 3

Observation: ..
Reward 0
About to find best action in Step: 2
Values: 15.288(endSession) 14.7485(query) 14.6074(invite)
Foind best action in Step: 2
Coolie

Action Type: 2

Presence: 11111111111111111111111111111111111111111111111111111111111111111111111111111111
Invited Nodes: 
Actions left: 3
Session index: 4

Observation: ..
Reward 0
About to find best action in Step: 3
Values: 0(endSession) 13.5307(query) 13.9547(invite)
Foind best action in Step: 3
Coolie

Action Type: 1
Active Nodes: 0 10 

Presence: 11111111111111111111111111111111111111111111111111111111111111111111111111111111
Invited Nodes: 0 10 
Actions left: 2
Session index: 4

Observation: ..11
Reward -0
About to find best action in Step: 4
Foind best action in Step: 4
Coolie

Action Type: 2

Presence: 11111111111111111111111111111111111111111111111111111111111111111111111111111111
Invited Nodes: 0 10 
Actions left: 3
Session index: 5

Observation: ..
Reward 0
About to find best action in Step: 5
Foind best action in Step: 5
Coolie

Action Type: 2

Presence: 11111111111111111111111111111111111111111111111111111111111111111111111111111111
Invited Nodes: 0 10 
Actions left: 3
Session index: 6

Observation: ..
Reward 0
About to find best action in Step: 6
Foind best action in Step: 6
Coolie

Action Type: 2

Presence: 11111111111111111111111111111111111111111111111111111111111111111111111111111111
Invited Nodes: 0 10 
Actions left: 3
Session index: 7

Observation: ..
Reward 18.041
Terminated
Discounted return = 18.041, average = 12.7467
Undiscounted return = 18.041, average = 12.7467
Starting run 11 with 1024 simulations... 

Presence: 11111111111111111111111111111111111111111111111111111111111111111111111111111111
Invited Nodes: 
Actions left: 3
Session index: 1
About to find best action in Step: 0
Values: 17.213(endSession) 15.5513(query) 15.135(invite)
Foind best action in Step: 0
Coolie

Action Type: 2

Presence: 11111111111111111111111111111111111111111111111111111111111111111111111111111111
Invited Nodes: 
Actions left: 3
Session index: 2

Observation: ..
Reward 0
About to find best action in Step: 1
Values: 17.838(endSession) 15.0105(query) 14.7872(invite)
Foind best action in Step: 1
Coolie

Action Type: 2

Presence: 00000000000000000000000000000000000000000000000000000000000000000000000000000000
Invited Nodes: 
Actions left: 3
Session index: 3

Observation: ..
Reward 0
About to find best action in Step: 2
Values: 14.08(endSession) 14.8739(query) 14.465(invite)
Foind best action in Step: 2
Coolie

Action Type: 0
Active Nodes: 3 18 

Presence: 00000000000000000000000000000000000000000000000000000000000000000000000000000000
Invited Nodes: 
Actions left: 2
Session index: 3

Observation: ..
Reward -0
About to find best action in Step: 3
Values: 16.94(endSession) 13.9307(query) 14.4239(invite)
Foind best action in Step: 3
Coolie

Action Type: 2

Presence: 11111111111111111111111111111111111111111111111111111111111111111111111111111111
Invited Nodes: 
Actions left: 3
Session index: 4

Observation: ..
Reward 0
About to find best action in Step: 4
Values: 0(endSession) 13.7836(query) 14.0963(invite)
Foind best action in Step: 4
Coolie

Action Type: 1
Active Nodes: 7 47 

Presence: 11111111111111111111111111111111111111111111111111111111111111111111111111111111
Invited Nodes: 7 47 
Actions left: 2
Session index: 4

Observation: ..11
Reward -0
About to find best action in Step: 5
Foind best action in Step: 5
Coolie

Action Type: 2

Presence: 11111111111111111111111111111111111111111111111111111111111111111111111111111111
Invited Nodes: 7 47 
Actions left: 3
Session index: 5

Observation: ..
Reward 0
About to find best action in Step: 6
Foind best action in Step: 6
Coolie

Action Type: 2

Presence: 00000000000000000000000000000000000000000000000000000000000000000000000000000000
Invited Nodes: 7 47 
Actions left: 3
Session index: 6

Observation: ..
Reward 0
About to find best action in Step: 7
Foind best action in Step: 7
Coolie

Action Type: 2

Presence: 11111111111111111111111111111111111111111111111111111111111111111111111111111111
Invited Nodes: 7 47 
Actions left: 3
Session index: 7

Observation: ..
Reward 18.8
Terminated
Discounted return = 18.8, average = 13.297
Undiscounted return = 18.8, average = 13.297
Starting run 12 with 1024 simulations... 

Presence: 00000000000000000000000000000000000000000000000000000000000000000000000000000000
Invited Nodes: 
Actions left: 3
Session index: 1
About to find best action in Step: 0
Values: 12.767(endSession) 15.3759(query) 15.2277(invite)
Foind best action in Step: 0
Coolie

Action Type: 0
Active Nodes: 30 63 

Presence: 00000000000000000000000000000000000000000000000000000000000000000000000000000000
Invited Nodes: 
Actions left: 2
Session index: 1

Observation: ..
Reward -0
About to find best action in Step: 1
Values: 13.393(endSession) 15.2097(query) 14.8647(invite)
Foind best action in Step: 1
Coolie

Action Type: 0
Active Nodes: 51 57 

Presence: 00000000000000000000000000000000000000000000000000000000000000000000000000000000
Invited Nodes: 
Actions left: 1
Session index: 1

Observation: ..
Reward -0
About to find best action in Step: 2
Values: 11.912(endSession) 15.1656(query) 14.955(invite)
Foind best action in Step: 2
Coolie

Action Type: 0
Active Nodes: 5 6 

Presence: 00000000000000000000000000000000000000000000000000000000000000000000000000000000
Invited Nodes: 
Actions left: 0
Session index: 1

Observation: ..
Reward -0
About to find best action in Step: 3
Foind best action in Step: 3
Coolie

Action Type: 2

Presence: 00000000000000000000000000000000000000000000000000000000000000000000000000000000
Invited Nodes: 
Actions left: 3
Session index: 2

Observation: ..
Reward 0
About to find best action in Step: 4
Values: 16.424(endSession) 14.9654(query) 14.9489(invite)
Foind best action in Step: 4
Coolie

Action Type: 2

Presence: 11111111111111111111111111111111111111111111111111111111111111111111111111111111
Invited Nodes: 
Actions left: 3
Session index: 3

Observation: ..
Reward 0
About to find best action in Step: 5
Values: 13.55(endSession) 14.6969(query) 14.4976(invite)
Foind best action in Step: 5
Coolie

Action Type: 0
Active Nodes: 21 78 

Presence: 11111111111111111111111111111111111111111111111111111111111111111111111111111111
Invited Nodes: 
Actions left: 2
Session index: 3

Observation: ..11
Reward -0
About to find best action in Step: 6
Values: 0(endSession) 14.4383(query) 14.6554(invite)
Foind best action in Step: 6
Coolie

Action Type: 1
Active Nodes: 0 10 

Presence: 11111111111111111111111111111111111111111111111111111111111111111111111111111111
Invited Nodes: 0 10 
Actions left: 1
Session index: 3

Observation: ..11
Reward -0
About to find best action in Step: 7
Foind best action in Step: 7
Coolie

Action Type: 2

Presence: 00000000000000000000000000000000000000000000000000000000000000000000000000000000
Invited Nodes: 0 10 
Actions left: 3
Session index: 4

Observation: ..
Reward 0
About to find best action in Step: 8
Foind best action in Step: 8
Coolie

Action Type: 2

Presence: 00000000000000000000000000000000000000000000000000000000000000000000000000000000
Invited Nodes: 0 10 
Actions left: 3
Session index: 5

Observation: ..
Reward 0
About to find best action in Step: 9
Foind best action in Step: 9
Coolie

Action Type: 2

Presence: 00000000000000000000000000000000000000000000000000000000000000000000000000000000
Invited Nodes: 0 10 
Actions left: 3
Session index: 6

Observation: ..
Reward 0
About to find best action in Step: 10
Foind best action in Step: 10
Coolie

Action Type: 2

Presence: 11111111111111111111111111111111111111111111111111111111111111111111111111111111
Invited Nodes: 0 10 
Actions left: 3
Session index: 7

Observation: ..
Reward 18.035
Terminated
Discounted return = 18.035, average = 13.6918
Undiscounted return = 18.035, average = 13.6918
Starting run 13 with 1024 simulations... 

Presence: 11111111111111111111111111111111111111111111111111111111111111111111111111111111
Invited Nodes: 
Actions left: 3
Session index: 1
About to find best action in Step: 0
Values: 13.595(endSession) 15.3135(query) 15.0883(invite)
Foind best action in Step: 0
Coolie

Action Type: 0
Active Nodes: 0 9 

Presence: 11111111111111111111111111111111111111111111111111111111111111111111111111111111
Invited Nodes: 
Actions left: 2
Session index: 1

Observation: ..11
Reward -0
About to find best action in Step: 1
Values: 16.278(endSession) 15.3894(query) 15.6136(invite)
Foind best action in Step: 1
Coolie

Action Type: 2

Presence: 11111111111111111111111111111111111011111111111111111111111111111111111111111111
Invited Nodes: 
Actions left: 3
Session index: 2

Observation: ..
Reward 0
About to find best action in Step: 2
Values: 10.595(endSession) 14.8978(query) 14.9774(invite)
Foind best action in Step: 2
Coolie

Action Type: 1
Active Nodes: 3 24 

Presence: 11111111111111111111111111111111111011111111111111111111111111111111111111111111
Invited Nodes: 3 24 
Actions left: 2
Session index: 2

Observation: ..11
Reward -0
About to find best action in Step: 3
Foind best action in Step: 3
Coolie

Action Type: 2

Presence: 11111111111111111111111111111111111111111111111111111111111111111111111111111111
Invited Nodes: 3 24 
Actions left: 3
Session index: 3

Observation: ..
Reward 0
About to find best action in Step: 4
Foind best action in Step: 4
Coolie

Action Type: 2

Presence: 00000000000000000000000000000000000000000000000000000000000000000000000000000000
Invited Nodes: 3 24 
Actions left: 3
Session index: 4

Observation: ..
Reward 0
About to find best action in Step: 5
Foind best action in Step: 5
Coolie

Action Type: 2

Presence: 11111111111111111111111111111111111111111111111111111111111111111111111111111111
Invited Nodes: 3 24 
Actions left: 3
Session index: 5

Observation: ..
Reward 0
About to find best action in Step: 6
Foind best action in Step: 6
Coolie

Action Type: 2

Presence: 11111111111111111111111111111111111111111111111111111111111111111111111111111111
Invited Nodes: 3 24 
Actions left: 3
Session index: 6

Observation: ..
Reward 0
About to find best action in Step: 7
Foind best action in Step: 7
Coolie

Action Type: 2

Presence: 00000000000000010000000000000001000000000000000000000000000000000000000000000000
Invited Nodes: 3 24 
Actions left: 3
Session index: 7

Observation: ..
Reward 20.315
Terminated
Discounted return = 20.315, average = 14.2013
Undiscounted return = 20.315, average = 14.2013
Starting run 14 with 1024 simulations... 

Presence: 11111111111111111111111111111111111111111111111111111111111111111111111111111111
Invited Nodes: 
Actions left: 3
Session index: 1
About to find best action in Step: 0
Values: 14.845(endSession) 15.207(query) 15.2319(invite)
Foind best action in Step: 0
Coolie

Action Type: 1
Active Nodes: 3 70 

Presence: 11111111111111111111111111111111111111111111111111111111111111111111111111111111
Invited Nodes: 3 70 
Actions left: 2
Session index: 1

Observation: ..11
Reward -0
About to find best action in Step: 1
Foind best action in Step: 1
Coolie

Action Type: 2

Presence: 00000000000000000000000000000000000000000000000000000000000000000000000000000000
Invited Nodes: 3 70 
Actions left: 3
Session index: 2

Observation: ..
Reward 0
About to find best action in Step: 2
Foind best action in Step: 2
Coolie

Action Type: 2

Presence: 11111111111111111111111111111111111111111111111111111111111111111111111111111111
Invited Nodes: 3 70 
Actions left: 3
Session index: 3

Observation: ..
Reward 0
About to find best action in Step: 3
Foind best action in Step: 3
Coolie

Action Type: 2

Presence: 00000000000000000000000000000000000000000000000000000000000000000000000000000000
Invited Nodes: 3 70 
Actions left: 3
Session index: 4

Observation: ..
Reward 0
About to find best action in Step: 4
Foind best action in Step: 4
Coolie

Action Type: 2

Presence: 00000000000000000000000000000000000000000000000000000000000000000000000000000000
Invited Nodes: 3 70 
Actions left: 3
Session index: 5

Observation: ..
Reward 0
About to find best action in Step: 5
Foind best action in Step: 5
Coolie

Action Type: 2

Presence: 00000000000000000000000000000000000000000000000000000000000000000000000000000000
Invited Nodes: 3 70 
Actions left: 3
Session index: 6

Observation: ..
Reward 0
About to find best action in Step: 6
Foind best action in Step: 6
Coolie

Action Type: 2

Presence: 00000000000000000000000000000000000000000000000000000000000000000000000000000000
Invited Nodes: 3 70 
Actions left: 3
Session index: 7

Observation: ..
Reward 19.122
Terminated
Discounted return = 19.122, average = 14.5528
Undiscounted return = 19.122, average = 14.5528
Starting run 15 with 1024 simulations... 

Presence: 00000000000000000000000000000000000000000000000000000000000000000000000000000000
Invited Nodes: 
Actions left: 3
Session index: 1
About to find best action in Step: 0
Values: 13.286(endSession) 14.9999(query) 15.0331(invite)
Foind best action in Step: 0
Coolie

Action Type: 1
Active Nodes: 7 14 

Presence: 00000000000000000000000000000000000000000000000000000000000000000000000000000000
Invited Nodes: 
Actions left: 2
Session index: 1

Observation: ..
Reward -0
About to find best action in Step: 1
Values: 11.185(endSession) 14.9537(query) 15.0703(invite)
Foind best action in Step: 1
Coolie

Action Type: 1
Active Nodes: 17 44 

Presence: 00000000000000000000000000000000000000000000000000000000000000000000000000000000
Invited Nodes: 
Actions left: 1
Session index: 1

Observation: ..
Reward -0
About to find best action in Step: 2
Values: 11.606(endSession) 15.1251(query) 15.0881(invite)
Foind best action in Step: 2
Coolie

Action Type: 0
Active Nodes: 1 16 

Presence: 00000000000000000000000000000000000000000000000000000000000000000000000000000000
Invited Nodes: 
Actions left: 0
Session index: 1

Observation: ..
Reward -0
About to find best action in Step: 3
Foind best action in Step: 3
Coolie

Action Type: 2

Presence: 11111111111111111111111111111111111111111111111111111111111111111111111111111111
Invited Nodes: 
Actions left: 3
Session index: 2

Observation: ..
Reward 0
About to find best action in Step: 4
Values: 15.405(endSession) 15.0755(query) 14.7384(invite)
Foind best action in Step: 4
Coolie

Action Type: 2

Presence: 00000000000000000000000000000000000000000000000000000000000000000000000000000000
Invited Nodes: 
Actions left: 3
Session index: 3

Observation: ..
Reward 0
About to find best action in Step: 5
Values: 18.109(endSession) 14.8054(query) 14.6786(invite)
Foind best action in Step: 5
Coolie

Action Type: 2

Presence: 11111111111111111111111111111111111111111111111111111111111111111111111111111111
Invited Nodes: 
Actions left: 3
Session index: 4

Observation: ..
Reward 0
About to find best action in Step: 6
Values: 0(endSession) 13.7845(query) 14.0521(invite)
Foind best action in Step: 6
Coolie

Action Type: 1
Active Nodes: 44 79 

Presence: 11111111111111111111111111111111111111111111111111111111111111111111111111111111
Invited Nodes: 44 79 
Actions left: 2
Session index: 4

Observation: ..11
Reward -0
About to find best action in Step: 7
Foind best action in Step: 7
Coolie

Action Type: 2

Presence: 00000000000000000000000000000000000000000000000000000000000000000000000000000000
Invited Nodes: 44 79 
Actions left: 3
Session index: 5

Observation: ..
Reward 0
About to find best action in Step: 8
Foind best action in Step: 8
Coolie

Action Type: 2

Presence: 11111111111111111111111111111111111111111111111111111111111111111111111111111111
Invited Nodes: 44 79 
Actions left: 3
Session index: 6

Observation: ..
Reward 0
About to find best action in Step: 9
Foind best action in Step: 9
Coolie

Action Type: 2

Presence: 11111111111111111111111111111111111111111111111111111111111111111111111111111111
Invited Nodes: 44 79 
Actions left: 3
Session index: 7

Observation: ..
Reward 17.356
Terminated
Discounted return = 17.356, average = 14.7397
Undiscounted return = 17.356, average = 14.7397
Starting run 16 with 1024 simulations... 

Presence: 00000000000000000000000000000000000000000000000000000000000000000000000000000000
Invited Nodes: 
Actions left: 3
Session index: 1
About to find best action in Step: 0
Values: 15.116(endSession) 15.3451(query) 14.966(invite)
Foind best action in Step: 0
Coolie

Action Type: 0
Active Nodes: 60 61 

Presence: 00000000000000000000000000000000000000000000000000000000000000000000000000000000
Invited Nodes: 
Actions left: 2
Session index: 1

Observation: ..
Reward -0
About to find best action in Step: 1
Values: 17.806(endSession) 15.1657(query) 15.4222(invite)
Foind best action in Step: 1
Coolie

Action Type: 2

Presence: 11111111111111111111111111111111111111111111111111111111111111111111111111111111
Invited Nodes: 
Actions left: 3
Session index: 2

Observation: ..
Reward 0
About to find best action in Step: 2
Values: 0(endSession) 15.0023(query) 15.2824(invite)
Foind best action in Step: 2
Coolie

Action Type: 1
Active Nodes: 3 18 

Presence: 11111111111111111111111111111111111111111111111111111111111111111111111111111111
Invited Nodes: 3 18 
Actions left: 2
Session index: 2

Observation: ..11
Reward -0
About to find best action in Step: 3
Foind best action in Step: 3
Coolie

Action Type: 2

Presence: 00000000000000000000000000000000000000000000000000000000000000000000000000000000
Invited Nodes: 3 18 
Actions left: 3
Session index: 3

Observation: ..
Reward 0
About to find best action in Step: 4
Foind best action in Step: 4
Coolie

Action Type: 2

Presence: 11111111111111111111111111111111111111111111111111111111111111111111111111111111
Invited Nodes: 3 18 
Actions left: 3
Session index: 4

Observation: ..
Reward 0
About to find best action in Step: 5
Foind best action in Step: 5
Coolie

Action Type: 2

Presence: 11011011110001000000000000000010111011110000000000000001000001011101101111111111
Invited Nodes: 3 18 
Actions left: 3
Session index: 5

Observation: ..
Reward 0
About to find best action in Step: 6
Foind best action in Step: 6
Coolie

Action Type: 2

Presence: 00000000000000000000000000000000000000000000000000000000000000000000000000000000
Invited Nodes: 3 18 
Actions left: 3
Session index: 6

Observation: ..
Reward 0
About to find best action in Step: 7
Foind best action in Step: 7
Coolie

Action Type: 2

Presence: 11111111111111111111111111111111111111111111111111111111111111111111111111111111
Invited Nodes: 3 18 
Actions left: 3
Session index: 7

Observation: ..
Reward 21.313
Terminated
Discounted return = 21.313, average = 15.1505
Undiscounted return = 21.313, average = 15.1505
Starting run 17 with 1024 simulations... 

Presence: 11111111111111111111111111111111111111111111111111111111111111111111111111111111
Invited Nodes: 
Actions left: 3
Session index: 1
About to find best action in Step: 0
Values: 15.468(endSession) 15.0308(query) 14.9724(invite)
Foind best action in Step: 0
Coolie

Action Type: 2

Presence: 00000000000000000000000000000000000000000000000000000000000000000000000000000000
Invited Nodes: 
Actions left: 3
Session index: 2

Observation: ..
Reward 0
About to find best action in Step: 1
Values: 14.634(endSession) 15.0637(query) 14.8235(invite)
Foind best action in Step: 1
Coolie

Action Type: 0
Active Nodes: 27 40 

Presence: 00000000000000000000000000000000000000000000000000000000000000000000000000000000
Invited Nodes: 
Actions left: 2
Session index: 2

Observation: ..
Reward -0
About to find best action in Step: 2
Values: 15.627(endSession) 14.4158(query) 14.909(invite)
Foind best action in Step: 2
Coolie

Action Type: 2

Presence: 11111111111111111111111111111111111111111111111111111111111111111111111111111111
Invited Nodes: 
Actions left: 3
Session index: 3

Observation: ..
Reward 0
About to find best action in Step: 3
Values: 11.15(endSession) 14.2624(query) 14.7532(invite)
Foind best action in Step: 3
Coolie

Action Type: 1
Active Nodes: 49 72 

Presence: 11111111111111111111111111111111111111111111111111111111111111111111111111111111
Invited Nodes: 49 72 
Actions left: 2
Session index: 3

Observation: ..11
Reward -0
About to find best action in Step: 4
Foind best action in Step: 4
Coolie

Action Type: 2

Presence: 11111111011111111111111111111111111111111111111111111111111111111111111111111111
Invited Nodes: 49 72 
Actions left: 3
Session index: 4

Observation: ..
Reward 0
About to find best action in Step: 5
Foind best action in Step: 5
Coolie

Action Type: 2

Presence: 00000000000000000000000000000000000000000000000000000000000000000000000000000000
Invited Nodes: 49 72 
Actions left: 3
Session index: 5

Observation: ..
Reward 0
About to find best action in Step: 6
Foind best action in Step: 6
Coolie

Action Type: 2

Presence: 11111111111111111111111111111111111111111111111111111111111111111111111111111111
Invited Nodes: 49 72 
Actions left: 3
Session index: 6

Observation: ..
Reward 0
About to find best action in Step: 7
Foind best action in Step: 7
Coolie

Action Type: 2

Presence: 11111111111111111111111111111111111111111111111111111111111111111111111111111111
Invited Nodes: 49 72 
Actions left: 3
Session index: 7

Observation: ..
Reward 19.508
Terminated
Discounted return = 19.508, average = 15.4068
Undiscounted return = 19.508, average = 15.4068
Starting run 18 with 1024 simulations... 

Presence: 00000000000000000000000000000000000000000000000000000000000000000000000000000000
Invited Nodes: 
Actions left: 3
Session index: 1
About to find best action in Step: 0
Values: 17.304(endSession) 15.2695(query) 15.2398(invite)
Foind best action in Step: 0
Coolie

Action Type: 2

Presence: 00000000000000000000000000000000000000000000000000000000000000000000000000000000
Invited Nodes: 
Actions left: 3
Session index: 2

Observation: ..
Reward 0
About to find best action in Step: 1
Values: 14.858(endSession) 15.4432(query) 14.9445(invite)
Foind best action in Step: 1
Coolie

Action Type: 0
Active Nodes: 7 56 

Presence: 00000000000000000000000000000000000000000000000000000000000000000000000000000000
Invited Nodes: 
Actions left: 2
Session index: 2

Observation: ..
Reward -0
About to find best action in Step: 2
Values: 5.224(endSession) 14.7866(query) 15.2006(invite)
Foind best action in Step: 2
Coolie

Action Type: 1
Active Nodes: 17 72 

Presence: 00000000000000000000000000000000000000000000000000000000000000000000000000000000
Invited Nodes: 
Actions left: 1
Session index: 2

Observation: ..
Reward -0
About to find best action in Step: 3
Values: 12.776(endSession) 14.8377(query) 14.8849(invite)
Foind best action in Step: 3
Coolie

Action Type: 1
Active Nodes: 44 70 

Presence: 00000000000000000000000000000000000000000000000000000000000000000000000000000000
Invited Nodes: 
Actions left: 0
Session index: 2

Observation: ..
Reward -0
About to find best action in Step: 4
Foind best action in Step: 4
Coolie

Action Type: 2

Presence: 11111111111111111111111111111111111111111111111111111111111111111111111111111111
Invited Nodes: 
Actions left: 3
Session index: 3

Observation: ..
Reward 0
About to find best action in Step: 5
Values: 0(endSession) 14.683(query) 14.911(invite)
Foind best action in Step: 5
Coolie

Action Type: 1
Active Nodes: 6 45 

Presence: 11111111111111111111111111111111111111111111111111111111111111111111111111111111
Invited Nodes: 6 45 
Actions left: 2
Session index: 3

Observation: ..11
Reward -0
About to find best action in Step: 6
Foind best action in Step: 6
Coolie

Action Type: 2

Presence: 00000000000000000000000000000000000000000000000000000000000000000000000000000000
Invited Nodes: 6 45 
Actions left: 3
Session index: 4

Observation: ..
Reward 0
About to find best action in Step: 7
Foind best action in Step: 7
Coolie

Action Type: 2

Presence: 00000000000000000000000000000000000000000000000000000000000000000000000000000000
Invited Nodes: 6 45 
Actions left: 3
Session index: 5

Observation: ..
Reward 0
About to find best action in Step: 8
Foind best action in Step: 8
Coolie

Action Type: 2

Presence: 11111111111111111111111111111111111111111111111111111111111111111111111111111111
Invited Nodes: 6 45 
Actions left: 3
Session index: 6

Observation: ..
Reward 0
About to find best action in Step: 9
Foind best action in Step: 9
Coolie

Action Type: 2

Presence: 11111111111111111111111111111111111111111111111111111111111111111111111111111111
Invited Nodes: 6 45 
Actions left: 3
Session index: 7

Observation: ..
Reward 19.573
Terminated
Discounted return = 19.573, average = 15.6383
Undiscounted return = 19.573, average = 15.6383
Starting run 19 with 1024 simulations... 

Presence: 11111111111111111111111111111111111111111111111111111111111111111111111111111111
Invited Nodes: 
Actions left: 3
Session index: 1
About to find best action in Step: 0
Values: 15.843(endSession) 15.1672(query) 15.2907(invite)
Foind best action in Step: 0
Coolie

Action Type: 2

Presence: 00000000000000000000000000000000000000000000000000000000000000000000000000000000
Invited Nodes: 
Actions left: 3
Session index: 2

Observation: ..
Reward 0
About to find best action in Step: 1
Values: 14.042(endSession) 15.2047(query) 15.0621(invite)
Foind best action in Step: 1
Coolie

Action Type: 0
Active Nodes: 34 36 

Presence: 00000000000000000000000000000000000000000000000000000000000000000000000000000000
Invited Nodes: 
Actions left: 2
Session index: 2

Observation: ..
Reward -0
About to find best action in Step: 2
Values: 15.422(endSession) 14.7199(query) 14.5758(invite)
Foind best action in Step: 2
Coolie

Action Type: 2

Presence: 00000000000000000000000000000000000000000000000000000000000000000000000000000000
Invited Nodes: 
Actions left: 3
Session index: 3

Observation: ..
Reward 0
About to find best action in Step: 3
Values: 11.761(endSession) 14.6469(query) 14.4688(invite)
Foind best action in Step: 3
Coolie

Action Type: 0
Active Nodes: 37 39 

Presence: 00000000000000000000000000000000000000000000000000000000000000000000000000000000
Invited Nodes: 
Actions left: 2
Session index: 3

Observation: ..
Reward -0
About to find best action in Step: 4
Values: 15.321(endSession) 14.2021(query) 14.3293(invite)
Foind best action in Step: 4
Coolie

Action Type: 2

Presence: 00000000000000000000000000000000000000000000000000000000000000000000000000000000
Invited Nodes: 
Actions left: 3
Session index: 4

Observation: ..
Reward 0
About to find best action in Step: 5
Values: 12.871(endSession) 14.0213(query) 14.0958(invite)
Foind best action in Step: 5
Coolie

Action Type: 1
Active Nodes: 30 44 

Presence: 00000000000000000000000000000000000000000000000000000000000000000000000000000000
Invited Nodes: 
Actions left: 2
Session index: 4

Observation: ..
Reward -0
About to find best action in Step: 6
Values: 0(endSession) 12.6184(query) 13.4097(invite)
Foind best action in Step: 6
Coolie

Action Type: 1
Active Nodes: 3 68 

Presence: 00000000000000000000000000000000000000000000000000000000000000000000000000000000
Invited Nodes: 
Actions left: 1
Session index: 4

Observation: ..
Reward -0
About to find best action in Step: 7
Values: 20.33(endSession) 12.8966(query) 12.9148(invite)
Foind best action in Step: 7
Coolie

Action Type: 2

Presence: 00000000000000000000000000000000000000000000000000000000000000000000000000000000
Invited Nodes: 
Actions left: 3
Session index: 5

Observation: ..
Reward 0
About to find best action in Step: 8
Values: 18.814(endSession) 12.4895(query) 12.6448(invite)
Foind best action in Step: 8
Coolie

Action Type: 2

Presence: 00000000000000000000000000000000000000000000000000000000000000000000000000000000
Invited Nodes: 
Actions left: 3
Session index: 6

Observation: ..
Reward 0
About to find best action in Step: 9
Values: 0(endSession) 8.74676(query) 9.51207(invite)
Foind best action in Step: 9
Coolie

Action Type: 1
Active Nodes: 17 77 

Presence: 00000000000000000000000000000000000000000000000000000000000000000000000000000000
Invited Nodes: 
Actions left: 2
Session index: 6

Observation: ..
Reward -0
About to find best action in Step: 10
Values: 0(endSession) 0(query) 7.32011(invite)
Foind best action in Step: 10
Coolie

Action Type: 1
Active Nodes: 44 72 

Presence: 00000000000000000000000000000000000000000000000000000000000000000000000000000000
Invited Nodes: 
Actions left: 1
Session index: 6

Observation: ..
Reward -0
About to find best action in Step: 11
Values: 0(endSession) 0(query) 4.69665(invite)
Foind best action in Step: 11
Coolie

Action Type: 1
Active Nodes: 3 7 

Presence: 00000000000000000000000000000000000000000000000000000000000000000000000000000000
Invited Nodes: 
Actions left: 0
Session index: 6

Observation: ..
Reward -0
About to find best action in Step: 12
Foind best action in Step: 12
Coolie

Action Type: 2

Presence: 00000000000000000000000000000000000000000000000000000000000000000000000000000000
Invited Nodes: 
Actions left: 3
Session index: 7

Observation: ..
Reward 0
Terminated
Discounted return = 0, average = 14.8152
Undiscounted return = 0, average = 14.8152
Starting run 20 with 1024 simulations... 

Presence: 11111111111111111111111111111111111111111111111111111111111111111111111111111111
Invited Nodes: 
Actions left: 3
Session index: 1
About to find best action in Step: 0
Values: 15.535(endSession) 15.485(query) 15.6962(invite)
Foind best action in Step: 0
Coolie

Action Type: 1
Active Nodes: 44 56 

Presence: 11111111111111111111111111111111111111111111111111111111111111111111111111111111
Invited Nodes: 44 56 
Actions left: 2
Session index: 1

Observation: ..11
Reward -0
About to find best action in Step: 1
Foind best action in Step: 1
Coolie

Action Type: 2

Presence: 00000000000000000000000000000000000000000000000000000100000000000000000100000000
Invited Nodes: 44 56 
Actions left: 3
Session index: 2

Observation: ..
Reward 0
About to find best action in Step: 2
Foind best action in Step: 2
Coolie

Action Type: 2

Presence: 11111111111111111111111111111111111111111111111111111111111111111111111111111111
Invited Nodes: 44 56 
Actions left: 3
Session index: 3

Observation: ..
Reward 0
About to find best action in Step: 3
Foind best action in Step: 3
Coolie

Action Type: 2

Presence: 11111111111111111111111111111111111111111111111111111111111111111111111111111111
Invited Nodes: 44 56 
Actions left: 3
Session index: 4

Observation: ..
Reward 0
About to find best action in Step: 4
Foind best action in Step: 4
Coolie

Action Type: 2

Presence: 11111111111111111111111111111111111111111111111111111111111111111111111111111111
Invited Nodes: 44 56 
Actions left: 3
Session index: 5

Observation: ..
Reward 0
About to find best action in Step: 5
Foind best action in Step: 5
Coolie

Action Type: 2

Presence: 00000000000000000000000000000000000000000000000000000000000000000000000000000000
Invited Nodes: 44 56 
Actions left: 3
Session index: 6

Observation: ..
Reward 0
About to find best action in Step: 6
Foind best action in Step: 6
Coolie

Action Type: 2

Presence: 11111111111111111111111111111111111111111111111111111111111111111111111111111111
Invited Nodes: 44 56 
Actions left: 3
Session index: 7

Observation: ..
Reward 20.212
Terminated
Discounted return = 20.212, average = 15.085
Undiscounted return = 20.212, average = 15.085
Simulations = 1024
Runs = 20
Undiscounted return = 15.085 +- 1.71405
Discounted return = 15.085 +- 1.71405
Time = 32.6395
----------------------------------------
Begin PBS Epilogue Thu Aug 31 06:22:28 PDT 2017
Job ID:           24124966.hpc-pbs1.hpcc.usc.edu
Username:         amulyaya
Accountname:      default
Group:            csci-ar
Job Name:         18.pbs
Session:          65510
Limits:           neednodes=1:ppn=16:sl230s,nodes=1:ppn=16:sl230s,walltime=24:00:00
Resources:        cput=00:10:58,energy_used=0,mem=63516816kb,vmem=59238844kb,walltime=00:10:59
Queue:            tambe
Shared Access:    no
Has MIC:          no
Is hsda:          false
removed '/scratch'
End PBS Epilogue Thu Aug 31 06:22:28 PDT 2017
----------------------------------------
