80 958
2
0 1
3 2 2 3
2
1 0
3 2 2 3
2
0 2
3 2 2 3
2
2 0
3 2 2 3
2
0 6
3 2 2 3
2
6 0
3 2 2 3
2
0 11
3 2 2 3
2
11 0
3 2 2 3
2
0 44
3 2 2 3
2
44 0
3 2 2 3
2
0 47
3 2 2 3
2
47 0
3 2 2 3
2
1 3
3 2 2 3
2
3 1
3 2 2 3
2
1 5
3 2 2 3
2
5 1
3 2 2 3
2
1 6
3 2 2 3
2
6 1
3 2 2 3
2
1 8
3 2 2 3
2
8 1
3 2 2 3
2
1 63
3 2 2 3
2
63 1
3 2 2 3
2
1 67
3 2 2 3
2
67 1
3 2 2 3
2
2 5
3 2 2 3
2
5 2
3 2 2 3
2
2 6
3 2 2 3
2
6 2
3 2 2 3
2
2 9
3 2 2 3
2
9 2
3 2 2 3
2
2 13
3 2 2 3
2
13 2
3 2 2 3
2
2 34
3 2 2 3
2
34 2
3 2 2 3
2
2 54
3 2 2 3
2
54 2
3 2 2 3
2
2 69
3 2 2 3
2
69 2
3 2 2 3
2
2 70
3 2 2 3
2
70 2
3 2 2 3
2
2 73
3 2 2 3
2
73 2
3 2 2 3
2
3 30
3 2 2 3
2
30 3
3 2 2 3
2
4 3
3 2 2 3
2
3 4
3 2 2 3
2
4 6
3 2 2 3
2
6 4
3 2 2 3
2
4 9
3 2 2 3
2
9 4
3 2 2 3
2
4 39
3 2 2 3
2
39 4
3 2 2 3
2
4 45
3 2 2 3
2
45 4
3 2 2 3
2
4 58
3 2 2 3
2
58 4
3 2 2 3
2
5 1
3 2 2 3
2
1 5
3 2 2 3
2
5 2
3 2 2 3
2
2 5
3 2 2 3
2
5 3
3 2 2 3
2
3 5
3 2 2 3
2
5 4
3 2 2 3
2
4 5
3 2 2 3
2
5 6
3 2 2 3
2
6 5
3 2 2 3
2
5 8
3 2 2 3
2
8 5
3 2 2 3
2
5 9
3 2 2 3
2
9 5
3 2 2 3
2
5 60
3 2 2 3
2
60 5
3 2 2 3
2
6 3
3 2 2 3
2
3 6
3 2 2 3
2
6 9
3 2 2 3
2
9 6
3 2 2 3
2
6 43
3 2 2 3
2
43 6
3 2 2 3
2
6 65
3 2 2 3
2
65 6
3 2 2 3
2
6 73
3 2 2 3
2
73 6
3 2 2 3
2
7 0
3 2 2 3
2
0 7
3 2 2 3
2
7 1
3 2 2 3
2
1 7
3 2 2 3
2
7 3
3 2 2 3
2
3 7
3 2 2 3
2
7 4
3 2 2 3
2
4 7
3 2 2 3
2
7 24
3 2 2 3
2
24 7
3 2 2 3
2
7 37
3 2 2 3
2
37 7
3 2 2 3
2
7 62
3 2 2 3
2
62 7
3 2 2 3
2
7 73
3 2 2 3
2
73 7
3 2 2 3
2
8 2
3 2 2 3
2
2 8
3 2 2 3
2
8 6
3 2 2 3
2
6 8
3 2 2 3
2
8 9
3 2 2 3
2
9 8
3 2 2 3
2
8 33
3 2 2 3
2
33 8
3 2 2 3
2
8 34
3 2 2 3
2
34 8
3 2 2 3
2
8 57
3 2 2 3
2
57 8
3 2 2 3
2
8 62
3 2 2 3
2
62 8
3 2 2 3
2
8 75
3 2 2 3
2
75 8
3 2 2 3
2
9 1
3 2 2 3
2
1 9
3 2 2 3
2
9 5
3 2 2 3
2
5 9
3 2 2 3
2
9 7
3 2 2 3
2
7 9
3 2 2 3
2
9 52
3 2 2 3
2
52 9
3 2 2 3
2
10 5
3 2 2 3
2
5 10
3 2 2 3
2
10 12
3 2 2 3
2
12 10
3 2 2 3
2
10 13
3 2 2 3
2
13 10
3 2 2 3
2
10 19
3 2 2 3
2
19 10
3 2 2 3
2
10 38
3 2 2 3
2
38 10
3 2 2 3
2
10 71
3 2 2 3
2
71 10
3 2 2 3
2
10 79
3 2 2 3
2
79 10
3 2 2 3
2
11 8
3 2 2 3
2
8 11
3 2 2 3
2
11 13
3 2 2 3
2
13 11
3 2 2 3
2
11 15
3 2 2 3
2
15 11
3 2 2 3
2
11 30
3 2 2 3
2
30 11
3 2 2 3
2
11 40
3 2 2 3
2
40 11
3 2 2 3
2
11 67
3 2 2 3
2
67 11
3 2 2 3
2
11 69
3 2 2 3
2
69 11
3 2 2 3
2
12 1
3 2 2 3
2
1 12
3 2 2 3
2
12 11
3 2 2 3
2
11 12
3 2 2 3
2
12 17
3 2 2 3
2
17 12
3 2 2 3
2
12 18
3 2 2 3
2
18 12
3 2 2 3
2
12 39
3 2 2 3
2
39 12
3 2 2 3
2
12 75
3 2 2 3
2
75 12
3 2 2 3
2
12 78
3 2 2 3
2
78 12
3 2 2 3
2
13 4
3 2 2 3
2
4 13
3 2 2 3
2
13 12
3 2 2 3
2
12 13
3 2 2 3
2
13 61
3 2 2 3
2
61 13
3 2 2 3
2
14 16
3 2 2 3
2
16 14
3 2 2 3
2
14 78
3 2 2 3
2
78 14
3 2 2 3
2
15 12
3 2 2 3
2
12 15
3 2 2 3
2
15 14
3 2 2 3
2
14 15
3 2 2 3
2
15 44
3 2 2 3
2
44 15
3 2 2 3
2
15 46
3 2 2 3
2
46 15
3 2 2 3
2
16 12
3 2 2 3
2
12 16
3 2 2 3
2
16 17
3 2 2 3
2
17 16
3 2 2 3
2
16 74
3 2 2 3
2
74 16
3 2 2 3
2
16 78
3 2 2 3
2
78 16
3 2 2 3
2
17 10
3 2 2 3
2
10 17
3 2 2 3
2
17 11
3 2 2 3
2
11 17
3 2 2 3
2
17 13
3 2 2 3
2
13 17
3 2 2 3
2
17 31
3 2 2 3
2
31 17
3 2 2 3
2
17 32
3 2 2 3
2
32 17
3 2 2 3
2
17 58
3 2 2 3
2
58 17
3 2 2 3
2
17 63
3 2 2 3
2
63 17
3 2 2 3
2
17 71
3 2 2 3
2
71 17
3 2 2 3
2
18 15
3 2 2 3
2
15 18
3 2 2 3
2
18 16
3 2 2 3
2
16 18
3 2 2 3
2
18 19
3 2 2 3
2
19 18
3 2 2 3
2
18 58
3 2 2 3
2
58 18
3 2 2 3
2
19 10
3 2 2 3
2
10 19
3 2 2 3
2
19 11
3 2 2 3
2
11 19
3 2 2 3
2
19 24
3 2 2 3
2
24 19
3 2 2 3
2
19 44
3 2 2 3
2
44 19
3 2 2 3
2
19 59
3 2 2 3
2
59 19
3 2 2 3
2
20 19
3 2 2 3
2
19 20
3 2 2 3
2
20 21
3 2 2 3
2
21 20
3 2 2 3
2
20 57
3 2 2 3
2
57 20
3 2 2 3
2
21 2
3 2 2 3
2
2 21
3 2 2 3
2
21 9
3 2 2 3
2
9 21
3 2 2 3
2
21 25
3 2 2 3
2
25 21
3 2 2 3
2
21 26
3 2 2 3
2
26 21
3 2 2 3
2
21 29
3 2 2 3
2
29 21
3 2 2 3
2
22 24
3 2 2 3
2
24 22
3 2 2 3
2
22 25
3 2 2 3
2
25 22
3 2 2 3
2
22 26
3 2 2 3
2
26 22
3 2 2 3
2
22 27
3 2 2 3
2
27 22
3 2 2 3
2
22 37
3 2 2 3
2
37 22
3 2 2 3
2
22 44
3 2 2 3
2
44 22
3 2 2 3
2
22 46
3 2 2 3
2
46 22
3 2 2 3
2
22 52
3 2 2 3
2
52 22
3 2 2 3
2
22 60
3 2 2 3
2
60 22
3 2 2 3
2
23 6
3 2 2 3
2
6 23
3 2 2 3
2
23 19
3 2 2 3
2
19 23
3 2 2 3
2
23 20
3 2 2 3
2
20 23
3 2 2 3
2
23 28
3 2 2 3
2
28 23
3 2 2 3
2
23 45
3 2 2 3
2
45 23
3 2 2 3
2
23 62
3 2 2 3
2
62 23
3 2 2 3
2
24 23
3 2 2 3
2
23 24
3 2 2 3
2
24 26
3 2 2 3
2
26 24
3 2 2 3
2
24 27
3 2 2 3
2
27 24
3 2 2 3
2
24 28
3 2 2 3
2
28 24
3 2 2 3
2
25 3
3 2 2 3
2
3 25
3 2 2 3
2
25 8
3 2 2 3
2
8 25
3 2 2 3
2
25 15
3 2 2 3
2
15 25
3 2 2 3
2
25 22
3 2 2 3
2
22 25
3 2 2 3
2
25 23
3 2 2 3
2
23 25
3 2 2 3
2
25 28
3 2 2 3
2
28 25
3 2 2 3
2
25 64
3 2 2 3
2
64 25
3 2 2 3
2
26 11
3 2 2 3
2
11 26
3 2 2 3
2
26 20
3 2 2 3
2
20 26
3 2 2 3
2
26 21
3 2 2 3
2
21 26
3 2 2 3
2
26 22
3 2 2 3
2
22 26
3 2 2 3
2
26 24
3 2 2 3
2
24 26
3 2 2 3
2
26 28
3 2 2 3
2
28 26
3 2 2 3
2
26 29
3 2 2 3
2
29 26
3 2 2 3
2
26 60
3 2 2 3
2
60 26
3 2 2 3
2
26 74
3 2 2 3
2
74 26
3 2 2 3
2
26 77
3 2 2 3
2
77 26
3 2 2 3
2
27 21
3 2 2 3
2
21 27
3 2 2 3
2
27 23
3 2 2 3
2
23 27
3 2 2 3
2
27 31
3 2 2 3
2
31 27
3 2 2 3
2
27 39
3 2 2 3
2
39 27
3 2 2 3
2
27 40
3 2 2 3
2
40 27
3 2 2 3
2
27 47
3 2 2 3
2
47 27
3 2 2 3
2
27 53
3 2 2 3
2
53 27
3 2 2 3
2
28 7
3 2 2 3
2
7 28
3 2 2 3
2
28 8
3 2 2 3
2
8 28
3 2 2 3
2
28 26
3 2 2 3
2
26 28
3 2 2 3
2
28 27
3 2 2 3
2
27 28
3 2 2 3
2
29 0
3 2 2 3
2
0 29
3 2 2 3
2
29 20
3 2 2 3
2
20 29
3 2 2 3
2
29 22
3 2 2 3
2
22 29
3 2 2 3
2
29 26
3 2 2 3
2
26 29
3 2 2 3
2
29 28
3 2 2 3
2
28 29
3 2 2 3
2
29 56
3 2 2 3
2
56 29
3 2 2 3
2
29 75
3 2 2 3
2
75 29
3 2 2 3
2
29 79
3 2 2 3
2
79 29
3 2 2 3
2
30 8
3 2 2 3
2
8 30
3 2 2 3
2
30 16
3 2 2 3
2
16 30
3 2 2 3
2
30 31
3 2 2 3
2
31 30
3 2 2 3
2
30 33
3 2 2 3
2
33 30
3 2 2 3
2
30 34
3 2 2 3
2
34 30
3 2 2 3
2
30 35
3 2 2 3
2
35 30
3 2 2 3
2
30 75
3 2 2 3
2
75 30
3 2 2 3
2
31 1
3 2 2 3
2
1 31
3 2 2 3
2
31 32
3 2 2 3
2
32 31
3 2 2 3
2
31 34
3 2 2 3
2
34 31
3 2 2 3
2
31 37
3 2 2 3
2
37 31
3 2 2 3
2
31 38
3 2 2 3
2
38 31
3 2 2 3
2
31 64
3 2 2 3
2
64 31
3 2 2 3
2
31 71
3 2 2 3
2
71 31
3 2 2 3
2
32 11
3 2 2 3
2
11 32
3 2 2 3
2
32 21
3 2 2 3
2
21 32
3 2 2 3
2
32 34
3 2 2 3
2
34 32
3 2 2 3
2
32 37
3 2 2 3
2
37 32
3 2 2 3
2
32 38
3 2 2 3
2
38 32
3 2 2 3
2
32 39
3 2 2 3
2
39 32
3 2 2 3
2
32 41
3 2 2 3
2
41 32
3 2 2 3
2
32 42
3 2 2 3
2
42 32
3 2 2 3
2
32 66
3 2 2 3
2
66 32
3 2 2 3
2
32 78
3 2 2 3
2
78 32
3 2 2 3
2
33 1
3 2 2 3
2
1 33
3 2 2 3
2
33 10
3 2 2 3
2
10 33
3 2 2 3
2
33 36
3 2 2 3
2
36 33
3 2 2 3
2
33 38
3 2 2 3
2
38 33
3 2 2 3
2
34 5
3 2 2 3
2
5 34
3 2 2 3
2
34 10
3 2 2 3
2
10 34
3 2 2 3
2
34 22
3 2 2 3
2
22 34
3 2 2 3
2
34 28
3 2 2 3
2
28 34
3 2 2 3
2
34 35
3 2 2 3
2
35 34
3 2 2 3
2
34 38
3 2 2 3
2
38 34
3 2 2 3
2
35 30
3 2 2 3
2
30 35
3 2 2 3
2
35 36
3 2 2 3
2
36 35
3 2 2 3
2
35 38
3 2 2 3
2
38 35
3 2 2 3
2
35 54
3 2 2 3
2
54 35
3 2 2 3
2
36 1
3 2 2 3
2
1 36
3 2 2 3
2
36 4
3 2 2 3
2
4 36
3 2 2 3
2
36 7
3 2 2 3
2
7 36
3 2 2 3
2
36 10
3 2 2 3
2
10 36
3 2 2 3
2
36 18
3 2 2 3
2
18 36
3 2 2 3
2
36 33
3 2 2 3
2
33 36
3 2 2 3
2
36 34
3 2 2 3
2
34 36
3 2 2 3
2
36 38
3 2 2 3
2
38 36
3 2 2 3
2
36 59
3 2 2 3
2
59 36
3 2 2 3
2
36 73
3 2 2 3
2
73 36
3 2 2 3
2
37 10
3 2 2 3
2
10 37
3 2 2 3
2
37 17
3 2 2 3
2
17 37
3 2 2 3
2
37 27
3 2 2 3
2
27 37
3 2 2 3
2
37 33
3 2 2 3
2
33 37
3 2 2 3
2
37 73
3 2 2 3
2
73 37
3 2 2 3
2
37 76
3 2 2 3
2
76 37
3 2 2 3
2
38 28
3 2 2 3
2
28 38
3 2 2 3
2
38 30
3 2 2 3
2
30 38
3 2 2 3
2
38 31
3 2 2 3
2
31 38
3 2 2 3
2
38 32
3 2 2 3
2
32 38
3 2 2 3
2
38 33
3 2 2 3
2
33 38
3 2 2 3
2
38 68
3 2 2 3
2
68 38
3 2 2 3
2
39 14
3 2 2 3
2
14 39
3 2 2 3
2
39 35
3 2 2 3
2
35 39
3 2 2 3
2
39 41
3 2 2 3
2
41 39
3 2 2 3
2
39 65
3 2 2 3
2
65 39
3 2 2 3
2
39 77
3 2 2 3
2
77 39
3 2 2 3
2
40 4
3 2 2 3
2
4 40
3 2 2 3
2
40 36
3 2 2 3
2
36 40
3 2 2 3
2
40 42
3 2 2 3
2
42 40
3 2 2 3
2
40 43
3 2 2 3
2
43 40
3 2 2 3
2
40 47
3 2 2 3
2
47 40
3 2 2 3
2
40 57
3 2 2 3
2
57 40
3 2 2 3
2
40 65
3 2 2 3
2
65 40
3 2 2 3
2
40 69
3 2 2 3
2
69 40
3 2 2 3
2
40 77
3 2 2 3
2
77 40
3 2 2 3
2
41 23
3 2 2 3
2
23 41
3 2 2 3
2
41 42
3 2 2 3
2
42 41
3 2 2 3
2
41 43
3 2 2 3
2
43 41
3 2 2 3
2
41 44
3 2 2 3
2
44 41
3 2 2 3
2
41 45
3 2 2 3
2
45 41
3 2 2 3
2
41 46
3 2 2 3
2
46 41
3 2 2 3
2
41 61
3 2 2 3
2
61 41
3 2 2 3
2
41 63
3 2 2 3
2
63 41
3 2 2 3
2
42 16
3 2 2 3
2
16 42
3 2 2 3
2
42 44
3 2 2 3
2
44 42
3 2 2 3
2
42 66
3 2 2 3
2
66 42
3 2 2 3
2
43 7
3 2 2 3
2
7 43
3 2 2 3
2
43 34
3 2 2 3
2
34 43
3 2 2 3
2
43 41
3 2 2 3
2
41 43
3 2 2 3
2
43 44
3 2 2 3
2
44 43
3 2 2 3
2
43 49
3 2 2 3
2
49 43
3 2 2 3
2
43 52
3 2 2 3
2
52 43
3 2 2 3
2
44 2
3 2 2 3
2
2 44
3 2 2 3
2
44 3
3 2 2 3
2
3 44
3 2 2 3
2
44 13
3 2 2 3
2
13 44
3 2 2 3
2
44 26
3 2 2 3
2
26 44
3 2 2 3
2
44 40
3 2 2 3
2
40 44
3 2 2 3
2
44 41
3 2 2 3
2
41 44
3 2 2 3
2
44 43
3 2 2 3
2
43 44
3 2 2 3
2
44 57
3 2 2 3
2
57 44
3 2 2 3
2
44 74
3 2 2 3
2
74 44
3 2 2 3
2
45 33
3 2 2 3
2
33 45
3 2 2 3
2
45 34
3 2 2 3
2
34 45
3 2 2 3
2
45 41
3 2 2 3
2
41 45
3 2 2 3
2
45 44
3 2 2 3
2
44 45
3 2 2 3
2
45 46
3 2 2 3
2
46 45
3 2 2 3
2
45 47
3 2 2 3
2
47 45
3 2 2 3
2
46 8
3 2 2 3
2
8 46
3 2 2 3
2
46 30
3 2 2 3
2
30 46
3 2 2 3
2
46 38
3 2 2 3
2
38 46
3 2 2 3
2
46 45
3 2 2 3
2
45 46
3 2 2 3
2
46 48
3 2 2 3
2
48 46
3 2 2 3
2
46 63
3 2 2 3
2
63 46
3 2 2 3
2
46 75
3 2 2 3
2
75 46
3 2 2 3
2
47 59
3 2 2 3
2
59 47
3 2 2 3
2
48 52
3 2 2 3
2
52 48
3 2 2 3
2
48 58
3 2 2 3
2
58 48
3 2 2 3
2
48 74
3 2 2 3
2
74 48
3 2 2 3
2
49 31
3 2 2 3
2
31 49
3 2 2 3
2
49 35
3 2 2 3
2
35 49
3 2 2 3
2
49 44
3 2 2 3
2
44 49
3 2 2 3
2
49 74
3 2 2 3
2
74 49
3 2 2 3
2
49 75
3 2 2 3
2
75 49
3 2 2 3
2
50 51
3 2 2 3
2
51 50
3 2 2 3
2
50 53
3 2 2 3
2
53 50
3 2 2 3
2
50 58
3 2 2 3
2
58 50
3 2 2 3
2
50 74
3 2 2 3
2
74 50
3 2 2 3
2
51 7
3 2 2 3
2
7 51
3 2 2 3
2
51 30
3 2 2 3
2
30 51
3 2 2 3
2
51 34
3 2 2 3
2
34 51
3 2 2 3
2
51 54
3 2 2 3
2
54 51
3 2 2 3
2
51 55
3 2 2 3
2
55 51
3 2 2 3
2
52 3
3 2 2 3
2
3 52
3 2 2 3
2
52 47
3 2 2 3
2
47 52
3 2 2 3
2
52 53
3 2 2 3
2
53 52
3 2 2 3
2
52 55
3 2 2 3
2
55 52
3 2 2 3
2
52 57
3 2 2 3
2
57 52
3 2 2 3
2
52 71
3 2 2 3
2
71 52
3 2 2 3
2
52 74
3 2 2 3
2
74 52
3 2 2 3
2
52 77
3 2 2 3
2
77 52
3 2 2 3
2
53 4
3 2 2 3
2
4 53
3 2 2 3
2
53 54
3 2 2 3
2
54 53
3 2 2 3
2
53 55
3 2 2 3
2
55 53
3 2 2 3
2
53 58
3 2 2 3
2
58 53
3 2 2 3
2
53 68
3 2 2 3
2
68 53
3 2 2 3
2
54 48
3 2 2 3
2
48 54
3 2 2 3
2
54 59
3 2 2 3
2
59 54
3 2 2 3
2
55 56
3 2 2 3
2
56 55
3 2 2 3
2
55 57
3 2 2 3
2
57 55
3 2 2 3
2
55 59
3 2 2 3
2
59 55
3 2 2 3
2
55 70
3 2 2 3
2
70 55
3 2 2 3
2
56 48
3 2 2 3
2
48 56
3 2 2 3
2
56 52
3 2 2 3
2
52 56
3 2 2 3
2
56 58
3 2 2 3
2
58 56
3 2 2 3
2
56 62
3 2 2 3
2
62 56
3 2 2 3
2
56 71
3 2 2 3
2
71 56
3 2 2 3
2
57 17
3 2 2 3
2
17 57
3 2 2 3
2
57 25
3 2 2 3
2
25 57
3 2 2 3
2
57 34
3 2 2 3
2
34 57
3 2 2 3
2
57 47
3 2 2 3
2
47 57
3 2 2 3
2
57 52
3 2 2 3
2
52 57
3 2 2 3
2
57 79
3 2 2 3
2
79 57
3 2 2 3
2
58 11
3 2 2 3
2
11 58
3 2 2 3
2
58 46
3 2 2 3
2
46 58
3 2 2 3
2
58 50
3 2 2 3
2
50 58
3 2 2 3
2
58 52
3 2 2 3
2
52 58
3 2 2 3
2
58 53
3 2 2 3
2
53 58
3 2 2 3
2
58 56
3 2 2 3
2
56 58
3 2 2 3
2
58 71
3 2 2 3
2
71 58
3 2 2 3
2
58 73
3 2 2 3
2
73 58
3 2 2 3
2
59 12
3 2 2 3
2
12 59
3 2 2 3
2
59 53
3 2 2 3
2
53 59
3 2 2 3
2
59 56
3 2 2 3
2
56 59
3 2 2 3
2
59 75
3 2 2 3
2
75 59
3 2 2 3
2
60 61
3 2 2 3
2
61 60
3 2 2 3
2
60 66
3 2 2 3
2
66 60
3 2 2 3
2
60 68
3 2 2 3
2
68 60
3 2 2 3
2
60 75
3 2 2 3
2
75 60
3 2 2 3
2
61 2
3 2 2 3
2
2 61
3 2 2 3
2
61 5
3 2 2 3
2
5 61
3 2 2 3
2
61 29
3 2 2 3
2
29 61
3 2 2 3
2
61 40
3 2 2 3
2
40 61
3 2 2 3
2
61 47
3 2 2 3
2
47 61
3 2 2 3
2
61 60
3 2 2 3
2
60 61
3 2 2 3
2
61 62
3 2 2 3
2
62 61
3 2 2 3
2
61 63
3 2 2 3
2
63 61
3 2 2 3
2
61 68
3 2 2 3
2
68 61
3 2 2 3
2
62 0
3 2 2 3
2
0 62
3 2 2 3
2
62 18
3 2 2 3
2
18 62
3 2 2 3
2
62 19
3 2 2 3
2
19 62
3 2 2 3
2
62 22
3 2 2 3
2
22 62
3 2 2 3
2
62 30
3 2 2 3
2
30 62
3 2 2 3
2
62 63
3 2 2 3
2
63 62
3 2 2 3
2
62 65
3 2 2 3
2
65 62
3 2 2 3
2
62 67
3 2 2 3
2
67 62
3 2 2 3
2
62 68
3 2 2 3
2
68 62
3 2 2 3
2
62 76
3 2 2 3
2
76 62
3 2 2 3
2
63 1
3 2 2 3
2
1 63
3 2 2 3
2
63 23
3 2 2 3
2
23 63
3 2 2 3
2
63 30
3 2 2 3
2
30 63
3 2 2 3
2
63 35
3 2 2 3
2
35 63
3 2 2 3
2
63 36
3 2 2 3
2
36 63
3 2 2 3
2
63 48
3 2 2 3
2
48 63
3 2 2 3
2
63 62
3 2 2 3
2
62 63
3 2 2 3
2
63 67
3 2 2 3
2
67 63
3 2 2 3
2
63 68
3 2 2 3
2
68 63
3 2 2 3
2
64 12
3 2 2 3
2
12 64
3 2 2 3
2
64 15
3 2 2 3
2
15 64
3 2 2 3
2
64 32
3 2 2 3
2
32 64
3 2 2 3
2
64 50
3 2 2 3
2
50 64
3 2 2 3
2
64 59
3 2 2 3
2
59 64
3 2 2 3
2
64 65
3 2 2 3
2
65 64
3 2 2 3
2
64 66
3 2 2 3
2
66 64
3 2 2 3
2
64 68
3 2 2 3
2
68 64
3 2 2 3
2
65 27
3 2 2 3
2
27 65
3 2 2 3
2
65 67
3 2 2 3
2
67 65
3 2 2 3
2
66 4
3 2 2 3
2
4 66
3 2 2 3
2
66 29
3 2 2 3
2
29 66
3 2 2 3
2
66 54
3 2 2 3
2
54 66
3 2 2 3
2
66 57
3 2 2 3
2
57 66
3 2 2 3
2
66 60
3 2 2 3
2
60 66
3 2 2 3
2
66 65
3 2 2 3
2
65 66
3 2 2 3
2
66 69
3 2 2 3
2
69 66
3 2 2 3
2
66 73
3 2 2 3
2
73 66
3 2 2 3
2
67 22
3 2 2 3
2
22 67
3 2 2 3
2
67 43
3 2 2 3
2
43 67
3 2 2 3
2
67 60
3 2 2 3
2
60 67
3 2 2 3
2
67 61
3 2 2 3
2
61 67
3 2 2 3
2
68 2
3 2 2 3
2
2 68
3 2 2 3
2
68 19
3 2 2 3
2
19 68
3 2 2 3
2
68 41
3 2 2 3
2
41 68
3 2 2 3
2
68 65
3 2 2 3
2
65 68
3 2 2 3
2
68 67
3 2 2 3
2
67 68
3 2 2 3
2
68 69
3 2 2 3
2
69 68
3 2 2 3
2
68 74
3 2 2 3
2
74 68
3 2 2 3
2
69 16
3 2 2 3
2
16 69
3 2 2 3
2
69 22
3 2 2 3
2
22 69
3 2 2 3
2
69 53
3 2 2 3
2
53 69
3 2 2 3
2
69 56
3 2 2 3
2
56 69
3 2 2 3
2
69 62
3 2 2 3
2
62 69
3 2 2 3
2
69 64
3 2 2 3
2
64 69
3 2 2 3
2
69 67
3 2 2 3
2
67 69
3 2 2 3
2
69 68
3 2 2 3
2
68 69
3 2 2 3
2
69 70
3 2 2 3
2
70 69
3 2 2 3
2
69 75
3 2 2 3
2
75 69
3 2 2 3
2
69 78
3 2 2 3
2
78 69
3 2 2 3
2
70 48
3 2 2 3
2
48 70
3 2 2 3
2
70 58
3 2 2 3
2
58 70
3 2 2 3
2
70 60
3 2 2 3
2
60 70
3 2 2 3
2
70 71
3 2 2 3
2
71 70
3 2 2 3
2
70 72
3 2 2 3
2
72 70
3 2 2 3
2
70 77
3 2 2 3
2
77 70
3 2 2 3
2
71 13
3 2 2 3
2
13 71
3 2 2 3
2
71 49
3 2 2 3
2
49 71
3 2 2 3
2
71 73
3 2 2 3
2
73 71
3 2 2 3
2
72 70
3 2 2 3
2
70 72
3 2 2 3
2
72 74
3 2 2 3
2
74 72
3 2 2 3
2
72 77
3 2 2 3
2
77 72
3 2 2 3
2
73 13
3 2 2 3
2
13 73
3 2 2 3
2
73 16
3 2 2 3
2
16 73
3 2 2 3
2
73 34
3 2 2 3
2
34 73
3 2 2 3
2
73 46
3 2 2 3
2
46 73
3 2 2 3
2
73 47
3 2 2 3
2
47 73
3 2 2 3
2
73 56
3 2 2 3
2
56 73
3 2 2 3
2
73 63
3 2 2 3
2
63 73
3 2 2 3
2
73 71
3 2 2 3
2
71 73
3 2 2 3
2
73 75
3 2 2 3
2
75 73
3 2 2 3
2
73 79
3 2 2 3
2
79 73
3 2 2 3
2
74 27
3 2 2 3
2
27 74
3 2 2 3
2
74 34
3 2 2 3
2
34 74
3 2 2 3
2
74 61
3 2 2 3
2
61 74
3 2 2 3
2
74 63
3 2 2 3
2
63 74
3 2 2 3
2
74 68
3 2 2 3
2
68 74
3 2 2 3
2
74 71
3 2 2 3
2
71 74
3 2 2 3
2
74 73
3 2 2 3
2
73 74
3 2 2 3
2
74 78
3 2 2 3
2
78 74
3 2 2 3
2
74 79
3 2 2 3
2
79 74
3 2 2 3
2
75 32
3 2 2 3
2
32 75
3 2 2 3
2
75 42
3 2 2 3
2
42 75
3 2 2 3
2
75 55
3 2 2 3
2
55 75
3 2 2 3
2
75 59
3 2 2 3
2
59 75
3 2 2 3
2
75 70
3 2 2 3
2
70 75
3 2 2 3
2
75 73
3 2 2 3
2
73 75
3 2 2 3
2
75 76
3 2 2 3
2
76 75
3 2 2 3
2
76 6
3 2 2 3
2
6 76
3 2 2 3
2
76 44
3 2 2 3
2
44 76
3 2 2 3
2
76 68
3 2 2 3
2
68 76
3 2 2 3
2
76 75
3 2 2 3
2
75 76
3 2 2 3
2
77 19
3 2 2 3
2
19 77
3 2 2 3
2
77 25
3 2 2 3
2
25 77
3 2 2 3
2
77 41
3 2 2 3
2
41 77
3 2 2 3
2
77 45
3 2 2 3
2
45 77
3 2 2 3
2
77 70
3 2 2 3
2
70 77
3 2 2 3
2
77 72
3 2 2 3
2
72 77
3 2 2 3
2
77 78
3 2 2 3
2
78 77
3 2 2 3
2
78 38
3 2 2 3
2
38 78
3 2 2 3
2
78 73
3 2 2 3
2
73 78
3 2 2 3
2
78 74
3 2 2 3
2
74 78
3 2 2 3
2
79 2
3 2 2 3
2
2 79
3 2 2 3
2
79 9
3 2 2 3
2
9 79
3 2 2 3
2
79 41
3 2 2 3
2
41 79
3 2 2 3
2
79 43
3 2 2 3
2
43 79
3 2 2 3
2
79 50
3 2 2 3
2
50 79
3 2 2 3
2
79 63
3 2 2 3
2
63 79
3 2 2 3
2
79 74
3 2 2 3
2
74 79
3 2 2 3
