1 4 0 0
4 1 0 0
1 5 0 0
5 1 0 0
1 7 0 0
7 1 0 0
1 21 0 0
21 1 0 0
1 69 0 0
69 1 0 0
1 78 0 0
78 1 0 0
1 83 0 0
83 1 0 0
2 4 0 0
4 2 0 0
2 6 0 0
6 2 0 0
2 8 0 0
8 2 0 0
2 10 0 0
10 2 0 0
2 11 0 0
11 2 0 0
2 28 0 0
28 2 0 0
2 41 0 0
41 2 0 0
2 42 0 0
42 2 0 0
2 43 0 0
43 2 0 0
2 65 0 0
65 2 0 0
2 75 0 0
75 2 0 0
2 77 0 0
77 2 0 0
2 89 0 0
89 2 0 0
2 98 0 0
98 2 0 0
3 1 0 0
1 3 0 0
3 2 0 0
2 3 0 0
3 4 0 0
4 3 0 0
3 10 0 0
10 3 0 0
3 20 0 0
20 3 0 0
3 33 0 0
33 3 0 0
3 38 0 0
38 3 0 0
3 39 0 0
39 3 0 0
3 80 0 0
80 3 0 0
3 95 0 0
95 3 0 0
3 97 0 0
97 3 0 0
3 99 0 0
99 3 0 0
3 120 0 0
120 3 0 0
4 7 0 0
7 4 0 0
4 11 0 0
11 4 0 0
4 12 0 0
12 4 0 0
4 17 0 0
17 4 0 0
4 55 0 0
55 4 0 0
4 82 0 0
82 4 0 0
4 113 0 0
113 4 0 0
5 2 0 0
2 5 0 0
5 7 0 0
7 5 0 0
5 8 0 0
8 5 0 0
5 24 0 0
24 5 0 0
5 45 0 0
45 5 0 0
5 48 0 0
48 5 0 0
5 57 0 0
57 5 0 0
5 77 0 0
77 5 0 0
5 97 0 0
97 5 0 0
6 4 0 0
4 6 0 0
6 7 0 0
7 6 0 0
6 32 0 0
32 6 0 0
6 40 0 0
40 6 0 0
6 55 0 0
55 6 0 0
6 89 0 0
89 6 0 0
6 102 0 0
102 6 0 0
6 103 0 0
103 6 0 0
7 6 0 0
6 7 0 0
7 8 0 0
8 7 0 0
7 10 0 0
10 7 0 0
7 19 0 0
19 7 0 0
7 72 0 0
72 7 0 0
7 98 0 0
98 7 0 0
7 113 0 0
113 7 0 0
8 1 0 0
1 8 0 0
8 4 0 0
4 8 0 0
8 10 0 0
10 8 0 0
8 33 0 0
33 8 0 0
8 54 0 0
54 8 0 0
8 97 0 0
97 8 0 0
8 117 0 0
117 8 0 0
8 119 0 0
119 8 0 0
9 6 0 0
6 9 0 0
9 7 0 0
7 9 0 0
9 33 0 0
33 9 0 0
9 35 0 0
35 9 0 0
9 44 0 0
44 9 0 0
9 96 0 0
96 9 0 0
9 103 0 0
103 9 0 0
9 115 0 0
115 9 0 0
9 116 0 0
116 9 0 0
10 2 0 0
2 10 0 0
10 3 0 0
3 10 0 0
10 4 0 0
4 10 0 0
10 50 0 0
50 10 0 0
10 60 0 0
60 10 0 0
10 61 0 0
61 10 0 0
10 69 0 0
69 10 0 0
10 97 0 0
97 10 0 0
10 108 0 0
108 10 0 0
11 2 0 0
2 11 0 0
11 13 0 0
13 11 0 0
11 14 0 0
14 11 0 0
11 17 0 0
17 11 0 0
11 18 0 0
18 11 0 0
11 39 0 0
39 11 0 0
11 42 0 0
42 11 0 0
11 70 0 0
70 11 0 0
11 101 0 0
101 11 0 0
12 14 0 0
14 12 0 0
12 18 0 0
18 12 0 0
12 24 0 0
24 12 0 0
12 31 0 0
31 12 0 0
12 59 0 0
59 12 0 0
12 66 0 0
66 12 0 0
12 70 0 0
70 12 0 0
12 79 0 0
79 12 0 0
12 86 0 0
86 12 0 0
12 117 0 0
117 12 0 0
13 4 0 0
4 13 0 0
13 12 0 0
12 13 0 0
13 16 0 0
16 13 0 0
13 18 0 0
18 13 0 0
13 20 0 0
20 13 0 0
13 25 0 0
25 13 0 0
13 37 0 0
37 13 0 0
13 58 0 0
58 13 0 0
13 59 0 0
59 13 0 0
13 64 0 0
64 13 0 0
13 120 0 0
120 13 0 0
14 17 0 0
17 14 0 0
14 101 0 0
101 14 0 0
14 108 0 0
108 14 0 0
15 13 0 0
13 15 0 0
15 25 0 0
25 15 0 0
15 39 0 0
39 15 0 0
15 96 0 0
96 15 0 0
16 12 0 0
12 16 0 0
16 13 0 0
13 16 0 0
16 20 0 0
20 16 0 0
16 36 0 0
36 16 0 0
16 43 0 0
43 16 0 0
16 61 0 0
61 16 0 0
16 89 0 0
89 16 0 0
16 99 0 0
99 16 0 0
16 101 0 0
101 16 0 0
17 2 0 0
2 17 0 0
17 11 0 0
11 17 0 0
17 12 0 0
12 17 0 0
17 13 0 0
13 17 0 0
17 15 0 0
15 17 0 0
17 19 0 0
19 17 0 0
17 21 0 0
21 17 0 0
17 32 0 0
32 17 0 0
17 34 0 0
34 17 0 0
17 35 0 0
35 17 0 0
17 58 0 0
58 17 0 0
17 63 0 0
63 17 0 0
17 67 0 0
67 17 0 0
17 72 0 0
72 17 0 0
17 75 0 0
75 17 0 0
17 110 0 0
110 17 0 0
17 111 0 0
111 17 0 0
17 112 0 0
112 17 0 0
18 17 0 0
17 18 0 0
18 19 0 0
19 18 0 0
18 30 0 0
30 18 0 0
18 62 0 0
62 18 0 0
18 65 0 0
65 18 0 0
19 70 0 0
70 19 0 0
20 1 0 0
1 20 0 0
20 11 0 0
11 20 0 0
20 13 0 0
13 20 0 0
20 15 0 0
15 20 0 0
20 16 0 0
16 20 0 0
20 22 0 0
22 20 0 0
20 62 0 0
62 20 0 0
20 97 0 0
97 20 0 0
20 116 0 0
116 20 0 0
21 23 0 0
23 21 0 0
21 63 0 0
63 21 0 0
21 64 0 0
64 21 0 0
21 90 0 0
90 21 0 0
21 93 0 0
93 21 0 0
22 2 0 0
2 22 0 0
22 24 0 0
24 22 0 0
22 25 0 0
25 22 0 0
22 26 0 0
26 22 0 0
22 28 0 0
28 22 0 0
22 50 0 0
50 22 0 0
22 51 0 0
51 22 0 0
22 59 0 0
59 22 0 0
22 71 0 0
71 22 0 0
22 107 0 0
107 22 0 0
22 108 0 0
108 22 0 0
22 115 0 0
115 22 0 0
23 45 0 0
45 23 0 0
23 60 0 0
60 23 0 0
23 61 0 0
61 23 0 0
23 74 0 0
74 23 0 0
23 85 0 0
85 23 0 0
23 120 0 0
120 23 0 0
24 10 0 0
10 24 0 0
24 29 0 0
29 24 0 0
24 30 0 0
30 24 0 0
24 39 0 0
39 24 0 0
24 65 0 0
65 24 0 0
24 69 0 0
69 24 0 0
24 70 0 0
70 24 0 0
25 12 0 0
12 25 0 0
25 14 0 0
14 25 0 0
25 28 0 0
28 25 0 0
25 29 0 0
29 25 0 0
26 16 0 0
16 26 0 0
26 20 0 0
20 26 0 0
26 22 0 0
22 26 0 0
26 28 0 0
28 26 0 0
26 30 0 0
30 26 0 0
26 33 0 0
33 26 0 0
26 36 0 0
36 26 0 0
26 57 0 0
57 26 0 0
26 88 0 0
88 26 0 0
27 1 0 0
1 27 0 0
27 22 0 0
22 27 0 0
27 23 0 0
23 27 0 0
27 51 0 0
51 27 0 0
27 111 0 0
111 27 0 0
28 24 0 0
24 28 0 0
28 25 0 0
25 28 0 0
28 26 0 0
26 28 0 0
28 29 0 0
29 28 0 0
28 39 0 0
39 28 0 0
28 43 0 0
43 28 0 0
28 45 0 0
45 28 0 0
28 70 0 0
70 28 0 0
28 90 0 0
90 28 0 0
28 107 0 0
107 28 0 0
29 10 0 0
10 29 0 0
29 13 0 0
13 29 0 0
29 23 0 0
23 29 0 0
29 50 0 0
50 29 0 0
29 81 0 0
81 29 0 0
29 91 0 0
91 29 0 0
29 93 0 0
93 29 0 0
29 118 0 0
118 29 0 0
30 7 0 0
7 30 0 0
30 14 0 0
14 30 0 0
30 21 0 0
21 30 0 0
30 22 0 0
22 30 0 0
30 36 0 0
36 30 0 0
30 49 0 0
49 30 0 0
30 51 0 0
51 30 0 0
30 63 0 0
63 30 0 0
30 69 0 0
69 30 0 0
30 84 0 0
84 30 0 0
31 12 0 0
12 31 0 0
31 27 0 0
27 31 0 0
31 32 0 0
32 31 0 0
31 46 0 0
46 31 0 0
31 94 0 0
94 31 0 0
31 110 0 0
110 31 0 0
31 115 0 0
115 31 0 0
31 118 0 0
118 31 0 0
32 4 0 0
4 32 0 0
32 10 0 0
10 32 0 0
32 12 0 0
12 32 0 0
32 62 0 0
62 32 0 0
32 78 0 0
78 32 0 0
32 117 0 0
117 32 0 0
33 7 0 0
7 33 0 0
33 28 0 0
28 33 0 0
33 40 0 0
40 33 0 0
33 83 0 0
83 33 0 0
33 85 0 0
85 33 0 0
33 105 0 0
105 33 0 0
34 30 0 0
30 34 0 0
34 35 0 0
35 34 0 0
34 37 0 0
37 34 0 0
34 42 0 0
42 34 0 0
34 47 0 0
47 34 0 0
34 70 0 0
70 34 0 0
34 82 0 0
82 34 0 0
34 85 0 0
85 34 0 0
34 95 0 0
95 34 0 0
34 116 0 0
116 34 0 0
35 9 0 0
9 35 0 0
35 34 0 0
34 35 0 0
35 36 0 0
36 35 0 0
35 37 0 0
37 35 0 0
35 60 0 0
60 35 0 0
35 103 0 0
103 35 0 0
35 110 0 0
110 35 0 0
36 31 0 0
31 36 0 0
36 34 0 0
34 36 0 0
36 35 0 0
35 36 0 0
36 37 0 0
37 36 0 0
36 39 0 0
39 36 0 0
36 51 0 0
51 36 0 0
36 66 0 0
66 36 0 0
36 106 0 0
106 36 0 0
37 3 0 0
3 37 0 0
37 9 0 0
9 37 0 0
37 12 0 0
12 37 0 0
37 14 0 0
14 37 0 0
37 32 0 0
32 37 0 0
37 36 0 0
36 37 0 0
37 40 0 0
40 37 0 0
37 54 0 0
54 37 0 0
37 56 0 0
56 37 0 0
37 75 0 0
75 37 0 0
37 86 0 0
86 37 0 0
38 31 0 0
31 38 0 0
38 32 0 0
32 38 0 0
38 62 0 0
62 38 0 0
38 71 0 0
71 38 0 0
38 76 0 0
76 38 0 0
38 85 0 0
85 38 0 0
38 100 0 0
100 38 0 0
39 21 0 0
21 39 0 0
39 31 0 0
31 39 0 0
39 32 0 0
32 39 0 0
39 40 0 0
40 39 0 0
39 47 0 0
47 39 0 0
39 94 0 0
94 39 0 0
39 110 0 0
110 39 0 0
39 117 0 0
117 39 0 0
40 32 0 0
32 40 0 0
40 35 0 0
35 40 0 0
40 37 0 0
37 40 0 0
40 41 0 0
41 40 0 0
40 43 0 0
43 40 0 0
40 57 0 0
57 40 0 0
40 86 0 0
86 40 0 0
40 94 0 0
94 40 0 0
41 23 0 0
23 41 0 0
41 47 0 0
47 41 0 0
41 49 0 0
49 41 0 0
41 50 0 0
50 41 0 0
41 56 0 0
56 41 0 0
41 67 0 0
67 41 0 0
41 68 0 0
68 41 0 0
42 41 0 0
41 42 0 0
42 46 0 0
46 42 0 0
42 48 0 0
48 42 0 0
42 49 0 0
49 42 0 0
42 53 0 0
53 42 0 0
42 63 0 0
63 42 0 0
42 80 0 0
80 42 0 0
42 107 0 0
107 42 0 0
43 20 0 0
20 43 0 0
43 29 0 0
29 43 0 0
43 34 0 0
34 43 0 0
43 45 0 0
45 43 0 0
43 48 0 0
48 43 0 0
43 50 0 0
50 43 0 0
43 74 0 0
74 43 0 0
43 97 0 0
97 43 0 0
43 114 0 0
114 43 0 0
44 41 0 0
41 44 0 0
44 42 0 0
42 44 0 0
44 45 0 0
45 44 0 0
44 48 0 0
48 44 0 0
44 49 0 0
49 44 0 0
44 114 0 0
114 44 0 0
45 31 0 0
31 45 0 0
45 41 0 0
41 45 0 0
45 42 0 0
42 45 0 0
45 46 0 0
46 45 0 0
45 63 0 0
63 45 0 0
45 65 0 0
65 45 0 0
45 74 0 0
74 45 0 0
45 77 0 0
77 45 0 0
45 84 0 0
84 45 0 0
45 87 0 0
87 45 0 0
45 99 0 0
99 45 0 0
46 18 0 0
18 46 0 0
46 43 0 0
43 46 0 0
46 49 0 0
49 46 0 0
46 56 0 0
56 46 0 0
46 92 0 0
92 46 0 0
46 93 0 0
93 46 0 0
46 100 0 0
100 46 0 0
46 116 0 0
116 46 0 0
47 25 0 0
25 47 0 0
47 48 0 0
48 47 0 0
47 50 0 0
50 47 0 0
47 64 0 0
64 47 0 0
47 106 0 0
106 47 0 0
48 4 0 0
4 48 0 0
48 31 0 0
31 48 0 0
48 43 0 0
43 48 0 0
48 46 0 0
46 48 0 0
48 49 0 0
49 48 0 0
48 56 0 0
56 48 0 0
48 58 0 0
58 48 0 0
48 95 0 0
95 48 0 0
48 107 0 0
107 48 0 0
48 112 0 0
112 48 0 0
48 113 0 0
113 48 0 0
48 118 0 0
118 48 0 0
49 44 0 0
44 49 0 0
49 48 0 0
48 49 0 0
49 50 0 0
50 49 0 0
49 51 0 0
51 49 0 0
49 54 0 0
54 49 0 0
49 55 0 0
55 49 0 0
49 82 0 0
82 49 0 0
50 16 0 0
16 50 0 0
50 20 0 0
20 50 0 0
50 42 0 0
42 50 0 0
50 45 0 0
45 50 0 0
50 49 0 0
49 50 0 0
50 70 0 0
70 50 0 0
50 74 0 0
74 50 0 0
50 95 0 0
95 50 0 0
50 98 0 0
98 50 0 0
50 108 0 0
108 50 0 0
51 56 0 0
56 51 0 0
51 66 0 0
66 51 0 0
52 2 0 0
2 52 0 0
52 53 0 0
53 52 0 0
52 54 0 0
54 52 0 0
52 56 0 0
56 52 0 0
52 58 0 0
58 52 0 0
52 63 0 0
63 52 0 0
52 64 0 0
64 52 0 0
52 69 0 0
69 52 0 0
52 114 0 0
114 52 0 0
52 117 0 0
117 52 0 0
53 29 0 0
29 53 0 0
53 54 0 0
54 53 0 0
53 57 0 0
57 53 0 0
53 70 0 0
70 53 0 0
53 119 0 0
119 53 0 0
54 14 0 0
14 54 0 0
54 21 0 0
21 54 0 0
54 51 0 0
51 54 0 0
54 52 0 0
52 54 0 0
54 53 0 0
53 54 0 0
54 57 0 0
57 54 0 0
54 58 0 0
58 54 0 0
54 60 0 0
60 54 0 0
54 99 0 0
99 54 0 0
54 120 0 0
120 54 0 0
55 5 0 0
5 55 0 0
55 11 0 0
11 55 0 0
55 41 0 0
41 55 0 0
55 52 0 0
52 55 0 0
55 53 0 0
53 55 0 0
55 54 0 0
54 55 0 0
55 57 0 0
57 55 0 0
55 58 0 0
58 55 0 0
55 61 0 0
61 55 0 0
55 91 0 0
91 55 0 0
55 106 0 0
106 55 0 0
55 107 0 0
107 55 0 0
56 33 0 0
33 56 0 0
56 38 0 0
38 56 0 0
56 52 0 0
52 56 0 0
56 55 0 0
55 56 0 0
56 57 0 0
57 56 0 0
56 89 0 0
89 56 0 0
56 117 0 0
117 56 0 0
57 4 0 0
4 57 0 0
57 19 0 0
19 57 0 0
57 49 0 0
49 57 0 0
57 52 0 0
52 57 0 0
57 68 0 0
68 57 0 0
57 116 0 0
116 57 0 0
58 2 0 0
2 58 0 0
58 8 0 0
8 58 0 0
58 15 0 0
15 58 0 0
58 35 0 0
35 58 0 0
58 55 0 0
55 58 0 0
58 59 0 0
59 58 0 0
58 60 0 0
60 58 0 0
58 82 0 0
82 58 0 0
58 87 0 0
87 58 0 0
58 117 0 0
117 58 0 0
59 9 0 0
9 59 0 0
59 11 0 0
11 59 0 0
59 26 0 0
26 59 0 0
59 47 0 0
47 59 0 0
59 51 0 0
51 59 0 0
59 58 0 0
58 59 0 0
59 64 0 0
64 59 0 0
59 80 0 0
80 59 0 0
59 81 0 0
81 59 0 0
59 90 0 0
90 59 0 0
59 114 0 0
114 59 0 0
60 18 0 0
18 60 0 0
60 19 0 0
19 60 0 0
60 24 0 0
24 60 0 0
60 41 0 0
41 60 0 0
60 49 0 0
49 60 0 0
60 55 0 0
55 60 0 0
60 61 0 0
61 60 0 0
61 26 0 0
26 61 0 0
61 49 0 0
49 61 0 0
61 62 0 0
62 61 0 0
61 65 0 0
65 61 0 0
61 67 0 0
67 61 0 0
61 71 0 0
71 61 0 0
61 76 0 0
76 61 0 0
61 81 0 0
81 61 0 0
61 95 0 0
95 61 0 0
61 117 0 0
117 61 0 0
62 8 0 0
8 62 0 0
62 28 0 0
28 62 0 0
62 57 0 0
57 62 0 0
62 58 0 0
58 62 0 0
62 61 0 0
61 62 0 0
62 69 0 0
69 62 0 0
62 70 0 0
70 62 0 0
62 108 0 0
108 62 0 0
63 5 0 0
5 63 0 0
63 14 0 0
14 63 0 0
63 46 0 0
46 63 0 0
63 61 0 0
61 63 0 0
63 100 0 0
100 63 0 0
63 101 0 0
101 63 0 0
63 103 0 0
103 63 0 0
63 119 0 0
119 63 0 0
64 19 0 0
19 64 0 0
64 43 0 0
43 64 0 0
64 57 0 0
57 64 0 0
64 61 0 0
61 64 0 0
64 63 0 0
63 64 0 0
64 67 0 0
67 64 0 0
64 68 0 0
68 64 0 0
64 69 0 0
69 64 0 0
64 95 0 0
95 64 0 0
65 2 0 0
2 65 0 0
65 5 0 0
5 65 0 0
65 22 0 0
22 65 0 0
65 44 0 0
44 65 0 0
65 64 0 0
64 65 0 0
65 70 0 0
70 65 0 0
65 76 0 0
76 65 0 0
65 78 0 0
78 65 0 0
65 84 0 0
84 65 0 0
65 116 0 0
116 65 0 0
66 30 0 0
30 66 0 0
66 36 0 0
36 66 0 0
66 61 0 0
61 66 0 0
66 67 0 0
67 66 0 0
66 114 0 0
114 66 0 0
67 4 0 0
4 67 0 0
67 12 0 0
12 67 0 0
67 39 0 0
39 67 0 0
67 41 0 0
41 67 0 0
67 66 0 0
66 67 0 0
67 69 0 0
69 67 0 0
67 74 0 0
74 67 0 0
67 84 0 0
84 67 0 0
67 113 0 0
113 67 0 0
67 120 0 0
120 67 0 0
68 33 0 0
33 68 0 0
68 42 0 0
42 68 0 0
68 46 0 0
46 68 0 0
68 75 0 0
75 68 0 0
68 77 0 0
77 68 0 0
68 108 0 0
108 68 0 0
69 24 0 0
24 69 0 0
69 31 0 0
31 69 0 0
69 38 0 0
38 69 0 0
69 46 0 0
46 69 0 0
69 65 0 0
65 69 0 0
69 66 0 0
66 69 0 0
69 67 0 0
67 69 0 0
70 10 0 0
10 70 0 0
70 12 0 0
12 70 0 0
70 23 0 0
23 70 0 0
70 32 0 0
32 70 0 0
70 42 0 0
42 70 0 0
70 61 0 0
61 70 0 0
70 64 0 0
64 70 0 0
70 88 0 0
88 70 0 0
70 91 0 0
91 70 0 0
70 120 0 0
120 70 0 0
71 16 0 0
16 71 0 0
71 20 0 0
20 71 0 0
71 32 0 0
32 71 0 0
71 43 0 0
43 71 0 0
72 31 0 0
31 72 0 0
72 49 0 0
49 72 0 0
72 54 0 0
54 72 0 0
72 58 0 0
58 72 0 0
72 71 0 0
71 72 0 0
72 73 0 0
73 72 0 0
73 9 0 0
9 73 0 0
73 12 0 0
12 73 0 0
73 24 0 0
24 73 0 0
73 37 0 0
37 73 0 0
73 54 0 0
54 73 0 0
73 56 0 0
56 73 0 0
73 70 0 0
70 73 0 0
73 77 0 0
77 73 0 0
73 78 0 0
78 73 0 0
73 103 0 0
103 73 0 0
73 107 0 0
107 73 0 0
74 13 0 0
13 74 0 0
74 24 0 0
24 74 0 0
74 53 0 0
53 74 0 0
74 57 0 0
57 74 0 0
74 78 0 0
78 74 0 0
74 79 0 0
79 74 0 0
74 80 0 0
80 74 0 0
74 101 0 0
101 74 0 0
75 7 0 0
7 75 0 0
75 32 0 0
32 75 0 0
75 71 0 0
71 75 0 0
75 78 0 0
78 75 0 0
75 115 0 0
115 75 0 0
76 31 0 0
31 76 0 0
76 42 0 0
42 76 0 0
76 52 0 0
52 76 0 0
76 74 0 0
74 76 0 0
76 75 0 0
75 76 0 0
77 25 0 0
25 77 0 0
77 33 0 0
33 77 0 0
77 50 0 0
50 77 0 0
77 75 0 0
75 77 0 0
77 80 0 0
80 77 0 0
77 85 0 0
85 77 0 0
77 91 0 0
91 77 0 0
78 28 0 0
28 78 0 0
78 61 0 0
61 78 0 0
78 73 0 0
73 78 0 0
78 107 0 0
107 78 0 0
79 4 0 0
4 79 0 0
79 5 0 0
5 79 0 0
79 6 0 0
6 79 0 0
79 23 0 0
23 79 0 0
79 71 0 0
71 79 0 0
79 73 0 0
73 79 0 0
79 78 0 0
78 79 0 0
79 87 0 0
87 79 0 0
79 90 0 0
90 79 0 0
79 93 0 0
93 79 0 0
79 97 0 0
97 79 0 0
80 3 0 0
3 80 0 0
80 18 0 0
18 80 0 0
80 37 0 0
37 80 0 0
80 56 0 0
56 80 0 0
80 66 0 0
66 80 0 0
80 76 0 0
76 80 0 0
80 78 0 0
78 80 0 0
80 98 0 0
98 80 0 0
80 117 0 0
117 80 0 0
80 118 0 0
118 80 0 0
81 19 0 0
19 81 0 0
81 29 0 0
29 81 0 0
81 30 0 0
30 81 0 0
81 49 0 0
49 81 0 0
81 58 0 0
58 81 0 0
81 61 0 0
61 81 0 0
81 72 0 0
72 81 0 0
81 85 0 0
85 81 0 0
81 86 0 0
86 81 0 0
81 87 0 0
87 81 0 0
81 89 0 0
89 81 0 0
82 30 0 0
30 82 0 0
82 35 0 0
35 82 0 0
82 62 0 0
62 82 0 0
82 66 0 0
66 82 0 0
82 81 0 0
81 82 0 0
82 85 0 0
85 82 0 0
82 87 0 0
87 82 0 0
82 117 0 0
117 82 0 0
83 36 0 0
36 83 0 0
83 41 0 0
41 83 0 0
83 50 0 0
50 83 0 0
83 64 0 0
64 83 0 0
83 67 0 0
67 83 0 0
83 82 0 0
82 83 0 0
83 84 0 0
84 83 0 0
83 88 0 0
88 83 0 0
83 90 0 0
90 83 0 0
83 101 0 0
101 83 0 0
83 103 0 0
103 83 0 0
83 108 0 0
108 83 0 0
83 110 0 0
110 83 0 0
83 111 0 0
111 83 0 0
84 71 0 0
71 84 0 0
84 86 0 0
86 84 0 0
84 104 0 0
104 84 0 0
84 107 0 0
107 84 0 0
85 31 0 0
31 85 0 0
85 36 0 0
36 85 0 0
85 47 0 0
47 85 0 0
85 56 0 0
56 85 0 0
85 83 0 0
83 85 0 0
85 86 0 0
86 85 0 0
85 88 0 0
88 85 0 0
85 90 0 0
90 85 0 0
85 98 0 0
98 85 0 0
85 117 0 0
117 85 0 0
86 82 0 0
82 86 0 0
86 83 0 0
83 86 0 0
86 85 0 0
85 86 0 0
86 87 0 0
87 86 0 0
86 88 0 0
88 86 0 0
86 89 0 0
89 86 0 0
86 92 0 0
92 86 0 0
87 3 0 0
3 87 0 0
87 56 0 0
56 87 0 0
87 73 0 0
73 87 0 0
87 84 0 0
84 87 0 0
87 88 0 0
88 87 0 0
87 101 0 0
101 87 0 0
88 6 0 0
6 88 0 0
88 30 0 0
30 88 0 0
88 80 0 0
80 88 0 0
88 85 0 0
85 88 0 0
88 87 0 0
87 88 0 0
88 101 0 0
101 88 0 0
88 102 0 0
102 88 0 0
88 116 0 0
116 88 0 0
89 3 0 0
3 89 0 0
89 11 0 0
11 89 0 0
89 81 0 0
81 89 0 0
89 82 0 0
82 89 0 0
89 86 0 0
86 89 0 0
89 87 0 0
87 89 0 0
90 25 0 0
25 90 0 0
90 36 0 0
36 90 0 0
90 38 0 0
38 90 0 0
90 41 0 0
41 90 0 0
90 72 0 0
72 90 0 0
90 76 0 0
76 90 0 0
90 82 0 0
82 90 0 0
90 85 0 0
85 90 0 0
90 87 0 0
87 90 0 0
90 88 0 0
88 90 0 0
90 101 0 0
101 90 0 0
91 7 0 0
7 91 0 0
91 12 0 0
12 91 0 0
91 14 0 0
14 91 0 0
91 50 0 0
50 91 0 0
91 54 0 0
54 91 0 0
91 92 0 0
92 91 0 0
91 97 0 0
97 91 0 0
91 98 0 0
98 91 0 0
91 99 0 0
99 91 0 0
92 14 0 0
14 92 0 0
92 25 0 0
25 92 0 0
92 32 0 0
32 92 0 0
92 58 0 0
58 92 0 0
92 93 0 0
93 92 0 0
92 98 0 0
98 92 0 0
92 112 0 0
112 92 0 0
93 18 0 0
18 93 0 0
93 41 0 0
41 93 0 0
93 92 0 0
92 93 0 0
93 96 0 0
96 93 0 0
93 97 0 0
97 93 0 0
93 106 0 0
106 93 0 0
93 116 0 0
116 93 0 0
94 2 0 0
2 94 0 0
94 19 0 0
19 94 0 0
94 43 0 0
43 94 0 0
94 49 0 0
49 94 0 0
94 54 0 0
54 94 0 0
94 66 0 0
66 94 0 0
94 75 0 0
75 94 0 0
94 92 0 0
92 94 0 0
94 93 0 0
93 94 0 0
94 95 0 0
95 94 0 0
94 96 0 0
96 94 0 0
94 97 0 0
97 94 0 0
94 99 0 0
99 94 0 0
94 106 0 0
106 94 0 0
94 115 0 0
115 94 0 0
95 49 0 0
49 95 0 0
95 93 0 0
93 95 0 0
95 97 0 0
97 95 0 0
95 99 0 0
99 95 0 0
96 19 0 0
19 96 0 0
96 26 0 0
26 96 0 0
96 38 0 0
38 96 0 0
96 42 0 0
42 96 0 0
96 85 0 0
85 96 0 0
96 89 0 0
89 96 0 0
96 93 0 0
93 96 0 0
96 99 0 0
99 96 0 0
96 100 0 0
100 96 0 0
96 103 0 0
103 96 0 0
97 7 0 0
7 97 0 0
97 22 0 0
22 97 0 0
97 70 0 0
70 97 0 0
97 94 0 0
94 97 0 0
97 115 0 0
115 97 0 0
98 1 0 0
1 98 0 0
98 3 0 0
3 98 0 0
98 5 0 0
5 98 0 0
98 21 0 0
21 98 0 0
98 56 0 0
56 98 0 0
98 62 0 0
62 98 0 0
98 65 0 0
65 98 0 0
98 92 0 0
92 98 0 0
98 99 0 0
99 98 0 0
98 100 0 0
100 98 0 0
99 14 0 0
14 99 0 0
99 28 0 0
28 99 0 0
99 70 0 0
70 99 0 0
99 89 0 0
89 99 0 0
99 91 0 0
91 99 0 0
99 93 0 0
93 99 0 0
99 98 0 0
98 99 0 0
100 9 0 0
9 100 0 0
100 52 0 0
52 100 0 0
100 64 0 0
64 100 0 0
100 86 0 0
86 100 0 0
100 97 0 0
97 100 0 0
101 17 0 0
17 101 0 0
101 25 0 0
25 101 0 0
101 62 0 0
62 101 0 0
101 94 0 0
94 101 0 0
101 104 0 0
104 101 0 0
101 108 0 0
108 101 0 0
102 5 0 0
5 102 0 0
102 27 0 0
27 102 0 0
102 33 0 0
33 102 0 0
102 45 0 0
45 102 0 0
102 72 0 0
72 102 0 0
102 75 0 0
75 102 0 0
102 82 0 0
82 102 0 0
102 83 0 0
83 102 0 0
102 99 0 0
99 102 0 0
102 115 0 0
115 102 0 0
103 20 0 0
20 103 0 0
103 30 0 0
30 103 0 0
103 90 0 0
90 103 0 0
103 105 0 0
105 103 0 0
103 115 0 0
115 103 0 0
104 17 0 0
17 104 0 0
104 19 0 0
19 104 0 0
104 35 0 0
35 104 0 0
104 41 0 0
41 104 0 0
104 65 0 0
65 104 0 0
104 75 0 0
75 104 0 0
104 108 0 0
108 104 0 0
104 110 0 0
110 104 0 0
105 25 0 0
25 105 0 0
105 26 0 0
26 105 0 0
105 63 0 0
63 105 0 0
105 74 0 0
74 105 0 0
105 77 0 0
77 105 0 0
105 101 0 0
101 105 0 0
105 109 0 0
109 105 0 0
106 2 0 0
2 106 0 0
106 11 0 0
11 106 0 0
106 14 0 0
14 106 0 0
106 44 0 0
44 106 0 0
106 52 0 0
52 106 0 0
106 56 0 0
56 106 0 0
106 79 0 0
79 106 0 0
106 91 0 0
91 106 0 0
106 95 0 0
95 106 0 0
106 101 0 0
101 106 0 0
106 105 0 0
105 106 0 0
106 107 0 0
107 106 0 0
106 108 0 0
108 106 0 0
106 109 0 0
109 106 0 0
107 33 0 0
33 107 0 0
107 51 0 0
51 107 0 0
107 57 0 0
57 107 0 0
107 68 0 0
68 107 0 0
107 81 0 0
81 107 0 0
107 98 0 0
98 107 0 0
107 102 0 0
102 107 0 0
107 108 0 0
108 107 0 0
107 118 0 0
118 107 0 0
108 16 0 0
16 108 0 0
108 47 0 0
47 108 0 0
108 80 0 0
80 108 0 0
108 98 0 0
98 108 0 0
108 101 0 0
101 108 0 0
108 103 0 0
103 108 0 0
108 105 0 0
105 108 0 0
108 106 0 0
106 108 0 0
108 107 0 0
107 108 0 0
108 109 0 0
109 108 0 0
109 16 0 0
16 109 0 0
109 39 0 0
39 109 0 0
109 66 0 0
66 109 0 0
109 68 0 0
68 109 0 0
109 101 0 0
101 109 0 0
109 107 0 0
107 109 0 0
109 108 0 0
108 109 0 0
110 19 0 0
19 110 0 0
110 58 0 0
58 110 0 0
110 82 0 0
82 110 0 0
110 90 0 0
90 110 0 0
110 104 0 0
104 110 0 0
110 106 0 0
106 110 0 0
110 108 0 0
108 110 0 0
111 69 0 0
69 111 0 0
111 75 0 0
75 111 0 0
111 88 0 0
88 111 0 0
111 104 0 0
104 111 0 0
111 108 0 0
108 111 0 0
111 112 0 0
112 111 0 0
111 114 0 0
114 111 0 0
111 115 0 0
115 111 0 0
111 116 0 0
116 111 0 0
111 117 0 0
117 111 0 0
111 119 0 0
119 111 0 0
111 120 0 0
120 111 0 0
112 28 0 0
28 112 0 0
112 54 0 0
54 112 0 0
112 55 0 0
55 112 0 0
112 77 0 0
77 112 0 0
112 90 0 0
90 112 0 0
112 99 0 0
99 112 0 0
112 111 0 0
111 112 0 0
112 114 0 0
114 112 0 0
113 1 0 0
1 113 0 0
113 5 0 0
5 113 0 0
113 27 0 0
27 113 0 0
113 34 0 0
34 113 0 0
113 48 0 0
48 113 0 0
113 66 0 0
66 113 0 0
113 73 0 0
73 113 0 0
113 84 0 0
84 113 0 0
113 92 0 0
92 113 0 0
113 111 0 0
111 113 0 0
113 115 0 0
115 113 0 0
113 117 0 0
117 113 0 0
114 8 0 0
8 114 0 0
114 18 0 0
18 114 0 0
114 35 0 0
35 114 0 0
114 46 0 0
46 114 0 0
114 54 0 0
54 114 0 0
114 59 0 0
59 114 0 0
114 82 0 0
82 114 0 0
114 116 0 0
116 114 0 0
114 117 0 0
117 114 0 0
114 120 0 0
120 114 0 0
115 17 0 0
17 115 0 0
115 43 0 0
43 115 0 0
115 52 0 0
52 115 0 0
115 75 0 0
75 115 0 0
115 118 0 0
118 115 0 0
115 120 0 0
120 115 0 0
116 1 0 0
1 116 0 0
116 3 0 0
3 116 0 0
116 8 0 0
8 116 0 0
116 44 0 0
44 116 0 0
116 54 0 0
54 116 0 0
116 120 0 0
120 116 0 0
117 23 0 0
23 117 0 0
117 34 0 0
34 117 0 0
117 38 0 0
38 117 0 0
117 107 0 0
107 117 0 0
117 108 0 0
108 117 0 0
117 111 0 0
111 117 0 0
117 112 0 0
112 117 0 0
117 114 0 0
114 117 0 0
118 39 0 0
39 118 0 0
118 49 0 0
49 118 0 0
118 55 0 0
55 118 0 0
118 57 0 0
57 118 0 0
118 64 0 0
64 118 0 0
118 112 0 0
112 118 0 0
119 8 0 0
8 119 0 0
119 17 0 0
17 119 0 0
119 25 0 0
25 119 0 0
119 31 0 0
31 119 0 0
119 78 0 0
78 119 0 0
119 113 0 0
113 119 0 0
119 120 0 0
120 119 0 0
120 93 0 0
93 120 0 0
120 112 0 0
112 120 0 0
120 114 0 0
114 120 0 0
120 115 0 0
115 120 0 0
120 117 0 0
117 120 0 0
120 118 0 0
118 120 0 0
120 119 0 0
119 120 0 0
