120 1890
2
0 1
3 2 2 3
2
1 0
3 2 2 3
2
0 27
3 2 2 3
2
27 0
3 2 2 3
2
0 34
3 2 2 3
2
34 0
3 2 2 3
2
1 20
3 2 2 3
2
20 1
3 2 2 3
2
1 94
3 2 2 3
2
94 1
3 2 2 3
2
2 1
3 2 2 3
2
1 2
3 2 2 3
2
2 3
3 2 2 3
2
3 2
3 2 2 3
2
2 6
3 2 2 3
2
6 2
3 2 2 3
2
2 40
3 2 2 3
2
40 2
3 2 2 3
2
2 66
3 2 2 3
2
66 2
3 2 2 3
2
2 89
3 2 2 3
2
89 2
3 2 2 3
2
3 0
3 2 2 3
2
0 3
3 2 2 3
2
3 9
3 2 2 3
2
9 3
3 2 2 3
2
3 46
3 2 2 3
2
46 3
3 2 2 3
2
3 56
3 2 2 3
2
56 3
3 2 2 3
2
3 64
3 2 2 3
2
64 3
3 2 2 3
2
3 96
3 2 2 3
2
96 3
3 2 2 3
2
4 0
3 2 2 3
2
0 4
3 2 2 3
2
4 6
3 2 2 3
2
6 4
3 2 2 3
2
4 8
3 2 2 3
2
8 4
3 2 2 3
2
4 25
3 2 2 3
2
25 4
3 2 2 3
2
4 34
3 2 2 3
2
34 4
3 2 2 3
2
4 43
3 2 2 3
2
43 4
3 2 2 3
2
4 92
3 2 2 3
2
92 4
3 2 2 3
2
4 112
3 2 2 3
2
112 4
3 2 2 3
2
5 2
3 2 2 3
2
2 5
3 2 2 3
2
5 7
3 2 2 3
2
7 5
3 2 2 3
2
5 9
3 2 2 3
2
9 5
3 2 2 3
2
5 38
3 2 2 3
2
38 5
3 2 2 3
2
5 75
3 2 2 3
2
75 5
3 2 2 3
2
5 92
3 2 2 3
2
92 5
3 2 2 3
2
5 105
3 2 2 3
2
105 5
3 2 2 3
2
5 106
3 2 2 3
2
106 5
3 2 2 3
2
5 108
3 2 2 3
2
108 5
3 2 2 3
2
6 3
3 2 2 3
2
3 6
3 2 2 3
2
6 5
3 2 2 3
2
5 6
3 2 2 3
2
6 8
3 2 2 3
2
8 6
3 2 2 3
2
6 15
3 2 2 3
2
15 6
3 2 2 3
2
6 19
3 2 2 3
2
19 6
3 2 2 3
2
6 23
3 2 2 3
2
23 6
3 2 2 3
2
6 43
3 2 2 3
2
43 6
3 2 2 3
2
6 104
3 2 2 3
2
104 6
3 2 2 3
2
6 111
3 2 2 3
2
111 6
3 2 2 3
2
6 117
3 2 2 3
2
117 6
3 2 2 3
2
7 1
3 2 2 3
2
1 7
3 2 2 3
2
7 3
3 2 2 3
2
3 7
3 2 2 3
2
7 4
3 2 2 3
2
4 7
3 2 2 3
2
7 6
3 2 2 3
2
6 7
3 2 2 3
2
7 9
3 2 2 3
2
9 7
3 2 2 3
2
7 48
3 2 2 3
2
48 7
3 2 2 3
2
7 56
3 2 2 3
2
56 7
3 2 2 3
2
7 60
3 2 2 3
2
60 7
3 2 2 3
2
7 99
3 2 2 3
2
99 7
3 2 2 3
2
8 0
3 2 2 3
2
0 8
3 2 2 3
2
8 1
3 2 2 3
2
1 8
3 2 2 3
2
8 2
3 2 2 3
2
2 8
3 2 2 3
2
8 27
3 2 2 3
2
27 8
3 2 2 3
2
8 31
3 2 2 3
2
31 8
3 2 2 3
2
8 96
3 2 2 3
2
96 8
3 2 2 3
2
8 101
3 2 2 3
2
101 8
3 2 2 3
2
8 108
3 2 2 3
2
108 8
3 2 2 3
2
8 109
3 2 2 3
2
109 8
3 2 2 3
2
9 7
3 2 2 3
2
7 9
3 2 2 3
2
9 38
3 2 2 3
2
38 9
3 2 2 3
2
9 67
3 2 2 3
2
67 9
3 2 2 3
2
9 103
3 2 2 3
2
103 9
3 2 2 3
2
9 118
3 2 2 3
2
118 9
3 2 2 3
2
10 12
3 2 2 3
2
12 10
3 2 2 3
2
10 88
3 2 2 3
2
88 10
3 2 2 3
2
10 100
3 2 2 3
2
100 10
3 2 2 3
2
11 0
3 2 2 3
2
0 11
3 2 2 3
2
11 10
3 2 2 3
2
10 11
3 2 2 3
2
11 16
3 2 2 3
2
16 11
3 2 2 3
2
11 25
3 2 2 3
2
25 11
3 2 2 3
2
11 33
3 2 2 3
2
33 11
3 2 2 3
2
11 45
3 2 2 3
2
45 11
3 2 2 3
2
11 50
3 2 2 3
2
50 11
3 2 2 3
2
11 98
3 2 2 3
2
98 11
3 2 2 3
2
12 9
3 2 2 3
2
9 12
3 2 2 3
2
12 48
3 2 2 3
2
48 12
3 2 2 3
2
12 96
3 2 2 3
2
96 12
3 2 2 3
2
13 10
3 2 2 3
2
10 13
3 2 2 3
2
13 14
3 2 2 3
2
14 13
3 2 2 3
2
13 16
3 2 2 3
2
16 13
3 2 2 3
2
13 26
3 2 2 3
2
26 13
3 2 2 3
2
13 93
3 2 2 3
2
93 13
3 2 2 3
2
13 117
3 2 2 3
2
117 13
3 2 2 3
2
14 11
3 2 2 3
2
11 14
3 2 2 3
2
14 12
3 2 2 3
2
12 14
3 2 2 3
2
14 19
3 2 2 3
2
19 14
3 2 2 3
2
14 58
3 2 2 3
2
58 14
3 2 2 3
2
14 60
3 2 2 3
2
60 14
3 2 2 3
2
14 87
3 2 2 3
2
87 14
3 2 2 3
2
14 90
3 2 2 3
2
90 14
3 2 2 3
2
14 111
3 2 2 3
2
111 14
3 2 2 3
2
14 115
3 2 2 3
2
115 14
3 2 2 3
2
15 2
3 2 2 3
2
2 15
3 2 2 3
2
15 12
3 2 2 3
2
12 15
3 2 2 3
2
15 13
3 2 2 3
2
13 15
3 2 2 3
2
15 14
3 2 2 3
2
14 15
3 2 2 3
2
15 19
3 2 2 3
2
19 15
3 2 2 3
2
15 46
3 2 2 3
2
46 15
3 2 2 3
2
15 55
3 2 2 3
2
55 15
3 2 2 3
2
16 10
3 2 2 3
2
10 16
3 2 2 3
2
16 12
3 2 2 3
2
12 16
3 2 2 3
2
16 13
3 2 2 3
2
13 16
3 2 2 3
2
16 15
3 2 2 3
2
15 16
3 2 2 3
2
16 19
3 2 2 3
2
19 16
3 2 2 3
2
16 20
3 2 2 3
2
20 16
3 2 2 3
2
16 31
3 2 2 3
2
31 16
3 2 2 3
2
16 35
3 2 2 3
2
35 16
3 2 2 3
2
16 42
3 2 2 3
2
42 16
3 2 2 3
2
16 66
3 2 2 3
2
66 16
3 2 2 3
2
16 74
3 2 2 3
2
74 16
3 2 2 3
2
16 108
3 2 2 3
2
108 16
3 2 2 3
2
17 10
3 2 2 3
2
10 17
3 2 2 3
2
17 18
3 2 2 3
2
18 17
3 2 2 3
2
17 19
3 2 2 3
2
19 17
3 2 2 3
2
17 20
3 2 2 3
2
20 17
3 2 2 3
2
17 30
3 2 2 3
2
30 17
3 2 2 3
2
17 108
3 2 2 3
2
108 17
3 2 2 3
2
17 117
3 2 2 3
2
117 17
3 2 2 3
2
18 10
3 2 2 3
2
10 18
3 2 2 3
2
18 15
3 2 2 3
2
15 18
3 2 2 3
2
18 16
3 2 2 3
2
16 18
3 2 2 3
2
18 19
3 2 2 3
2
19 18
3 2 2 3
2
18 37
3 2 2 3
2
37 18
3 2 2 3
2
18 56
3 2 2 3
2
56 18
3 2 2 3
2
18 72
3 2 2 3
2
72 18
3 2 2 3
2
18 103
3 2 2 3
2
103 18
3 2 2 3
2
18 113
3 2 2 3
2
113 18
3 2 2 3
2
19 2
3 2 2 3
2
2 19
3 2 2 3
2
19 18
3 2 2 3
2
18 19
3 2 2 3
2
19 62
3 2 2 3
2
62 19
3 2 2 3
2
19 71
3 2 2 3
2
71 19
3 2 2 3
2
19 96
3 2 2 3
2
96 19
3 2 2 3
2
19 109
3 2 2 3
2
109 19
3 2 2 3
2
20 2
3 2 2 3
2
2 20
3 2 2 3
2
20 15
3 2 2 3
2
15 20
3 2 2 3
2
20 22
3 2 2 3
2
22 20
3 2 2 3
2
20 34
3 2 2 3
2
34 20
3 2 2 3
2
20 42
3 2 2 3
2
42 20
3 2 2 3
2
20 68
3 2 2 3
2
68 20
3 2 2 3
2
20 70
3 2 2 3
2
70 20
3 2 2 3
2
20 89
3 2 2 3
2
89 20
3 2 2 3
2
20 110
3 2 2 3
2
110 20
3 2 2 3
2
21 6
3 2 2 3
2
6 21
3 2 2 3
2
21 16
3 2 2 3
2
16 21
3 2 2 3
2
21 20
3 2 2 3
2
20 21
3 2 2 3
2
21 22
3 2 2 3
2
22 21
3 2 2 3
2
21 23
3 2 2 3
2
23 21
3 2 2 3
2
21 25
3 2 2 3
2
25 21
3 2 2 3
2
21 27
3 2 2 3
2
27 21
3 2 2 3
2
21 29
3 2 2 3
2
29 21
3 2 2 3
2
21 69
3 2 2 3
2
69 21
3 2 2 3
2
21 72
3 2 2 3
2
72 21
3 2 2 3
2
21 92
3 2 2 3
2
92 21
3 2 2 3
2
22 23
3 2 2 3
2
23 22
3 2 2 3
2
22 27
3 2 2 3
2
27 22
3 2 2 3
2
22 28
3 2 2 3
2
28 22
3 2 2 3
2
22 34
3 2 2 3
2
34 22
3 2 2 3
2
22 44
3 2 2 3
2
44 22
3 2 2 3
2
22 76
3 2 2 3
2
76 22
3 2 2 3
2
22 83
3 2 2 3
2
83 22
3 2 2 3
2
22 98
3 2 2 3
2
98 22
3 2 2 3
2
22 104
3 2 2 3
2
104 22
3 2 2 3
2
22 115
3 2 2 3
2
115 22
3 2 2 3
2
23 12
3 2 2 3
2
12 23
3 2 2 3
2
23 22
3 2 2 3
2
22 23
3 2 2 3
2
23 24
3 2 2 3
2
24 23
3 2 2 3
2
23 25
3 2 2 3
2
25 23
3 2 2 3
2
23 27
3 2 2 3
2
27 23
3 2 2 3
2
23 70
3 2 2 3
2
70 23
3 2 2 3
2
23 85
3 2 2 3
2
85 23
3 2 2 3
2
23 101
3 2 2 3
2
101 23
3 2 2 3
2
24 22
3 2 2 3
2
22 24
3 2 2 3
2
24 25
3 2 2 3
2
25 24
3 2 2 3
2
24 29
3 2 2 3
2
29 24
3 2 2 3
2
24 85
3 2 2 3
2
85 24
3 2 2 3
2
24 91
3 2 2 3
2
91 24
3 2 2 3
2
24 100
3 2 2 3
2
100 24
3 2 2 3
2
24 102
3 2 2 3
2
102 24
3 2 2 3
2
25 11
3 2 2 3
2
11 25
3 2 2 3
2
25 17
3 2 2 3
2
17 25
3 2 2 3
2
25 19
3 2 2 3
2
19 25
3 2 2 3
2
25 20
3 2 2 3
2
20 25
3 2 2 3
2
25 22
3 2 2 3
2
22 25
3 2 2 3
2
25 26
3 2 2 3
2
26 25
3 2 2 3
2
25 28
3 2 2 3
2
28 25
3 2 2 3
2
25 95
3 2 2 3
2
95 25
3 2 2 3
2
25 100
3 2 2 3
2
100 25
3 2 2 3
2
25 115
3 2 2 3
2
115 25
3 2 2 3
2
26 2
3 2 2 3
2
2 26
3 2 2 3
2
26 23
3 2 2 3
2
23 26
3 2 2 3
2
26 57
3 2 2 3
2
57 26
3 2 2 3
2
26 64
3 2 2 3
2
64 26
3 2 2 3
2
26 78
3 2 2 3
2
78 26
3 2 2 3
2
27 18
3 2 2 3
2
18 27
3 2 2 3
2
27 20
3 2 2 3
2
20 27
3 2 2 3
2
27 21
3 2 2 3
2
21 27
3 2 2 3
2
27 25
3 2 2 3
2
25 27
3 2 2 3
2
27 26
3 2 2 3
2
26 27
3 2 2 3
2
27 28
3 2 2 3
2
28 27
3 2 2 3
2
27 36
3 2 2 3
2
36 27
3 2 2 3
2
27 40
3 2 2 3
2
40 27
3 2 2 3
2
27 58
3 2 2 3
2
58 27
3 2 2 3
2
27 98
3 2 2 3
2
98 27
3 2 2 3
2
27 105
3 2 2 3
2
105 27
3 2 2 3
2
27 110
3 2 2 3
2
110 27
3 2 2 3
2
28 12
3 2 2 3
2
12 28
3 2 2 3
2
28 23
3 2 2 3
2
23 28
3 2 2 3
2
28 24
3 2 2 3
2
24 28
3 2 2 3
2
28 27
3 2 2 3
2
27 28
3 2 2 3
2
28 31
3 2 2 3
2
31 28
3 2 2 3
2
28 39
3 2 2 3
2
39 28
3 2 2 3
2
28 65
3 2 2 3
2
65 28
3 2 2 3
2
28 76
3 2 2 3
2
76 28
3 2 2 3
2
28 110
3 2 2 3
2
110 28
3 2 2 3
2
29 20
3 2 2 3
2
20 29
3 2 2 3
2
29 24
3 2 2 3
2
24 29
3 2 2 3
2
29 32
3 2 2 3
2
32 29
3 2 2 3
2
29 49
3 2 2 3
2
49 29
3 2 2 3
2
29 51
3 2 2 3
2
51 29
3 2 2 3
2
29 117
3 2 2 3
2
117 29
3 2 2 3
2
30 33
3 2 2 3
2
33 30
3 2 2 3
2
30 34
3 2 2 3
2
34 30
3 2 2 3
2
30 38
3 2 2 3
2
38 30
3 2 2 3
2
30 39
3 2 2 3
2
39 30
3 2 2 3
2
31 1
3 2 2 3
2
1 31
3 2 2 3
2
31 39
3 2 2 3
2
39 31
3 2 2 3
2
31 40
3 2 2 3
2
40 31
3 2 2 3
2
31 56
3 2 2 3
2
56 31
3 2 2 3
2
31 112
3 2 2 3
2
112 31
3 2 2 3
2
32 31
3 2 2 3
2
31 32
3 2 2 3
2
32 34
3 2 2 3
2
34 32
3 2 2 3
2
32 36
3 2 2 3
2
36 32
3 2 2 3
2
32 37
3 2 2 3
2
37 32
3 2 2 3
2
32 38
3 2 2 3
2
38 32
3 2 2 3
2
32 118
3 2 2 3
2
118 32
3 2 2 3
2
33 12
3 2 2 3
2
12 33
3 2 2 3
2
33 31
3 2 2 3
2
31 33
3 2 2 3
2
33 78
3 2 2 3
2
78 33
3 2 2 3
2
33 80
3 2 2 3
2
80 33
3 2 2 3
2
33 91
3 2 2 3
2
91 33
3 2 2 3
2
33 115
3 2 2 3
2
115 33
3 2 2 3
2
34 16
3 2 2 3
2
16 34
3 2 2 3
2
34 38
3 2 2 3
2
38 34
3 2 2 3
2
34 64
3 2 2 3
2
64 34
3 2 2 3
2
34 89
3 2 2 3
2
89 34
3 2 2 3
2
35 18
3 2 2 3
2
18 35
3 2 2 3
2
35 24
3 2 2 3
2
24 35
3 2 2 3
2
35 32
3 2 2 3
2
32 35
3 2 2 3
2
35 33
3 2 2 3
2
33 35
3 2 2 3
2
35 34
3 2 2 3
2
34 35
3 2 2 3
2
35 37
3 2 2 3
2
37 35
3 2 2 3
2
35 38
3 2 2 3
2
38 35
3 2 2 3
2
35 56
3 2 2 3
2
56 35
3 2 2 3
2
35 63
3 2 2 3
2
63 35
3 2 2 3
2
35 69
3 2 2 3
2
69 35
3 2 2 3
2
35 87
3 2 2 3
2
87 35
3 2 2 3
2
35 94
3 2 2 3
2
94 35
3 2 2 3
2
35 103
3 2 2 3
2
103 35
3 2 2 3
2
36 21
3 2 2 3
2
21 36
3 2 2 3
2
36 32
3 2 2 3
2
32 36
3 2 2 3
2
36 33
3 2 2 3
2
33 36
3 2 2 3
2
36 38
3 2 2 3
2
38 36
3 2 2 3
2
36 56
3 2 2 3
2
56 36
3 2 2 3
2
36 71
3 2 2 3
2
71 36
3 2 2 3
2
36 96
3 2 2 3
2
96 36
3 2 2 3
2
36 101
3 2 2 3
2
101 36
3 2 2 3
2
36 110
3 2 2 3
2
110 36
3 2 2 3
2
37 18
3 2 2 3
2
18 37
3 2 2 3
2
37 32
3 2 2 3
2
32 37
3 2 2 3
2
37 33
3 2 2 3
2
33 37
3 2 2 3
2
37 34
3 2 2 3
2
34 37
3 2 2 3
2
37 35
3 2 2 3
2
35 37
3 2 2 3
2
37 61
3 2 2 3
2
61 37
3 2 2 3
2
37 93
3 2 2 3
2
93 37
3 2 2 3
2
37 95
3 2 2 3
2
95 37
3 2 2 3
2
38 30
3 2 2 3
2
30 38
3 2 2 3
2
38 31
3 2 2 3
2
31 38
3 2 2 3
2
38 36
3 2 2 3
2
36 38
3 2 2 3
2
38 37
3 2 2 3
2
37 38
3 2 2 3
2
38 40
3 2 2 3
2
40 38
3 2 2 3
2
38 42
3 2 2 3
2
42 38
3 2 2 3
2
38 51
3 2 2 3
2
51 38
3 2 2 3
2
38 84
3 2 2 3
2
84 38
3 2 2 3
2
38 105
3 2 2 3
2
105 38
3 2 2 3
2
39 2
3 2 2 3
2
2 39
3 2 2 3
2
39 26
3 2 2 3
2
26 39
3 2 2 3
2
39 35
3 2 2 3
2
35 39
3 2 2 3
2
39 36
3 2 2 3
2
36 39
3 2 2 3
2
39 37
3 2 2 3
2
37 39
3 2 2 3
2
39 40
3 2 2 3
2
40 39
3 2 2 3
2
39 74
3 2 2 3
2
74 39
3 2 2 3
2
40 11
3 2 2 3
2
11 40
3 2 2 3
2
40 45
3 2 2 3
2
45 40
3 2 2 3
2
40 47
3 2 2 3
2
47 40
3 2 2 3
2
40 64
3 2 2 3
2
64 40
3 2 2 3
2
40 86
3 2 2 3
2
86 40
3 2 2 3
2
40 109
3 2 2 3
2
109 40
3 2 2 3
2
41 32
3 2 2 3
2
32 41
3 2 2 3
2
41 43
3 2 2 3
2
43 41
3 2 2 3
2
41 45
3 2 2 3
2
45 41
3 2 2 3
2
41 46
3 2 2 3
2
46 41
3 2 2 3
2
41 48
3 2 2 3
2
48 41
3 2 2 3
2
41 57
3 2 2 3
2
57 41
3 2 2 3
2
41 119
3 2 2 3
2
119 41
3 2 2 3
2
42 19
3 2 2 3
2
19 42
3 2 2 3
2
42 41
3 2 2 3
2
41 42
3 2 2 3
2
42 45
3 2 2 3
2
45 42
3 2 2 3
2
42 46
3 2 2 3
2
46 42
3 2 2 3
2
42 47
3 2 2 3
2
47 42
3 2 2 3
2
42 72
3 2 2 3
2
72 42
3 2 2 3
2
42 74
3 2 2 3
2
74 42
3 2 2 3
2
43 5
3 2 2 3
2
5 43
3 2 2 3
2
43 9
3 2 2 3
2
9 43
3 2 2 3
2
43 11
3 2 2 3
2
11 43
3 2 2 3
2
43 40
3 2 2 3
2
40 43
3 2 2 3
2
43 41
3 2 2 3
2
41 43
3 2 2 3
2
43 42
3 2 2 3
2
42 43
3 2 2 3
2
43 44
3 2 2 3
2
44 43
3 2 2 3
2
43 74
3 2 2 3
2
74 43
3 2 2 3
2
43 85
3 2 2 3
2
85 43
3 2 2 3
2
44 34
3 2 2 3
2
34 44
3 2 2 3
2
44 36
3 2 2 3
2
36 44
3 2 2 3
2
44 37
3 2 2 3
2
37 44
3 2 2 3
2
44 41
3 2 2 3
2
41 44
3 2 2 3
2
44 47
3 2 2 3
2
47 44
3 2 2 3
2
44 50
3 2 2 3
2
50 44
3 2 2 3
2
44 54
3 2 2 3
2
54 44
3 2 2 3
2
44 69
3 2 2 3
2
69 44
3 2 2 3
2
44 72
3 2 2 3
2
72 44
3 2 2 3
2
44 83
3 2 2 3
2
83 44
3 2 2 3
2
45 23
3 2 2 3
2
23 45
3 2 2 3
2
45 41
3 2 2 3
2
41 45
3 2 2 3
2
45 43
3 2 2 3
2
43 45
3 2 2 3
2
45 44
3 2 2 3
2
44 45
3 2 2 3
2
45 61
3 2 2 3
2
61 45
3 2 2 3
2
45 81
3 2 2 3
2
81 45
3 2 2 3
2
46 20
3 2 2 3
2
20 46
3 2 2 3
2
46 43
3 2 2 3
2
43 46
3 2 2 3
2
46 47
3 2 2 3
2
47 46
3 2 2 3
2
46 59
3 2 2 3
2
59 46
3 2 2 3
2
46 69
3 2 2 3
2
69 46
3 2 2 3
2
46 70
3 2 2 3
2
70 46
3 2 2 3
2
46 72
3 2 2 3
2
72 46
3 2 2 3
2
47 44
3 2 2 3
2
44 47
3 2 2 3
2
47 59
3 2 2 3
2
59 47
3 2 2 3
2
47 70
3 2 2 3
2
70 47
3 2 2 3
2
47 82
3 2 2 3
2
82 47
3 2 2 3
2
48 27
3 2 2 3
2
27 48
3 2 2 3
2
48 41
3 2 2 3
2
41 48
3 2 2 3
2
48 43
3 2 2 3
2
43 48
3 2 2 3
2
48 44
3 2 2 3
2
44 48
3 2 2 3
2
48 95
3 2 2 3
2
95 48
3 2 2 3
2
48 103
3 2 2 3
2
103 48
3 2 2 3
2
49 9
3 2 2 3
2
9 49
3 2 2 3
2
49 11
3 2 2 3
2
11 49
3 2 2 3
2
49 72
3 2 2 3
2
72 49
3 2 2 3
2
49 79
3 2 2 3
2
79 49
3 2 2 3
2
49 90
3 2 2 3
2
90 49
3 2 2 3
2
49 94
3 2 2 3
2
94 49
3 2 2 3
2
49 113
3 2 2 3
2
113 49
3 2 2 3
2
50 0
3 2 2 3
2
0 50
3 2 2 3
2
50 5
3 2 2 3
2
5 50
3 2 2 3
2
50 7
3 2 2 3
2
7 50
3 2 2 3
2
50 22
3 2 2 3
2
22 50
3 2 2 3
2
50 23
3 2 2 3
2
23 50
3 2 2 3
2
50 41
3 2 2 3
2
41 50
3 2 2 3
2
50 54
3 2 2 3
2
54 50
3 2 2 3
2
50 55
3 2 2 3
2
55 50
3 2 2 3
2
50 57
3 2 2 3
2
57 50
3 2 2 3
2
50 83
3 2 2 3
2
83 50
3 2 2 3
2
50 96
3 2 2 3
2
96 50
3 2 2 3
2
50 111
3 2 2 3
2
111 50
3 2 2 3
2
50 115
3 2 2 3
2
115 50
3 2 2 3
2
51 1
3 2 2 3
2
1 51
3 2 2 3
2
51 18
3 2 2 3
2
18 51
3 2 2 3
2
51 29
3 2 2 3
2
29 51
3 2 2 3
2
51 48
3 2 2 3
2
48 51
3 2 2 3
2
51 69
3 2 2 3
2
69 51
3 2 2 3
2
51 106
3 2 2 3
2
106 51
3 2 2 3
2
52 10
3 2 2 3
2
10 52
3 2 2 3
2
52 22
3 2 2 3
2
22 52
3 2 2 3
2
52 39
3 2 2 3
2
39 52
3 2 2 3
2
52 50
3 2 2 3
2
50 52
3 2 2 3
2
52 53
3 2 2 3
2
53 52
3 2 2 3
2
52 55
3 2 2 3
2
55 52
3 2 2 3
2
52 56
3 2 2 3
2
56 52
3 2 2 3
2
52 81
3 2 2 3
2
81 52
3 2 2 3
2
52 88
3 2 2 3
2
88 52
3 2 2 3
2
52 91
3 2 2 3
2
91 52
3 2 2 3
2
52 93
3 2 2 3
2
93 52
3 2 2 3
2
52 119
3 2 2 3
2
119 52
3 2 2 3
2
53 25
3 2 2 3
2
25 53
3 2 2 3
2
53 54
3 2 2 3
2
54 53
3 2 2 3
2
53 66
3 2 2 3
2
66 53
3 2 2 3
2
53 74
3 2 2 3
2
74 53
3 2 2 3
2
53 92
3 2 2 3
2
92 53
3 2 2 3
2
53 109
3 2 2 3
2
109 53
3 2 2 3
2
54 32
3 2 2 3
2
32 54
3 2 2 3
2
54 51
3 2 2 3
2
51 54
3 2 2 3
2
54 52
3 2 2 3
2
52 54
3 2 2 3
2
54 56
3 2 2 3
2
56 54
3 2 2 3
2
54 57
3 2 2 3
2
57 54
3 2 2 3
2
54 59
3 2 2 3
2
59 54
3 2 2 3
2
54 62
3 2 2 3
2
62 54
3 2 2 3
2
54 67
3 2 2 3
2
67 54
3 2 2 3
2
54 118
3 2 2 3
2
118 54
3 2 2 3
2
55 24
3 2 2 3
2
24 55
3 2 2 3
2
55 40
3 2 2 3
2
40 55
3 2 2 3
2
55 52
3 2 2 3
2
52 55
3 2 2 3
2
55 53
3 2 2 3
2
53 55
3 2 2 3
2
55 59
3 2 2 3
2
59 55
3 2 2 3
2
55 62
3 2 2 3
2
62 55
3 2 2 3
2
55 87
3 2 2 3
2
87 55
3 2 2 3
2
55 89
3 2 2 3
2
89 55
3 2 2 3
2
55 95
3 2 2 3
2
95 55
3 2 2 3
2
55 97
3 2 2 3
2
97 55
3 2 2 3
2
55 98
3 2 2 3
2
98 55
3 2 2 3
2
55 100
3 2 2 3
2
100 55
3 2 2 3
2
56 16
3 2 2 3
2
16 56
3 2 2 3
2
56 49
3 2 2 3
2
49 56
3 2 2 3
2
56 50
3 2 2 3
2
50 56
3 2 2 3
2
56 51
3 2 2 3
2
51 56
3 2 2 3
2
56 52
3 2 2 3
2
52 56
3 2 2 3
2
56 55
3 2 2 3
2
55 56
3 2 2 3
2
56 57
3 2 2 3
2
57 56
3 2 2 3
2
56 58
3 2 2 3
2
58 56
3 2 2 3
2
56 59
3 2 2 3
2
59 56
3 2 2 3
2
56 76
3 2 2 3
2
76 56
3 2 2 3
2
56 100
3 2 2 3
2
100 56
3 2 2 3
2
56 113
3 2 2 3
2
113 56
3 2 2 3
2
57 59
3 2 2 3
2
59 57
3 2 2 3
2
57 62
3 2 2 3
2
62 57
3 2 2 3
2
57 86
3 2 2 3
2
86 57
3 2 2 3
2
57 90
3 2 2 3
2
90 57
3 2 2 3
2
57 97
3 2 2 3
2
97 57
3 2 2 3
2
58 37
3 2 2 3
2
37 58
3 2 2 3
2
58 56
3 2 2 3
2
56 58
3 2 2 3
2
58 57
3 2 2 3
2
57 58
3 2 2 3
2
58 59
3 2 2 3
2
59 58
3 2 2 3
2
59 48
3 2 2 3
2
48 59
3 2 2 3
2
59 50
3 2 2 3
2
50 59
3 2 2 3
2
59 51
3 2 2 3
2
51 59
3 2 2 3
2
59 52
3 2 2 3
2
52 59
3 2 2 3
2
59 53
3 2 2 3
2
53 59
3 2 2 3
2
59 54
3 2 2 3
2
54 59
3 2 2 3
2
59 55
3 2 2 3
2
55 59
3 2 2 3
2
59 57
3 2 2 3
2
57 59
3 2 2 3
2
59 58
3 2 2 3
2
58 59
3 2 2 3
2
59 114
3 2 2 3
2
114 59
3 2 2 3
2
60 5
3 2 2 3
2
5 60
3 2 2 3
2
60 42
3 2 2 3
2
42 60
3 2 2 3
2
60 64
3 2 2 3
2
64 60
3 2 2 3
2
60 65
3 2 2 3
2
65 60
3 2 2 3
2
60 90
3 2 2 3
2
90 60
3 2 2 3
2
60 94
3 2 2 3
2
94 60
3 2 2 3
2
60 116
3 2 2 3
2
116 60
3 2 2 3
2
61 2
3 2 2 3
2
2 61
3 2 2 3
2
61 7
3 2 2 3
2
7 61
3 2 2 3
2
61 13
3 2 2 3
2
13 61
3 2 2 3
2
61 15
3 2 2 3
2
15 61
3 2 2 3
2
61 16
3 2 2 3
2
16 61
3 2 2 3
2
61 65
3 2 2 3
2
65 61
3 2 2 3
2
61 90
3 2 2 3
2
90 61
3 2 2 3
2
62 29
3 2 2 3
2
29 62
3 2 2 3
2
62 43
3 2 2 3
2
43 62
3 2 2 3
2
62 44
3 2 2 3
2
44 62
3 2 2 3
2
62 68
3 2 2 3
2
68 62
3 2 2 3
2
62 72
3 2 2 3
2
72 62
3 2 2 3
2
62 77
3 2 2 3
2
77 62
3 2 2 3
2
62 101
3 2 2 3
2
101 62
3 2 2 3
2
63 6
3 2 2 3
2
6 63
3 2 2 3
2
63 20
3 2 2 3
2
20 63
3 2 2 3
2
63 31
3 2 2 3
2
31 63
3 2 2 3
2
63 40
3 2 2 3
2
40 63
3 2 2 3
2
63 42
3 2 2 3
2
42 63
3 2 2 3
2
63 68
3 2 2 3
2
68 63
3 2 2 3
2
63 81
3 2 2 3
2
81 63
3 2 2 3
2
63 103
3 2 2 3
2
103 63
3 2 2 3
2
63 105
3 2 2 3
2
105 63
3 2 2 3
2
64 8
3 2 2 3
2
8 64
3 2 2 3
2
64 21
3 2 2 3
2
21 64
3 2 2 3
2
64 33
3 2 2 3
2
33 64
3 2 2 3
2
64 61
3 2 2 3
2
61 64
3 2 2 3
2
64 65
3 2 2 3
2
65 64
3 2 2 3
2
64 67
3 2 2 3
2
67 64
3 2 2 3
2
64 69
3 2 2 3
2
69 64
3 2 2 3
2
64 107
3 2 2 3
2
107 64
3 2 2 3
2
65 3
3 2 2 3
2
3 65
3 2 2 3
2
65 48
3 2 2 3
2
48 65
3 2 2 3
2
65 60
3 2 2 3
2
60 65
3 2 2 3
2
65 63
3 2 2 3
2
63 65
3 2 2 3
2
65 66
3 2 2 3
2
66 65
3 2 2 3
2
65 72
3 2 2 3
2
72 65
3 2 2 3
2
65 85
3 2 2 3
2
85 65
3 2 2 3
2
65 97
3 2 2 3
2
97 65
3 2 2 3
2
65 112
3 2 2 3
2
112 65
3 2 2 3
2
66 11
3 2 2 3
2
11 66
3 2 2 3
2
66 12
3 2 2 3
2
12 66
3 2 2 3
2
66 35
3 2 2 3
2
35 66
3 2 2 3
2
66 36
3 2 2 3
2
36 66
3 2 2 3
2
66 45
3 2 2 3
2
45 66
3 2 2 3
2
66 58
3 2 2 3
2
58 66
3 2 2 3
2
66 69
3 2 2 3
2
69 66
3 2 2 3
2
66 76
3 2 2 3
2
76 66
3 2 2 3
2
66 87
3 2 2 3
2
87 66
3 2 2 3
2
66 89
3 2 2 3
2
89 66
3 2 2 3
2
66 96
3 2 2 3
2
96 66
3 2 2 3
2
66 100
3 2 2 3
2
100 66
3 2 2 3
2
67 29
3 2 2 3
2
29 67
3 2 2 3
2
67 44
3 2 2 3
2
44 67
3 2 2 3
2
67 66
3 2 2 3
2
66 67
3 2 2 3
2
67 68
3 2 2 3
2
68 67
3 2 2 3
2
68 36
3 2 2 3
2
36 68
3 2 2 3
2
68 40
3 2 2 3
2
40 68
3 2 2 3
2
68 57
3 2 2 3
2
57 68
3 2 2 3
2
68 60
3 2 2 3
2
60 68
3 2 2 3
2
68 65
3 2 2 3
2
65 68
3 2 2 3
2
68 66
3 2 2 3
2
66 68
3 2 2 3
2
68 67
3 2 2 3
2
67 68
3 2 2 3
2
68 72
3 2 2 3
2
72 68
3 2 2 3
2
68 89
3 2 2 3
2
89 68
3 2 2 3
2
68 95
3 2 2 3
2
95 68
3 2 2 3
2
68 105
3 2 2 3
2
105 68
3 2 2 3
2
68 118
3 2 2 3
2
118 68
3 2 2 3
2
69 2
3 2 2 3
2
2 69
3 2 2 3
2
69 3
3 2 2 3
2
3 69
3 2 2 3
2
69 35
3 2 2 3
2
35 69
3 2 2 3
2
69 41
3 2 2 3
2
41 69
3 2 2 3
2
69 60
3 2 2 3
2
60 69
3 2 2 3
2
69 67
3 2 2 3
2
67 69
3 2 2 3
2
69 78
3 2 2 3
2
78 69
3 2 2 3
2
69 108
3 2 2 3
2
108 69
3 2 2 3
2
69 114
3 2 2 3
2
114 69
3 2 2 3
2
70 37
3 2 2 3
2
37 70
3 2 2 3
2
70 43
3 2 2 3
2
43 70
3 2 2 3
2
70 65
3 2 2 3
2
65 70
3 2 2 3
2
70 75
3 2 2 3
2
75 70
3 2 2 3
2
70 81
3 2 2 3
2
81 70
3 2 2 3
2
70 89
3 2 2 3
2
89 70
3 2 2 3
2
71 4
3 2 2 3
2
4 71
3 2 2 3
2
71 6
3 2 2 3
2
6 71
3 2 2 3
2
71 31
3 2 2 3
2
31 71
3 2 2 3
2
71 33
3 2 2 3
2
33 71
3 2 2 3
2
71 39
3 2 2 3
2
39 71
3 2 2 3
2
71 50
3 2 2 3
2
50 71
3 2 2 3
2
71 56
3 2 2 3
2
56 71
3 2 2 3
2
71 70
3 2 2 3
2
70 71
3 2 2 3
2
71 74
3 2 2 3
2
74 71
3 2 2 3
2
71 78
3 2 2 3
2
78 71
3 2 2 3
2
71 85
3 2 2 3
2
85 71
3 2 2 3
2
71 107
3 2 2 3
2
107 71
3 2 2 3
2
71 115
3 2 2 3
2
115 71
3 2 2 3
2
72 4
3 2 2 3
2
4 72
3 2 2 3
2
72 89
3 2 2 3
2
89 72
3 2 2 3
2
72 98
3 2 2 3
2
98 72
3 2 2 3
2
72 99
3 2 2 3
2
99 72
3 2 2 3
2
73 71
3 2 2 3
2
71 73
3 2 2 3
2
73 72
3 2 2 3
2
72 73
3 2 2 3
2
73 78
3 2 2 3
2
78 73
3 2 2 3
2
73 108
3 2 2 3
2
108 73
3 2 2 3
2
73 116
3 2 2 3
2
116 73
3 2 2 3
2
74 30
3 2 2 3
2
30 74
3 2 2 3
2
74 43
3 2 2 3
2
43 74
3 2 2 3
2
74 47
3 2 2 3
2
47 74
3 2 2 3
2
74 58
3 2 2 3
2
58 74
3 2 2 3
2
74 70
3 2 2 3
2
70 74
3 2 2 3
2
74 72
3 2 2 3
2
72 74
3 2 2 3
2
74 73
3 2 2 3
2
73 74
3 2 2 3
2
74 75
3 2 2 3
2
75 74
3 2 2 3
2
74 93
3 2 2 3
2
93 74
3 2 2 3
2
74 113
3 2 2 3
2
113 74
3 2 2 3
2
75 5
3 2 2 3
2
5 75
3 2 2 3
2
75 8
3 2 2 3
2
8 75
3 2 2 3
2
75 32
3 2 2 3
2
32 75
3 2 2 3
2
75 38
3 2 2 3
2
38 75
3 2 2 3
2
75 40
3 2 2 3
2
40 75
3 2 2 3
2
75 59
3 2 2 3
2
59 75
3 2 2 3
2
75 71
3 2 2 3
2
71 75
3 2 2 3
2
75 72
3 2 2 3
2
72 75
3 2 2 3
2
75 85
3 2 2 3
2
85 75
3 2 2 3
2
75 86
3 2 2 3
2
86 75
3 2 2 3
2
75 115
3 2 2 3
2
115 75
3 2 2 3
2
75 119
3 2 2 3
2
119 75
3 2 2 3
2
76 35
3 2 2 3
2
35 76
3 2 2 3
2
76 37
3 2 2 3
2
37 76
3 2 2 3
2
76 38
3 2 2 3
2
38 76
3 2 2 3
2
76 46
3 2 2 3
2
46 76
3 2 2 3
2
76 54
3 2 2 3
2
54 76
3 2 2 3
2
76 59
3 2 2 3
2
59 76
3 2 2 3
2
76 70
3 2 2 3
2
70 76
3 2 2 3
2
76 71
3 2 2 3
2
71 76
3 2 2 3
2
76 77
3 2 2 3
2
77 76
3 2 2 3
2
76 78
3 2 2 3
2
78 76
3 2 2 3
2
76 96
3 2 2 3
2
96 76
3 2 2 3
2
76 100
3 2 2 3
2
100 76
3 2 2 3
2
76 118
3 2 2 3
2
118 76
3 2 2 3
2
77 10
3 2 2 3
2
10 77
3 2 2 3
2
77 24
3 2 2 3
2
24 77
3 2 2 3
2
77 35
3 2 2 3
2
35 77
3 2 2 3
2
77 68
3 2 2 3
2
68 77
3 2 2 3
2
77 71
3 2 2 3
2
71 77
3 2 2 3
2
77 72
3 2 2 3
2
72 77
3 2 2 3
2
77 74
3 2 2 3
2
74 77
3 2 2 3
2
77 84
3 2 2 3
2
84 77
3 2 2 3
2
78 11
3 2 2 3
2
11 78
3 2 2 3
2
78 38
3 2 2 3
2
38 78
3 2 2 3
2
78 39
3 2 2 3
2
39 78
3 2 2 3
2
78 46
3 2 2 3
2
46 78
3 2 2 3
2
78 60
3 2 2 3
2
60 78
3 2 2 3
2
78 71
3 2 2 3
2
71 78
3 2 2 3
2
78 72
3 2 2 3
2
72 78
3 2 2 3
2
78 74
3 2 2 3
2
74 78
3 2 2 3
2
78 77
3 2 2 3
2
77 78
3 2 2 3
2
78 79
3 2 2 3
2
79 78
3 2 2 3
2
78 111
3 2 2 3
2
111 78
3 2 2 3
2
78 115
3 2 2 3
2
115 78
3 2 2 3
2
79 3
3 2 2 3
2
3 79
3 2 2 3
2
79 12
3 2 2 3
2
12 79
3 2 2 3
2
79 14
3 2 2 3
2
14 79
3 2 2 3
2
79 38
3 2 2 3
2
38 79
3 2 2 3
2
79 43
3 2 2 3
2
43 79
3 2 2 3
2
79 70
3 2 2 3
2
70 79
3 2 2 3
2
79 72
3 2 2 3
2
72 79
3 2 2 3
2
79 77
3 2 2 3
2
77 79
3 2 2 3
2
79 82
3 2 2 3
2
82 79
3 2 2 3
2
79 92
3 2 2 3
2
92 79
3 2 2 3
2
79 105
3 2 2 3
2
105 79
3 2 2 3
2
80 8
3 2 2 3
2
8 80
3 2 2 3
2
80 30
3 2 2 3
2
30 80
3 2 2 3
2
80 82
3 2 2 3
2
82 80
3 2 2 3
2
80 89
3 2 2 3
2
89 80
3 2 2 3
2
80 111
3 2 2 3
2
111 80
3 2 2 3
2
81 18
3 2 2 3
2
18 81
3 2 2 3
2
81 25
3 2 2 3
2
25 81
3 2 2 3
2
81 33
3 2 2 3
2
33 81
3 2 2 3
2
81 67
3 2 2 3
2
67 81
3 2 2 3
2
81 83
3 2 2 3
2
83 81
3 2 2 3
2
81 84
3 2 2 3
2
84 81
3 2 2 3
2
81 87
3 2 2 3
2
87 81
3 2 2 3
2
81 90
3 2 2 3
2
90 81
3 2 2 3
2
81 104
3 2 2 3
2
104 81
3 2 2 3
2
82 1
3 2 2 3
2
1 82
3 2 2 3
2
82 6
3 2 2 3
2
6 82
3 2 2 3
2
82 31
3 2 2 3
2
31 82
3 2 2 3
2
82 55
3 2 2 3
2
55 82
3 2 2 3
2
82 83
3 2 2 3
2
83 82
3 2 2 3
2
82 85
3 2 2 3
2
85 82
3 2 2 3
2
82 86
3 2 2 3
2
86 82
3 2 2 3
2
82 87
3 2 2 3
2
87 82
3 2 2 3
2
82 89
3 2 2 3
2
89 82
3 2 2 3
2
82 92
3 2 2 3
2
92 82
3 2 2 3
2
82 101
3 2 2 3
2
101 82
3 2 2 3
2
83 1
3 2 2 3
2
1 83
3 2 2 3
2
83 12
3 2 2 3
2
12 83
3 2 2 3
2
83 35
3 2 2 3
2
35 83
3 2 2 3
2
83 36
3 2 2 3
2
36 83
3 2 2 3
2
83 37
3 2 2 3
2
37 83
3 2 2 3
2
83 44
3 2 2 3
2
44 83
3 2 2 3
2
83 80
3 2 2 3
2
80 83
3 2 2 3
2
83 84
3 2 2 3
2
84 83
3 2 2 3
2
83 85
3 2 2 3
2
85 83
3 2 2 3
2
83 86
3 2 2 3
2
86 83
3 2 2 3
2
83 88
3 2 2 3
2
88 83
3 2 2 3
2
83 102
3 2 2 3
2
102 83
3 2 2 3
2
83 111
3 2 2 3
2
111 83
3 2 2 3
2
84 44
3 2 2 3
2
44 84
3 2 2 3
2
84 64
3 2 2 3
2
64 84
3 2 2 3
2
84 80
3 2 2 3
2
80 84
3 2 2 3
2
84 83
3 2 2 3
2
83 84
3 2 2 3
2
84 85
3 2 2 3
2
85 84
3 2 2 3
2
84 105
3 2 2 3
2
105 84
3 2 2 3
2
85 24
3 2 2 3
2
24 85
3 2 2 3
2
85 26
3 2 2 3
2
26 85
3 2 2 3
2
85 33
3 2 2 3
2
33 85
3 2 2 3
2
85 69
3 2 2 3
2
69 85
3 2 2 3
2
85 82
3 2 2 3
2
82 85
3 2 2 3
2
85 86
3 2 2 3
2
86 85
3 2 2 3
2
85 87
3 2 2 3
2
87 85
3 2 2 3
2
85 90
3 2 2 3
2
90 85
3 2 2 3
2
85 95
3 2 2 3
2
95 85
3 2 2 3
2
85 103
3 2 2 3
2
103 85
3 2 2 3
2
85 114
3 2 2 3
2
114 85
3 2 2 3
2
86 26
3 2 2 3
2
26 86
3 2 2 3
2
86 61
3 2 2 3
2
61 86
3 2 2 3
2
86 74
3 2 2 3
2
74 86
3 2 2 3
2
86 76
3 2 2 3
2
76 86
3 2 2 3
2
86 84
3 2 2 3
2
84 86
3 2 2 3
2
86 87
3 2 2 3
2
87 86
3 2 2 3
2
86 90
3 2 2 3
2
90 86
3 2 2 3
2
87 0
3 2 2 3
2
0 87
3 2 2 3
2
87 9
3 2 2 3
2
9 87
3 2 2 3
2
87 16
3 2 2 3
2
16 87
3 2 2 3
2
87 26
3 2 2 3
2
26 87
3 2 2 3
2
87 31
3 2 2 3
2
31 87
3 2 2 3
2
87 74
3 2 2 3
2
74 87
3 2 2 3
2
87 78
3 2 2 3
2
78 87
3 2 2 3
2
87 86
3 2 2 3
2
86 87
3 2 2 3
2
87 89
3 2 2 3
2
89 87
3 2 2 3
2
88 13
3 2 2 3
2
13 88
3 2 2 3
2
88 21
3 2 2 3
2
21 88
3 2 2 3
2
88 70
3 2 2 3
2
70 88
3 2 2 3
2
88 77
3 2 2 3
2
77 88
3 2 2 3
2
88 78
3 2 2 3
2
78 88
3 2 2 3
2
88 80
3 2 2 3
2
80 88
3 2 2 3
2
88 84
3 2 2 3
2
84 88
3 2 2 3
2
88 89
3 2 2 3
2
89 88
3 2 2 3
2
88 117
3 2 2 3
2
117 88
3 2 2 3
2
89 28
3 2 2 3
2
28 89
3 2 2 3
2
89 59
3 2 2 3
2
59 89
3 2 2 3
2
89 80
3 2 2 3
2
80 89
3 2 2 3
2
89 88
3 2 2 3
2
88 89
3 2 2 3
2
89 114
3 2 2 3
2
114 89
3 2 2 3
2
90 0
3 2 2 3
2
0 90
3 2 2 3
2
90 28
3 2 2 3
2
28 90
3 2 2 3
2
90 70
3 2 2 3
2
70 90
3 2 2 3
2
90 72
3 2 2 3
2
72 90
3 2 2 3
2
90 83
3 2 2 3
2
83 90
3 2 2 3
2
90 84
3 2 2 3
2
84 90
3 2 2 3
2
90 119
3 2 2 3
2
119 90
3 2 2 3
2
91 15
3 2 2 3
2
15 91
3 2 2 3
2
91 26
3 2 2 3
2
26 91
3 2 2 3
2
91 30
3 2 2 3
2
30 91
3 2 2 3
2
91 41
3 2 2 3
2
41 91
3 2 2 3
2
91 70
3 2 2 3
2
70 91
3 2 2 3
2
91 76
3 2 2 3
2
76 91
3 2 2 3
2
91 81
3 2 2 3
2
81 91
3 2 2 3
2
91 92
3 2 2 3
2
92 91
3 2 2 3
2
91 93
3 2 2 3
2
93 91
3 2 2 3
2
91 97
3 2 2 3
2
97 91
3 2 2 3
2
92 14
3 2 2 3
2
14 92
3 2 2 3
2
92 41
3 2 2 3
2
41 92
3 2 2 3
2
92 57
3 2 2 3
2
57 92
3 2 2 3
2
92 75
3 2 2 3
2
75 92
3 2 2 3
2
92 81
3 2 2 3
2
81 92
3 2 2 3
2
92 83
3 2 2 3
2
83 92
3 2 2 3
2
92 90
3 2 2 3
2
90 92
3 2 2 3
2
92 93
3 2 2 3
2
93 92
3 2 2 3
2
92 96
3 2 2 3
2
96 92
3 2 2 3
2
92 117
3 2 2 3
2
117 92
3 2 2 3
2
92 118
3 2 2 3
2
118 92
3 2 2 3
2
93 0
3 2 2 3
2
0 93
3 2 2 3
2
93 33
3 2 2 3
2
33 93
3 2 2 3
2
93 61
3 2 2 3
2
61 93
3 2 2 3
2
93 64
3 2 2 3
2
64 93
3 2 2 3
2
93 83
3 2 2 3
2
83 93
3 2 2 3
2
93 92
3 2 2 3
2
92 93
3 2 2 3
2
93 96
3 2 2 3
2
96 93
3 2 2 3
2
93 97
3 2 2 3
2
97 93
3 2 2 3
2
93 99
3 2 2 3
2
99 93
3 2 2 3
2
94 47
3 2 2 3
2
47 94
3 2 2 3
2
94 62
3 2 2 3
2
62 94
3 2 2 3
2
94 69
3 2 2 3
2
69 94
3 2 2 3
2
94 90
3 2 2 3
2
90 94
3 2 2 3
2
94 92
3 2 2 3
2
92 94
3 2 2 3
2
94 100
3 2 2 3
2
100 94
3 2 2 3
2
94 112
3 2 2 3
2
112 94
3 2 2 3
2
95 72
3 2 2 3
2
72 95
3 2 2 3
2
95 90
3 2 2 3
2
90 95
3 2 2 3
2
95 93
3 2 2 3
2
93 95
3 2 2 3
2
95 105
3 2 2 3
2
105 95
3 2 2 3
2
96 49
3 2 2 3
2
49 96
3 2 2 3
2
96 93
3 2 2 3
2
93 96
3 2 2 3
2
96 94
3 2 2 3
2
94 96
3 2 2 3
2
96 98
3 2 2 3
2
98 96
3 2 2 3
2
96 108
3 2 2 3
2
108 96
3 2 2 3
2
97 2
3 2 2 3
2
2 97
3 2 2 3
2
97 21
3 2 2 3
2
21 97
3 2 2 3
2
97 90
3 2 2 3
2
90 97
3 2 2 3
2
97 92
3 2 2 3
2
92 97
3 2 2 3
2
97 95
3 2 2 3
2
95 97
3 2 2 3
2
98 42
3 2 2 3
2
42 98
3 2 2 3
2
98 68
3 2 2 3
2
68 98
3 2 2 3
2
98 104
3 2 2 3
2
104 98
3 2 2 3
2
98 107
3 2 2 3
2
107 98
3 2 2 3
2
98 114
3 2 2 3
2
114 98
3 2 2 3
2
99 1
3 2 2 3
2
1 99
3 2 2 3
2
99 37
3 2 2 3
2
37 99
3 2 2 3
2
99 60
3 2 2 3
2
60 99
3 2 2 3
2
99 61
3 2 2 3
2
61 99
3 2 2 3
2
99 71
3 2 2 3
2
71 99
3 2 2 3
2
99 82
3 2 2 3
2
82 99
3 2 2 3
2
99 92
3 2 2 3
2
92 99
3 2 2 3
2
99 93
3 2 2 3
2
93 99
3 2 2 3
2
99 95
3 2 2 3
2
95 99
3 2 2 3
2
99 96
3 2 2 3
2
96 99
3 2 2 3
2
99 103
3 2 2 3
2
103 99
3 2 2 3
2
100 21
3 2 2 3
2
21 100
3 2 2 3
2
100 47
3 2 2 3
2
47 100
3 2 2 3
2
100 85
3 2 2 3
2
85 100
3 2 2 3
2
100 86
3 2 2 3
2
86 100
3 2 2 3
2
100 90
3 2 2 3
2
90 100
3 2 2 3
2
100 106
3 2 2 3
2
106 100
3 2 2 3
2
100 108
3 2 2 3
2
108 100
3 2 2 3
2
100 112
3 2 2 3
2
112 100
3 2 2 3
2
100 115
3 2 2 3
2
115 100
3 2 2 3
2
101 24
3 2 2 3
2
24 101
3 2 2 3
2
101 100
3 2 2 3
2
100 101
3 2 2 3
2
101 106
3 2 2 3
2
106 101
3 2 2 3
2
101 107
3 2 2 3
2
107 101
3 2 2 3
2
101 113
3 2 2 3
2
113 101
3 2 2 3
2
101 117
3 2 2 3
2
117 101
3 2 2 3
2
102 49
3 2 2 3
2
49 102
3 2 2 3
2
102 57
3 2 2 3
2
57 102
3 2 2 3
2
102 92
3 2 2 3
2
92 102
3 2 2 3
2
102 100
3 2 2 3
2
100 102
3 2 2 3
2
102 101
3 2 2 3
2
101 102
3 2 2 3
2
102 104
3 2 2 3
2
104 102
3 2 2 3
2
102 105
3 2 2 3
2
105 102
3 2 2 3
2
102 108
3 2 2 3
2
108 102
3 2 2 3
2
103 23
3 2 2 3
2
23 103
3 2 2 3
2
103 27
3 2 2 3
2
27 103
3 2 2 3
2
103 37
3 2 2 3
2
37 103
3 2 2 3
2
103 53
3 2 2 3
2
53 103
3 2 2 3
2
103 71
3 2 2 3
2
71 103
3 2 2 3
2
103 82
3 2 2 3
2
82 103
3 2 2 3
2
103 102
3 2 2 3
2
102 103
3 2 2 3
2
103 106
3 2 2 3
2
106 103
3 2 2 3
2
103 108
3 2 2 3
2
108 103
3 2 2 3
2
103 109
3 2 2 3
2
109 103
3 2 2 3
2
104 51
3 2 2 3
2
51 104
3 2 2 3
2
104 82
3 2 2 3
2
82 104
3 2 2 3
2
104 107
3 2 2 3
2
107 104
3 2 2 3
2
104 109
3 2 2 3
2
109 104
3 2 2 3
2
105 4
3 2 2 3
2
4 105
3 2 2 3
2
105 28
3 2 2 3
2
28 105
3 2 2 3
2
105 32
3 2 2 3
2
32 105
3 2 2 3
2
105 44
3 2 2 3
2
44 105
3 2 2 3
2
105 49
3 2 2 3
2
49 105
3 2 2 3
2
105 61
3 2 2 3
2
61 105
3 2 2 3
2
105 72
3 2 2 3
2
72 105
3 2 2 3
2
105 93
3 2 2 3
2
93 105
3 2 2 3
2
105 98
3 2 2 3
2
98 105
3 2 2 3
2
105 101
3 2 2 3
2
101 105
3 2 2 3
2
105 104
3 2 2 3
2
104 105
3 2 2 3
2
105 109
3 2 2 3
2
109 105
3 2 2 3
2
106 49
3 2 2 3
2
49 106
3 2 2 3
2
106 62
3 2 2 3
2
62 106
3 2 2 3
2
106 65
3 2 2 3
2
65 106
3 2 2 3
2
106 102
3 2 2 3
2
102 106
3 2 2 3
2
106 103
3 2 2 3
2
103 106
3 2 2 3
2
106 105
3 2 2 3
2
105 106
3 2 2 3
2
106 108
3 2 2 3
2
108 106
3 2 2 3
2
106 109
3 2 2 3
2
109 106
3 2 2 3
2
106 116
3 2 2 3
2
116 106
3 2 2 3
2
107 22
3 2 2 3
2
22 107
3 2 2 3
2
107 52
3 2 2 3
2
52 107
3 2 2 3
2
107 86
3 2 2 3
2
86 107
3 2 2 3
2
107 98
3 2 2 3
2
98 107
3 2 2 3
2
107 100
3 2 2 3
2
100 107
3 2 2 3
2
107 101
3 2 2 3
2
101 107
3 2 2 3
2
107 108
3 2 2 3
2
108 107
3 2 2 3
2
107 109
3 2 2 3
2
109 107
3 2 2 3
2
108 24
3 2 2 3
2
24 108
3 2 2 3
2
108 26
3 2 2 3
2
26 108
3 2 2 3
2
108 56
3 2 2 3
2
56 108
3 2 2 3
2
108 80
3 2 2 3
2
80 108
3 2 2 3
2
108 83
3 2 2 3
2
83 108
3 2 2 3
2
108 97
3 2 2 3
2
97 108
3 2 2 3
2
108 105
3 2 2 3
2
105 108
3 2 2 3
2
109 35
3 2 2 3
2
35 109
3 2 2 3
2
109 57
3 2 2 3
2
57 109
3 2 2 3
2
109 65
3 2 2 3
2
65 109
3 2 2 3
2
109 72
3 2 2 3
2
72 109
3 2 2 3
2
109 106
3 2 2 3
2
106 109
3 2 2 3
2
109 108
3 2 2 3
2
108 109
3 2 2 3
2
110 1
3 2 2 3
2
1 110
3 2 2 3
2
110 2
3 2 2 3
2
2 110
3 2 2 3
2
110 9
3 2 2 3
2
9 110
3 2 2 3
2
110 27
3 2 2 3
2
27 110
3 2 2 3
2
110 34
3 2 2 3
2
34 110
3 2 2 3
2
110 54
3 2 2 3
2
54 110
3 2 2 3
2
110 79
3 2 2 3
2
79 110
3 2 2 3
2
110 97
3 2 2 3
2
97 110
3 2 2 3
2
110 103
3 2 2 3
2
103 110
3 2 2 3
2
110 116
3 2 2 3
2
116 110
3 2 2 3
2
111 61
3 2 2 3
2
61 111
3 2 2 3
2
111 87
3 2 2 3
2
87 111
3 2 2 3
2
111 96
3 2 2 3
2
96 111
3 2 2 3
2
111 105
3 2 2 3
2
105 111
3 2 2 3
2
111 114
3 2 2 3
2
114 111
3 2 2 3
2
111 118
3 2 2 3
2
118 111
3 2 2 3
2
111 119
3 2 2 3
2
119 111
3 2 2 3
2
112 18
3 2 2 3
2
18 112
3 2 2 3
2
112 24
3 2 2 3
2
24 112
3 2 2 3
2
112 37
3 2 2 3
2
37 112
3 2 2 3
2
112 46
3 2 2 3
2
46 112
3 2 2 3
2
112 82
3 2 2 3
2
82 112
3 2 2 3
2
112 87
3 2 2 3
2
87 112
3 2 2 3
2
112 93
3 2 2 3
2
93 112
3 2 2 3
2
112 106
3 2 2 3
2
106 112
3 2 2 3
2
112 111
3 2 2 3
2
111 112
3 2 2 3
2
112 114
3 2 2 3
2
114 112
3 2 2 3
2
112 116
3 2 2 3
2
116 112
3 2 2 3
2
113 9
3 2 2 3
2
9 113
3 2 2 3
2
113 66
3 2 2 3
2
66 113
3 2 2 3
2
113 67
3 2 2 3
2
67 113
3 2 2 3
2
113 69
3 2 2 3
2
69 113
3 2 2 3
2
113 118
3 2 2 3
2
118 113
3 2 2 3
2
113 119
3 2 2 3
2
119 113
3 2 2 3
2
114 10
3 2 2 3
2
10 114
3 2 2 3
2
114 11
3 2 2 3
2
11 114
3 2 2 3
2
114 27
3 2 2 3
2
27 114
3 2 2 3
2
114 30
3 2 2 3
2
30 114
3 2 2 3
2
114 66
3 2 2 3
2
66 114
3 2 2 3
2
114 87
3 2 2 3
2
87 114
3 2 2 3
2
114 115
3 2 2 3
2
115 114
3 2 2 3
2
114 119
3 2 2 3
2
119 114
3 2 2 3
2
115 2
3 2 2 3
2
2 115
3 2 2 3
2
115 15
3 2 2 3
2
15 115
3 2 2 3
2
115 25
3 2 2 3
2
25 115
3 2 2 3
2
115 58
3 2 2 3
2
58 115
3 2 2 3
2
115 63
3 2 2 3
2
63 115
3 2 2 3
2
115 77
3 2 2 3
2
77 115
3 2 2 3
2
115 87
3 2 2 3
2
87 115
3 2 2 3
2
115 89
3 2 2 3
2
89 115
3 2 2 3
2
115 93
3 2 2 3
2
93 115
3 2 2 3
2
115 110
3 2 2 3
2
110 115
3 2 2 3
2
115 117
3 2 2 3
2
117 115
3 2 2 3
2
116 12
3 2 2 3
2
12 116
3 2 2 3
2
116 16
3 2 2 3
2
16 116
3 2 2 3
2
116 45
3 2 2 3
2
45 116
3 2 2 3
2
116 62
3 2 2 3
2
62 116
3 2 2 3
2
116 84
3 2 2 3
2
84 116
3 2 2 3
2
116 89
3 2 2 3
2
89 116
3 2 2 3
2
116 97
3 2 2 3
2
97 116
3 2 2 3
2
116 112
3 2 2 3
2
112 116
3 2 2 3
2
117 66
3 2 2 3
2
66 117
3 2 2 3
2
117 79
3 2 2 3
2
79 117
3 2 2 3
2
117 111
3 2 2 3
2
111 117
3 2 2 3
2
118 34
3 2 2 3
2
34 118
3 2 2 3
2
118 111
3 2 2 3
2
111 118
3 2 2 3
2
118 112
3 2 2 3
2
112 118
3 2 2 3
2
118 113
3 2 2 3
2
113 118
3 2 2 3
2
118 119
3 2 2 3
2
119 118
3 2 2 3
2
119 44
3 2 2 3
2
44 119
3 2 2 3
2
119 82
3 2 2 3
2
82 119
3 2 2 3
2
119 88
3 2 2 3
2
88 119
3 2 2 3
2
119 92
3 2 2 3
2
92 119
3 2 2 3
2
119 98
3 2 2 3
2
98 119
3 2 2 3
2
119 113
3 2 2 3
2
113 119
3 2 2 3
2
119 115
3 2 2 3
2
115 119
3 2 2 3
