1 7 0 0
7 1 0 0
1 8 0 0
8 1 0 0
1 9 0 0
9 1 0 0
1 13 0 0
13 1 0 0
1 15 0 0
15 1 0 0
1 27 0 0
27 1 0 0
1 38 0 0
38 1 0 0
1 106 0 0
106 1 0 0
1 109 0 0
109 1 0 0
1 111 0 0
111 1 0 0
2 1 0 0
1 2 0 0
2 3 0 0
3 2 0 0
2 9 0 0
9 2 0 0
2 10 0 0
10 2 0 0
2 19 0 0
19 2 0 0
2 27 0 0
27 2 0 0
2 47 0 0
47 2 0 0
2 71 0 0
71 2 0 0
2 73 0 0
73 2 0 0
2 78 0 0
78 2 0 0
2 99 0 0
99 2 0 0
3 1 0 0
1 3 0 0
3 4 0 0
4 3 0 0
3 5 0 0
5 3 0 0
3 6 0 0
6 3 0 0
3 7 0 0
7 3 0 0
3 20 0 0
20 3 0 0
3 23 0 0
23 3 0 0
3 55 0 0
55 3 0 0
3 102 0 0
102 3 0 0
4 21 0 0
21 4 0 0
4 51 0 0
51 4 0 0
4 66 0 0
66 4 0 0
4 71 0 0
71 4 0 0
5 2 0 0
2 5 0 0
5 4 0 0
4 5 0 0
5 8 0 0
8 5 0 0
5 52 0 0
52 5 0 0
5 82 0 0
82 5 0 0
6 1 0 0
1 6 0 0
6 5 0 0
5 6 0 0
6 7 0 0
7 6 0 0
6 9 0 0
9 6 0 0
6 23 0 0
23 6 0 0
6 66 0 0
66 6 0 0
6 73 0 0
73 6 0 0
6 78 0 0
78 6 0 0
7 4 0 0
4 7 0 0
7 41 0 0
41 7 0 0
7 43 0 0
43 7 0 0
7 57 0 0
57 7 0 0
7 77 0 0
77 7 0 0
7 95 0 0
95 7 0 0
7 97 0 0
97 7 0 0
7 115 0 0
115 7 0 0
8 5 0 0
5 8 0 0
8 6 0 0
6 8 0 0
8 9 0 0
9 8 0 0
8 10 0 0
10 8 0 0
8 40 0 0
40 8 0 0
8 53 0 0
53 8 0 0
8 87 0 0
87 8 0 0
8 88 0 0
88 8 0 0
9 4 0 0
4 9 0 0
9 5 0 0
5 9 0 0
9 22 0 0
22 9 0 0
9 26 0 0
26 9 0 0
9 56 0 0
56 9 0 0
9 79 0 0
79 9 0 0
9 102 0 0
102 9 0 0
9 104 0 0
104 9 0 0
9 107 0 0
107 9 0 0
9 115 0 0
115 9 0 0
10 1 0 0
1 10 0 0
10 9 0 0
9 10 0 0
10 24 0 0
24 10 0 0
10 51 0 0
51 10 0 0
10 63 0 0
63 10 0 0
10 80 0 0
80 10 0 0
10 88 0 0
88 10 0 0
11 7 0 0
7 11 0 0
11 14 0 0
14 11 0 0
11 15 0 0
15 11 0 0
11 16 0 0
16 11 0 0
11 18 0 0
18 11 0 0
11 31 0 0
31 11 0 0
11 41 0 0
41 11 0 0
11 66 0 0
66 11 0 0
11 90 0 0
90 11 0 0
11 99 0 0
99 11 0 0
11 101 0 0
101 11 0 0
11 109 0 0
109 11 0 0
12 9 0 0
9 12 0 0
12 14 0 0
14 12 0 0
12 48 0 0
48 12 0 0
12 77 0 0
77 12 0 0
12 81 0 0
81 12 0 0
12 113 0 0
113 12 0 0
13 1 0 0
1 13 0 0
13 19 0 0
19 13 0 0
13 38 0 0
38 13 0 0
13 53 0 0
53 13 0 0
13 69 0 0
69 13 0 0
13 88 0 0
88 13 0 0
13 97 0 0
97 13 0 0
13 120 0 0
120 13 0 0
14 1 0 0
1 14 0 0
14 2 0 0
2 14 0 0
14 12 0 0
12 14 0 0
14 18 0 0
18 14 0 0
14 19 0 0
19 14 0 0
14 20 0 0
20 14 0 0
14 26 0 0
26 14 0 0
14 76 0 0
76 14 0 0
14 83 0 0
83 14 0 0
14 97 0 0
97 14 0 0
15 12 0 0
12 15 0 0
15 17 0 0
17 15 0 0
15 35 0 0
35 15 0 0
15 62 0 0
62 15 0 0
15 78 0 0
78 15 0 0
15 83 0 0
83 15 0 0
15 89 0 0
89 15 0 0
15 90 0 0
90 15 0 0
15 95 0 0
95 15 0 0
16 6 0 0
6 16 0 0
16 11 0 0
11 16 0 0
16 50 0 0
50 16 0 0
16 54 0 0
54 16 0 0
16 81 0 0
81 16 0 0
16 86 0 0
86 16 0 0
16 99 0 0
99 16 0 0
16 113 0 0
113 16 0 0
17 9 0 0
9 17 0 0
17 13 0 0
13 17 0 0
17 14 0 0
14 17 0 0
17 31 0 0
31 17 0 0
17 42 0 0
42 17 0 0
17 57 0 0
57 17 0 0
17 65 0 0
65 17 0 0
17 76 0 0
76 17 0 0
17 82 0 0
82 17 0 0
17 109 0 0
109 17 0 0
18 13 0 0
13 18 0 0
18 16 0 0
16 18 0 0
18 58 0 0
58 18 0 0
18 71 0 0
71 18 0 0
18 86 0 0
86 18 0 0
18 100 0 0
100 18 0 0
18 115 0 0
115 18 0 0
19 20 0 0
20 19 0 0
19 25 0 0
25 19 0 0
19 30 0 0
30 19 0 0
19 54 0 0
54 19 0 0
19 68 0 0
68 19 0 0
19 82 0 0
82 19 0 0
19 115 0 0
115 19 0 0
20 5 0 0
5 20 0 0
20 11 0 0
11 20 0 0
20 19 0 0
19 20 0 0
20 21 0 0
21 20 0 0
20 33 0 0
33 20 0 0
20 51 0 0
51 20 0 0
20 54 0 0
54 20 0 0
20 78 0 0
78 20 0 0
20 97 0 0
97 20 0 0
20 98 0 0
98 20 0 0
21 23 0 0
23 21 0 0
21 26 0 0
26 21 0 0
21 29 0 0
29 21 0 0
21 30 0 0
30 21 0 0
21 77 0 0
77 21 0 0
21 90 0 0
90 21 0 0
21 99 0 0
99 21 0 0
21 102 0 0
102 21 0 0
21 104 0 0
104 21 0 0
21 117 0 0
117 21 0 0
21 120 0 0
120 21 0 0
22 9 0 0
9 22 0 0
22 25 0 0
25 22 0 0
22 76 0 0
76 22 0 0
22 77 0 0
77 22 0 0
22 116 0 0
116 22 0 0
23 15 0 0
15 23 0 0
23 17 0 0
17 23 0 0
23 22 0 0
22 23 0 0
23 29 0 0
29 23 0 0
23 43 0 0
43 23 0 0
23 44 0 0
44 23 0 0
23 83 0 0
83 23 0 0
24 3 0 0
3 24 0 0
24 25 0 0
25 24 0 0
24 28 0 0
28 24 0 0
24 30 0 0
30 24 0 0
24 51 0 0
51 24 0 0
24 65 0 0
65 24 0 0
24 69 0 0
69 24 0 0
24 92 0 0
92 24 0 0
24 118 0 0
118 24 0 0
24 119 0 0
119 24 0 0
25 7 0 0
7 25 0 0
25 24 0 0
24 25 0 0
25 27 0 0
27 25 0 0
25 28 0 0
28 25 0 0
25 35 0 0
35 25 0 0
25 47 0 0
47 25 0 0
25 88 0 0
88 25 0 0
26 10 0 0
10 26 0 0
26 12 0 0
12 26 0 0
26 21 0 0
21 26 0 0
26 24 0 0
24 26 0 0
26 27 0 0
27 26 0 0
26 28 0 0
28 26 0 0
26 29 0 0
29 26 0 0
26 56 0 0
56 26 0 0
26 62 0 0
62 26 0 0
26 99 0 0
99 26 0 0
26 107 0 0
107 26 0 0
26 111 0 0
111 26 0 0
27 21 0 0
21 27 0 0
27 22 0 0
22 27 0 0
27 24 0 0
24 27 0 0
27 32 0 0
32 27 0 0
27 48 0 0
48 27 0 0
27 57 0 0
57 27 0 0
27 64 0 0
64 27 0 0
27 72 0 0
72 27 0 0
27 80 0 0
80 27 0 0
28 1 0 0
1 28 0 0
28 2 0 0
2 28 0 0
28 21 0 0
21 28 0 0
28 22 0 0
22 28 0 0
28 75 0 0
75 28 0 0
28 79 0 0
79 28 0 0
28 95 0 0
95 28 0 0
28 113 0 0
113 28 0 0
29 5 0 0
5 29 0 0
29 10 0 0
10 29 0 0
29 15 0 0
15 29 0 0
29 21 0 0
21 29 0 0
29 22 0 0
22 29 0 0
29 23 0 0
23 29 0 0
29 24 0 0
24 29 0 0
29 25 0 0
25 29 0 0
29 26 0 0
26 29 0 0
29 27 0 0
27 29 0 0
29 46 0 0
46 29 0 0
29 48 0 0
48 29 0 0
29 82 0 0
82 29 0 0
29 86 0 0
86 29 0 0
29 111 0 0
111 29 0 0
29 115 0 0
115 29 0 0
30 16 0 0
16 30 0 0
30 22 0 0
22 30 0 0
30 26 0 0
26 30 0 0
30 29 0 0
29 30 0 0
30 45 0 0
45 30 0 0
30 85 0 0
85 30 0 0
30 108 0 0
108 30 0 0
30 110 0 0
110 30 0 0
30 115 0 0
115 30 0 0
31 18 0 0
18 31 0 0
31 33 0 0
33 31 0 0
31 36 0 0
36 31 0 0
31 38 0 0
38 31 0 0
31 39 0 0
39 31 0 0
31 40 0 0
40 31 0 0
31 54 0 0
54 31 0 0
31 83 0 0
83 31 0 0
31 85 0 0
85 31 0 0
31 87 0 0
87 31 0 0
31 93 0 0
93 31 0 0
31 101 0 0
101 31 0 0
32 3 0 0
3 32 0 0
32 31 0 0
31 32 0 0
32 35 0 0
35 32 0 0
32 40 0 0
40 32 0 0
32 64 0 0
64 32 0 0
32 92 0 0
92 32 0 0
32 101 0 0
101 32 0 0
33 9 0 0
9 33 0 0
33 34 0 0
34 33 0 0
33 36 0 0
36 33 0 0
33 37 0 0
37 33 0 0
33 58 0 0
58 33 0 0
33 105 0 0
105 33 0 0
34 36 0 0
36 34 0 0
34 40 0 0
40 34 0 0
34 54 0 0
54 34 0 0
34 58 0 0
58 34 0 0
34 72 0 0
72 34 0 0
34 100 0 0
100 34 0 0
35 8 0 0
8 35 0 0
35 36 0 0
36 35 0 0
35 39 0 0
39 35 0 0
35 54 0 0
54 35 0 0
35 63 0 0
63 35 0 0
35 92 0 0
92 35 0 0
35 112 0 0
112 35 0 0
36 5 0 0
5 36 0 0
36 28 0 0
28 36 0 0
36 31 0 0
31 36 0 0
36 33 0 0
33 36 0 0
36 37 0 0
37 36 0 0
36 46 0 0
46 36 0 0
36 85 0 0
85 36 0 0
36 115 0 0
115 36 0 0
37 34 0 0
34 37 0 0
37 35 0 0
35 37 0 0
37 46 0 0
46 37 0 0
37 56 0 0
56 37 0 0
37 80 0 0
80 37 0 0
37 95 0 0
95 37 0 0
37 108 0 0
108 37 0 0
37 119 0 0
119 37 0 0
38 1 0 0
1 38 0 0
38 14 0 0
14 38 0 0
38 23 0 0
23 38 0 0
38 33 0 0
33 38 0 0
38 35 0 0
35 38 0 0
38 36 0 0
36 38 0 0
38 37 0 0
37 38 0 0
38 39 0 0
39 38 0 0
38 67 0 0
67 38 0 0
38 81 0 0
81 38 0 0
38 115 0 0
115 38 0 0
39 1 0 0
1 39 0 0
39 3 0 0
3 39 0 0
39 32 0 0
32 39 0 0
39 36 0 0
36 39 0 0
39 77 0 0
77 39 0 0
40 23 0 0
23 40 0 0
40 33 0 0
33 40 0 0
40 34 0 0
34 40 0 0
40 37 0 0
37 40 0 0
40 39 0 0
39 40 0 0
40 49 0 0
49 40 0 0
40 52 0 0
52 40 0 0
40 62 0 0
62 40 0 0
40 71 0 0
71 40 0 0
40 82 0 0
82 40 0 0
41 7 0 0
7 41 0 0
41 15 0 0
15 41 0 0
41 31 0 0
31 41 0 0
41 35 0 0
35 41 0 0
41 48 0 0
48 41 0 0
41 50 0 0
50 41 0 0
41 106 0 0
106 41 0 0
41 109 0 0
109 41 0 0
42 5 0 0
5 42 0 0
42 24 0 0
24 42 0 0
42 38 0 0
38 42 0 0
42 41 0 0
41 42 0 0
42 43 0 0
43 42 0 0
42 44 0 0
44 42 0 0
42 69 0 0
69 42 0 0
42 76 0 0
76 42 0 0
42 110 0 0
110 42 0 0
43 13 0 0
13 43 0 0
43 31 0 0
31 43 0 0
43 32 0 0
32 43 0 0
43 35 0 0
35 43 0 0
43 42 0 0
42 43 0 0
43 47 0 0
47 43 0 0
43 110 0 0
110 43 0 0
44 11 0 0
11 44 0 0
44 22 0 0
22 44 0 0
44 28 0 0
28 44 0 0
44 43 0 0
43 44 0 0
44 46 0 0
46 44 0 0
44 57 0 0
57 44 0 0
44 60 0 0
60 44 0 0
44 82 0 0
82 44 0 0
44 110 0 0
110 44 0 0
44 120 0 0
120 44 0 0
45 25 0 0
25 45 0 0
45 41 0 0
41 45 0 0
45 44 0 0
44 45 0 0
45 47 0 0
47 45 0 0
45 48 0 0
48 45 0 0
45 95 0 0
95 45 0 0
45 101 0 0
101 45 0 0
45 117 0 0
117 45 0 0
46 15 0 0
15 46 0 0
46 19 0 0
19 46 0 0
46 28 0 0
28 46 0 0
46 43 0 0
43 46 0 0
46 44 0 0
44 46 0 0
46 57 0 0
57 46 0 0
46 69 0 0
69 46 0 0
46 104 0 0
104 46 0 0
46 114 0 0
114 46 0 0
47 20 0 0
20 47 0 0
47 30 0 0
30 47 0 0
47 38 0 0
38 47 0 0
47 40 0 0
40 47 0 0
47 41 0 0
41 47 0 0
47 42 0 0
42 47 0 0
47 44 0 0
44 47 0 0
47 45 0 0
45 47 0 0
47 46 0 0
46 47 0 0
47 49 0 0
49 47 0 0
47 61 0 0
61 47 0 0
47 65 0 0
65 47 0 0
47 78 0 0
78 47 0 0
48 2 0 0
2 48 0 0
48 6 0 0
6 48 0 0
48 35 0 0
35 48 0 0
48 43 0 0
43 48 0 0
48 46 0 0
46 48 0 0
48 47 0 0
47 48 0 0
48 57 0 0
57 48 0 0
48 107 0 0
107 48 0 0
48 118 0 0
118 48 0 0
49 13 0 0
13 49 0 0
49 22 0 0
22 49 0 0
49 24 0 0
24 49 0 0
49 39 0 0
39 49 0 0
49 40 0 0
40 49 0 0
49 41 0 0
41 49 0 0
49 57 0 0
57 49 0 0
49 58 0 0
58 49 0 0
49 118 0 0
118 49 0 0
50 45 0 0
45 50 0 0
50 53 0 0
53 50 0 0
50 64 0 0
64 50 0 0
50 71 0 0
71 50 0 0
50 73 0 0
73 50 0 0
50 77 0 0
77 50 0 0
50 111 0 0
111 50 0 0
50 115 0 0
115 50 0 0
51 26 0 0
26 51 0 0
51 54 0 0
54 51 0 0
51 60 0 0
60 51 0 0
51 67 0 0
67 51 0 0
51 71 0 0
71 51 0 0
51 102 0 0
102 51 0 0
51 108 0 0
108 51 0 0
51 110 0 0
110 51 0 0
52 17 0 0
17 52 0 0
52 48 0 0
48 52 0 0
52 53 0 0
53 52 0 0
52 55 0 0
55 52 0 0
52 61 0 0
61 52 0 0
52 90 0 0
90 52 0 0
52 104 0 0
104 52 0 0
52 114 0 0
114 52 0 0
53 12 0 0
12 53 0 0
53 27 0 0
27 53 0 0
53 51 0 0
51 53 0 0
53 59 0 0
59 53 0 0
53 71 0 0
71 53 0 0
53 86 0 0
86 53 0 0
53 90 0 0
90 53 0 0
53 96 0 0
96 53 0 0
53 100 0 0
100 53 0 0
53 114 0 0
114 53 0 0
54 20 0 0
20 54 0 0
54 55 0 0
55 54 0 0
54 58 0 0
58 54 0 0
54 59 0 0
59 54 0 0
54 97 0 0
97 54 0 0
55 3 0 0
3 55 0 0
55 17 0 0
17 55 0 0
55 45 0 0
45 55 0 0
55 53 0 0
53 55 0 0
55 58 0 0
58 55 0 0
55 75 0 0
75 55 0 0
55 117 0 0
117 55 0 0
56 5 0 0
5 56 0 0
56 32 0 0
32 56 0 0
56 34 0 0
34 56 0 0
56 44 0 0
44 56 0 0
56 48 0 0
48 56 0 0
56 52 0 0
52 56 0 0
56 55 0 0
55 56 0 0
56 71 0 0
71 56 0 0
56 109 0 0
109 56 0 0
57 32 0 0
32 57 0 0
57 44 0 0
44 57 0 0
57 45 0 0
45 57 0 0
57 46 0 0
46 57 0 0
57 52 0 0
52 57 0 0
57 55 0 0
55 57 0 0
57 58 0 0
58 57 0 0
57 66 0 0
66 57 0 0
57 68 0 0
68 57 0 0
57 102 0 0
102 57 0 0
58 19 0 0
19 58 0 0
58 25 0 0
25 58 0 0
58 37 0 0
37 58 0 0
58 50 0 0
50 58 0 0
58 51 0 0
51 58 0 0
58 54 0 0
54 58 0 0
58 89 0 0
89 58 0 0
58 120 0 0
120 58 0 0
59 12 0 0
12 59 0 0
59 31 0 0
31 59 0 0
59 67 0 0
67 59 0 0
59 78 0 0
78 59 0 0
59 98 0 0
98 59 0 0
59 107 0 0
107 59 0 0
59 110 0 0
110 59 0 0
59 113 0 0
113 59 0 0
60 14 0 0
14 60 0 0
60 18 0 0
18 60 0 0
60 38 0 0
38 60 0 0
60 46 0 0
46 60 0 0
60 51 0 0
51 60 0 0
60 55 0 0
55 60 0 0
60 57 0 0
57 60 0 0
60 76 0 0
76 60 0 0
60 109 0 0
109 60 0 0
60 112 0 0
112 60 0 0
61 3 0 0
3 61 0 0
61 21 0 0
21 61 0 0
61 51 0 0
51 61 0 0
61 58 0 0
58 61 0 0
61 62 0 0
62 61 0 0
61 64 0 0
64 61 0 0
61 108 0 0
108 61 0 0
62 31 0 0
31 62 0 0
62 36 0 0
36 62 0 0
62 40 0 0
40 62 0 0
62 45 0 0
45 62 0 0
62 61 0 0
61 62 0 0
62 66 0 0
66 62 0 0
62 68 0 0
68 62 0 0
62 102 0 0
102 62 0 0
62 104 0 0
104 62 0 0
63 2 0 0
2 63 0 0
63 9 0 0
9 63 0 0
63 20 0 0
20 63 0 0
63 62 0 0
62 63 0 0
63 64 0 0
64 63 0 0
63 65 0 0
65 63 0 0
63 67 0 0
67 63 0 0
64 1 0 0
1 64 0 0
64 4 0 0
4 64 0 0
64 38 0 0
38 64 0 0
64 61 0 0
61 64 0 0
64 63 0 0
63 64 0 0
64 65 0 0
65 64 0 0
64 67 0 0
67 64 0 0
64 78 0 0
78 64 0 0
64 79 0 0
79 64 0 0
64 93 0 0
93 64 0 0
64 104 0 0
104 64 0 0
65 7 0 0
7 65 0 0
65 12 0 0
12 65 0 0
65 16 0 0
16 65 0 0
65 33 0 0
33 65 0 0
65 37 0 0
37 65 0 0
65 50 0 0
50 65 0 0
65 61 0 0
61 65 0 0
65 62 0 0
62 65 0 0
65 66 0 0
66 65 0 0
65 76 0 0
76 65 0 0
65 113 0 0
113 65 0 0
65 118 0 0
118 65 0 0
66 63 0 0
63 66 0 0
66 68 0 0
68 66 0 0
66 70 0 0
70 66 0 0
66 77 0 0
77 66 0 0
66 97 0 0
97 66 0 0
66 107 0 0
107 66 0 0
66 110 0 0
110 66 0 0
66 119 0 0
119 66 0 0
67 68 0 0
68 67 0 0
67 80 0 0
80 67 0 0
67 88 0 0
88 67 0 0
67 95 0 0
95 67 0 0
68 20 0 0
20 68 0 0
68 35 0 0
35 68 0 0
68 67 0 0
67 68 0 0
68 83 0 0
83 68 0 0
68 90 0 0
90 68 0 0
68 91 0 0
91 68 0 0
68 107 0 0
107 68 0 0
68 108 0 0
108 68 0 0
68 119 0 0
119 68 0 0
69 9 0 0
9 69 0 0
69 63 0 0
63 69 0 0
69 67 0 0
67 69 0 0
69 68 0 0
68 69 0 0
69 83 0 0
83 69 0 0
69 103 0 0
103 69 0 0
70 22 0 0
22 70 0 0
70 31 0 0
31 70 0 0
70 61 0 0
61 70 0 0
70 64 0 0
64 70 0 0
70 68 0 0
68 70 0 0
70 75 0 0
75 70 0 0
70 79 0 0
79 70 0 0
70 81 0 0
81 70 0 0
70 82 0 0
82 70 0 0
70 83 0 0
83 70 0 0
70 97 0 0
97 70 0 0
70 117 0 0
117 70 0 0
71 30 0 0
30 71 0 0
71 57 0 0
57 71 0 0
71 73 0 0
73 71 0 0
71 74 0 0
74 71 0 0
71 78 0 0
78 71 0 0
71 89 0 0
89 71 0 0
72 12 0 0
12 72 0 0
72 13 0 0
13 72 0 0
72 19 0 0
19 72 0 0
72 49 0 0
49 72 0 0
72 53 0 0
53 72 0 0
72 66 0 0
66 72 0 0
72 73 0 0
73 72 0 0
72 75 0 0
75 72 0 0
72 80 0 0
80 72 0 0
72 96 0 0
96 72 0 0
72 104 0 0
104 72 0 0
72 106 0 0
106 72 0 0
72 110 0 0
110 72 0 0
73 2 0 0
2 73 0 0
73 14 0 0
14 73 0 0
73 16 0 0
16 73 0 0
73 21 0 0
21 73 0 0
73 74 0 0
74 73 0 0
73 80 0 0
80 73 0 0
74 72 0 0
72 74 0 0
74 75 0 0
75 74 0 0
74 78 0 0
78 74 0 0
74 116 0 0
116 74 0 0
75 66 0 0
66 75 0 0
75 74 0 0
74 75 0 0
75 85 0 0
85 75 0 0
75 112 0 0
112 75 0 0
75 114 0 0
114 75 0 0
76 9 0 0
9 76 0 0
76 22 0 0
22 76 0 0
76 26 0 0
26 76 0 0
76 35 0 0
35 76 0 0
76 47 0 0
47 76 0 0
76 49 0 0
49 76 0 0
76 61 0 0
61 76 0 0
76 65 0 0
65 76 0 0
76 71 0 0
71 76 0 0
76 77 0 0
77 76 0 0
76 80 0 0
80 76 0 0
76 108 0 0
108 76 0 0
76 112 0 0
112 76 0 0
77 5 0 0
5 77 0 0
77 43 0 0
43 77 0 0
77 71 0 0
71 77 0 0
77 76 0 0
76 77 0 0
77 101 0 0
101 77 0 0
78 7 0 0
7 78 0 0
78 12 0 0
12 78 0 0
78 15 0 0
15 78 0 0
78 20 0 0
20 78 0 0
78 26 0 0
26 78 0 0
78 29 0 0
29 78 0 0
78 32 0 0
32 78 0 0
78 40 0 0
40 78 0 0
78 61 0 0
61 78 0 0
78 73 0 0
73 78 0 0
78 74 0 0
74 78 0 0
78 79 0 0
79 78 0 0
78 83 0 0
83 78 0 0
78 98 0 0
98 78 0 0
78 105 0 0
105 78 0 0
79 13 0 0
13 79 0 0
79 49 0 0
49 79 0 0
79 52 0 0
52 79 0 0
79 73 0 0
73 79 0 0
79 77 0 0
77 79 0 0
79 78 0 0
78 79 0 0
79 80 0 0
80 79 0 0
79 87 0 0
87 79 0 0
79 88 0 0
88 79 0 0
79 100 0 0
100 79 0 0
79 116 0 0
116 79 0 0
80 71 0 0
71 80 0 0
80 74 0 0
74 80 0 0
80 77 0 0
77 80 0 0
80 79 0 0
79 80 0 0
80 85 0 0
85 80 0 0
80 100 0 0
100 80 0 0
80 116 0 0
116 80 0 0
81 55 0 0
55 81 0 0
81 84 0 0
84 81 0 0
81 85 0 0
85 81 0 0
81 87 0 0
87 81 0 0
81 88 0 0
88 81 0 0
81 90 0 0
90 81 0 0
81 97 0 0
97 81 0 0
81 109 0 0
109 81 0 0
81 117 0 0
117 81 0 0
81 119 0 0
119 81 0 0
82 86 0 0
86 82 0 0
82 89 0 0
89 82 0 0
82 110 0 0
110 82 0 0
82 115 0 0
115 82 0 0
83 4 0 0
4 83 0 0
83 54 0 0
54 83 0 0
83 81 0 0
81 83 0 0
83 85 0 0
85 83 0 0
83 88 0 0
88 83 0 0
83 93 0 0
93 83 0 0
83 115 0 0
115 83 0 0
84 11 0 0
11 84 0 0
84 87 0 0
87 84 0 0
84 91 0 0
91 84 0 0
85 27 0 0
27 85 0 0
85 41 0 0
41 85 0 0
85 46 0 0
46 85 0 0
85 52 0 0
52 85 0 0
85 70 0 0
70 85 0 0
85 75 0 0
75 85 0 0
85 87 0 0
87 85 0 0
85 88 0 0
88 85 0 0
85 100 0 0
100 85 0 0
85 106 0 0
106 85 0 0
85 109 0 0
109 85 0 0
85 118 0 0
118 85 0 0
86 47 0 0
47 86 0 0
86 52 0 0
52 86 0 0
86 54 0 0
54 86 0 0
86 57 0 0
57 86 0 0
86 72 0 0
72 86 0 0
86 81 0 0
81 86 0 0
86 83 0 0
83 86 0 0
86 88 0 0
88 86 0 0
86 89 0 0
89 86 0 0
87 6 0 0
6 87 0 0
87 9 0 0
9 87 0 0
87 10 0 0
10 87 0 0
87 12 0 0
12 87 0 0
87 25 0 0
25 87 0 0
87 50 0 0
50 87 0 0
87 58 0 0
58 87 0 0
87 83 0 0
83 87 0 0
87 85 0 0
85 87 0 0
87 90 0 0
90 87 0 0
87 105 0 0
105 87 0 0
87 120 0 0
120 87 0 0
88 36 0 0
36 88 0 0
88 59 0 0
59 88 0 0
88 81 0 0
81 88 0 0
88 83 0 0
83 88 0 0
88 86 0 0
86 88 0 0
88 87 0 0
87 88 0 0
88 92 0 0
92 88 0 0
89 10 0 0
10 89 0 0
89 20 0 0
20 89 0 0
89 23 0 0
23 89 0 0
89 40 0 0
40 89 0 0
89 67 0 0
67 89 0 0
89 79 0 0
79 89 0 0
90 15 0 0
15 90 0 0
90 21 0 0
21 90 0 0
90 27 0 0
27 90 0 0
90 58 0 0
58 90 0 0
90 66 0 0
66 90 0 0
90 81 0 0
81 90 0 0
90 83 0 0
83 90 0 0
90 89 0 0
89 90 0 0
90 96 0 0
96 90 0 0
91 30 0 0
30 91 0 0
91 44 0 0
44 91 0 0
91 45 0 0
45 91 0 0
91 60 0 0
60 91 0 0
91 97 0 0
97 91 0 0
91 98 0 0
98 91 0 0
91 100 0 0
100 91 0 0
91 105 0 0
105 91 0 0
92 6 0 0
6 92 0 0
92 9 0 0
9 92 0 0
92 49 0 0
49 92 0 0
92 51 0 0
51 92 0 0
92 94 0 0
94 92 0 0
92 95 0 0
95 92 0 0
92 96 0 0
96 92 0 0
92 98 0 0
98 92 0 0
92 100 0 0
100 92 0 0
92 103 0 0
103 92 0 0
93 4 0 0
4 93 0 0
93 10 0 0
10 93 0 0
93 68 0 0
68 93 0 0
93 94 0 0
94 93 0 0
93 100 0 0
100 93 0 0
94 12 0 0
12 94 0 0
94 78 0 0
78 94 0 0
94 91 0 0
91 94 0 0
94 93 0 0
93 94 0 0
94 95 0 0
95 94 0 0
94 100 0 0
100 94 0 0
94 107 0 0
107 94 0 0
94 109 0 0
109 94 0 0
94 111 0 0
111 94 0 0
95 3 0 0
3 95 0 0
95 9 0 0
9 95 0 0
95 13 0 0
13 95 0 0
95 38 0 0
38 95 0 0
95 93 0 0
93 95 0 0
95 94 0 0
94 95 0 0
95 98 0 0
98 95 0 0
95 99 0 0
99 95 0 0
95 100 0 0
100 95 0 0
95 102 0 0
102 95 0 0
96 22 0 0
22 96 0 0
96 42 0 0
42 96 0 0
96 58 0 0
58 96 0 0
96 70 0 0
70 96 0 0
96 93 0 0
93 96 0 0
96 95 0 0
95 96 0 0
96 100 0 0
100 96 0 0
96 119 0 0
119 96 0 0
97 10 0 0
10 97 0 0
97 33 0 0
33 97 0 0
97 52 0 0
52 97 0 0
97 118 0 0
118 97 0 0
98 11 0 0
11 98 0 0
98 14 0 0
14 98 0 0
98 67 0 0
67 98 0 0
98 70 0 0
70 98 0 0
98 85 0 0
85 98 0 0
98 88 0 0
88 98 0 0
98 91 0 0
91 98 0 0
98 94 0 0
94 98 0 0
98 96 0 0
96 98 0 0
98 110 0 0
110 98 0 0
99 12 0 0
12 99 0 0
99 26 0 0
26 99 0 0
99 32 0 0
32 99 0 0
99 37 0 0
37 99 0 0
99 53 0 0
53 99 0 0
99 91 0 0
91 99 0 0
99 92 0 0
92 99 0 0
99 93 0 0
93 99 0 0
99 94 0 0
94 99 0 0
99 100 0 0
100 99 0 0
100 33 0 0
33 100 0 0
100 39 0 0
39 100 0 0
100 43 0 0
43 100 0 0
100 91 0 0
91 100 0 0
100 99 0 0
99 100 0 0
101 5 0 0
5 101 0 0
101 8 0 0
8 101 0 0
101 18 0 0
18 101 0 0
101 34 0 0
34 101 0 0
101 60 0 0
60 101 0 0
101 102 0 0
102 101 0 0
102 4 0 0
4 102 0 0
102 9 0 0
9 102 0 0
102 12 0 0
12 102 0 0
102 26 0 0
26 102 0 0
102 46 0 0
46 102 0 0
102 82 0 0
82 102 0 0
102 89 0 0
89 102 0 0
102 104 0 0
104 102 0 0
102 106 0 0
106 102 0 0
102 107 0 0
107 102 0 0
102 118 0 0
118 102 0 0
103 44 0 0
44 103 0 0
103 88 0 0
88 103 0 0
103 98 0 0
98 103 0 0
103 104 0 0
104 103 0 0
103 105 0 0
105 103 0 0
103 106 0 0
106 103 0 0
103 110 0 0
110 103 0 0
104 3 0 0
3 104 0 0
104 42 0 0
42 104 0 0
104 91 0 0
91 104 0 0
104 93 0 0
93 104 0 0
104 100 0 0
100 104 0 0
104 110 0 0
110 104 0 0
105 55 0 0
55 105 0 0
105 101 0 0
101 105 0 0
105 102 0 0
102 105 0 0
105 107 0 0
107 105 0 0
105 109 0 0
109 105 0 0
106 18 0 0
18 106 0 0
106 35 0 0
35 106 0 0
106 36 0 0
36 106 0 0
106 68 0 0
68 106 0 0
106 101 0 0
101 106 0 0
106 103 0 0
103 106 0 0
106 105 0 0
105 106 0 0
106 109 0 0
109 106 0 0
106 110 0 0
110 106 0 0
106 114 0 0
114 106 0 0
107 4 0 0
4 107 0 0
107 22 0 0
22 107 0 0
107 33 0 0
33 107 0 0
107 35 0 0
35 107 0 0
107 57 0 0
57 107 0 0
107 63 0 0
63 107 0 0
107 73 0 0
73 107 0 0
107 77 0 0
77 107 0 0
107 84 0 0
84 107 0 0
107 87 0 0
87 107 0 0
107 88 0 0
88 107 0 0
107 93 0 0
93 107 0 0
107 94 0 0
94 107 0 0
107 116 0 0
116 107 0 0
107 120 0 0
120 107 0 0
108 13 0 0
13 108 0 0
108 42 0 0
42 108 0 0
108 68 0 0
68 108 0 0
108 106 0 0
106 108 0 0
108 109 0 0
109 108 0 0
109 5 0 0
5 109 0 0
109 15 0 0
15 109 0 0
109 22 0 0
22 109 0 0
109 36 0 0
36 109 0 0
109 90 0 0
90 109 0 0
109 101 0 0
101 109 0 0
109 103 0 0
103 109 0 0
109 105 0 0
105 109 0 0
109 106 0 0
106 109 0 0
110 15 0 0
15 110 0 0
110 33 0 0
33 110 0 0
110 38 0 0
38 110 0 0
110 44 0 0
44 110 0 0
110 90 0 0
90 110 0 0
110 107 0 0
107 110 0 0
110 108 0 0
108 110 0 0
110 109 0 0
109 110 0 0
111 13 0 0
13 111 0 0
111 25 0 0
25 111 0 0
111 28 0 0
28 111 0 0
111 47 0 0
47 111 0 0
111 58 0 0
58 111 0 0
111 90 0 0
90 111 0 0
111 119 0 0
119 111 0 0
112 24 0 0
24 112 0 0
112 28 0 0
28 112 0 0
112 60 0 0
60 112 0 0
112 89 0 0
89 112 0 0
112 111 0 0
111 112 0 0
112 116 0 0
116 112 0 0
112 118 0 0
118 112 0 0
113 43 0 0
43 113 0 0
113 46 0 0
46 113 0 0
113 53 0 0
53 113 0 0
113 88 0 0
88 113 0 0
113 108 0 0
108 113 0 0
113 110 0 0
110 113 0 0
113 114 0 0
114 113 0 0
113 119 0 0
119 113 0 0
113 120 0 0
120 113 0 0
114 19 0 0
19 114 0 0
114 21 0 0
21 114 0 0
114 28 0 0
28 114 0 0
114 33 0 0
33 114 0 0
114 36 0 0
36 114 0 0
114 60 0 0
60 114 0 0
114 63 0 0
63 114 0 0
114 100 0 0
100 114 0 0
114 111 0 0
111 114 0 0
114 116 0 0
116 114 0 0
114 120 0 0
120 114 0 0
115 12 0 0
12 115 0 0
115 36 0 0
36 115 0 0
115 66 0 0
66 115 0 0
115 71 0 0
71 115 0 0
115 84 0 0
84 115 0 0
115 108 0 0
108 115 0 0
115 112 0 0
112 115 0 0
115 113 0 0
113 115 0 0
115 120 0 0
120 115 0 0
116 1 0 0
1 116 0 0
116 11 0 0
11 116 0 0
116 24 0 0
24 116 0 0
116 56 0 0
56 116 0 0
116 58 0 0
58 116 0 0
116 59 0 0
59 116 0 0
116 105 0 0
105 116 0 0
116 111 0 0
111 116 0 0
116 113 0 0
113 116 0 0
116 118 0 0
118 116 0 0
116 120 0 0
120 116 0 0
117 11 0 0
11 117 0 0
117 13 0 0
13 117 0 0
117 54 0 0
54 117 0 0
117 56 0 0
56 117 0 0
117 62 0 0
62 117 0 0
117 71 0 0
71 117 0 0
117 104 0 0
104 117 0 0
117 114 0 0
114 117 0 0
117 119 0 0
119 117 0 0
118 42 0 0
42 118 0 0
118 64 0 0
64 118 0 0
118 67 0 0
67 118 0 0
118 71 0 0
71 118 0 0
118 87 0 0
87 118 0 0
118 96 0 0
96 118 0 0
118 111 0 0
111 118 0 0
118 113 0 0
113 118 0 0
118 115 0 0
115 118 0 0
118 119 0 0
119 118 0 0
119 19 0 0
19 119 0 0
119 87 0 0
87 119 0 0
119 115 0 0
115 119 0 0
120 11 0 0
11 120 0 0
120 24 0 0
24 120 0 0
120 32 0 0
32 120 0 0
120 68 0 0
68 120 0 0
120 80 0 0
80 120 0 0
120 112 0 0
112 120 0 0
120 113 0 0
113 120 0 0
120 117 0 0
117 120 0 0
