120 1906
2
0 9
3 2 2 3
2
9 0
3 2 2 3
2
0 30
3 2 2 3
2
30 0
3 2 2 3
2
0 41
3 2 2 3
2
41 0
3 2 2 3
2
0 68
3 2 2 3
2
68 0
3 2 2 3
2
0 86
3 2 2 3
2
86 0
3 2 2 3
2
0 104
3 2 2 3
2
104 0
3 2 2 3
2
1 3
3 2 2 3
2
3 1
3 2 2 3
2
1 6
3 2 2 3
2
6 1
3 2 2 3
2
1 24
3 2 2 3
2
24 1
3 2 2 3
2
1 37
3 2 2 3
2
37 1
3 2 2 3
2
1 39
3 2 2 3
2
39 1
3 2 2 3
2
1 46
3 2 2 3
2
46 1
3 2 2 3
2
1 65
3 2 2 3
2
65 1
3 2 2 3
2
1 95
3 2 2 3
2
95 1
3 2 2 3
2
1 101
3 2 2 3
2
101 1
3 2 2 3
2
2 6
3 2 2 3
2
6 2
3 2 2 3
2
2 9
3 2 2 3
2
9 2
3 2 2 3
2
2 32
3 2 2 3
2
32 2
3 2 2 3
2
2 59
3 2 2 3
2
59 2
3 2 2 3
2
2 61
3 2 2 3
2
61 2
3 2 2 3
2
2 66
3 2 2 3
2
66 2
3 2 2 3
2
2 83
3 2 2 3
2
83 2
3 2 2 3
2
2 84
3 2 2 3
2
84 2
3 2 2 3
2
2 91
3 2 2 3
2
91 2
3 2 2 3
2
2 94
3 2 2 3
2
94 2
3 2 2 3
2
2 98
3 2 2 3
2
98 2
3 2 2 3
2
2 99
3 2 2 3
2
99 2
3 2 2 3
2
3 9
3 2 2 3
2
9 3
3 2 2 3
2
3 12
3 2 2 3
2
12 3
3 2 2 3
2
3 26
3 2 2 3
2
26 3
3 2 2 3
2
3 79
3 2 2 3
2
79 3
3 2 2 3
2
4 2
3 2 2 3
2
2 4
3 2 2 3
2
4 3
3 2 2 3
2
3 4
3 2 2 3
2
4 6
3 2 2 3
2
6 4
3 2 2 3
2
4 9
3 2 2 3
2
9 4
3 2 2 3
2
4 13
3 2 2 3
2
13 4
3 2 2 3
2
4 16
3 2 2 3
2
16 4
3 2 2 3
2
4 38
3 2 2 3
2
38 4
3 2 2 3
2
4 63
3 2 2 3
2
63 4
3 2 2 3
2
5 0
3 2 2 3
2
0 5
3 2 2 3
2
5 7
3 2 2 3
2
7 5
3 2 2 3
2
5 38
3 2 2 3
2
38 5
3 2 2 3
2
5 60
3 2 2 3
2
60 5
3 2 2 3
2
5 66
3 2 2 3
2
66 5
3 2 2 3
2
5 78
3 2 2 3
2
78 5
3 2 2 3
2
5 90
3 2 2 3
2
90 5
3 2 2 3
2
5 106
3 2 2 3
2
106 5
3 2 2 3
2
6 0
3 2 2 3
2
0 6
3 2 2 3
2
6 7
3 2 2 3
2
7 6
3 2 2 3
2
6 8
3 2 2 3
2
8 6
3 2 2 3
2
6 39
3 2 2 3
2
39 6
3 2 2 3
2
6 54
3 2 2 3
2
54 6
3 2 2 3
2
6 91
3 2 2 3
2
91 6
3 2 2 3
2
6 96
3 2 2 3
2
96 6
3 2 2 3
2
6 113
3 2 2 3
2
113 6
3 2 2 3
2
6 118
3 2 2 3
2
118 6
3 2 2 3
2
7 2
3 2 2 3
2
2 7
3 2 2 3
2
7 9
3 2 2 3
2
9 7
3 2 2 3
2
7 31
3 2 2 3
2
31 7
3 2 2 3
2
7 46
3 2 2 3
2
46 7
3 2 2 3
2
7 119
3 2 2 3
2
119 7
3 2 2 3
2
8 1
3 2 2 3
2
1 8
3 2 2 3
2
8 4
3 2 2 3
2
4 8
3 2 2 3
2
8 20
3 2 2 3
2
20 8
3 2 2 3
2
8 51
3 2 2 3
2
51 8
3 2 2 3
2
8 68
3 2 2 3
2
68 8
3 2 2 3
2
8 91
3 2 2 3
2
91 8
3 2 2 3
2
8 96
3 2 2 3
2
96 8
3 2 2 3
2
9 1
3 2 2 3
2
1 9
3 2 2 3
2
9 2
3 2 2 3
2
2 9
3 2 2 3
2
9 33
3 2 2 3
2
33 9
3 2 2 3
2
9 34
3 2 2 3
2
34 9
3 2 2 3
2
9 37
3 2 2 3
2
37 9
3 2 2 3
2
9 41
3 2 2 3
2
41 9
3 2 2 3
2
9 45
3 2 2 3
2
45 9
3 2 2 3
2
9 50
3 2 2 3
2
50 9
3 2 2 3
2
9 59
3 2 2 3
2
59 9
3 2 2 3
2
10 6
3 2 2 3
2
6 10
3 2 2 3
2
10 11
3 2 2 3
2
11 10
3 2 2 3
2
10 12
3 2 2 3
2
12 10
3 2 2 3
2
10 14
3 2 2 3
2
14 10
3 2 2 3
2
10 15
3 2 2 3
2
15 10
3 2 2 3
2
10 19
3 2 2 3
2
19 10
3 2 2 3
2
10 37
3 2 2 3
2
37 10
3 2 2 3
2
10 41
3 2 2 3
2
41 10
3 2 2 3
2
10 54
3 2 2 3
2
54 10
3 2 2 3
2
10 78
3 2 2 3
2
78 10
3 2 2 3
2
11 16
3 2 2 3
2
16 11
3 2 2 3
2
11 45
3 2 2 3
2
45 11
3 2 2 3
2
11 67
3 2 2 3
2
67 11
3 2 2 3
2
11 90
3 2 2 3
2
90 11
3 2 2 3
2
11 93
3 2 2 3
2
93 11
3 2 2 3
2
11 111
3 2 2 3
2
111 11
3 2 2 3
2
11 118
3 2 2 3
2
118 11
3 2 2 3
2
12 4
3 2 2 3
2
4 12
3 2 2 3
2
12 6
3 2 2 3
2
6 12
3 2 2 3
2
12 14
3 2 2 3
2
14 12
3 2 2 3
2
12 16
3 2 2 3
2
16 12
3 2 2 3
2
12 48
3 2 2 3
2
48 12
3 2 2 3
2
12 74
3 2 2 3
2
74 12
3 2 2 3
2
12 75
3 2 2 3
2
75 12
3 2 2 3
2
12 94
3 2 2 3
2
94 12
3 2 2 3
2
13 16
3 2 2 3
2
16 13
3 2 2 3
2
13 35
3 2 2 3
2
35 13
3 2 2 3
2
13 42
3 2 2 3
2
42 13
3 2 2 3
2
13 58
3 2 2 3
2
58 13
3 2 2 3
2
13 76
3 2 2 3
2
76 13
3 2 2 3
2
13 93
3 2 2 3
2
93 13
3 2 2 3
2
13 97
3 2 2 3
2
97 13
3 2 2 3
2
13 112
3 2 2 3
2
112 13
3 2 2 3
2
14 0
3 2 2 3
2
0 14
3 2 2 3
2
14 10
3 2 2 3
2
10 14
3 2 2 3
2
14 12
3 2 2 3
2
12 14
3 2 2 3
2
14 16
3 2 2 3
2
16 14
3 2 2 3
2
14 17
3 2 2 3
2
17 14
3 2 2 3
2
14 18
3 2 2 3
2
18 14
3 2 2 3
2
14 34
3 2 2 3
2
34 14
3 2 2 3
2
14 39
3 2 2 3
2
39 14
3 2 2 3
2
14 49
3 2 2 3
2
49 14
3 2 2 3
2
14 70
3 2 2 3
2
70 14
3 2 2 3
2
14 93
3 2 2 3
2
93 14
3 2 2 3
2
15 7
3 2 2 3
2
7 15
3 2 2 3
2
15 12
3 2 2 3
2
12 15
3 2 2 3
2
15 19
3 2 2 3
2
19 15
3 2 2 3
2
15 43
3 2 2 3
2
43 15
3 2 2 3
2
15 113
3 2 2 3
2
113 15
3 2 2 3
2
16 23
3 2 2 3
2
23 16
3 2 2 3
2
16 72
3 2 2 3
2
72 16
3 2 2 3
2
17 6
3 2 2 3
2
6 17
3 2 2 3
2
17 10
3 2 2 3
2
10 17
3 2 2 3
2
17 11
3 2 2 3
2
11 17
3 2 2 3
2
17 18
3 2 2 3
2
18 17
3 2 2 3
2
17 54
3 2 2 3
2
54 17
3 2 2 3
2
17 57
3 2 2 3
2
57 17
3 2 2 3
2
17 69
3 2 2 3
2
69 17
3 2 2 3
2
17 95
3 2 2 3
2
95 17
3 2 2 3
2
17 100
3 2 2 3
2
100 17
3 2 2 3
2
17 102
3 2 2 3
2
102 17
3 2 2 3
2
18 11
3 2 2 3
2
11 18
3 2 2 3
2
18 13
3 2 2 3
2
13 18
3 2 2 3
2
18 14
3 2 2 3
2
14 18
3 2 2 3
2
18 17
3 2 2 3
2
17 18
3 2 2 3
2
18 19
3 2 2 3
2
19 18
3 2 2 3
2
18 21
3 2 2 3
2
21 18
3 2 2 3
2
18 30
3 2 2 3
2
30 18
3 2 2 3
2
18 56
3 2 2 3
2
56 18
3 2 2 3
2
18 103
3 2 2 3
2
103 18
3 2 2 3
2
19 13
3 2 2 3
2
13 19
3 2 2 3
2
19 41
3 2 2 3
2
41 19
3 2 2 3
2
19 52
3 2 2 3
2
52 19
3 2 2 3
2
19 82
3 2 2 3
2
82 19
3 2 2 3
2
19 83
3 2 2 3
2
83 19
3 2 2 3
2
20 11
3 2 2 3
2
11 20
3 2 2 3
2
20 15
3 2 2 3
2
15 20
3 2 2 3
2
20 22
3 2 2 3
2
22 20
3 2 2 3
2
20 23
3 2 2 3
2
23 20
3 2 2 3
2
20 24
3 2 2 3
2
24 20
3 2 2 3
2
20 25
3 2 2 3
2
25 20
3 2 2 3
2
20 26
3 2 2 3
2
26 20
3 2 2 3
2
20 37
3 2 2 3
2
37 20
3 2 2 3
2
20 44
3 2 2 3
2
44 20
3 2 2 3
2
20 51
3 2 2 3
2
51 20
3 2 2 3
2
20 53
3 2 2 3
2
53 20
3 2 2 3
2
20 66
3 2 2 3
2
66 20
3 2 2 3
2
20 73
3 2 2 3
2
73 20
3 2 2 3
2
20 85
3 2 2 3
2
85 20
3 2 2 3
2
20 112
3 2 2 3
2
112 20
3 2 2 3
2
21 12
3 2 2 3
2
12 21
3 2 2 3
2
21 18
3 2 2 3
2
18 21
3 2 2 3
2
21 23
3 2 2 3
2
23 21
3 2 2 3
2
21 24
3 2 2 3
2
24 21
3 2 2 3
2
21 25
3 2 2 3
2
25 21
3 2 2 3
2
21 27
3 2 2 3
2
27 21
3 2 2 3
2
21 28
3 2 2 3
2
28 21
3 2 2 3
2
21 61
3 2 2 3
2
61 21
3 2 2 3
2
21 66
3 2 2 3
2
66 21
3 2 2 3
2
21 69
3 2 2 3
2
69 21
3 2 2 3
2
21 72
3 2 2 3
2
72 21
3 2 2 3
2
21 76
3 2 2 3
2
76 21
3 2 2 3
2
21 92
3 2 2 3
2
92 21
3 2 2 3
2
21 98
3 2 2 3
2
98 21
3 2 2 3
2
21 100
3 2 2 3
2
100 21
3 2 2 3
2
21 106
3 2 2 3
2
106 21
3 2 2 3
2
21 108
3 2 2 3
2
108 21
3 2 2 3
2
22 20
3 2 2 3
2
20 22
3 2 2 3
2
22 23
3 2 2 3
2
23 22
3 2 2 3
2
22 28
3 2 2 3
2
28 22
3 2 2 3
2
22 69
3 2 2 3
2
69 22
3 2 2 3
2
22 70
3 2 2 3
2
70 22
3 2 2 3
2
22 101
3 2 2 3
2
101 22
3 2 2 3
2
22 105
3 2 2 3
2
105 22
3 2 2 3
2
23 20
3 2 2 3
2
20 23
3 2 2 3
2
23 21
3 2 2 3
2
21 23
3 2 2 3
2
23 24
3 2 2 3
2
24 23
3 2 2 3
2
23 25
3 2 2 3
2
25 23
3 2 2 3
2
23 42
3 2 2 3
2
42 23
3 2 2 3
2
23 48
3 2 2 3
2
48 23
3 2 2 3
2
23 78
3 2 2 3
2
78 23
3 2 2 3
2
24 1
3 2 2 3
2
1 24
3 2 2 3
2
24 21
3 2 2 3
2
21 24
3 2 2 3
2
24 30
3 2 2 3
2
30 24
3 2 2 3
2
24 42
3 2 2 3
2
42 24
3 2 2 3
2
24 94
3 2 2 3
2
94 24
3 2 2 3
2
24 98
3 2 2 3
2
98 24
3 2 2 3
2
24 102
3 2 2 3
2
102 24
3 2 2 3
2
24 105
3 2 2 3
2
105 24
3 2 2 3
2
25 10
3 2 2 3
2
10 25
3 2 2 3
2
25 20
3 2 2 3
2
20 25
3 2 2 3
2
25 27
3 2 2 3
2
27 25
3 2 2 3
2
25 28
3 2 2 3
2
28 25
3 2 2 3
2
25 37
3 2 2 3
2
37 25
3 2 2 3
2
25 47
3 2 2 3
2
47 25
3 2 2 3
2
25 58
3 2 2 3
2
58 25
3 2 2 3
2
25 76
3 2 2 3
2
76 25
3 2 2 3
2
25 84
3 2 2 3
2
84 25
3 2 2 3
2
25 85
3 2 2 3
2
85 25
3 2 2 3
2
25 102
3 2 2 3
2
102 25
3 2 2 3
2
26 20
3 2 2 3
2
20 26
3 2 2 3
2
26 21
3 2 2 3
2
21 26
3 2 2 3
2
26 24
3 2 2 3
2
24 26
3 2 2 3
2
26 51
3 2 2 3
2
51 26
3 2 2 3
2
26 59
3 2 2 3
2
59 26
3 2 2 3
2
26 69
3 2 2 3
2
69 26
3 2 2 3
2
26 87
3 2 2 3
2
87 26
3 2 2 3
2
26 118
3 2 2 3
2
118 26
3 2 2 3
2
27 11
3 2 2 3
2
11 27
3 2 2 3
2
27 22
3 2 2 3
2
22 27
3 2 2 3
2
27 23
3 2 2 3
2
23 27
3 2 2 3
2
27 25
3 2 2 3
2
25 27
3 2 2 3
2
27 26
3 2 2 3
2
26 27
3 2 2 3
2
27 29
3 2 2 3
2
29 27
3 2 2 3
2
27 112
3 2 2 3
2
112 27
3 2 2 3
2
28 10
3 2 2 3
2
10 28
3 2 2 3
2
28 20
3 2 2 3
2
20 28
3 2 2 3
2
28 58
3 2 2 3
2
58 28
3 2 2 3
2
28 65
3 2 2 3
2
65 28
3 2 2 3
2
29 28
3 2 2 3
2
28 29
3 2 2 3
2
29 50
3 2 2 3
2
50 29
3 2 2 3
2
29 53
3 2 2 3
2
53 29
3 2 2 3
2
29 86
3 2 2 3
2
86 29
3 2 2 3
2
29 89
3 2 2 3
2
89 29
3 2 2 3
2
29 95
3 2 2 3
2
95 29
3 2 2 3
2
30 18
3 2 2 3
2
18 30
3 2 2 3
2
30 32
3 2 2 3
2
32 30
3 2 2 3
2
30 33
3 2 2 3
2
33 30
3 2 2 3
2
30 36
3 2 2 3
2
36 30
3 2 2 3
2
30 64
3 2 2 3
2
64 30
3 2 2 3
2
30 75
3 2 2 3
2
75 30
3 2 2 3
2
31 11
3 2 2 3
2
11 31
3 2 2 3
2
31 16
3 2 2 3
2
16 31
3 2 2 3
2
31 28
3 2 2 3
2
28 31
3 2 2 3
2
31 30
3 2 2 3
2
30 31
3 2 2 3
2
31 33
3 2 2 3
2
33 31
3 2 2 3
2
31 52
3 2 2 3
2
52 31
3 2 2 3
2
31 57
3 2 2 3
2
57 31
3 2 2 3
2
31 60
3 2 2 3
2
60 31
3 2 2 3
2
31 75
3 2 2 3
2
75 31
3 2 2 3
2
31 92
3 2 2 3
2
92 31
3 2 2 3
2
31 99
3 2 2 3
2
99 31
3 2 2 3
2
32 13
3 2 2 3
2
13 32
3 2 2 3
2
32 19
3 2 2 3
2
19 32
3 2 2 3
2
32 30
3 2 2 3
2
30 32
3 2 2 3
2
32 38
3 2 2 3
2
38 32
3 2 2 3
2
32 40
3 2 2 3
2
40 32
3 2 2 3
2
32 55
3 2 2 3
2
55 32
3 2 2 3
2
32 63
3 2 2 3
2
63 32
3 2 2 3
2
33 6
3 2 2 3
2
6 33
3 2 2 3
2
33 30
3 2 2 3
2
30 33
3 2 2 3
2
33 35
3 2 2 3
2
35 33
3 2 2 3
2
33 62
3 2 2 3
2
62 33
3 2 2 3
2
33 115
3 2 2 3
2
115 33
3 2 2 3
2
33 116
3 2 2 3
2
116 33
3 2 2 3
2
34 29
3 2 2 3
2
29 34
3 2 2 3
2
34 31
3 2 2 3
2
31 34
3 2 2 3
2
34 35
3 2 2 3
2
35 34
3 2 2 3
2
34 38
3 2 2 3
2
38 34
3 2 2 3
2
34 82
3 2 2 3
2
82 34
3 2 2 3
2
34 93
3 2 2 3
2
93 34
3 2 2 3
2
35 13
3 2 2 3
2
13 35
3 2 2 3
2
35 14
3 2 2 3
2
14 35
3 2 2 3
2
35 24
3 2 2 3
2
24 35
3 2 2 3
2
35 55
3 2 2 3
2
55 35
3 2 2 3
2
35 58
3 2 2 3
2
58 35
3 2 2 3
2
35 64
3 2 2 3
2
64 35
3 2 2 3
2
35 89
3 2 2 3
2
89 35
3 2 2 3
2
35 108
3 2 2 3
2
108 35
3 2 2 3
2
36 5
3 2 2 3
2
5 36
3 2 2 3
2
36 17
3 2 2 3
2
17 36
3 2 2 3
2
36 35
3 2 2 3
2
35 36
3 2 2 3
2
36 37
3 2 2 3
2
37 36
3 2 2 3
2
36 54
3 2 2 3
2
54 36
3 2 2 3
2
36 60
3 2 2 3
2
60 36
3 2 2 3
2
36 69
3 2 2 3
2
69 36
3 2 2 3
2
36 82
3 2 2 3
2
82 36
3 2 2 3
2
36 90
3 2 2 3
2
90 36
3 2 2 3
2
37 12
3 2 2 3
2
12 37
3 2 2 3
2
37 36
3 2 2 3
2
36 37
3 2 2 3
2
37 38
3 2 2 3
2
38 37
3 2 2 3
2
37 70
3 2 2 3
2
70 37
3 2 2 3
2
37 102
3 2 2 3
2
102 37
3 2 2 3
2
38 33
3 2 2 3
2
33 38
3 2 2 3
2
38 37
3 2 2 3
2
37 38
3 2 2 3
2
38 39
3 2 2 3
2
39 38
3 2 2 3
2
38 106
3 2 2 3
2
106 38
3 2 2 3
2
38 113
3 2 2 3
2
113 38
3 2 2 3
2
38 119
3 2 2 3
2
119 38
3 2 2 3
2
39 5
3 2 2 3
2
5 39
3 2 2 3
2
39 13
3 2 2 3
2
13 39
3 2 2 3
2
39 37
3 2 2 3
2
37 39
3 2 2 3
2
39 38
3 2 2 3
2
38 39
3 2 2 3
2
39 42
3 2 2 3
2
42 39
3 2 2 3
2
39 65
3 2 2 3
2
65 39
3 2 2 3
2
39 67
3 2 2 3
2
67 39
3 2 2 3
2
39 72
3 2 2 3
2
72 39
3 2 2 3
2
39 82
3 2 2 3
2
82 39
3 2 2 3
2
39 99
3 2 2 3
2
99 39
3 2 2 3
2
40 23
3 2 2 3
2
23 40
3 2 2 3
2
40 27
3 2 2 3
2
27 40
3 2 2 3
2
40 39
3 2 2 3
2
39 40
3 2 2 3
2
40 70
3 2 2 3
2
70 40
3 2 2 3
2
40 75
3 2 2 3
2
75 40
3 2 2 3
2
40 110
3 2 2 3
2
110 40
3 2 2 3
2
41 0
3 2 2 3
2
0 41
3 2 2 3
2
41 24
3 2 2 3
2
24 41
3 2 2 3
2
41 42
3 2 2 3
2
42 41
3 2 2 3
2
41 43
3 2 2 3
2
43 41
3 2 2 3
2
41 45
3 2 2 3
2
45 41
3 2 2 3
2
41 48
3 2 2 3
2
48 41
3 2 2 3
2
41 98
3 2 2 3
2
98 41
3 2 2 3
2
41 100
3 2 2 3
2
100 41
3 2 2 3
2
42 11
3 2 2 3
2
11 42
3 2 2 3
2
42 25
3 2 2 3
2
25 42
3 2 2 3
2
42 28
3 2 2 3
2
28 42
3 2 2 3
2
42 30
3 2 2 3
2
30 42
3 2 2 3
2
42 38
3 2 2 3
2
38 42
3 2 2 3
2
42 40
3 2 2 3
2
40 42
3 2 2 3
2
42 41
3 2 2 3
2
41 42
3 2 2 3
2
42 46
3 2 2 3
2
46 42
3 2 2 3
2
42 48
3 2 2 3
2
48 42
3 2 2 3
2
42 57
3 2 2 3
2
57 42
3 2 2 3
2
42 72
3 2 2 3
2
72 42
3 2 2 3
2
42 84
3 2 2 3
2
84 42
3 2 2 3
2
43 2
3 2 2 3
2
2 43
3 2 2 3
2
43 3
3 2 2 3
2
3 43
3 2 2 3
2
43 14
3 2 2 3
2
14 43
3 2 2 3
2
43 41
3 2 2 3
2
41 43
3 2 2 3
2
43 47
3 2 2 3
2
47 43
3 2 2 3
2
43 85
3 2 2 3
2
85 43
3 2 2 3
2
43 88
3 2 2 3
2
88 43
3 2 2 3
2
44 1
3 2 2 3
2
1 44
3 2 2 3
2
44 4
3 2 2 3
2
4 44
3 2 2 3
2
44 10
3 2 2 3
2
10 44
3 2 2 3
2
44 16
3 2 2 3
2
16 44
3 2 2 3
2
44 40
3 2 2 3
2
40 44
3 2 2 3
2
44 41
3 2 2 3
2
41 44
3 2 2 3
2
44 42
3 2 2 3
2
42 44
3 2 2 3
2
44 43
3 2 2 3
2
43 44
3 2 2 3
2
44 45
3 2 2 3
2
45 44
3 2 2 3
2
44 46
3 2 2 3
2
46 44
3 2 2 3
2
44 47
3 2 2 3
2
47 44
3 2 2 3
2
44 48
3 2 2 3
2
48 44
3 2 2 3
2
44 73
3 2 2 3
2
73 44
3 2 2 3
2
44 75
3 2 2 3
2
75 44
3 2 2 3
2
44 76
3 2 2 3
2
76 44
3 2 2 3
2
44 82
3 2 2 3
2
82 44
3 2 2 3
2
44 84
3 2 2 3
2
84 44
3 2 2 3
2
44 99
3 2 2 3
2
99 44
3 2 2 3
2
45 29
3 2 2 3
2
29 45
3 2 2 3
2
45 32
3 2 2 3
2
32 45
3 2 2 3
2
45 42
3 2 2 3
2
42 45
3 2 2 3
2
45 44
3 2 2 3
2
44 45
3 2 2 3
2
45 49
3 2 2 3
2
49 45
3 2 2 3
2
45 83
3 2 2 3
2
83 45
3 2 2 3
2
46 6
3 2 2 3
2
6 46
3 2 2 3
2
46 29
3 2 2 3
2
29 46
3 2 2 3
2
46 40
3 2 2 3
2
40 46
3 2 2 3
2
46 41
3 2 2 3
2
41 46
3 2 2 3
2
46 44
3 2 2 3
2
44 46
3 2 2 3
2
46 45
3 2 2 3
2
45 46
3 2 2 3
2
46 53
3 2 2 3
2
53 46
3 2 2 3
2
46 64
3 2 2 3
2
64 46
3 2 2 3
2
46 67
3 2 2 3
2
67 46
3 2 2 3
2
46 68
3 2 2 3
2
68 46
3 2 2 3
2
46 85
3 2 2 3
2
85 46
3 2 2 3
2
46 110
3 2 2 3
2
110 46
3 2 2 3
2
46 111
3 2 2 3
2
111 46
3 2 2 3
2
46 112
3 2 2 3
2
112 46
3 2 2 3
2
46 119
3 2 2 3
2
119 46
3 2 2 3
2
47 38
3 2 2 3
2
38 47
3 2 2 3
2
47 41
3 2 2 3
2
41 47
3 2 2 3
2
47 42
3 2 2 3
2
42 47
3 2 2 3
2
47 48
3 2 2 3
2
48 47
3 2 2 3
2
47 49
3 2 2 3
2
49 47
3 2 2 3
2
47 81
3 2 2 3
2
81 47
3 2 2 3
2
47 93
3 2 2 3
2
93 47
3 2 2 3
2
47 100
3 2 2 3
2
100 47
3 2 2 3
2
47 115
3 2 2 3
2
115 47
3 2 2 3
2
48 12
3 2 2 3
2
12 48
3 2 2 3
2
48 34
3 2 2 3
2
34 48
3 2 2 3
2
48 37
3 2 2 3
2
37 48
3 2 2 3
2
48 41
3 2 2 3
2
41 48
3 2 2 3
2
48 45
3 2 2 3
2
45 48
3 2 2 3
2
48 49
3 2 2 3
2
49 48
3 2 2 3
2
48 55
3 2 2 3
2
55 48
3 2 2 3
2
48 61
3 2 2 3
2
61 48
3 2 2 3
2
48 69
3 2 2 3
2
69 48
3 2 2 3
2
48 82
3 2 2 3
2
82 48
3 2 2 3
2
48 86
3 2 2 3
2
86 48
3 2 2 3
2
48 103
3 2 2 3
2
103 48
3 2 2 3
2
48 104
3 2 2 3
2
104 48
3 2 2 3
2
48 117
3 2 2 3
2
117 48
3 2 2 3
2
49 7
3 2 2 3
2
7 49
3 2 2 3
2
49 8
3 2 2 3
2
8 49
3 2 2 3
2
49 42
3 2 2 3
2
42 49
3 2 2 3
2
49 53
3 2 2 3
2
53 49
3 2 2 3
2
49 57
3 2 2 3
2
57 49
3 2 2 3
2
49 80
3 2 2 3
2
80 49
3 2 2 3
2
49 93
3 2 2 3
2
93 49
3 2 2 3
2
49 108
3 2 2 3
2
108 49
3 2 2 3
2
50 3
3 2 2 3
2
3 50
3 2 2 3
2
50 37
3 2 2 3
2
37 50
3 2 2 3
2
50 58
3 2 2 3
2
58 50
3 2 2 3
2
50 73
3 2 2 3
2
73 50
3 2 2 3
2
50 78
3 2 2 3
2
78 50
3 2 2 3
2
51 38
3 2 2 3
2
38 51
3 2 2 3
2
51 42
3 2 2 3
2
42 51
3 2 2 3
2
51 57
3 2 2 3
2
57 51
3 2 2 3
2
51 58
3 2 2 3
2
58 51
3 2 2 3
2
51 59
3 2 2 3
2
59 51
3 2 2 3
2
51 73
3 2 2 3
2
73 51
3 2 2 3
2
51 74
3 2 2 3
2
74 51
3 2 2 3
2
51 83
3 2 2 3
2
83 51
3 2 2 3
2
51 102
3 2 2 3
2
102 51
3 2 2 3
2
51 106
3 2 2 3
2
106 51
3 2 2 3
2
52 13
3 2 2 3
2
13 52
3 2 2 3
2
52 22
3 2 2 3
2
22 52
3 2 2 3
2
52 53
3 2 2 3
2
53 52
3 2 2 3
2
52 56
3 2 2 3
2
56 52
3 2 2 3
2
52 57
3 2 2 3
2
57 52
3 2 2 3
2
52 102
3 2 2 3
2
102 52
3 2 2 3
2
52 108
3 2 2 3
2
108 52
3 2 2 3
2
52 109
3 2 2 3
2
109 52
3 2 2 3
2
52 119
3 2 2 3
2
119 52
3 2 2 3
2
53 20
3 2 2 3
2
20 53
3 2 2 3
2
53 38
3 2 2 3
2
38 53
3 2 2 3
2
53 49
3 2 2 3
2
49 53
3 2 2 3
2
53 55
3 2 2 3
2
55 53
3 2 2 3
2
53 109
3 2 2 3
2
109 53
3 2 2 3
2
54 18
3 2 2 3
2
18 54
3 2 2 3
2
54 43
3 2 2 3
2
43 54
3 2 2 3
2
54 50
3 2 2 3
2
50 54
3 2 2 3
2
54 53
3 2 2 3
2
53 54
3 2 2 3
2
54 58
3 2 2 3
2
58 54
3 2 2 3
2
54 62
3 2 2 3
2
62 54
3 2 2 3
2
54 66
3 2 2 3
2
66 54
3 2 2 3
2
54 74
3 2 2 3
2
74 54
3 2 2 3
2
54 94
3 2 2 3
2
94 54
3 2 2 3
2
54 100
3 2 2 3
2
100 54
3 2 2 3
2
54 108
3 2 2 3
2
108 54
3 2 2 3
2
55 31
3 2 2 3
2
31 55
3 2 2 3
2
55 45
3 2 2 3
2
45 55
3 2 2 3
2
55 46
3 2 2 3
2
46 55
3 2 2 3
2
55 52
3 2 2 3
2
52 55
3 2 2 3
2
55 54
3 2 2 3
2
54 55
3 2 2 3
2
55 101
3 2 2 3
2
101 55
3 2 2 3
2
56 11
3 2 2 3
2
11 56
3 2 2 3
2
56 54
3 2 2 3
2
54 56
3 2 2 3
2
56 55
3 2 2 3
2
55 56
3 2 2 3
2
56 58
3 2 2 3
2
58 56
3 2 2 3
2
56 59
3 2 2 3
2
59 56
3 2 2 3
2
56 78
3 2 2 3
2
78 56
3 2 2 3
2
56 97
3 2 2 3
2
97 56
3 2 2 3
2
57 10
3 2 2 3
2
10 57
3 2 2 3
2
57 25
3 2 2 3
2
25 57
3 2 2 3
2
57 27
3 2 2 3
2
27 57
3 2 2 3
2
57 50
3 2 2 3
2
50 57
3 2 2 3
2
57 58
3 2 2 3
2
58 57
3 2 2 3
2
57 59
3 2 2 3
2
59 57
3 2 2 3
2
57 72
3 2 2 3
2
72 57
3 2 2 3
2
57 83
3 2 2 3
2
83 57
3 2 2 3
2
58 33
3 2 2 3
2
33 58
3 2 2 3
2
58 50
3 2 2 3
2
50 58
3 2 2 3
2
58 77
3 2 2 3
2
77 58
3 2 2 3
2
58 81
3 2 2 3
2
81 58
3 2 2 3
2
58 91
3 2 2 3
2
91 58
3 2 2 3
2
58 93
3 2 2 3
2
93 58
3 2 2 3
2
58 110
3 2 2 3
2
110 58
3 2 2 3
2
59 1
3 2 2 3
2
1 59
3 2 2 3
2
59 17
3 2 2 3
2
17 59
3 2 2 3
2
59 21
3 2 2 3
2
21 59
3 2 2 3
2
59 25
3 2 2 3
2
25 59
3 2 2 3
2
59 27
3 2 2 3
2
27 59
3 2 2 3
2
59 51
3 2 2 3
2
51 59
3 2 2 3
2
59 54
3 2 2 3
2
54 59
3 2 2 3
2
59 57
3 2 2 3
2
57 59
3 2 2 3
2
59 58
3 2 2 3
2
58 59
3 2 2 3
2
59 66
3 2 2 3
2
66 59
3 2 2 3
2
59 95
3 2 2 3
2
95 59
3 2 2 3
2
59 107
3 2 2 3
2
107 59
3 2 2 3
2
60 33
3 2 2 3
2
33 60
3 2 2 3
2
60 46
3 2 2 3
2
46 60
3 2 2 3
2
60 52
3 2 2 3
2
52 60
3 2 2 3
2
60 64
3 2 2 3
2
64 60
3 2 2 3
2
60 65
3 2 2 3
2
65 60
3 2 2 3
2
60 66
3 2 2 3
2
66 60
3 2 2 3
2
60 70
3 2 2 3
2
70 60
3 2 2 3
2
60 96
3 2 2 3
2
96 60
3 2 2 3
2
61 32
3 2 2 3
2
32 61
3 2 2 3
2
61 45
3 2 2 3
2
45 61
3 2 2 3
2
61 55
3 2 2 3
2
55 61
3 2 2 3
2
61 72
3 2 2 3
2
72 61
3 2 2 3
2
61 75
3 2 2 3
2
75 61
3 2 2 3
2
61 110
3 2 2 3
2
110 61
3 2 2 3
2
61 117
3 2 2 3
2
117 61
3 2 2 3
2
62 1
3 2 2 3
2
1 62
3 2 2 3
2
62 34
3 2 2 3
2
34 62
3 2 2 3
2
62 42
3 2 2 3
2
42 62
3 2 2 3
2
62 49
3 2 2 3
2
49 62
3 2 2 3
2
62 60
3 2 2 3
2
60 62
3 2 2 3
2
62 64
3 2 2 3
2
64 62
3 2 2 3
2
62 65
3 2 2 3
2
65 62
3 2 2 3
2
62 68
3 2 2 3
2
68 62
3 2 2 3
2
62 69
3 2 2 3
2
69 62
3 2 2 3
2
62 101
3 2 2 3
2
101 62
3 2 2 3
2
62 102
3 2 2 3
2
102 62
3 2 2 3
2
62 105
3 2 2 3
2
105 62
3 2 2 3
2
63 5
3 2 2 3
2
5 63
3 2 2 3
2
63 26
3 2 2 3
2
26 63
3 2 2 3
2
63 55
3 2 2 3
2
55 63
3 2 2 3
2
63 61
3 2 2 3
2
61 63
3 2 2 3
2
63 94
3 2 2 3
2
94 63
3 2 2 3
2
64 27
3 2 2 3
2
27 64
3 2 2 3
2
64 33
3 2 2 3
2
33 64
3 2 2 3
2
64 62
3 2 2 3
2
62 64
3 2 2 3
2
64 66
3 2 2 3
2
66 64
3 2 2 3
2
64 68
3 2 2 3
2
68 64
3 2 2 3
2
64 82
3 2 2 3
2
82 64
3 2 2 3
2
64 98
3 2 2 3
2
98 64
3 2 2 3
2
64 109
3 2 2 3
2
109 64
3 2 2 3
2
65 2
3 2 2 3
2
2 65
3 2 2 3
2
65 13
3 2 2 3
2
13 65
3 2 2 3
2
65 35
3 2 2 3
2
35 65
3 2 2 3
2
65 53
3 2 2 3
2
53 65
3 2 2 3
2
65 61
3 2 2 3
2
61 65
3 2 2 3
2
65 62
3 2 2 3
2
62 65
3 2 2 3
2
65 66
3 2 2 3
2
66 65
3 2 2 3
2
65 75
3 2 2 3
2
75 65
3 2 2 3
2
65 81
3 2 2 3
2
81 65
3 2 2 3
2
65 86
3 2 2 3
2
86 65
3 2 2 3
2
65 106
3 2 2 3
2
106 65
3 2 2 3
2
65 119
3 2 2 3
2
119 65
3 2 2 3
2
66 10
3 2 2 3
2
10 66
3 2 2 3
2
66 28
3 2 2 3
2
28 66
3 2 2 3
2
66 33
3 2 2 3
2
33 66
3 2 2 3
2
66 36
3 2 2 3
2
36 66
3 2 2 3
2
66 69
3 2 2 3
2
69 66
3 2 2 3
2
66 81
3 2 2 3
2
81 66
3 2 2 3
2
66 112
3 2 2 3
2
112 66
3 2 2 3
2
67 11
3 2 2 3
2
11 67
3 2 2 3
2
67 24
3 2 2 3
2
24 67
3 2 2 3
2
67 48
3 2 2 3
2
48 67
3 2 2 3
2
67 65
3 2 2 3
2
65 67
3 2 2 3
2
67 68
3 2 2 3
2
68 67
3 2 2 3
2
67 101
3 2 2 3
2
101 67
3 2 2 3
2
68 1
3 2 2 3
2
1 68
3 2 2 3
2
68 11
3 2 2 3
2
11 68
3 2 2 3
2
68 22
3 2 2 3
2
22 68
3 2 2 3
2
68 52
3 2 2 3
2
52 68
3 2 2 3
2
68 77
3 2 2 3
2
77 68
3 2 2 3
2
68 84
3 2 2 3
2
84 68
3 2 2 3
2
68 90
3 2 2 3
2
90 68
3 2 2 3
2
68 111
3 2 2 3
2
111 68
3 2 2 3
2
68 113
3 2 2 3
2
113 68
3 2 2 3
2
69 2
3 2 2 3
2
2 69
3 2 2 3
2
69 24
3 2 2 3
2
24 69
3 2 2 3
2
69 25
3 2 2 3
2
25 69
3 2 2 3
2
69 61
3 2 2 3
2
61 69
3 2 2 3
2
69 63
3 2 2 3
2
63 69
3 2 2 3
2
69 64
3 2 2 3
2
64 69
3 2 2 3
2
69 65
3 2 2 3
2
65 69
3 2 2 3
2
69 106
3 2 2 3
2
106 69
3 2 2 3
2
70 17
3 2 2 3
2
17 70
3 2 2 3
2
70 44
3 2 2 3
2
44 70
3 2 2 3
2
70 56
3 2 2 3
2
56 70
3 2 2 3
2
70 72
3 2 2 3
2
72 70
3 2 2 3
2
70 78
3 2 2 3
2
78 70
3 2 2 3
2
70 79
3 2 2 3
2
79 70
3 2 2 3
2
70 95
3 2 2 3
2
95 70
3 2 2 3
2
70 115
3 2 2 3
2
115 70
3 2 2 3
2
71 24
3 2 2 3
2
24 71
3 2 2 3
2
71 61
3 2 2 3
2
61 71
3 2 2 3
2
71 74
3 2 2 3
2
74 71
3 2 2 3
2
71 78
3 2 2 3
2
78 71
3 2 2 3
2
71 86
3 2 2 3
2
86 71
3 2 2 3
2
71 97
3 2 2 3
2
97 71
3 2 2 3
2
72 7
3 2 2 3
2
7 72
3 2 2 3
2
72 13
3 2 2 3
2
13 72
3 2 2 3
2
72 20
3 2 2 3
2
20 72
3 2 2 3
2
72 35
3 2 2 3
2
35 72
3 2 2 3
2
72 42
3 2 2 3
2
42 72
3 2 2 3
2
72 70
3 2 2 3
2
70 72
3 2 2 3
2
72 77
3 2 2 3
2
77 72
3 2 2 3
2
72 79
3 2 2 3
2
79 72
3 2 2 3
2
72 92
3 2 2 3
2
92 72
3 2 2 3
2
72 111
3 2 2 3
2
111 72
3 2 2 3
2
73 16
3 2 2 3
2
16 73
3 2 2 3
2
73 17
3 2 2 3
2
17 73
3 2 2 3
2
73 36
3 2 2 3
2
36 73
3 2 2 3
2
73 37
3 2 2 3
2
37 73
3 2 2 3
2
73 51
3 2 2 3
2
51 73
3 2 2 3
2
73 65
3 2 2 3
2
65 73
3 2 2 3
2
73 70
3 2 2 3
2
70 73
3 2 2 3
2
73 71
3 2 2 3
2
71 73
3 2 2 3
2
73 72
3 2 2 3
2
72 73
3 2 2 3
2
73 77
3 2 2 3
2
77 73
3 2 2 3
2
74 0
3 2 2 3
2
0 74
3 2 2 3
2
74 3
3 2 2 3
2
3 74
3 2 2 3
2
74 9
3 2 2 3
2
9 74
3 2 2 3
2
74 32
3 2 2 3
2
32 74
3 2 2 3
2
74 44
3 2 2 3
2
44 74
3 2 2 3
2
74 51
3 2 2 3
2
51 74
3 2 2 3
2
74 70
3 2 2 3
2
70 74
3 2 2 3
2
74 72
3 2 2 3
2
72 74
3 2 2 3
2
74 76
3 2 2 3
2
76 74
3 2 2 3
2
74 79
3 2 2 3
2
79 74
3 2 2 3
2
74 91
3 2 2 3
2
91 74
3 2 2 3
2
75 26
3 2 2 3
2
26 75
3 2 2 3
2
75 27
3 2 2 3
2
27 75
3 2 2 3
2
75 30
3 2 2 3
2
30 75
3 2 2 3
2
75 70
3 2 2 3
2
70 75
3 2 2 3
2
76 6
3 2 2 3
2
6 76
3 2 2 3
2
76 34
3 2 2 3
2
34 76
3 2 2 3
2
76 70
3 2 2 3
2
70 76
3 2 2 3
2
76 73
3 2 2 3
2
73 76
3 2 2 3
2
76 108
3 2 2 3
2
108 76
3 2 2 3
2
76 109
3 2 2 3
2
109 76
3 2 2 3
2
77 5
3 2 2 3
2
5 77
3 2 2 3
2
77 8
3 2 2 3
2
8 77
3 2 2 3
2
77 15
3 2 2 3
2
15 77
3 2 2 3
2
77 17
3 2 2 3
2
17 77
3 2 2 3
2
77 36
3 2 2 3
2
36 77
3 2 2 3
2
77 45
3 2 2 3
2
45 77
3 2 2 3
2
77 51
3 2 2 3
2
51 77
3 2 2 3
2
77 56
3 2 2 3
2
56 77
3 2 2 3
2
77 57
3 2 2 3
2
57 77
3 2 2 3
2
77 74
3 2 2 3
2
74 77
3 2 2 3
2
77 75
3 2 2 3
2
75 77
3 2 2 3
2
77 79
3 2 2 3
2
79 77
3 2 2 3
2
77 104
3 2 2 3
2
104 77
3 2 2 3
2
77 112
3 2 2 3
2
112 77
3 2 2 3
2
78 8
3 2 2 3
2
8 78
3 2 2 3
2
78 17
3 2 2 3
2
17 78
3 2 2 3
2
78 33
3 2 2 3
2
33 78
3 2 2 3
2
78 52
3 2 2 3
2
52 78
3 2 2 3
2
78 74
3 2 2 3
2
74 78
3 2 2 3
2
78 76
3 2 2 3
2
76 78
3 2 2 3
2
78 88
3 2 2 3
2
88 78
3 2 2 3
2
78 90
3 2 2 3
2
90 78
3 2 2 3
2
78 92
3 2 2 3
2
92 78
3 2 2 3
2
78 116
3 2 2 3
2
116 78
3 2 2 3
2
79 6
3 2 2 3
2
6 79
3 2 2 3
2
79 15
3 2 2 3
2
15 79
3 2 2 3
2
79 19
3 2 2 3
2
19 79
3 2 2 3
2
79 32
3 2 2 3
2
32 79
3 2 2 3
2
79 53
3 2 2 3
2
53 79
3 2 2 3
2
79 58
3 2 2 3
2
58 79
3 2 2 3
2
79 71
3 2 2 3
2
71 79
3 2 2 3
2
79 75
3 2 2 3
2
75 79
3 2 2 3
2
79 77
3 2 2 3
2
77 79
3 2 2 3
2
79 80
3 2 2 3
2
80 79
3 2 2 3
2
79 110
3 2 2 3
2
110 79
3 2 2 3
2
80 3
3 2 2 3
2
3 80
3 2 2 3
2
80 18
3 2 2 3
2
18 80
3 2 2 3
2
80 33
3 2 2 3
2
33 80
3 2 2 3
2
80 39
3 2 2 3
2
39 80
3 2 2 3
2
80 44
3 2 2 3
2
44 80
3 2 2 3
2
80 46
3 2 2 3
2
46 80
3 2 2 3
2
80 50
3 2 2 3
2
50 80
3 2 2 3
2
80 82
3 2 2 3
2
82 80
3 2 2 3
2
80 85
3 2 2 3
2
85 80
3 2 2 3
2
80 87
3 2 2 3
2
87 80
3 2 2 3
2
81 13
3 2 2 3
2
13 81
3 2 2 3
2
81 15
3 2 2 3
2
15 81
3 2 2 3
2
81 27
3 2 2 3
2
27 81
3 2 2 3
2
81 30
3 2 2 3
2
30 81
3 2 2 3
2
81 35
3 2 2 3
2
35 81
3 2 2 3
2
81 80
3 2 2 3
2
80 81
3 2 2 3
2
81 82
3 2 2 3
2
82 81
3 2 2 3
2
81 96
3 2 2 3
2
96 81
3 2 2 3
2
82 62
3 2 2 3
2
62 82
3 2 2 3
2
82 63
3 2 2 3
2
63 82
3 2 2 3
2
82 84
3 2 2 3
2
84 82
3 2 2 3
2
82 86
3 2 2 3
2
86 82
3 2 2 3
2
82 104
3 2 2 3
2
104 82
3 2 2 3
2
83 30
3 2 2 3
2
30 83
3 2 2 3
2
83 39
3 2 2 3
2
39 83
3 2 2 3
2
83 47
3 2 2 3
2
47 83
3 2 2 3
2
83 54
3 2 2 3
2
54 83
3 2 2 3
2
83 56
3 2 2 3
2
56 83
3 2 2 3
2
83 61
3 2 2 3
2
61 83
3 2 2 3
2
83 71
3 2 2 3
2
71 83
3 2 2 3
2
83 81
3 2 2 3
2
81 83
3 2 2 3
2
83 85
3 2 2 3
2
85 83
3 2 2 3
2
83 88
3 2 2 3
2
88 83
3 2 2 3
2
83 89
3 2 2 3
2
89 83
3 2 2 3
2
83 96
3 2 2 3
2
96 83
3 2 2 3
2
83 103
3 2 2 3
2
103 83
3 2 2 3
2
84 1
3 2 2 3
2
1 84
3 2 2 3
2
84 2
3 2 2 3
2
2 84
3 2 2 3
2
84 48
3 2 2 3
2
48 84
3 2 2 3
2
84 67
3 2 2 3
2
67 84
3 2 2 3
2
84 82
3 2 2 3
2
82 84
3 2 2 3
2
84 85
3 2 2 3
2
85 84
3 2 2 3
2
85 17
3 2 2 3
2
17 85
3 2 2 3
2
85 48
3 2 2 3
2
48 85
3 2 2 3
2
85 50
3 2 2 3
2
50 85
3 2 2 3
2
85 61
3 2 2 3
2
61 85
3 2 2 3
2
85 72
3 2 2 3
2
72 85
3 2 2 3
2
85 80
3 2 2 3
2
80 85
3 2 2 3
2
85 82
3 2 2 3
2
82 85
3 2 2 3
2
85 84
3 2 2 3
2
84 85
3 2 2 3
2
85 87
3 2 2 3
2
87 85
3 2 2 3
2
85 96
3 2 2 3
2
96 85
3 2 2 3
2
85 112
3 2 2 3
2
112 85
3 2 2 3
2
86 7
3 2 2 3
2
7 86
3 2 2 3
2
86 23
3 2 2 3
2
23 86
3 2 2 3
2
86 30
3 2 2 3
2
30 86
3 2 2 3
2
86 43
3 2 2 3
2
43 86
3 2 2 3
2
86 51
3 2 2 3
2
51 86
3 2 2 3
2
86 89
3 2 2 3
2
89 86
3 2 2 3
2
87 54
3 2 2 3
2
54 87
3 2 2 3
2
87 74
3 2 2 3
2
74 87
3 2 2 3
2
87 83
3 2 2 3
2
83 87
3 2 2 3
2
87 84
3 2 2 3
2
84 87
3 2 2 3
2
88 39
3 2 2 3
2
39 88
3 2 2 3
2
88 61
3 2 2 3
2
61 88
3 2 2 3
2
88 68
3 2 2 3
2
68 88
3 2 2 3
2
88 69
3 2 2 3
2
69 88
3 2 2 3
2
88 71
3 2 2 3
2
71 88
3 2 2 3
2
88 82
3 2 2 3
2
82 88
3 2 2 3
2
88 83
3 2 2 3
2
83 88
3 2 2 3
2
88 86
3 2 2 3
2
86 88
3 2 2 3
2
88 96
3 2 2 3
2
96 88
3 2 2 3
2
88 104
3 2 2 3
2
104 88
3 2 2 3
2
89 35
3 2 2 3
2
35 89
3 2 2 3
2
89 82
3 2 2 3
2
82 89
3 2 2 3
2
89 84
3 2 2 3
2
84 89
3 2 2 3
2
89 87
3 2 2 3
2
87 89
3 2 2 3
2
89 102
3 2 2 3
2
102 89
3 2 2 3
2
89 108
3 2 2 3
2
108 89
3 2 2 3
2
89 112
3 2 2 3
2
112 89
3 2 2 3
2
90 47
3 2 2 3
2
47 90
3 2 2 3
2
90 49
3 2 2 3
2
49 90
3 2 2 3
2
90 50
3 2 2 3
2
50 90
3 2 2 3
2
90 69
3 2 2 3
2
69 90
3 2 2 3
2
90 73
3 2 2 3
2
73 90
3 2 2 3
2
90 83
3 2 2 3
2
83 90
3 2 2 3
2
90 91
3 2 2 3
2
91 90
3 2 2 3
2
90 99
3 2 2 3
2
99 90
3 2 2 3
2
91 26
3 2 2 3
2
26 91
3 2 2 3
2
91 31
3 2 2 3
2
31 91
3 2 2 3
2
91 81
3 2 2 3
2
81 91
3 2 2 3
2
91 93
3 2 2 3
2
93 91
3 2 2 3
2
91 107
3 2 2 3
2
107 91
3 2 2 3
2
91 116
3 2 2 3
2
116 91
3 2 2 3
2
92 0
3 2 2 3
2
0 92
3 2 2 3
2
92 4
3 2 2 3
2
4 92
3 2 2 3
2
92 19
3 2 2 3
2
19 92
3 2 2 3
2
92 39
3 2 2 3
2
39 92
3 2 2 3
2
92 75
3 2 2 3
2
75 92
3 2 2 3
2
92 95
3 2 2 3
2
95 92
3 2 2 3
2
92 98
3 2 2 3
2
98 92
3 2 2 3
2
92 118
3 2 2 3
2
118 92
3 2 2 3
2
93 5
3 2 2 3
2
5 93
3 2 2 3
2
93 44
3 2 2 3
2
44 93
3 2 2 3
2
93 62
3 2 2 3
2
62 93
3 2 2 3
2
93 74
3 2 2 3
2
74 93
3 2 2 3
2
93 96
3 2 2 3
2
96 93
3 2 2 3
2
93 116
3 2 2 3
2
116 93
3 2 2 3
2
94 15
3 2 2 3
2
15 94
3 2 2 3
2
94 18
3 2 2 3
2
18 94
3 2 2 3
2
94 58
3 2 2 3
2
58 94
3 2 2 3
2
94 65
3 2 2 3
2
65 94
3 2 2 3
2
94 70
3 2 2 3
2
70 94
3 2 2 3
2
94 71
3 2 2 3
2
71 94
3 2 2 3
2
94 73
3 2 2 3
2
73 94
3 2 2 3
2
94 74
3 2 2 3
2
74 94
3 2 2 3
2
94 90
3 2 2 3
2
90 94
3 2 2 3
2
94 91
3 2 2 3
2
91 94
3 2 2 3
2
94 93
3 2 2 3
2
93 94
3 2 2 3
2
94 105
3 2 2 3
2
105 94
3 2 2 3
2
95 4
3 2 2 3
2
4 95
3 2 2 3
2
95 64
3 2 2 3
2
64 95
3 2 2 3
2
95 71
3 2 2 3
2
71 95
3 2 2 3
2
95 96
3 2 2 3
2
96 95
3 2 2 3
2
95 114
3 2 2 3
2
114 95
3 2 2 3
2
96 2
3 2 2 3
2
2 96
3 2 2 3
2
96 3
3 2 2 3
2
3 96
3 2 2 3
2
96 23
3 2 2 3
2
23 96
3 2 2 3
2
96 64
3 2 2 3
2
64 96
3 2 2 3
2
96 95
3 2 2 3
2
95 96
3 2 2 3
2
96 99
3 2 2 3
2
99 96
3 2 2 3
2
97 19
3 2 2 3
2
19 97
3 2 2 3
2
97 24
3 2 2 3
2
24 97
3 2 2 3
2
97 40
3 2 2 3
2
40 97
3 2 2 3
2
97 45
3 2 2 3
2
45 97
3 2 2 3
2
97 61
3 2 2 3
2
61 97
3 2 2 3
2
97 99
3 2 2 3
2
99 97
3 2 2 3
2
98 18
3 2 2 3
2
18 98
3 2 2 3
2
98 20
3 2 2 3
2
20 98
3 2 2 3
2
98 21
3 2 2 3
2
21 98
3 2 2 3
2
98 40
3 2 2 3
2
40 98
3 2 2 3
2
98 91
3 2 2 3
2
91 98
3 2 2 3
2
98 95
3 2 2 3
2
95 98
3 2 2 3
2
98 97
3 2 2 3
2
97 98
3 2 2 3
2
98 102
3 2 2 3
2
102 98
3 2 2 3
2
98 105
3 2 2 3
2
105 98
3 2 2 3
2
99 3
3 2 2 3
2
3 99
3 2 2 3
2
99 31
3 2 2 3
2
31 99
3 2 2 3
2
99 55
3 2 2 3
2
55 99
3 2 2 3
2
99 57
3 2 2 3
2
57 99
3 2 2 3
2
99 72
3 2 2 3
2
72 99
3 2 2 3
2
99 78
3 2 2 3
2
78 99
3 2 2 3
2
99 90
3 2 2 3
2
90 99
3 2 2 3
2
99 91
3 2 2 3
2
91 99
3 2 2 3
2
99 93
3 2 2 3
2
93 99
3 2 2 3
2
99 94
3 2 2 3
2
94 99
3 2 2 3
2
99 95
3 2 2 3
2
95 99
3 2 2 3
2
99 96
3 2 2 3
2
96 99
3 2 2 3
2
99 106
3 2 2 3
2
106 99
3 2 2 3
2
99 119
3 2 2 3
2
119 99
3 2 2 3
2
100 81
3 2 2 3
2
81 100
3 2 2 3
2
100 84
3 2 2 3
2
84 100
3 2 2 3
2
100 93
3 2 2 3
2
93 100
3 2 2 3
2
100 105
3 2 2 3
2
105 100
3 2 2 3
2
101 11
3 2 2 3
2
11 101
3 2 2 3
2
101 39
3 2 2 3
2
39 101
3 2 2 3
2
101 62
3 2 2 3
2
62 101
3 2 2 3
2
101 78
3 2 2 3
2
78 101
3 2 2 3
2
101 100
3 2 2 3
2
100 101
3 2 2 3
2
102 4
3 2 2 3
2
4 102
3 2 2 3
2
102 13
3 2 2 3
2
13 102
3 2 2 3
2
102 34
3 2 2 3
2
34 102
3 2 2 3
2
102 35
3 2 2 3
2
35 102
3 2 2 3
2
102 85
3 2 2 3
2
85 102
3 2 2 3
2
102 88
3 2 2 3
2
88 102
3 2 2 3
2
102 103
3 2 2 3
2
103 102
3 2 2 3
2
102 107
3 2 2 3
2
107 102
3 2 2 3
2
102 118
3 2 2 3
2
118 102
3 2 2 3
2
103 35
3 2 2 3
2
35 103
3 2 2 3
2
103 87
3 2 2 3
2
87 103
3 2 2 3
2
103 101
3 2 2 3
2
101 103
3 2 2 3
2
103 105
3 2 2 3
2
105 103
3 2 2 3
2
103 110
3 2 2 3
2
110 103
3 2 2 3
2
103 118
3 2 2 3
2
118 103
3 2 2 3
2
104 50
3 2 2 3
2
50 104
3 2 2 3
2
104 66
3 2 2 3
2
66 104
3 2 2 3
2
104 84
3 2 2 3
2
84 104
3 2 2 3
2
104 103
3 2 2 3
2
103 104
3 2 2 3
2
104 105
3 2 2 3
2
105 104
3 2 2 3
2
104 109
3 2 2 3
2
109 104
3 2 2 3
2
105 43
3 2 2 3
2
43 105
3 2 2 3
2
105 100
3 2 2 3
2
100 105
3 2 2 3
2
105 101
3 2 2 3
2
101 105
3 2 2 3
2
105 102
3 2 2 3
2
102 105
3 2 2 3
2
105 108
3 2 2 3
2
108 105
3 2 2 3
2
106 15
3 2 2 3
2
15 106
3 2 2 3
2
106 17
3 2 2 3
2
17 106
3 2 2 3
2
106 45
3 2 2 3
2
45 106
3 2 2 3
2
106 69
3 2 2 3
2
69 106
3 2 2 3
2
106 102
3 2 2 3
2
102 106
3 2 2 3
2
106 104
3 2 2 3
2
104 106
3 2 2 3
2
106 107
3 2 2 3
2
107 106
3 2 2 3
2
107 9
3 2 2 3
2
9 107
3 2 2 3
2
107 15
3 2 2 3
2
15 107
3 2 2 3
2
107 74
3 2 2 3
2
74 107
3 2 2 3
2
108 6
3 2 2 3
2
6 108
3 2 2 3
2
108 37
3 2 2 3
2
37 108
3 2 2 3
2
108 43
3 2 2 3
2
43 108
3 2 2 3
2
108 55
3 2 2 3
2
55 108
3 2 2 3
2
108 70
3 2 2 3
2
70 108
3 2 2 3
2
108 104
3 2 2 3
2
104 108
3 2 2 3
2
108 105
3 2 2 3
2
105 108
3 2 2 3
2
108 110
3 2 2 3
2
110 108
3 2 2 3
2
109 5
3 2 2 3
2
5 109
3 2 2 3
2
109 45
3 2 2 3
2
45 109
3 2 2 3
2
109 63
3 2 2 3
2
63 109
3 2 2 3
2
109 67
3 2 2 3
2
67 109
3 2 2 3
2
109 70
3 2 2 3
2
70 109
3 2 2 3
2
109 102
3 2 2 3
2
102 109
3 2 2 3
2
110 67
3 2 2 3
2
67 110
3 2 2 3
2
110 70
3 2 2 3
2
70 110
3 2 2 3
2
110 116
3 2 2 3
2
116 110
3 2 2 3
2
110 119
3 2 2 3
2
119 110
3 2 2 3
2
111 9
3 2 2 3
2
9 111
3 2 2 3
2
111 37
3 2 2 3
2
37 111
3 2 2 3
2
111 58
3 2 2 3
2
58 111
3 2 2 3
2
111 108
3 2 2 3
2
108 111
3 2 2 3
2
111 109
3 2 2 3
2
109 111
3 2 2 3
2
112 63
3 2 2 3
2
63 112
3 2 2 3
2
112 110
3 2 2 3
2
110 112
3 2 2 3
2
112 114
3 2 2 3
2
114 112
3 2 2 3
2
112 115
3 2 2 3
2
115 112
3 2 2 3
2
112 116
3 2 2 3
2
116 112
3 2 2 3
2
112 117
3 2 2 3
2
117 112
3 2 2 3
2
113 3
3 2 2 3
2
3 113
3 2 2 3
2
113 22
3 2 2 3
2
22 113
3 2 2 3
2
113 30
3 2 2 3
2
30 113
3 2 2 3
2
113 70
3 2 2 3
2
70 113
3 2 2 3
2
113 76
3 2 2 3
2
76 113
3 2 2 3
2
113 89
3 2 2 3
2
89 113
3 2 2 3
2
113 97
3 2 2 3
2
97 113
3 2 2 3
2
113 110
3 2 2 3
2
110 113
3 2 2 3
2
113 111
3 2 2 3
2
111 113
3 2 2 3
2
113 114
3 2 2 3
2
114 113
3 2 2 3
2
114 36
3 2 2 3
2
36 114
3 2 2 3
2
114 79
3 2 2 3
2
79 114
3 2 2 3
2
114 86
3 2 2 3
2
86 114
3 2 2 3
2
114 109
3 2 2 3
2
109 114
3 2 2 3
2
114 113
3 2 2 3
2
113 114
3 2 2 3
2
114 118
3 2 2 3
2
118 114
3 2 2 3
2
115 19
3 2 2 3
2
19 115
3 2 2 3
2
115 37
3 2 2 3
2
37 115
3 2 2 3
2
115 49
3 2 2 3
2
49 115
3 2 2 3
2
115 70
3 2 2 3
2
70 115
3 2 2 3
2
115 105
3 2 2 3
2
105 115
3 2 2 3
2
115 112
3 2 2 3
2
112 115
3 2 2 3
2
116 54
3 2 2 3
2
54 116
3 2 2 3
2
116 55
3 2 2 3
2
55 116
3 2 2 3
2
116 58
3 2 2 3
2
58 116
3 2 2 3
2
116 68
3 2 2 3
2
68 116
3 2 2 3
2
116 93
3 2 2 3
2
93 116
3 2 2 3
2
116 110
3 2 2 3
2
110 116
3 2 2 3
2
116 111
3 2 2 3
2
111 116
3 2 2 3
2
116 117
3 2 2 3
2
117 116
3 2 2 3
2
117 39
3 2 2 3
2
39 117
3 2 2 3
2
117 55
3 2 2 3
2
55 117
3 2 2 3
2
117 63
3 2 2 3
2
63 117
3 2 2 3
2
117 82
3 2 2 3
2
82 117
3 2 2 3
2
117 107
3 2 2 3
2
107 117
3 2 2 3
2
117 111
3 2 2 3
2
111 117
3 2 2 3
2
117 118
3 2 2 3
2
118 117
3 2 2 3
2
117 119
3 2 2 3
2
119 117
3 2 2 3
2
118 114
3 2 2 3
2
114 118
3 2 2 3
2
118 115
3 2 2 3
2
115 118
3 2 2 3
2
119 22
3 2 2 3
2
22 119
3 2 2 3
2
119 26
3 2 2 3
2
26 119
3 2 2 3
2
119 67
3 2 2 3
2
67 119
3 2 2 3
2
119 94
3 2 2 3
2
94 119
3 2 2 3
2
119 103
3 2 2 3
2
103 119
3 2 2 3
2
119 110
3 2 2 3
2
110 119
3 2 2 3
2
119 114
3 2 2 3
2
114 119
3 2 2 3
2
119 117
3 2 2 3
2
117 119
3 2 2 3
