----------------------------------------
Begin PBS Prologue Tue Jul 18 15:46:32 PDT 2017
Job ID:            23740748.hpc-pbs1.hpcc.usc.edu
Username:          amulyaya
Accountname:       default
Group:             csci-ar
Project:           default
Name:              run_smaller_forced_16.pbs
Queue:             tambe
Shared Access:     no
All Cores:         no
Has MIC:           no
Is hsda:           false
Nodes:             hpc1051 
TMPDIR:            /tmp/23740748.hpc-pbs1.hpcc.usc.edu
End PBS Prologue Tue Jul 18 15:46:34 PDT 2017
----------------------------------------
******************************************************************************
METIS 5.0 Copyright 1998-13, Regents of the University of Minnesota
 (HEAD: , Built on: Oct 20 2015, 01:33:37)
 size of idx_t: 64bits, real_t: 32bits, idx_t *: 64bits

Graph Information -----------------------------------------------------------
 Name: /home/rcf-proj/mj1/amulyaya/pomcp-ve/src/L5vv9P4a9P.txt, #Vertices: 10, #Edges: 13, #Parts: 2

Options ---------------------------------------------------------------------
 ptype=kway, objtype=cut, ctype=shem, rtype=greedy, iptype=metisrb
 dbglvl=0, ufactor=1.030, no2hop=NO, minconn=NO, contig=NO, nooutput=NO
 seed=-1, niter=10, ncuts=1

Direct k-way Partitioning ---------------------------------------------------
 - Edgecut: 0, communication volume: 0.

 - Balance:
     constraint #0:  1.200 out of 0.200

 - Most overweight partition:
     pid: 1, actual: 6, desired: 5, ratio: 1.20.

 - Subdomain connectivity: max: 0, min: 0, avg: 0.00

 - Each partition is contiguous.

Timing Information ----------------------------------------------------------
  I/O:          		   0.001 sec
  Partitioning: 		   0.001 sec   (METIS time)
  Reporting:    		  -0.000 sec

Memory Information ----------------------------------------------------------
  Max memory used:		   0.052 MB
******************************************************************************
Initialising fast UCB table... done
Main runs
Starting run 1 with 65536 simulations... 

Presence: 0111000100
Invited Nodes: 
Actions left: 3
Session index: 1
About to find best action in Step: 0
Values: 0(endSession) 3.3234(query) 0(invite)
Foind best action in Step: 0
Coolie

Action Type: 0
Active Nodes: 6 9 

Presence: 0111000100
Invited Nodes: 
Actions left: 2
Session index: 1

Observation: ..
Reward -0
About to find best action in Step: 1
Values: 3.08619(endSession) 0(query) 3.4453(invite)
Foind best action in Step: 1
Coolie

Action Type: 1
Active Nodes: 0 2 

Presence: 0111000100
Invited Nodes: 2 
Actions left: 1
Session index: 1

Observation: ..10
Reward -0
About to find best action in Step: 2
Values: 3.53804(endSession) 0(query) 3.71804(invite)
Foind best action in Step: 2
Coolie

Action Type: 1
Active Nodes: 7 

Presence: 0111000100
Invited Nodes: 2 7 
Actions left: 0
Session index: 1

Observation: ..1
Reward -0
About to find best action in Step: 3
Foind best action in Step: 3
Coolie

Action Type: 2

Presence: 1000001010
Invited Nodes: 2 7 
Actions left: 3
Session index: 2

Observation: ..
Reward 0
About to find best action in Step: 4
Foind best action in Step: 4
Coolie

Action Type: 2

Presence: 0000001100
Invited Nodes: 2 7 
Actions left: 3
Session index: 3

Observation: ..
Reward 0
About to find best action in Step: 5
Foind best action in Step: 5
Coolie

Action Type: 2

Presence: 0000000000
Invited Nodes: 2 7 
Actions left: 3
Session index: 4

Observation: ..
Reward 4.395
Terminated
Discounted return = 4.395, average = 4.395
Undiscounted return = 4.395, average = 4.395
Starting run 2 with 65536 simulations... 

Presence: 0000000110
Invited Nodes: 
Actions left: 3
Session index: 1
About to find best action in Step: 0
Values: 0(endSession) 3.33149(query) 0(invite)
Foind best action in Step: 0
Coolie

Action Type: 0
Active Nodes: 8 9 

Presence: 0000000110
Invited Nodes: 
Actions left: 2
Session index: 1

Observation: ..1
Reward -0
About to find best action in Step: 1
Values: 3.13614(endSession) 0(query) 3.58901(invite)
Foind best action in Step: 1
Coolie

Action Type: 1
Active Nodes: 0 6 

Presence: 0000000110
Invited Nodes: 
Actions left: 1
Session index: 1

Observation: ..
Reward -0
About to find best action in Step: 2
Values: 3.11157(endSession) 0(query) 3.44127(invite)
Foind best action in Step: 2
Coolie

Action Type: 1
Active Nodes: 2 7 

Presence: 0000000110
Invited Nodes: 7 
Actions left: 0
Session index: 1

Observation: ..10
Reward -0
----------------------------------------
Begin PBS Epilogue Tue Jul 18 15:56:50 PDT 2017
Job ID:           23740748.hpc-pbs1.hpcc.usc.edu
Username:         amulyaya
Accountname:      default
Group:            csci-ar
Job Name:         run_smaller_forced_16.pbs
Session:          16409
Limits:           neednodes=1:ppn=16,nodes=1:ppn=16,walltime=24:00:00
Resources:        cput=00:09:27,energy_used=0,mem=36110280kb,vmem=44376252kb,walltime=00:10:05
Queue:            tambe
Shared Access:    no
Has MIC:          no
Is hsda:          false
removed '/scratch'
End PBS Epilogue Tue Jul 18 15:56:50 PDT 2017
----------------------------------------
