----------------------------------------
Begin PBS Prologue Tue Jul 18 17:08:31 PDT 2017
Job ID:            23743912.hpc-pbs1.hpcc.usc.edu
Username:          amulyaya
Accountname:       default
Group:             csci-ar
Project:           default
Name:              run_dc_forced_13.pbs
Queue:             tambe
Shared Access:     no
All Cores:         no
Has MIC:           no
Is hsda:           false
Nodes:             hpc3443 
TMPDIR:            /tmp/23743912.hpc-pbs1.hpcc.usc.edu
End PBS Prologue Tue Jul 18 17:08:32 PDT 2017
----------------------------------------
******************************************************************************
METIS 5.0 Copyright 1998-13, Regents of the University of Minnesota
 (HEAD: , Built on: Oct 20 2015, 01:33:37)
 size of idx_t: 64bits, real_t: 32bits, idx_t *: 64bits

Graph Information -----------------------------------------------------------
 Name: /home/rcf-proj/mj1/amulyaya/pomcp-ve/src/ZcJEN4vt5K.txt, #Vertices: 41, #Edges: 56, #Parts: 8

Options ---------------------------------------------------------------------
 ptype=kway, objtype=cut, ctype=shem, rtype=greedy, iptype=metisrb
 dbglvl=0, ufactor=1.030, no2hop=NO, minconn=NO, contig=NO, nooutput=NO
 seed=-1, niter=10, ncuts=1

Direct k-way Partitioning ---------------------------------------------------
 - Edgecut: 54, communication volume: 38.

 - Balance:
     constraint #0:  1.171 out of 0.195

 - Most overweight partition:
     pid: 0, actual: 6, desired: 5, ratio: 1.17.

 - Subdomain connectivity: max: 5, min: 0, avg: 2.25

 - The original graph had 4 connected components and the resulting
   partitioning after removing the cut edges has 14 components.
Timing Information ----------------------------------------------------------
  I/O:          		   0.000 sec
  Partitioning: 		   0.003 sec   (METIS time)
  Reporting:    		   0.000 sec

Memory Information ----------------------------------------------------------
  Max memory used:		   0.063 MB
******************************************************************************
Initialising fast UCB table... done
Main runs
Starting run 1 with 8192 simulations... 

Presence: 00000001000000010000001001011001010000000
Invited Nodes: 
Actions left: 4
Session index: 1
About to find best action in Step: 0
Values: 0(endSession) 11.4084(query) 0(invite)
Foind best action in Step: 0
Coolie

Action Type: 0
Active Nodes: 5 28 29 31 40 

Presence: 00000001000000010000001001011001010000000
Invited Nodes: 
Actions left: 3
Session index: 1

Observation: ..1010
Reward -0
About to find best action in Step: 1
Values: 0(endSession) 11.0224(query) 0(invite)
Foind best action in Step: 1
Coolie

Action Type: 0
Active Nodes: 3 17 30 31 38 

Presence: 00000001000000010000001001011001010000000
Invited Nodes: 
Actions left: 2
Session index: 1

Observation: ..1000
Reward -0
About to find best action in Step: 2
Values: 10.0574(endSession) 0(query) 10.8205(invite)
Foind best action in Step: 2
Coolie

Action Type: 1
Active Nodes: 3 17 31 36 40 

Presence: 00000001000000010000001001011001010000000
Invited Nodes: 31 
Actions left: 1
Session index: 1

Observation: ..100
Reward -0
About to find best action in Step: 3
Values: 10.709(endSession) 0(query) 10.7128(invite)
Foind best action in Step: 3
Coolie

Action Type: 1
Active Nodes: 6 28 31 36 

Presence: 00000001000000010000001001011001010000000
Invited Nodes: 28 31 
Actions left: 0
Session index: 1

Observation: ..110
Reward -0
About to find best action in Step: 4
Foind best action in Step: 4
Coolie

Action Type: 2

Presence: 11110110100110111110111010011111110001110
Invited Nodes: 28 31 
Actions left: 4
Session index: 2

Observation: ..
Reward 0
About to find best action in Step: 5
Values: 0(endSession) 11.2104(query) 0(invite)
Foind best action in Step: 5
Coolie

Action Type: 0
Active Nodes: 4 6 29 30 36 

Presence: 11110110100110111110111010011111110001110
Invited Nodes: 28 31 
Actions left: 3
Session index: 2

Observation: ..1110
Reward -0
About to find best action in Step: 6
Values: 0(endSession) 11.623(query) 0(invite)
Foind best action in Step: 6
Coolie

Action Type: 0
Active Nodes: 3 4 12 31 34 

Presence: 11110110100110111110111010011111110001110
Invited Nodes: 28 31 
Actions left: 2
Session index: 2

Observation: ..1101
Reward -0
About to find best action in Step: 7
Values: 10.2269(endSession) 0(query) 12.8418(invite)
Foind best action in Step: 7
Coolie

Action Type: 1
Active Nodes: 3 5 6 

Presence: 11110110100110111110111010011111110001110
Invited Nodes: 3 5 6 28 31 
Actions left: 1
Session index: 2

Observation: ..111
Reward -0
About to find best action in Step: 8
Foind best action in Step: 8
Coolie

Action Type: 2

Presence: 00000001100011000000101100010000001001001
Invited Nodes: 3 5 6 28 31 
Actions left: 4
Session index: 3

Observation: ..
Reward 0
About to find best action in Step: 9
Foind best action in Step: 9
Coolie

Action Type: 2

Presence: 11111110011100111111010111111111110011101
Invited Nodes: 3 5 6 28 31 
Actions left: 4
Session index: 4

Observation: ..
Reward 0
About to find best action in Step: 10
Foind best action in Step: 10
Coolie

Action Type: 2

Presence: 00001000011110000001011101110000101010000
Invited Nodes: 3 5 6 28 31 
Actions left: 4
Session index: 5

Observation: ..
Reward 0
About to find best action in Step: 11
Foind best action in Step: 11
Coolie

Action Type: 2

Presence: 00000001110011000000000001010000100111010
Invited Nodes: 3 5 6 28 31 
Actions left: 4
Session index: 6

Observation: ..
Reward 0
About to find best action in Step: 12
Foind best action in Step: 12
Coolie

Action Type: 2

Presence: 11110011100000010110100011000111111011000
Invited Nodes: 3 5 6 28 31 
Actions left: 4
Session index: 7

Observation: ..
Reward 19.554
Terminated
Discounted return = 19.554, average = 19.554
Undiscounted return = 19.554, average = 19.554
Simulations = 8192
Runs = 1
Undiscounted return = 19.554 +- 0
Discounted return = 19.554 +- 0
Time = 237.11
----------------------------------------
Begin PBS Epilogue Tue Jul 18 17:12:33 PDT 2017
Job ID:           23743912.hpc-pbs1.hpcc.usc.edu
Username:         amulyaya
Accountname:      default
Group:            csci-ar
Job Name:         run_dc_forced_13.pbs
Session:          13122
Limits:           neednodes=1:ppn=16,nodes=1:ppn=16,walltime=24:00:00
Resources:        cput=00:04:00,energy_used=0,mem=29127984kb,vmem=28081852kb,walltime=00:04:01
Queue:            tambe
Shared Access:    no
Has MIC:          no
Is hsda:          false
removed '/scratch'
End PBS Epilogue Tue Jul 18 17:12:33 PDT 2017
----------------------------------------
