----------------------------------------
Begin PBS Prologue Tue Jul 18 12:35:41 PDT 2017
Job ID:            23733623.hpc-pbs1.hpcc.usc.edu
Username:          amulyaya
Accountname:       default
Group:             csci-ar
Project:           default
Name:              run_dc_forced.pbs
Queue:             tambe
Shared Access:     no
All Cores:         no
Has MIC:           no
Is hsda:           false
Nodes:             hpc3444 
TMPDIR:            /tmp/23733623.hpc-pbs1.hpcc.usc.edu
End PBS Prologue Tue Jul 18 12:35:43 PDT 2017
----------------------------------------
******************************************************************************
METIS 5.0 Copyright 1998-13, Regents of the University of Minnesota
 (HEAD: , Built on: Oct 20 2015, 01:33:37)
 size of idx_t: 64bits, real_t: 32bits, idx_t *: 64bits

Graph Information -----------------------------------------------------------
 Name: /home/rcf-proj/mj1/amulyaya/pomcp-ve/src/ibMR1G4zQd.txt, #Vertices: 56, #Edges: 137, #Parts: 8

Options ---------------------------------------------------------------------
 ptype=kway, objtype=cut, ctype=shem, rtype=greedy, iptype=metisrb
 dbglvl=0, ufactor=1.030, no2hop=NO, minconn=NO, contig=NO, nooutput=NO
 seed=-1, niter=10, ncuts=1

Direct k-way Partitioning ---------------------------------------------------
 - Edgecut: 160, communication volume: 109.

 - Balance:
     constraint #0:  1.000 out of 0.143

 - Most overweight partition:
     pid: 0, actual: 7, desired: 7, ratio: 1.00.

 - Subdomain connectivity: max: 7, min: 2, avg: 5.50

 - The original graph had 2 connected components and the resulting
   partitioning after removing the cut edges has 15 components.
Timing Information ----------------------------------------------------------
  I/O:          		   0.001 sec
  Partitioning: 		   0.005 sec   (METIS time)
  Reporting:    		   0.000 sec

Memory Information ----------------------------------------------------------
  Max memory used:		   0.072 MB
******************************************************************************
BRO YOU SILLY
----------------------------------------
Begin PBS Epilogue Tue Jul 18 12:35:43 PDT 2017
Job ID:           23733623.hpc-pbs1.hpcc.usc.edu
Username:         amulyaya
Accountname:      default
Group:            csci-ar
Job Name:         run_dc_forced.pbs
Session:          810
Limits:           neednodes=1:ppn=16,nodes=1:ppn=16,walltime=24:00:00
Resources:        cput=00:00:00,energy_used=0,mem=18764kb,vmem=0kb,walltime=00:00:01
Queue:            tambe
Shared Access:    no
Has MIC:          no
Is hsda:          false
removed '/scratch'
End PBS Epilogue Tue Jul 18 12:35:43 PDT 2017
----------------------------------------
