----------------------------------------
Begin PBS Prologue Thu Aug 31 17:21:59 PDT 2017
Job ID:            24132704.hpc-pbs1.hpcc.usc.edu
Username:          amulyaya
Accountname:       default
Group:             csci-ar
Project:           default
Name:              0.pbs
Queue:             tambe
Shared Access:     no
All Cores:         no
Has MIC:           no
Is hsda:           false
Nodes:             hpc3443 
TMPDIR:            /tmp/24132704.hpc-pbs1.hpcc.usc.edu
End PBS Prologue Thu Aug 31 17:22:00 PDT 2017
----------------------------------------
******************************************************************************
METIS 5.0 Copyright 1998-13, Regents of the University of Minnesota
 (HEAD: , Built on: Oct 20 2015, 01:33:37)
 size of idx_t: 64bits, real_t: 32bits, idx_t *: 64bits

Graph Information -----------------------------------------------------------
 Name: /home/rcf-proj/mj1/amulyaya/pomcp-ve/src/TLT2cLej6V.txt, #Vertices: 80, #Edges: 231, #Parts: 8

Options ---------------------------------------------------------------------
 ptype=kway, objtype=cut, ctype=shem, rtype=greedy, iptype=metisrb
 dbglvl=0, ufactor=1.030, no2hop=NO, minconn=NO, contig=NO, nooutput=NO
 seed=-1, niter=10, ncuts=1

Direct k-way Partitioning ---------------------------------------------------
 - Edgecut: 166, communication volume: 223.

 - Balance:
     constraint #0:  1.000 out of 0.100

 - Most overweight partition:
     pid: 0, actual: 10, desired: 10, ratio: 1.00.

 - Subdomain connectivity: max: 7, min: 7, avg: 7.00

 - There are 6 non-contiguous partitions.
   Total components after removing the cut edges: 22,
   max components: 5 for pid: 1.

Timing Information ----------------------------------------------------------
  I/O:          		   0.001 sec
  Partitioning: 		   0.007 sec   (METIS time)
  Reporting:    		   0.000 sec

Memory Information ----------------------------------------------------------
  Max memory used:		   0.086 MB
******************************************************************************
Initialising fast UCB table... done
Main runs
Starting run 1 with 1024 simulations... 

Presence: 11111111011101110111111110111111101000010111011111101101001010001111010111010101
Invited Nodes: 
Actions left: 3
Session index: 1
About to find best action in Step: 0
Values: 2(endSession) 7.42661(query) 7.5242(invite)
Foind best action in Step: 0
Coolie

Action Type: 1
Active Nodes: 3 42 

Presence: 11111111011101110111111110111111101000010111011111101101001010001111010111010101
Invited Nodes: 3 42 
Actions left: 2
Session index: 1

Observation: ..11
Reward -0
About to find best action in Step: 1
Foind best action in Step: 1
Coolie

Action Type: 2

Presence: 11111111011111111111111011011101010011111101011111111010111111100111111000010111
Invited Nodes: 3 42 
Actions left: 3
Session index: 2

Observation: ..
Reward 0
About to find best action in Step: 2
Foind best action in Step: 2
Coolie

Action Type: 2

Presence: 00000000000000000001011010010001000001100111000100000001011011100000101000000001
Invited Nodes: 3 42 
Actions left: 3
Session index: 3

Observation: ..
Reward 0
About to find best action in Step: 3
Foind best action in Step: 3
Coolie

Action Type: 2

Presence: 11111101010111010111111011111011110110110111111111000110011010110111111100110001
Invited Nodes: 3 42 
Actions left: 3
Session index: 4

Observation: ..
Reward 0
About to find best action in Step: 4
Foind best action in Step: 4
Coolie

Action Type: 2

Presence: 00000000000001000010100111010000000101000011100110010100000010011000011101001100
Invited Nodes: 3 42 
Actions left: 3
Session index: 5

Observation: ..
Reward 0
About to find best action in Step: 5
Foind best action in Step: 5
Coolie

Action Type: 2

Presence: 11111111111101101110001010100110111111111101110001010100100000101001000010101010
Invited Nodes: 3 42 
Actions left: 3
Session index: 6

Observation: ..
Reward 0
About to find best action in Step: 6
Foind best action in Step: 6
Coolie

Action Type: 2

Presence: 00000000100000000001001101010010000000001000000100100100000101100011010000100100
Invited Nodes: 3 42 
Actions left: 3
Session index: 7

Observation: ..
Reward 17.76
Terminated
Discounted return = 17.76, average = 17.76
Undiscounted return = 17.76, average = 17.76
Starting run 2 with 1024 simulations... 

Presence: 00000000101000000000000000101100001101100000010100000010000000010000110000100101
Invited Nodes: 
Actions left: 3
Session index: 1
About to find best action in Step: 0
Values: 2(endSession) 7.87172(query) 7.50905(invite)
Foind best action in Step: 0
Coolie

Action Type: 0
Active Nodes: 16 70 

Presence: 00000000101000000000000000101100001101100000010100000010000000010000110000100101
Invited Nodes: 
Actions left: 2
Session index: 1

Observation: ..
Reward -0
About to find best action in Step: 1
Values: 11.005(endSession) 7.18805(query) 7.83088(invite)
Foind best action in Step: 1
Coolie

Action Type: 2

Presence: 00001010101001101101100000110000001111000100001010000000100100000111000010000100
Invited Nodes: 
Actions left: 3
Session index: 2

Observation: ..
Reward 0
About to find best action in Step: 2
Values: 4.392(endSession) 7.88619(query) 7.90115(invite)
Foind best action in Step: 2
Coolie

Action Type: 1
Active Nodes: 3 7 

Presence: 00001010101001101101100000110000001111000100001010000000100100000111000010000100
Invited Nodes: 
Actions left: 2
Session index: 2

Observation: ..
Reward -0
About to find best action in Step: 3
Values: 3.202(endSession) 7.66604(query) 7.18803(invite)
Foind best action in Step: 3
Coolie

Action Type: 0
Active Nodes: 34 58 

Presence: 00001010101001101101100000110000001111000100001010000000100100000111000010000100
Invited Nodes: 
Actions left: 1
Session index: 2

Observation: ..1
Reward -0
About to find best action in Step: 4
Values: 2(endSession) 7.17254(query) 6.53245(invite)
Foind best action in Step: 4
Coolie

Action Type: 0
Active Nodes: 52 78 

Presence: 00001010101001101101100000110000001111000100001010000000100100000111000010000100
Invited Nodes: 
Actions left: 0
Session index: 2

Observation: ..
Reward -0
About to find best action in Step: 5
Foind best action in Step: 5
Coolie

Action Type: 2

Presence: 00000000000100000000000110001000000000101010000111101001110010000011000110000100
Invited Nodes: 
Actions left: 3
Session index: 3

Observation: ..
Reward 0
About to find best action in Step: 6
Values: 1(endSession) 7.99948(query) 8.43211(invite)
Foind best action in Step: 6
Coolie

Action Type: 1
Active Nodes: 2 6 

Presence: 00000000000100000000000110001000000000101010000111101001110010000011000110000100
Invited Nodes: 
Actions left: 2
Session index: 3

Observation: ..
Reward -0
About to find best action in Step: 7
Values: 2.564(endSession) 6.77902(query) 6.68022(invite)
Foind best action in Step: 7
Coolie

Action Type: 0
Active Nodes: 8 30 

Presence: 00000000000100000000000110001000000000101010000111101001110010000011000110000100
Invited Nodes: 
Actions left: 1
Session index: 3

Observation: ..
Reward -0
About to find best action in Step: 8
Values: 2.613(endSession) 7.44247(query) 7.27876(invite)
Foind best action in Step: 8
Coolie

Action Type: 0
Active Nodes: 36 50 

Presence: 00000000000100000000000110001000000000101010000111101001110010000011000110000100
Invited Nodes: 
Actions left: 0
Session index: 3

Observation: ..10
Reward -0
About to find best action in Step: 9
Foind best action in Step: 9
Coolie

Action Type: 2

Presence: 11111101011111110111011110011110110100011110110111110111110111011101111100101110
Invited Nodes: 
Actions left: 3
Session index: 4

Observation: ..
Reward 0
About to find best action in Step: 10
Values: 16.695(endSession) 7.92548(query) 7.53559(invite)
Foind best action in Step: 10
Coolie

Action Type: 2

Presence: 11111111100111111111111000111000011011111101001111110000101100000101100011000110
Invited Nodes: 
Actions left: 3
Session index: 5

Observation: ..
Reward 0
About to find best action in Step: 11
Values: 4.452(endSession) 7.40233(query) 7.47293(invite)
Foind best action in Step: 11
Coolie

Action Type: 1
Active Nodes: 2 24 

Presence: 11111111100111111111111000111000011011111101001111110000101100000101100011000110
Invited Nodes: 2 
Actions left: 2
Session index: 5

Observation: ..1
Reward -0
About to find best action in Step: 12
Values: 15.361(endSession) 17.9239(query) 18.551(invite)
Foind best action in Step: 12
Coolie

Action Type: 1
Active Nodes: 7 

Presence: 11111111100111111111111000111000011011111101001111110000101100000101100011000110
Invited Nodes: 2 7 
Actions left: 1
Session index: 5

Observation: ..1
Reward -0
About to find best action in Step: 13
Foind best action in Step: 13
Coolie

Action Type: 2

Presence: 01000000000000100001011001000100011000000110000001000010100100101000101000100000
Invited Nodes: 2 7 
Actions left: 3
Session index: 6

Observation: ..
Reward 0
About to find best action in Step: 14
Foind best action in Step: 14
Coolie

Action Type: 2

Presence: 01000000000000000000000101001100010000001100001010101010111001010000000001001000
Invited Nodes: 2 7 
Actions left: 3
Session index: 7

Observation: ..
Reward 24.264
Terminated
Discounted return = 24.264, average = 21.012
Undiscounted return = 24.264, average = 21.012
Starting run 3 with 1024 simulations... 

Presence: 00000100010000110010011111011111100110100000001001011100101101010110011000110001
Invited Nodes: 
Actions left: 3
Session index: 1
About to find best action in Step: 0
Values: 4.416(endSession) 7.26729(query) 7.33625(invite)
Foind best action in Step: 0
Coolie

Action Type: 1
Active Nodes: 17 52 

Presence: 00000100010000110010011111011111100110100000001001011100101101010110011000110001
Invited Nodes: 52 
Actions left: 2
Session index: 1

Observation: ..10
Reward -0
About to find best action in Step: 1
Values: 2.588(endSession) 5.33278(query) 5.82307(invite)
Foind best action in Step: 1
Coolie

Action Type: 1
Active Nodes: 2 

Presence: 00000100010000110010011111011111100110100000001001011100101101010110011000110001
Invited Nodes: 52 
Actions left: 1
Session index: 1

Observation: ..
Reward -0
About to find best action in Step: 2
Values: 3.177(endSession) 5.65059(query) 4.83469(invite)
Foind best action in Step: 2
Coolie

Action Type: 0
Active Nodes: 20 73 

Presence: 00000100010000110010011111011111100110100000001001011100101101010110011000110001
Invited Nodes: 52 
Actions left: 0
Session index: 1

Observation: ..
Reward -0
About to find best action in Step: 3
Foind best action in Step: 3
Coolie

Action Type: 2

Presence: 11111111111111111101111101011111111111111011101111101011101111110110101011011111
Invited Nodes: 52 
Actions left: 3
Session index: 2

Observation: ..
Reward 0
About to find best action in Step: 4
Values: 17.641(endSession) 5.76632(query) 5.76842(invite)
Foind best action in Step: 4
Coolie

Action Type: 2

Presence: 00000010001000000000100001101000100101001000101000000000111111000101000001011100
Invited Nodes: 52 
Actions left: 3
Session index: 3

Observation: ..
Reward 0
About to find best action in Step: 5
Values: 1.595(endSession) 5.90848(query) 5.37932(invite)
Foind best action in Step: 5
Coolie

Action Type: 0
Active Nodes: 69 79 

Presence: 00000010001000000000100001101000100101001000101000000000111111000101000001011100
Invited Nodes: 52 
Actions left: 2
Session index: 3

Observation: ..
Reward -0
About to find best action in Step: 6
Values: 3.763(endSession) 5.42188(query) 6.11313(invite)
Foind best action in Step: 6
Coolie

Action Type: 1
Active Nodes: 3 

Presence: 00000010001000000000100001101000100101001000101000000000111111000101000001011100
Invited Nodes: 52 
Actions left: 1
Session index: 3

Observation: ..
Reward -0
About to find best action in Step: 7
Values: 5.64(endSession) 5.70768(query) 5.26632(invite)
Foind best action in Step: 7
Coolie

Action Type: 0
Active Nodes: 12 77 

Presence: 00000010001000000000100001101000100101001000101000000000111111000101000001011100
Invited Nodes: 52 
Actions left: 0
Session index: 3

Observation: ..10
Reward -0
About to find best action in Step: 8
Foind best action in Step: 8
Coolie

Action Type: 2

Presence: 10000000000000000000001110000001100100010001000000110011101010000110010001111110
Invited Nodes: 52 
Actions left: 3
Session index: 4

Observation: ..
Reward 0
About to find best action in Step: 9
Values: 2.602(endSession) 5.77295(query) 6.16834(invite)
Foind best action in Step: 9
Coolie

Action Type: 1
Active Nodes: 3 

Presence: 10000000000000000000001110000001100100010001000000110011101010000110010001111110
Invited Nodes: 52 
Actions left: 2
Session index: 4

Observation: ..
Reward -0
About to find best action in Step: 10
Values: 1.616(endSession) 5.11536(query) 5.15848(invite)
Foind best action in Step: 10
Coolie

Action Type: 1
Active Nodes: 2 

Presence: 10000000000000000000001110000001100100010001000000110011101010000110010001111110
Invited Nodes: 52 
Actions left: 1
Session index: 4

Observation: ..
Reward -0
About to find best action in Step: 11
Values: 6.811(endSession) 5.74637(query) 4.68545(invite)
Foind best action in Step: 11
Coolie

Action Type: 2

Presence: 11111011111111111011110101011101111111111011111111101111111110111101011110101001
Invited Nodes: 52 
Actions left: 3
Session index: 5

Observation: ..
Reward 0
About to find best action in Step: 12
Values: 1.596(endSession) 4.95848(query) 5.86841(invite)
Foind best action in Step: 12
Coolie

Action Type: 1
Active Nodes: 2 

Presence: 11111011111111111011110101011101111111111011111111101111111110111101011110101001
Invited Nodes: 2 52 
Actions left: 2
Session index: 5

Observation: ..1
Reward -0
About to find best action in Step: 13
Foind best action in Step: 13
Coolie

Action Type: 2

Presence: 11111111111111111111111011010110101010110111111101111110111011101111011110111111
Invited Nodes: 2 52 
Actions left: 3
Session index: 6

Observation: ..
Reward 0
About to find best action in Step: 14
Foind best action in Step: 14
Coolie

Action Type: 2

Presence: 00000000000010001000000000000101010111100011000000100100100000000000100001000001
Invited Nodes: 2 52 
Actions left: 3
Session index: 7

Observation: ..
Reward 16.936
Terminated
Discounted return = 16.936, average = 19.6533
Undiscounted return = 16.936, average = 19.6533
Starting run 4 with 1024 simulations... 

Presence: 10000000100001000000000110000000110111100010100101000000100011111111100000100001
Invited Nodes: 
Actions left: 3
Session index: 1
About to find best action in Step: 0
Values: 3.187(endSession) 6.94086(query) 8.50276(invite)
Foind best action in Step: 0
Coolie

Action Type: 1
Active Nodes: 3 14 

Presence: 10000000100001000000000110000000110111100010100101000000100011111111100000100001
Invited Nodes: 
Actions left: 2
Session index: 1

Observation: ..
Reward -0
About to find best action in Step: 1
Values: 2.594(endSession) 6.65548(query) 7.20392(invite)
Foind best action in Step: 1
Coolie

Action Type: 1
Active Nodes: 4 51 

Presence: 10000000100001000000000110000000110111100010100101000000100011111111100000100001
Invited Nodes: 
Actions left: 1
Session index: 1

Observation: ..
Reward -0
About to find best action in Step: 2
Values: 3.209(endSession) 7.0396(query) 7.63288(invite)
Foind best action in Step: 2
Coolie

Action Type: 1
Active Nodes: 18 23 

Presence: 10000000100001000000000110000000110111100010100101000000100011111111100000100001
Invited Nodes: 23 
Actions left: 0
Session index: 1

Observation: ..10
Reward -0
About to find best action in Step: 3
Foind best action in Step: 3
Coolie

Action Type: 2

Presence: 10111111010100111101110111011111011111101111101110100111111111111111010110111001
Invited Nodes: 23 
Actions left: 3
Session index: 2

Observation: ..
Reward 0
About to find best action in Step: 4
Values: 3.831(endSession) 6.09158(query) 6.88431(invite)
Foind best action in Step: 4
Coolie

Action Type: 1
Active Nodes: 3 

Presence: 10111111010100111101110111011111011111101111101110100111111111111111010110111001
Invited Nodes: 3 23 
Actions left: 2
Session index: 2

Observation: ..1
Reward -0
About to find best action in Step: 5
Foind best action in Step: 5
Coolie

Action Type: 2

Presence: 00000000000000000000100000000000000000001100000000100101010101110100000001010010
Invited Nodes: 3 23 
Actions left: 3
Session index: 3

Observation: ..
Reward 0
About to find best action in Step: 6
Foind best action in Step: 6
Coolie

Action Type: 2

Presence: 11111111111111111111111111100111111110110101111111111111111110111010111100010111
Invited Nodes: 3 23 
Actions left: 3
Session index: 4

Observation: ..
Reward 0
About to find best action in Step: 7
Foind best action in Step: 7
Coolie

Action Type: 2

Presence: 10000000000000001000100000000000010100000100000010000010000100001000010100001000
Invited Nodes: 3 23 
Actions left: 3
Session index: 5

Observation: ..
Reward 0
About to find best action in Step: 8
Foind best action in Step: 8
Coolie

Action Type: 2

Presence: 00000010001000000001100000000001000001100000000000100000000100000010001000101100
Invited Nodes: 3 23 
Actions left: 3
Session index: 6

Observation: ..
Reward 0
About to find best action in Step: 9
Foind best action in Step: 9
Coolie

Action Type: 2

Presence: 00000000100000001010001000010001100001000001001100010001001000000000000100100011
Invited Nodes: 3 23 
Actions left: 3
Session index: 7

Observation: ..
Reward 18.268
Terminated
Discounted return = 18.268, average = 19.307
Undiscounted return = 18.268, average = 19.307
Starting run 5 with 1024 simulations... 

Presence: 11111111111111111111111110101011111101111111100110111010001011111011111011100110
Invited Nodes: 
Actions left: 3
Session index: 1
About to find best action in Step: 0
Values: 3.801(endSession) 7.53486(query) 8.72003(invite)
Foind best action in Step: 0
Coolie

Action Type: 1
Active Nodes: 2 3 

Presence: 11111111111111111111111110101011111101111111100110111010001011111011111011100110
Invited Nodes: 2 3 
Actions left: 2
Session index: 1

Observation: ..11
Reward -0
About to find best action in Step: 1
Foind best action in Step: 1
Coolie

Action Type: 2

Presence: 10111101111111111111111110111011110111111101111111011110111100001110010110111011
Invited Nodes: 2 3 
Actions left: 3
Session index: 2

Observation: ..
Reward 0
About to find best action in Step: 2
Foind best action in Step: 2
Coolie

Action Type: 2

Presence: 10111111111111111101110111001110001110101101111110111111111111111111101011111111
Invited Nodes: 2 3 
Actions left: 3
Session index: 3

Observation: ..
Reward 0
About to find best action in Step: 3
Foind best action in Step: 3
Coolie

Action Type: 2

Presence: 11111111111111111011110110111111011101110110011110111111110111110001011011101011
Invited Nodes: 2 3 
Actions left: 3
Session index: 4

Observation: ..
Reward 0
About to find best action in Step: 4
Foind best action in Step: 4
Coolie

Action Type: 2

Presence: 11111111011111111111011111111111111111111111111111111110110111111111111110011110
Invited Nodes: 2 3 
Actions left: 3
Session index: 5

Observation: ..
Reward 0
About to find best action in Step: 5
Foind best action in Step: 5
Coolie

Action Type: 2

Presence: 11111111111111011111111001101111111111101011111111111111101011111111111010111111
Invited Nodes: 2 3 
Actions left: 3
Session index: 6

Observation: ..
Reward 0
About to find best action in Step: 6
Foind best action in Step: 6
Coolie

Action Type: 2

Presence: 11111111011101111101111110111100011110101101011101011011111110111111101111111001
Invited Nodes: 2 3 
Actions left: 3
Session index: 7

Observation: ..
Reward 26.907
Terminated
Discounted return = 26.907, average = 20.827
Undiscounted return = 26.907, average = 20.827
Starting run 6 with 1024 simulations... 

Presence: 11111111011111011100110101101111111110101111101111101111100101100011110011101101
Invited Nodes: 
Actions left: 3
Session index: 1
About to find best action in Step: 0
Values: 3.835(endSession) 7.42008(query) 7.96088(invite)
Foind best action in Step: 0
Coolie

Action Type: 1
Active Nodes: 26 45 

Presence: 11111111011111011100110101101111111110101111101111101111100101100011110011101101
Invited Nodes: 26 
Actions left: 2
Session index: 1

Observation: ..1
Reward -0
About to find best action in Step: 1
Values: 7.398(endSession) 5.45333(query) 5.75616(invite)
Foind best action in Step: 1
Coolie

Action Type: 2

Presence: 00000000000100000000000000100100010100000100000000000010000100000000000000000110
Invited Nodes: 26 
Actions left: 3
Session index: 2

Observation: ..
Reward 0
About to find best action in Step: 2
Values: 3.207(endSession) 5.48165(query) 5.37223(invite)
Foind best action in Step: 2
Coolie

Action Type: 0
Active Nodes: 3 28 

Presence: 00000000000100000000000000100100010100000100000000000010000100000000000000000110
Invited Nodes: 26 
Actions left: 2
Session index: 2

Observation: ..
Reward -0
About to find best action in Step: 3
Values: 2.601(endSession) 5.57785(query) 4.7226(invite)
Foind best action in Step: 3
Coolie

Action Type: 0
Active Nodes: 43 62 

Presence: 00000000000100000000000000100100010100000100000000000010000100000000000000000110
Invited Nodes: 26 
Actions left: 1
Session index: 2

Observation: ..
Reward -0
About to find best action in Step: 4
Values: 2.59(endSession) 5.76956(query) 4.67656(invite)
Foind best action in Step: 4
Coolie

Action Type: 0
Active Nodes: 44 58 

Presence: 00000000000100000000000000100100010100000100000000000010000100000000000000000110
Invited Nodes: 26 
Actions left: 0
Session index: 2

Observation: ..
Reward -0
About to find best action in Step: 5
Foind best action in Step: 5
Coolie

Action Type: 2

Presence: 11111111111101111111111111111000011001011111101111111111001001101111111111110101
Invited Nodes: 26 
Actions left: 3
Session index: 3

Observation: ..
Reward 0
About to find best action in Step: 6
Values: 3.199(endSession) 5.2176(query) 6.08928(invite)
Foind best action in Step: 6
Coolie

Action Type: 1
Active Nodes: 2 

Presence: 11111111111101111111111111111000011001011111101111111111001001101111111111110101
Invited Nodes: 2 26 
Actions left: 2
Session index: 3

Observation: ..1
Reward -0
About to find best action in Step: 7
Foind best action in Step: 7
Coolie

Action Type: 2

Presence: 11111111011111111111011110100111100110101111010101101111111011010111111011011111
Invited Nodes: 2 26 
Actions left: 3
Session index: 4

Observation: ..
Reward 0
About to find best action in Step: 8
Foind best action in Step: 8
Coolie

Action Type: 2

Presence: 11111111111111010111011111111111110011111110101011111110101111111111111111111111
Invited Nodes: 2 26 
Actions left: 3
Session index: 5

Observation: ..
Reward 0
About to find best action in Step: 9
Foind best action in Step: 9
Coolie

Action Type: 2

Presence: 11000000100000010011111110000000110100010110010100100000010101000101001001110110
Invited Nodes: 2 26 
Actions left: 3
Session index: 6

Observation: ..
Reward 0
About to find best action in Step: 10
Foind best action in Step: 10
Coolie

Action Type: 2

Presence: 01111111001101011111110111111101111110110101111111101101101010100101000111011110
Invited Nodes: 2 26 
Actions left: 3
Session index: 7

Observation: ..
Reward 16.379
Terminated
Discounted return = 16.379, average = 20.0857
Undiscounted return = 16.379, average = 20.0857
Starting run 7 with 1024 simulations... 

Presence: 11110111011011111100110111101111111011011110110101001110100011101110111000100011
Invited Nodes: 
Actions left: 3
Session index: 1
About to find best action in Step: 0
Values: 6.233(endSession) 7.55576(query) 7.64251(invite)
Foind best action in Step: 0
Coolie

Action Type: 1
Active Nodes: 0 2 

Presence: 11110111011011111100110111101111111011011110110101001110100011101110111000100011
Invited Nodes: 0 2 
Actions left: 2
Session index: 1

Observation: ..11
Reward -0
About to find best action in Step: 1
Foind best action in Step: 1
Coolie

Action Type: 2

Presence: 10000000000000000000001010000000001000000010000000010000010010011000101010000000
Invited Nodes: 0 2 
Actions left: 3
Session index: 2

Observation: ..
Reward 0
About to find best action in Step: 2
Foind best action in Step: 2
Coolie

Action Type: 2

Presence: 01000000000000100001101001010000000000001000000000000111011100111010001000000100
Invited Nodes: 0 2 
Actions left: 3
Session index: 3

Observation: ..
Reward 0
About to find best action in Step: 3
Foind best action in Step: 3
Coolie

Action Type: 2

Presence: 01000011000010100001001011111110000100010100001010101000001100001010001100000110
Invited Nodes: 0 2 
Actions left: 3
Session index: 4

Observation: ..
Reward 0
About to find best action in Step: 4
Foind best action in Step: 4
Coolie

Action Type: 2

Presence: 11111111111111111100110111011110111111101111111100110101110111110111101111111001
Invited Nodes: 0 2 
Actions left: 3
Session index: 5

Observation: ..
Reward 0
About to find best action in Step: 5
Foind best action in Step: 5
Coolie

Action Type: 2

Presence: 00000000000000000100000000110000010100000010001100000001001000100001001001111000
Invited Nodes: 0 2 
Actions left: 3
Session index: 6

Observation: ..
Reward 0
About to find best action in Step: 6
Foind best action in Step: 6
Coolie

Action Type: 2

Presence: 00000110100101000000100000000000001000000000000010000100000011001010110110000000
Invited Nodes: 0 2 
Actions left: 3
Session index: 7

Observation: ..
Reward 21.735
Terminated
Discounted return = 21.735, average = 20.3213
Undiscounted return = 21.735, average = 20.3213
Starting run 8 with 1024 simulations... 

Presence: 10111111110111010111011111101110010110111111111100110101110101110110110011000101
Invited Nodes: 
Actions left: 3
Session index: 1
About to find best action in Step: 0
Values: 6.783(endSession) 7.18358(query) 8.30826(invite)
Foind best action in Step: 0
Coolie

Action Type: 1
Active Nodes: 3 28 

Presence: 10111111110111010111011111101110010110111111111100110101110101110110110011000101
Invited Nodes: 3 28 
Actions left: 2
Session index: 1

Observation: ..11
Reward -0
About to find best action in Step: 1
Foind best action in Step: 1
Coolie

Action Type: 2

Presence: 11111111111111111111110101010111111111111101111101101111111111010011101011111111
Invited Nodes: 3 28 
Actions left: 3
Session index: 2

Observation: ..
Reward 0
About to find best action in Step: 2
Foind best action in Step: 2
Coolie

Action Type: 2

Presence: 00000000000000000010110000010000000000010000001010001010001001001100001101000000
Invited Nodes: 3 28 
Actions left: 3
Session index: 3

Observation: ..
Reward 0
About to find best action in Step: 3
Foind best action in Step: 3
Coolie

Action Type: 2

Presence: 00000000000100100000000000000100000001000000000000100000001110000000001100000000
Invited Nodes: 3 28 
Actions left: 3
Session index: 4

Observation: ..
Reward 0
About to find best action in Step: 4
Foind best action in Step: 4
Coolie

Action Type: 2

Presence: 00000000000000100000000000000000000110000000000000000000000001001000000100000000
Invited Nodes: 3 28 
Actions left: 3
Session index: 5

Observation: ..
Reward 0
About to find best action in Step: 5
Foind best action in Step: 5
Coolie

Action Type: 2

Presence: 10111111111111111111110111101111111110101111111101111101101101110101111111111101
Invited Nodes: 3 28 
Actions left: 3
Session index: 6

Observation: ..
Reward 0
About to find best action in Step: 6
Foind best action in Step: 6
Coolie

Action Type: 2

Presence: 11111111110101011101011110111101101010101100111111001110111111000110101110111101
Invited Nodes: 3 28 
Actions left: 3
Session index: 7

Observation: ..
Reward 17.871
Terminated
Discounted return = 17.871, average = 20.015
Undiscounted return = 17.871, average = 20.015
Starting run 9 with 1024 simulations... 

Presence: 00000000000000000000001000111000110001000010000001000000000000101000010100001000
Invited Nodes: 
Actions left: 3
Session index: 1
About to find best action in Step: 0
Values: 2(endSession) 8.03867(query) 8.06516(invite)
Foind best action in Step: 0
Coolie

Action Type: 1
Active Nodes: 3 9 

Presence: 00000000000000000000001000111000110001000010000001000000000000101000010100001000
Invited Nodes: 
Actions left: 2
Session index: 1

Observation: ..
Reward -0
About to find best action in Step: 1
Values: 3.797(endSession) 7.5492(query) 6.12464(invite)
Foind best action in Step: 1
Coolie

Action Type: 0
Active Nodes: 3 37 

Presence: 00000000000000000000001000111000110001000010000001000000000000101000010100001000
Invited Nodes: 
Actions left: 1
Session index: 1

Observation: ..10
Reward -0
About to find best action in Step: 2
Values: 5.023(endSession) 7.5136(query) 7.07624(invite)
Foind best action in Step: 2
Coolie

Action Type: 0
Active Nodes: 22 70 

Presence: 00000000000000000000001000111000110001000010000001000000000000101000010100001000
Invited Nodes: 
Actions left: 0
Session index: 1

Observation: ..1
Reward -0
About to find best action in Step: 3
Foind best action in Step: 3
Coolie

Action Type: 2

Presence: 10111111111011001111111111011001101110110101000110000100000111111100111010011110
Invited Nodes: 
Actions left: 3
Session index: 2

Observation: ..
Reward 0
About to find best action in Step: 4
Values: 3.196(endSession) 7.80811(query) 7.62583(invite)
Foind best action in Step: 4
Coolie

Action Type: 0
Active Nodes: 51 75 

Presence: 10111111111011001111111111011001101110110101000110000100000111111100111010011110
Invited Nodes: 
Actions left: 2
Session index: 2

Observation: ..10
Reward -0
About to find best action in Step: 5
Values: 2(endSession) 6.78213(query) 8.35719(invite)
Foind best action in Step: 5
Coolie

Action Type: 1
Active Nodes: 2 6 

Presence: 10111111111011001111111111011001101110110101000110000100000111111100111010011110
Invited Nodes: 2 6 
Actions left: 1
Session index: 2

Observation: ..11
Reward -0
About to find best action in Step: 6
Foind best action in Step: 6
Coolie

Action Type: 2

Presence: 00000000000000101000000110010100000000000110000100000110000011001100001100000011
Invited Nodes: 2 6 
Actions left: 3
Session index: 3

Observation: ..
Reward 0
About to find best action in Step: 7
Foind best action in Step: 7
Coolie

Action Type: 2

Presence: 00000000101010100001100100000001110101010010000110010000011000111000000101011011
Invited Nodes: 2 6 
Actions left: 3
Session index: 4

Observation: ..
Reward 0
About to find best action in Step: 8
Foind best action in Step: 8
Coolie

Action Type: 2

Presence: 11111111111111111011111111101111011111111111110111110110111111011101000111010011
Invited Nodes: 2 6 
Actions left: 3
Session index: 5

Observation: ..
Reward 0
About to find best action in Step: 9
Foind best action in Step: 9
Coolie

Action Type: 2

Presence: 00000000000000100000000011001000001000001001000101001000010100001000010100000000
Invited Nodes: 2 6 
Actions left: 3
Session index: 6

Observation: ..
Reward 0
About to find best action in Step: 10
Foind best action in Step: 10
Coolie

Action Type: 2

Presence: 11111111111110100110011111001011110110111111111111100110001101111111101100101011
Invited Nodes: 2 6 
Actions left: 3
Session index: 7

Observation: ..
Reward 19.528
Terminated
Discounted return = 19.528, average = 19.9609
Undiscounted return = 19.528, average = 19.9609
Starting run 10 with 1024 simulations... 

Presence: 01111111011111101101111101111111111101110001111000101010110001110110001111111001
Invited Nodes: 
Actions left: 3
Session index: 1
About to find best action in Step: 0
Values: 5.611(endSession) 8.16387(query) 7.69248(invite)
Foind best action in Step: 0
Coolie

Action Type: 0
Active Nodes: 53 74 

Presence: 01111111011111101101111101111111111101110001111000101010110001110110001111111001
Invited Nodes: 
Actions left: 2
Session index: 1

Observation: ..10
Reward -0
About to find best action in Step: 1
Values: 2.612(endSession) 7.04332(query) 7.16987(invite)
Foind best action in Step: 1
Coolie

Action Type: 1
Active Nodes: 29 52 

Presence: 01111111011111101101111101111111111101110001111000101010110001110110001111111001
Invited Nodes: 29 52 
Actions left: 1
Session index: 1

Observation: ..11
Reward -0
About to find best action in Step: 2
Foind best action in Step: 2
Coolie

Action Type: 2

Presence: 00000000100000001010000110100000001010000000000100000000100000000100101000110010
Invited Nodes: 29 52 
Actions left: 3
Session index: 2

Observation: ..
Reward 0
About to find best action in Step: 3
Foind best action in Step: 3
Coolie

Action Type: 2

Presence: 00000000010000100000110000000110000101001110000001010101000000001000000110000110
Invited Nodes: 29 52 
Actions left: 3
Session index: 3

Observation: ..
Reward 0
About to find best action in Step: 4
Foind best action in Step: 4
Coolie

Action Type: 2

Presence: 11111111011111110111011111101111000111110100111101110111111101001111111110101111
Invited Nodes: 29 52 
Actions left: 3
Session index: 4

Observation: ..
Reward 0
About to find best action in Step: 5
Foind best action in Step: 5
Coolie

Action Type: 2

Presence: 11111111111111111100010101110111011111110101111111001000101011111111110011101101
Invited Nodes: 29 52 
Actions left: 3
Session index: 5

Observation: ..
Reward 0
About to find best action in Step: 6
Foind best action in Step: 6
Coolie

Action Type: 2

Presence: 11111101110111111011010111111011100011100111111000100111110111110110011000111011
Invited Nodes: 29 52 
Actions left: 3
Session index: 6

Observation: ..
Reward 0
About to find best action in Step: 7
Foind best action in Step: 7
Coolie

Action Type: 2

Presence: 11111111011111011111011100111111111101111111110101111101111111111110101101010111
Invited Nodes: 29 52 
Actions left: 3
Session index: 7

Observation: ..
Reward 2.622
Terminated
Discounted return = 2.622, average = 18.227
Undiscounted return = 2.622, average = 18.227
Starting run 11 with 1024 simulations... 

Presence: 10111110011111010111011111111111111110101101111101110101001110100110100011001101
Invited Nodes: 
Actions left: 3
Session index: 1
About to find best action in Step: 0
Values: 3.236(endSession) 7.9508(query) 7.62101(invite)
Foind best action in Step: 0
Coolie

Action Type: 0
Active Nodes: 6 7 

Presence: 10111110011111010111011111111111111110101101111101110101001110100110100011001101
Invited Nodes: 
Actions left: 2
Session index: 1

Observation: ..1
Reward -0
About to find best action in Step: 1
Values: 4.412(endSession) 7.35793(query) 8.2002(invite)
Foind best action in Step: 1
Coolie

Action Type: 1
Active Nodes: 2 6 

Presence: 10111110011111010111011111111111111110101101111101110101001110100110100011001101
Invited Nodes: 2 6 
Actions left: 1
Session index: 1

Observation: ..11
Reward -0
About to find best action in Step: 2
Foind best action in Step: 2
Coolie

Action Type: 2

Presence: 00100000000010011001011101010000000100100001010101101001001000000000111000001000
Invited Nodes: 2 6 
Actions left: 3
Session index: 2

Observation: ..
Reward 0
About to find best action in Step: 3
Foind best action in Step: 3
Coolie

Action Type: 2

Presence: 10000000100000000000100001000000010100010110010010000010000101111100111100001000
Invited Nodes: 2 6 
Actions left: 3
Session index: 3

Observation: ..
Reward 0
About to find best action in Step: 4
Foind best action in Step: 4
Coolie

Action Type: 2

Presence: 00000000000000001010000000100000000100000001000100000000100000010100000110000100
Invited Nodes: 2 6 
Actions left: 3
Session index: 4

Observation: ..
Reward 0
About to find best action in Step: 5
Foind best action in Step: 5
Coolie

Action Type: 2

Presence: 11111111110011011111011110111101001110100011111100111110110010111101100111111001
Invited Nodes: 2 6 
Actions left: 3
Session index: 5

Observation: ..
Reward 0
About to find best action in Step: 6
Foind best action in Step: 6
Coolie

Action Type: 2

Presence: 11111111111111111111110101111101011011001100111110111111111011110101011001101001
Invited Nodes: 2 6 
Actions left: 3
Session index: 6

Observation: ..
Reward 0
About to find best action in Step: 7
Foind best action in Step: 7
Coolie

Action Type: 2

Presence: 11111110011110000111000000110001011000100011110100010100100100110010110010100010
Invited Nodes: 2 6 
Actions left: 3
Session index: 7

Observation: ..
Reward 19.514
Terminated
Discounted return = 19.514, average = 18.344
Undiscounted return = 19.514, average = 18.344
Starting run 12 with 1024 simulations... 

Presence: 11111111111011111111111010100111110101101101111111111101100111110111001111110011
Invited Nodes: 
Actions left: 3
Session index: 1
About to find best action in Step: 0
Values: 3.788(endSession) 7.38731(query) 7.81804(invite)
Foind best action in Step: 0
Coolie

Action Type: 1
Active Nodes: 2 6 

Presence: 11111111111011111111111010100111110101101101111111111101100111110111001111110011
Invited Nodes: 2 6 
Actions left: 2
Session index: 1

Observation: ..11
Reward -0
About to find best action in Step: 1
Foind best action in Step: 1
Coolie

Action Type: 2

Presence: 00000000000000000010000001000000010100000001010001000000100010101000000000000100
Invited Nodes: 2 6 
Actions left: 3
Session index: 2

Observation: ..
Reward 0
About to find best action in Step: 2
Foind best action in Step: 2
Coolie

Action Type: 2

Presence: 11111111111011111101111101101111011010111110111010011111011111010111111100111011
Invited Nodes: 2 6 
Actions left: 3
Session index: 3

Observation: ..
Reward 0
About to find best action in Step: 3
Foind best action in Step: 3
Coolie

Action Type: 2

Presence: 11111111110110110111011111111110010111011001101101111101000111101101101101111111
Invited Nodes: 2 6 
Actions left: 3
Session index: 4

Observation: ..
Reward 0
About to find best action in Step: 4
Foind best action in Step: 4
Coolie

Action Type: 2

Presence: 00000000100000000010001110000010000000000000000000100001000101100100000100100000
Invited Nodes: 2 6 
Actions left: 3
Session index: 5

Observation: ..
Reward 0
About to find best action in Step: 5
Foind best action in Step: 5
Coolie

Action Type: 2

Presence: 11111111110111110111110110110110011110111100111111010110110111111110111010111111
Invited Nodes: 2 6 
Actions left: 3
Session index: 6

Observation: ..
Reward 0
About to find best action in Step: 6
Foind best action in Step: 6
Coolie

Action Type: 2

Presence: 00000000001000000000000000010000000000000000000001011010000100000100000000001110
Invited Nodes: 2 6 
Actions left: 3
Session index: 7

Observation: ..
Reward 19.602
Terminated
Discounted return = 19.602, average = 18.4488
Undiscounted return = 19.602, average = 18.4488
Starting run 13 with 1024 simulations... 

Presence: 11111111010110101111111001111111101010111110101110000110111101011011000111111111
Invited Nodes: 
Actions left: 3
Session index: 1
About to find best action in Step: 0
Values: 7.975(endSession) 7.0069(query) 7.66475(invite)
Foind best action in Step: 0
Coolie

Action Type: 2

Presence: 11111111111011011101111111110111111111110100111010111111101011100110001000111101
Invited Nodes: 
Actions left: 3
Session index: 2

Observation: ..
Reward 0
About to find best action in Step: 1
Values: 2(endSession) 7.00807(query) 7.9517(invite)
Foind best action in Step: 1
Coolie

Action Type: 1
Active Nodes: 2 3 

Presence: 11111111111011011101111111110111111111110100111010111111101011100110001000111101
Invited Nodes: 2 3 
Actions left: 2
Session index: 2

Observation: ..11
Reward -0
About to find best action in Step: 2
Foind best action in Step: 2
Coolie

Action Type: 2

Presence: 11111111111101110110111111011001101001011111110101010011111001010010110111101000
Invited Nodes: 2 3 
Actions left: 3
Session index: 3

Observation: ..
Reward 0
About to find best action in Step: 3
Foind best action in Step: 3
Coolie

Action Type: 2

Presence: 10111111111110111111110111110111111110110101111000111010101110111110111101101110
Invited Nodes: 2 3 
Actions left: 3
Session index: 4

Observation: ..
Reward 0
About to find best action in Step: 4
Foind best action in Step: 4
Coolie

Action Type: 2

Presence: 10011100001001010100011101001100010110100010010010001010111100011111100001000110
Invited Nodes: 2 3 
Actions left: 3
Session index: 5

Observation: ..
Reward 0
About to find best action in Step: 5
Foind best action in Step: 5
Coolie

Action Type: 2

Presence: 00000100000101000000100000001010010100100111000110100101110000001000000011000101
Invited Nodes: 2 3 
Actions left: 3
Session index: 6

Observation: ..
Reward 0
About to find best action in Step: 6
Foind best action in Step: 6
Coolie

Action Type: 2

Presence: 00000000000001000000001110000000000100000000100000110001010011000110001001100001
Invited Nodes: 2 3 
Actions left: 3
Session index: 7

Observation: ..
Reward 26.907
Terminated
Discounted return = 26.907, average = 19.0995
Undiscounted return = 26.907, average = 19.0995
Starting run 14 with 1024 simulations... 

Presence: 11111111111111110111011001001111111110111110111111001010100110010111111111000111
Invited Nodes: 
Actions left: 3
Session index: 1
About to find best action in Step: 0
Values: 2.595(endSession) 7.5284(query) 7.76601(invite)
Foind best action in Step: 0
Coolie

Action Type: 1
Active Nodes: 3 4 

Presence: 11111111111111110111011001001111111110111110111111001010100110010111111111000111
Invited Nodes: 3 4 
Actions left: 2
Session index: 1

Observation: ..11
Reward -0
About to find best action in Step: 1
Foind best action in Step: 1
Coolie

Action Type: 2

Presence: 11110111110111111111110011001111101111111110110110111111001111100101111101111111
Invited Nodes: 3 4 
Actions left: 3
Session index: 2

Observation: ..
Reward 0
About to find best action in Step: 2
Foind best action in Step: 2
Coolie

Action Type: 2

Presence: 10111111111110001111110001011011101011111011111111101101100000110111000010111111
Invited Nodes: 3 4 
Actions left: 3
Session index: 3

Observation: ..
Reward 0
About to find best action in Step: 3
Foind best action in Step: 3
Coolie

Action Type: 2

Presence: 10000000001000000000000000011000000100001010000000001010010010000000110100000001
Invited Nodes: 3 4 
Actions left: 3
Session index: 4

Observation: ..
Reward 0
About to find best action in Step: 4
Foind best action in Step: 4
Coolie

Action Type: 2

Presence: 11111111011111111111111100101010111111000111111111111111000110110111110111111111
Invited Nodes: 3 4 
Actions left: 3
Session index: 5

Observation: ..
Reward 0
About to find best action in Step: 5
Foind best action in Step: 5
Coolie

Action Type: 2

Presence: 11110111011110111111111110110111110111110110011111101110101011111001111100101101
Invited Nodes: 3 4 
Actions left: 3
Session index: 6

Observation: ..
Reward 0
About to find best action in Step: 6
Foind best action in Step: 6
Coolie

Action Type: 2

Presence: 00000010011010010001000000100010111100000101010100010001110110110011001001100010
Invited Nodes: 3 4 
Actions left: 3
Session index: 7

Observation: ..
Reward 21.821
Terminated
Discounted return = 21.821, average = 19.2939
Undiscounted return = 21.821, average = 19.2939
Starting run 15 with 1024 simulations... 

Presence: 01111111111011110111110111111111001010111100111011011010111010111110111110001110
Invited Nodes: 
Actions left: 3
Session index: 1
About to find best action in Step: 0
Values: 7.4(endSession) 7.41132(query) 8.46811(invite)
Foind best action in Step: 0
Coolie

Action Type: 1
Active Nodes: 3 28 

Presence: 01111111111011110111110111111111001010111100111011011010111010111110111110001110
Invited Nodes: 3 28 
Actions left: 2
Session index: 1

Observation: ..11
Reward -0
About to find best action in Step: 1
Foind best action in Step: 1
Coolie

Action Type: 2

Presence: 00000000101000101000001000001000001011001101000101000000110110001101000000100000
Invited Nodes: 3 28 
Actions left: 3
Session index: 2

Observation: ..
Reward 0
About to find best action in Step: 2
Foind best action in Step: 2
Coolie

Action Type: 2

Presence: 11111111011111011111010111101011111111011011111100111110011111110111111011110111
Invited Nodes: 3 28 
Actions left: 3
Session index: 3

Observation: ..
Reward 0
About to find best action in Step: 3
Foind best action in Step: 3
Coolie

Action Type: 2

Presence: 00000000000000000000001010100010001000010100000100100011000100010001000010000000
Invited Nodes: 3 28 
Actions left: 3
Session index: 4

Observation: ..
Reward 0
About to find best action in Step: 4
Foind best action in Step: 4
Coolie

Action Type: 2

Presence: 11111111111011111110111111011111001010101111111111110000101111111001111111110010
Invited Nodes: 3 28 
Actions left: 3
Session index: 5

Observation: ..
Reward 0
About to find best action in Step: 5
Foind best action in Step: 5
Coolie

Action Type: 2

Presence: 10110000110101110101110100101101110101011110000010110000011101001111111111100000
Invited Nodes: 3 28 
Actions left: 3
Session index: 6

Observation: ..
Reward 0
About to find best action in Step: 6
Foind best action in Step: 6
Coolie

Action Type: 2

Presence: 11111111111111110001110001010111011010111010111111110111100111101111010011111111
Invited Nodes: 3 28 
Actions left: 3
Session index: 7

Observation: ..
Reward 17.731
Terminated
Discounted return = 17.731, average = 19.1897
Undiscounted return = 17.731, average = 19.1897
Starting run 16 with 1024 simulations... 

Presence: 00000000000100101001001011000001000000010010000100000110000100000000111001110001
Invited Nodes: 
Actions left: 3
Session index: 1
About to find best action in Step: 0
Values: 3.794(endSession) 7.28929(query) 7.67511(invite)
Foind best action in Step: 0
Coolie

Action Type: 1
Active Nodes: 2 9 

Presence: 00000000000100101001001011000001000000010010000100000110000100000000111001110001
Invited Nodes: 
Actions left: 2
Session index: 1

Observation: ..
Reward -0
About to find best action in Step: 1
Values: 5.572(endSession) 7.09494(query) 6.38799(invite)
Foind best action in Step: 1
Coolie

Action Type: 0
Active Nodes: 21 55 

Presence: 00000000000100101001001011000001000000010010000100000110000100000000111001110001
Invited Nodes: 
Actions left: 1
Session index: 1

Observation: ..
Reward -0
About to find best action in Step: 2
Values: 2.605(endSession) 7.0995(query) 6.77995(invite)
Foind best action in Step: 2
Coolie

Action Type: 0
Active Nodes: 36 50 

Presence: 00000000000100101001001011000001000000010010000100000110000100000000111001110001
Invited Nodes: 
Actions left: 0
Session index: 1

Observation: ..
Reward -0
About to find best action in Step: 3
Foind best action in Step: 3
Coolie

Action Type: 2

Presence: 00000000100000001000001100000100010101010000010000000000110000001000000000000110
Invited Nodes: 
Actions left: 3
Session index: 2

Observation: ..
Reward 0
About to find best action in Step: 4
Values: 7.058(endSession) 7.48986(query) 7.3952(invite)
Foind best action in Step: 4
Coolie

Action Type: 0
Active Nodes: 4 27 

Presence: 00000000100000001000001100000100010101010000010000000000110000001000000000000110
Invited Nodes: 
Actions left: 2
Session index: 2

Observation: ..
Reward -0
About to find best action in Step: 5
Values: 8.246(endSession) 7.22704(query) 6.75607(invite)
Foind best action in Step: 5
Coolie

Action Type: 2

Presence: 11111111011011011111111110111111111111101111111101101111111011110110011011110010
Invited Nodes: 
Actions left: 3
Session index: 3

Observation: ..
Reward 0
About to find best action in Step: 6
Values: 7.325(endSession) 7.84032(query) 7.29753(invite)
Foind best action in Step: 6
Coolie

Action Type: 0
Active Nodes: 39 45 

Presence: 11111111011011011111111110111111111111101111111101101111111011110110011011110010
Invited Nodes: 
Actions left: 2
Session index: 3

Observation: ..10
Reward -0
About to find best action in Step: 7
Values: 2(endSession) 7.10393(query) 8.28832(invite)
Foind best action in Step: 7
Coolie

Action Type: 1
Active Nodes: 1 2 

Presence: 11111111011011011111111110111111111111101111111101101111111011110110011011110010
Invited Nodes: 1 2 
Actions left: 1
Session index: 3

Observation: ..11
Reward -0
About to find best action in Step: 8
Foind best action in Step: 8
Coolie

Action Type: 2

Presence: 10000000000000100001001000000000001001000100010001010010000100010110000000000101
Invited Nodes: 1 2 
Actions left: 3
Session index: 4

Observation: ..
Reward 0
About to find best action in Step: 9
Foind best action in Step: 9
Coolie

Action Type: 2

Presence: 11111111110111111110111111101111111100101110101101011110010011100001101111101011
Invited Nodes: 1 2 
Actions left: 3
Session index: 5

Observation: ..
Reward 0
About to find best action in Step: 10
Foind best action in Step: 10
Coolie

Action Type: 2

Presence: 11111111111001101110011111111011111111110010011011010011101000101011111100111110
Invited Nodes: 1 2 
Actions left: 3
Session index: 6

Observation: ..
Reward 0
About to find best action in Step: 11
Foind best action in Step: 11
Coolie

Action Type: 2

Presence: 10111111111011111101111111111101111111111001110111011110110110110011111000111101
Invited Nodes: 1 2 
Actions left: 3
Session index: 7

Observation: ..
Reward 21.516
Terminated
Discounted return = 21.516, average = 19.3351
Undiscounted return = 21.516, average = 19.3351
Starting run 17 with 1024 simulations... 

Presence: 00000000100000001000000001000000010100011001011000010000001100001000000111000000
Invited Nodes: 
Actions left: 3
Session index: 1
About to find best action in Step: 0
Values: 2(endSession) 7.61559(query) 7.97036(invite)
Foind best action in Step: 0
Coolie

Action Type: 1
Active Nodes: 3 5 

Presence: 00000000100000001000000001000000010100011001011000010000001100001000000111000000
Invited Nodes: 
Actions left: 2
Session index: 1

Observation: ..
Reward -0
About to find best action in Step: 1
Values: 4.402(endSession) 7.16185(query) 6.63109(invite)
Foind best action in Step: 1
Coolie

Action Type: 0
Active Nodes: 25 50 

Presence: 00000000100000001000000001000000010100011001011000010000001100001000000111000000
Invited Nodes: 
Actions left: 1
Session index: 1

Observation: ..1
Reward -0
About to find best action in Step: 2
Values: 2(endSession) 6.75578(query) 7.27478(invite)
Foind best action in Step: 2
Coolie

Action Type: 1
Active Nodes: 28 31 

Presence: 00000000100000001000000001000000010100011001011000010000001100001000000111000000
Invited Nodes: 
Actions left: 0
Session index: 1

Observation: ..
Reward -0
About to find best action in Step: 3
Foind best action in Step: 3
Coolie

Action Type: 2

Presence: 00000000000000000001000000000000100000000100000000110000100000000010000000001000
Invited Nodes: 
Actions left: 3
Session index: 2

Observation: ..
Reward 0
About to find best action in Step: 4
Values: 3.741(endSession) 7.05672(query) 8.02024(invite)
Foind best action in Step: 4
Coolie

Action Type: 1
Active Nodes: 21 79 

Presence: 00000000000000000001000000000000100000000100000000110000100000000010000000001000
Invited Nodes: 
Actions left: 2
Session index: 2

Observation: ..
Reward -0
About to find best action in Step: 5
Values: 11.076(endSession) 7.4002(query) 7.54654(invite)
Foind best action in Step: 5
Coolie

Action Type: 2

Presence: 11111110111111101101101111111011110001111111110110000110111110110010110011100110
Invited Nodes: 
Actions left: 3
Session index: 3

Observation: ..
Reward 0
About to find best action in Step: 6
Values: 2(endSession) 7.7057(query) 7.65101(invite)
Foind best action in Step: 6
Coolie

Action Type: 0
Active Nodes: 11 72 

Presence: 11111110111111101101101111111011110001111111110110000110111110110010110011100110
Invited Nodes: 
Actions left: 2
Session index: 3

Observation: ..11
Reward -0
About to find best action in Step: 7
Values: 6.26(endSession) 7.0808(query) 8.04264(invite)
Foind best action in Step: 7
Coolie

Action Type: 1
Active Nodes: 3 14 

Presence: 11111110111111101101101111111011110001111111110110000110111110110010110011100110
Invited Nodes: 3 14 
Actions left: 1
Session index: 3

Observation: ..11
Reward -0
About to find best action in Step: 8
Foind best action in Step: 8
Coolie

Action Type: 2

Presence: 10000000000100000000100000000100000000000000010000001011000000000010010000100000
Invited Nodes: 3 14 
Actions left: 3
Session index: 4

Observation: ..
Reward 0
About to find best action in Step: 9
Foind best action in Step: 9
Coolie

Action Type: 2

Presence: 00000000000010100000011100000100000000000100000000011011001101110001000100000010
Invited Nodes: 3 14 
Actions left: 3
Session index: 5

Observation: ..
Reward 0
About to find best action in Step: 10
Foind best action in Step: 10
Coolie

Action Type: 2

Presence: 00000010001010001001000111001000000001001010010000001000000100000001010000111110
Invited Nodes: 3 14 
Actions left: 3
Session index: 6

Observation: ..
Reward 0
About to find best action in Step: 11
Foind best action in Step: 11
Coolie

Action Type: 2

Presence: 10001000000100000000000100100000000001000100100000100001010110000000110000011010
Invited Nodes: 3 14 
Actions left: 3
Session index: 7

Observation: ..
Reward 17.89
Terminated
Discounted return = 17.89, average = 19.2501
Undiscounted return = 17.89, average = 19.2501
Starting run 18 with 1024 simulations... 

Presence: 00000100000011000011100010000100100010100000000010000000010100000010110101001001
Invited Nodes: 
Actions left: 3
Session index: 1
About to find best action in Step: 0
Values: 2(endSession) 7.50454(query) 7.8628(invite)
Foind best action in Step: 0
Coolie

Action Type: 1
Active Nodes: 2 7 

Presence: 00000100000011000011100010000100100010100000000010000000010100000010110101001001
Invited Nodes: 
Actions left: 2
Session index: 1

Observation: ..
Reward -0
About to find best action in Step: 1
Values: 6.836(endSession) 7.604(query) 7.48344(invite)
Foind best action in Step: 1
Coolie

Action Type: 0
Active Nodes: 29 47 

Presence: 00000100000011000011100010000100100010100000000010000000010100000010110101001001
Invited Nodes: 
Actions left: 1
Session index: 1

Observation: ..1
Reward -0
About to find best action in Step: 2
Values: 18.475(endSession) 7.43075(query) 6.70067(invite)
Foind best action in Step: 2
Coolie

Action Type: 2

Presence: 00000000000011101000100110100100000000000000101001110011000101100110001101110001
Invited Nodes: 
Actions left: 3
Session index: 2

Observation: ..
Reward 0
About to find best action in Step: 3
Values: 5.541(endSession) 6.9321(query) 8.31982(invite)
Foind best action in Step: 3
Coolie

Action Type: 1
Active Nodes: 3 14 

Presence: 00000000000011101000100110100100000000000000101001110011000101100110001101110001
Invited Nodes: 14 
Actions left: 2
Session index: 2

Observation: ..10
Reward -0
About to find best action in Step: 4
Values: 3.189(endSession) 5.87523(query) 5.22487(invite)
Foind best action in Step: 4
Coolie

Action Type: 0
Active Nodes: 14 61 

Presence: 00000000000011101000100110100100000000000000101001110011000101100110001101110001
Invited Nodes: 14 
Actions left: 1
Session index: 2

Observation: ..11
Reward -0
About to find best action in Step: 5
Values: 10.395(endSession) 6.14126(query) 5.49933(invite)
Foind best action in Step: 5
Coolie

Action Type: 2

Presence: 00001000100000000000000000000000001100100100000000001100010000010001010000100000
Invited Nodes: 14 
Actions left: 3
Session index: 3

Observation: ..
Reward 0
About to find best action in Step: 6
Values: 4.01(endSession) 6.11317(query) 6.04214(invite)
Foind best action in Step: 6
Coolie

Action Type: 0
Active Nodes: 22 54 

Presence: 00001000100000000000000000000000001100100100000000001100010000010001010000100000
Invited Nodes: 14 
Actions left: 2
Session index: 3

Observation: ..
Reward -0
About to find best action in Step: 7
Values: 3.215(endSession) 6.10943(query) 5.31208(invite)
Foind best action in Step: 7
Coolie

Action Type: 0
Active Nodes: 52 61 

Presence: 00001000100000000000000000000000001100100100000000001100010000010001010000100000
Invited Nodes: 14 
Actions left: 1
Session index: 3

Observation: ..1
Reward -0
About to find best action in Step: 8
Values: 3.188(endSession) 5.76006(query) 5.60622(invite)
Foind best action in Step: 8
Coolie

Action Type: 0
Active Nodes: 43 58 

Presence: 00001000100000000000000000000000001100100100000000001100010000010001010000100000
Invited Nodes: 14 
Actions left: 0
Session index: 3

Observation: ..
Reward -0
About to find best action in Step: 9
Foind best action in Step: 9
Coolie

Action Type: 2

Presence: 10111111111111111111010100001111100110101101011101101111110111100101111011011111
Invited Nodes: 14 
Actions left: 3
Session index: 4

Observation: ..
Reward 0
About to find best action in Step: 10
Values: 3.177(endSession) 6.01472(query) 6.54762(invite)
Foind best action in Step: 10
Coolie

Action Type: 1
Active Nodes: 3 

Presence: 10111111111111111111010100001111100110101101011101101111110111100101111011011111
Invited Nodes: 3 14 
Actions left: 2
Session index: 4

Observation: ..1
Reward -0
About to find best action in Step: 11
Foind best action in Step: 11
Coolie

Action Type: 2

Presence: 11111011111111111011111001101101111111101100111111011111011101100111011110110010
Invited Nodes: 3 14 
Actions left: 3
Session index: 5

Observation: ..
Reward 0
About to find best action in Step: 12
Foind best action in Step: 12
Coolie

Action Type: 2

Presence: 11111111111111011111011101111111001111111111111011111111111110101101111111111110
Invited Nodes: 3 14 
Actions left: 3
Session index: 6

Observation: ..
Reward 0
About to find best action in Step: 13
Foind best action in Step: 13
Coolie

Action Type: 2

Presence: 11111101110001011110011110101111101111111101101111001111111111011110100011110101
Invited Nodes: 3 14 
Actions left: 3
Session index: 7

Observation: ..
Reward 17.763
Terminated
Discounted return = 17.763, average = 19.1674
Undiscounted return = 17.763, average = 19.1674
Starting run 19 with 1024 simulations... 

Presence: 11111111111011110111011001011101111110111111111011101011111010011010011101111101
Invited Nodes: 
Actions left: 3
Session index: 1
About to find best action in Step: 0
Values: 2.599(endSession) 6.91549(query) 8.438(invite)
Foind best action in Step: 0
Coolie

Action Type: 1
Active Nodes: 3 14 

Presence: 11111111111011110111011001011101111110111111111011101011111010011010011101111101
Invited Nodes: 3 14 
Actions left: 2
Session index: 1

Observation: ..11
Reward -0
About to find best action in Step: 1
Foind best action in Step: 1
Coolie

Action Type: 2

Presence: 11111111111101110111111111001111001111010101101111111101101011111101111111110011
Invited Nodes: 3 14 
Actions left: 3
Session index: 2

Observation: ..
Reward 0
About to find best action in Step: 2
Foind best action in Step: 2
Coolie

Action Type: 2

Presence: 10111101011111111100110111101111111001101101111110111101111111001101011111111010
Invited Nodes: 3 14 
Actions left: 3
Session index: 3

Observation: ..
Reward 0
About to find best action in Step: 3
Foind best action in Step: 3
Coolie

Action Type: 2

Presence: 11111111111101110111000101100111111111100111111111011011010101110110100110011011
Invited Nodes: 3 14 
Actions left: 3
Session index: 4

Observation: ..
Reward 0
About to find best action in Step: 4
Foind best action in Step: 4
Coolie

Action Type: 2

Presence: 00000000100001001000000000100000010100011000000000000000110011000000000000001101
Invited Nodes: 3 14 
Actions left: 3
Session index: 5

Observation: ..
Reward 0
About to find best action in Step: 5
Foind best action in Step: 5
Coolie

Action Type: 2

Presence: 11111111110011100111111101111001101111111011111111110111101110111010101100110101
Invited Nodes: 3 14 
Actions left: 3
Session index: 6

Observation: ..
Reward 0
About to find best action in Step: 6
Foind best action in Step: 6
Coolie

Action Type: 2

Presence: 00000000100000100010001101000000100001000000000000010100000000010000010000010000
Invited Nodes: 3 14 
Actions left: 3
Session index: 7

Observation: ..
Reward 17.853
Terminated
Discounted return = 17.853, average = 19.0983
Undiscounted return = 17.853, average = 19.0983
Starting run 20 with 1024 simulations... 

Presence: 01111111111111111111111111101111110011000011111111101111100010110110111011101010
Invited Nodes: 
Actions left: 3
Session index: 1
About to find best action in Step: 0
Values: 10.05(endSession) 7.64409(query) 9.45689(invite)
Foind best action in Step: 0
Coolie

Action Type: 2

Presence: 11111111111111111111111011111111111111111111111111111100010111111011110111111111
Invited Nodes: 
Actions left: 3
Session index: 2

Observation: ..
Reward 0
About to find best action in Step: 1
Values: 11.071(endSession) 7.05127(query) 7.56907(invite)
Foind best action in Step: 1
Coolie

Action Type: 2

Presence: 11111111111111100111111011111001000111111111110000011111011111111111111111011111
Invited Nodes: 
Actions left: 3
Session index: 3

Observation: ..
Reward 0
About to find best action in Step: 2
Values: 2(endSession) 8.23081(query) 7.73172(invite)
Foind best action in Step: 2
Coolie

Action Type: 0
Active Nodes: 3 42 

Presence: 11111111111111100111111011111001000111111111110000011111011111111111111111011111
Invited Nodes: 
Actions left: 2
Session index: 3

Observation: ..11
Reward -0
About to find best action in Step: 3
Values: 2(endSession) 7.15902(query) 8.29202(invite)
Foind best action in Step: 3
Coolie

Action Type: 1
Active Nodes: 3 8 

Presence: 11111111111111100111111011111001000111111111110000011111011111111111111111011111
Invited Nodes: 3 8 
Actions left: 1
Session index: 3

Observation: ..11
Reward -0
About to find best action in Step: 4
Foind best action in Step: 4
Coolie

Action Type: 2

Presence: 11111101111111110111111011111111001011011111011011011010101100111101100001011101
Invited Nodes: 3 8 
Actions left: 3
Session index: 4

Observation: ..
Reward 0
About to find best action in Step: 5
Foind best action in Step: 5
Coolie

Action Type: 2

Presence: 11111111111111111101111111101111101110011011110101110110110001111111101111111000
Invited Nodes: 3 8 
Actions left: 3
Session index: 5

Observation: ..
Reward 0
About to find best action in Step: 6
Foind best action in Step: 6
Coolie

Action Type: 2

Presence: 11111111011111111111100011111100110111111111111001001101011011111111101110101111
Invited Nodes: 3 8 
Actions left: 3
Session index: 6

Observation: ..
Reward 0
About to find best action in Step: 7
Foind best action in Step: 7
Coolie

Action Type: 2

Presence: 11111111111011101111111011111011111011111011110011111011101110111011101010101011
Invited Nodes: 3 8 
Actions left: 3
Session index: 7

Observation: ..
Reward 16.413
Terminated
Discounted return = 16.413, average = 18.964
Undiscounted return = 16.413, average = 18.964
Simulations = 1024
Runs = 20
Undiscounted return = 18.964 +- 1.08455
Discounted return = 18.964 +- 1.08455
Time = 20.713
----------------------------------------
Begin PBS Epilogue Thu Aug 31 17:28:59 PDT 2017
Job ID:           24132704.hpc-pbs1.hpcc.usc.edu
Username:         amulyaya
Accountname:      default
Group:            csci-ar
Job Name:         0.pbs
Session:          25513
Limits:           neednodes=1:ppn=16:sl230s,nodes=1:ppn=16:sl230s,walltime=24:00:00
Resources:        cput=00:06:58,energy_used=0,mem=52661944kb,vmem=49397204kb,walltime=00:06:59
Queue:            tambe
Shared Access:    no
Has MIC:          no
Is hsda:          false
removed '/scratch'
End PBS Epilogue Thu Aug 31 17:28:59 PDT 2017
----------------------------------------
