1 2 0 0
2 1 0 0
1 5 0 0
5 1 0 0
1 6 0 0
6 1 0 0
1 7 0 0
7 1 0 0
1 68 0 0
68 1 0 0
1 73 0 0
73 1 0 0
1 75 0 0
75 1 0 0
1 77 0 0
77 1 0 0
1 131 0 0
131 1 0 0
1 153 0 0
153 1 0 0
2 4 0 0
4 2 0 0
2 5 0 0
5 2 0 0
2 6 0 0
6 2 0 0
2 75 0 0
75 2 0 0
2 76 0 0
76 2 0 0
2 107 0 0
107 2 0 0
2 131 0 0
131 2 0 0
2 134 0 0
134 2 0 0
2 142 0 0
142 2 0 0
2 150 0 0
150 2 0 0
2 159 0 0
159 2 0 0
3 5 0 0
5 3 0 0
3 7 0 0
7 3 0 0
3 9 0 0
9 3 0 0
3 11 0 0
11 3 0 0
3 47 0 0
47 3 0 0
3 51 0 0
51 3 0 0
3 53 0 0
53 3 0 0
3 58 0 0
58 3 0 0
3 104 0 0
104 3 0 0
3 125 0 0
125 3 0 0
3 136 0 0
136 3 0 0
4 2 0 0
2 4 0 0
4 3 0 0
3 4 0 0
4 7 0 0
7 4 0 0
4 8 0 0
8 4 0 0
4 9 0 0
9 4 0 0
4 12 0 0
12 4 0 0
4 51 0 0
51 4 0 0
5 1 0 0
1 5 0 0
5 3 0 0
3 5 0 0
5 4 0 0
4 5 0 0
5 8 0 0
8 5 0 0
5 9 0 0
9 5 0 0
5 13 0 0
13 5 0 0
5 20 0 0
20 5 0 0
5 36 0 0
36 5 0 0
5 63 0 0
63 5 0 0
5 92 0 0
92 5 0 0
6 4 0 0
4 6 0 0
6 5 0 0
5 6 0 0
6 9 0 0
9 6 0 0
6 10 0 0
10 6 0 0
6 23 0 0
23 6 0 0
6 31 0 0
31 6 0 0
6 78 0 0
78 6 0 0
6 87 0 0
87 6 0 0
6 102 0 0
102 6 0 0
6 152 0 0
152 6 0 0
6 158 0 0
158 6 0 0
7 8 0 0
8 7 0 0
7 10 0 0
10 7 0 0
7 13 0 0
13 7 0 0
7 42 0 0
42 7 0 0
7 80 0 0
80 7 0 0
7 103 0 0
103 7 0 0
7 104 0 0
104 7 0 0
7 119 0 0
119 7 0 0
7 124 0 0
124 7 0 0
7 134 0 0
134 7 0 0
7 135 0 0
135 7 0 0
7 137 0 0
137 7 0 0
7 153 0 0
153 7 0 0
8 1 0 0
1 8 0 0
8 2 0 0
2 8 0 0
8 3 0 0
3 8 0 0
8 9 0 0
9 8 0 0
8 52 0 0
52 8 0 0
8 62 0 0
62 8 0 0
8 86 0 0
86 8 0 0
8 93 0 0
93 8 0 0
8 98 0 0
98 8 0 0
8 116 0 0
116 8 0 0
8 134 0 0
134 8 0 0
8 139 0 0
139 8 0 0
8 143 0 0
143 8 0 0
9 2 0 0
2 9 0 0
9 5 0 0
5 9 0 0
9 15 0 0
15 9 0 0
9 20 0 0
20 9 0 0
9 29 0 0
29 9 0 0
9 52 0 0
52 9 0 0
9 73 0 0
73 9 0 0
9 83 0 0
83 9 0 0
9 90 0 0
90 9 0 0
9 92 0 0
92 9 0 0
9 95 0 0
95 9 0 0
9 120 0 0
120 9 0 0
9 143 0 0
143 9 0 0
10 2 0 0
2 10 0 0
10 3 0 0
3 10 0 0
10 4 0 0
4 10 0 0
10 49 0 0
49 10 0 0
10 68 0 0
68 10 0 0
10 79 0 0
79 10 0 0
10 85 0 0
85 10 0 0
10 119 0 0
119 10 0 0
10 125 0 0
125 10 0 0
10 152 0 0
152 10 0 0
11 12 0 0
12 11 0 0
11 13 0 0
13 11 0 0
11 14 0 0
14 11 0 0
11 15 0 0
15 11 0 0
11 17 0 0
17 11 0 0
11 20 0 0
20 11 0 0
11 23 0 0
23 11 0 0
11 35 0 0
35 11 0 0
11 40 0 0
40 11 0 0
11 42 0 0
42 11 0 0
11 43 0 0
43 11 0 0
11 58 0 0
58 11 0 0
11 62 0 0
62 11 0 0
11 78 0 0
78 11 0 0
11 107 0 0
107 11 0 0
11 114 0 0
114 11 0 0
11 135 0 0
135 11 0 0
11 154 0 0
154 11 0 0
12 13 0 0
13 12 0 0
12 14 0 0
14 12 0 0
12 16 0 0
16 12 0 0
12 17 0 0
17 12 0 0
12 19 0 0
19 12 0 0
12 32 0 0
32 12 0 0
12 39 0 0
39 12 0 0
12 45 0 0
45 12 0 0
12 53 0 0
53 12 0 0
12 62 0 0
62 12 0 0
12 81 0 0
81 12 0 0
12 93 0 0
93 12 0 0
12 140 0 0
140 12 0 0
12 159 0 0
159 12 0 0
13 12 0 0
12 13 0 0
13 18 0 0
18 13 0 0
13 19 0 0
19 13 0 0
13 29 0 0
29 13 0 0
13 83 0 0
83 13 0 0
13 91 0 0
91 13 0 0
13 132 0 0
132 13 0 0
13 144 0 0
144 13 0 0
13 145 0 0
145 13 0 0
13 152 0 0
152 13 0 0
14 4 0 0
4 14 0 0
14 5 0 0
5 14 0 0
14 33 0 0
33 14 0 0
14 39 0 0
39 14 0 0
14 50 0 0
50 14 0 0
14 57 0 0
57 14 0 0
14 88 0 0
88 14 0 0
14 121 0 0
121 14 0 0
14 129 0 0
129 14 0 0
15 3 0 0
3 15 0 0
15 4 0 0
4 15 0 0
15 5 0 0
5 15 0 0
15 52 0 0
52 15 0 0
15 72 0 0
72 15 0 0
15 79 0 0
79 15 0 0
15 114 0 0
114 15 0 0
15 124 0 0
124 15 0 0
15 130 0 0
130 15 0 0
15 131 0 0
131 15 0 0
16 11 0 0
11 16 0 0
16 14 0 0
14 16 0 0
16 18 0 0
18 16 0 0
16 19 0 0
19 16 0 0
16 48 0 0
48 16 0 0
16 51 0 0
51 16 0 0
16 89 0 0
89 16 0 0
16 95 0 0
95 16 0 0
16 97 0 0
97 16 0 0
16 123 0 0
123 16 0 0
16 125 0 0
125 16 0 0
16 140 0 0
140 16 0 0
16 144 0 0
144 16 0 0
16 150 0 0
150 16 0 0
17 13 0 0
13 17 0 0
17 16 0 0
16 17 0 0
17 18 0 0
18 17 0 0
17 56 0 0
56 17 0 0
17 60 0 0
60 17 0 0
17 73 0 0
73 17 0 0
17 134 0 0
134 17 0 0
17 136 0 0
136 17 0 0
17 143 0 0
143 17 0 0
17 147 0 0
147 17 0 0
17 158 0 0
158 17 0 0
18 11 0 0
11 18 0 0
18 12 0 0
12 18 0 0
18 13 0 0
13 18 0 0
18 14 0 0
14 18 0 0
18 29 0 0
29 18 0 0
18 50 0 0
50 18 0 0
18 57 0 0
57 18 0 0
18 74 0 0
74 18 0 0
18 89 0 0
89 18 0 0
18 143 0 0
143 18 0 0
19 11 0 0
11 19 0 0
19 12 0 0
12 19 0 0
19 16 0 0
16 19 0 0
19 17 0 0
17 19 0 0
19 44 0 0
44 19 0 0
19 90 0 0
90 19 0 0
19 99 0 0
99 19 0 0
19 104 0 0
104 19 0 0
19 126 0 0
126 19 0 0
19 131 0 0
131 19 0 0
19 133 0 0
133 19 0 0
19 154 0 0
154 19 0 0
20 13 0 0
13 20 0 0
20 14 0 0
14 20 0 0
20 15 0 0
15 20 0 0
20 18 0 0
18 20 0 0
20 22 0 0
22 20 0 0
20 30 0 0
30 20 0 0
20 51 0 0
51 20 0 0
20 61 0 0
61 20 0 0
20 62 0 0
62 20 0 0
20 65 0 0
65 20 0 0
20 123 0 0
123 20 0 0
20 125 0 0
125 20 0 0
20 129 0 0
129 20 0 0
21 13 0 0
13 21 0 0
21 15 0 0
15 21 0 0
21 24 0 0
24 21 0 0
21 27 0 0
27 21 0 0
21 40 0 0
40 21 0 0
21 48 0 0
48 21 0 0
21 52 0 0
52 21 0 0
21 81 0 0
81 21 0 0
21 101 0 0
101 21 0 0
21 134 0 0
134 21 0 0
21 137 0 0
137 21 0 0
21 147 0 0
147 21 0 0
21 154 0 0
154 21 0 0
21 158 0 0
158 21 0 0
22 17 0 0
17 22 0 0
22 21 0 0
21 22 0 0
22 23 0 0
23 22 0 0
22 24 0 0
24 22 0 0
22 27 0 0
27 22 0 0
22 30 0 0
30 22 0 0
22 56 0 0
56 22 0 0
22 70 0 0
70 22 0 0
22 84 0 0
84 22 0 0
22 138 0 0
138 22 0 0
22 140 0 0
140 22 0 0
23 20 0 0
20 23 0 0
23 21 0 0
21 23 0 0
23 28 0 0
28 23 0 0
23 29 0 0
29 23 0 0
23 34 0 0
34 23 0 0
24 21 0 0
21 24 0 0
24 25 0 0
25 24 0 0
24 29 0 0
29 24 0 0
24 35 0 0
35 24 0 0
24 63 0 0
63 24 0 0
24 84 0 0
84 24 0 0
24 106 0 0
106 24 0 0
24 119 0 0
119 24 0 0
24 121 0 0
121 24 0 0
25 24 0 0
24 25 0 0
25 32 0 0
32 25 0 0
25 41 0 0
41 25 0 0
25 56 0 0
56 25 0 0
25 79 0 0
79 25 0 0
25 92 0 0
92 25 0 0
25 110 0 0
110 25 0 0
25 115 0 0
115 25 0 0
25 127 0 0
127 25 0 0
25 135 0 0
135 25 0 0
26 21 0 0
21 26 0 0
26 22 0 0
22 26 0 0
26 24 0 0
24 26 0 0
26 33 0 0
33 26 0 0
26 54 0 0
54 26 0 0
26 60 0 0
60 26 0 0
26 86 0 0
86 26 0 0
26 107 0 0
107 26 0 0
26 119 0 0
119 26 0 0
26 138 0 0
138 26 0 0
26 142 0 0
142 26 0 0
27 9 0 0
9 27 0 0
27 12 0 0
12 27 0 0
27 21 0 0
21 27 0 0
27 24 0 0
24 27 0 0
27 26 0 0
26 27 0 0
27 30 0 0
30 27 0 0
27 56 0 0
56 27 0 0
27 61 0 0
61 27 0 0
27 93 0 0
93 27 0 0
27 95 0 0
95 27 0 0
28 6 0 0
6 28 0 0
28 23 0 0
23 28 0 0
28 39 0 0
39 28 0 0
28 62 0 0
62 28 0 0
28 67 0 0
67 28 0 0
28 94 0 0
94 28 0 0
28 112 0 0
112 28 0 0
28 119 0 0
119 28 0 0
28 123 0 0
123 28 0 0
28 135 0 0
135 28 0 0
28 142 0 0
142 28 0 0
28 144 0 0
144 28 0 0
28 154 0 0
154 28 0 0
29 18 0 0
18 29 0 0
29 25 0 0
25 29 0 0
29 26 0 0
26 29 0 0
29 28 0 0
28 29 0 0
29 60 0 0
60 29 0 0
29 61 0 0
61 29 0 0
29 67 0 0
67 29 0 0
29 79 0 0
79 29 0 0
29 80 0 0
80 29 0 0
30 1 0 0
1 30 0 0
30 21 0 0
21 30 0 0
30 22 0 0
22 30 0 0
30 24 0 0
24 30 0 0
30 26 0 0
26 30 0 0
30 27 0 0
27 30 0 0
30 50 0 0
50 30 0 0
30 61 0 0
61 30 0 0
30 105 0 0
105 30 0 0
30 116 0 0
116 30 0 0
30 153 0 0
153 30 0 0
31 24 0 0
24 31 0 0
31 37 0 0
37 31 0 0
31 38 0 0
38 31 0 0
31 39 0 0
39 31 0 0
31 49 0 0
49 31 0 0
31 54 0 0
54 31 0 0
31 124 0 0
124 31 0 0
31 142 0 0
142 31 0 0
32 1 0 0
1 32 0 0
32 18 0 0
18 32 0 0
32 31 0 0
31 32 0 0
32 33 0 0
33 32 0 0
32 35 0 0
35 32 0 0
32 38 0 0
38 32 0 0
32 54 0 0
54 32 0 0
32 55 0 0
55 32 0 0
32 82 0 0
82 32 0 0
32 92 0 0
92 32 0 0
32 116 0 0
116 32 0 0
32 134 0 0
134 32 0 0
33 31 0 0
31 33 0 0
33 35 0 0
35 33 0 0
33 36 0 0
36 33 0 0
33 50 0 0
50 33 0 0
33 52 0 0
52 33 0 0
33 53 0 0
53 33 0 0
33 78 0 0
78 33 0 0
33 79 0 0
79 33 0 0
33 89 0 0
89 33 0 0
33 112 0 0
112 33 0 0
33 137 0 0
137 33 0 0
33 145 0 0
145 33 0 0
33 148 0 0
148 33 0 0
34 18 0 0
18 34 0 0
34 22 0 0
22 34 0 0
34 33 0 0
33 34 0 0
34 37 0 0
37 34 0 0
34 38 0 0
38 34 0 0
34 40 0 0
40 34 0 0
34 81 0 0
81 34 0 0
34 82 0 0
82 34 0 0
34 84 0 0
84 34 0 0
34 103 0 0
103 34 0 0
34 138 0 0
138 34 0 0
34 158 0 0
158 34 0 0
35 13 0 0
13 35 0 0
35 15 0 0
15 35 0 0
35 23 0 0
23 35 0 0
35 39 0 0
39 35 0 0
35 59 0 0
59 35 0 0
35 80 0 0
80 35 0 0
35 88 0 0
88 35 0 0
35 95 0 0
95 35 0 0
35 117 0 0
117 35 0 0
35 140 0 0
140 35 0 0
35 142 0 0
142 35 0 0
36 28 0 0
28 36 0 0
36 33 0 0
33 36 0 0
36 72 0 0
72 36 0 0
36 99 0 0
99 36 0 0
36 116 0 0
116 36 0 0
36 120 0 0
120 36 0 0
36 123 0 0
123 36 0 0
36 131 0 0
131 36 0 0
37 6 0 0
6 37 0 0
37 39 0 0
39 37 0 0
37 53 0 0
53 37 0 0
37 100 0 0
100 37 0 0
37 110 0 0
110 37 0 0
37 125 0 0
125 37 0 0
38 28 0 0
28 38 0 0
38 31 0 0
31 38 0 0
38 64 0 0
64 38 0 0
38 84 0 0
84 38 0 0
38 113 0 0
113 38 0 0
38 116 0 0
116 38 0 0
38 117 0 0
117 38 0 0
38 128 0 0
128 38 0 0
38 151 0 0
151 38 0 0
39 31 0 0
31 39 0 0
39 38 0 0
38 39 0 0
39 44 0 0
44 39 0 0
39 90 0 0
90 39 0 0
39 105 0 0
105 39 0 0
39 109 0 0
109 39 0 0
39 120 0 0
120 39 0 0
39 125 0 0
125 39 0 0
39 128 0 0
128 39 0 0
40 11 0 0
11 40 0 0
40 31 0 0
31 40 0 0
40 34 0 0
34 40 0 0
40 35 0 0
35 40 0 0
40 36 0 0
36 40 0 0
40 37 0 0
37 40 0 0
40 39 0 0
39 40 0 0
40 44 0 0
44 40 0 0
40 49 0 0
49 40 0 0
40 71 0 0
71 40 0 0
40 73 0 0
73 40 0 0
41 6 0 0
6 41 0 0
41 13 0 0
13 41 0 0
41 42 0 0
42 41 0 0
41 44 0 0
44 41 0 0
41 46 0 0
46 41 0 0
41 47 0 0
47 41 0 0
41 48 0 0
48 41 0 0
41 50 0 0
50 41 0 0
41 64 0 0
64 41 0 0
41 70 0 0
70 41 0 0
41 104 0 0
104 41 0 0
41 114 0 0
114 41 0 0
41 140 0 0
140 41 0 0
42 26 0 0
26 42 0 0
42 28 0 0
28 42 0 0
42 49 0 0
49 42 0 0
42 50 0 0
50 42 0 0
42 54 0 0
54 42 0 0
42 78 0 0
78 42 0 0
42 129 0 0
129 42 0 0
42 139 0 0
139 42 0 0
42 144 0 0
144 42 0 0
42 159 0 0
159 42 0 0
43 38 0 0
38 43 0 0
43 46 0 0
46 43 0 0
43 49 0 0
49 43 0 0
43 55 0 0
55 43 0 0
43 61 0 0
61 43 0 0
43 91 0 0
91 43 0 0
43 119 0 0
119 43 0 0
43 120 0 0
120 43 0 0
43 137 0 0
137 43 0 0
43 144 0 0
144 43 0 0
43 153 0 0
153 43 0 0
44 32 0 0
32 44 0 0
44 35 0 0
35 44 0 0
44 38 0 0
38 44 0 0
44 49 0 0
49 44 0 0
44 94 0 0
94 44 0 0
44 149 0 0
149 44 0 0
44 154 0 0
154 44 0 0
45 5 0 0
5 45 0 0
45 16 0 0
16 45 0 0
45 24 0 0
24 45 0 0
45 36 0 0
36 45 0 0
45 46 0 0
46 45 0 0
45 48 0 0
48 45 0 0
45 49 0 0
49 45 0 0
45 51 0 0
51 45 0 0
45 70 0 0
70 45 0 0
45 81 0 0
81 45 0 0
45 108 0 0
108 45 0 0
45 130 0 0
130 45 0 0
45 138 0 0
138 45 0 0
45 142 0 0
142 45 0 0
45 150 0 0
150 45 0 0
45 156 0 0
156 45 0 0
46 7 0 0
7 46 0 0
46 43 0 0
43 46 0 0
46 47 0 0
47 46 0 0
46 49 0 0
49 46 0 0
46 97 0 0
97 46 0 0
46 101 0 0
101 46 0 0
46 110 0 0
110 46 0 0
46 116 0 0
116 46 0 0
46 133 0 0
133 46 0 0
47 7 0 0
7 47 0 0
47 15 0 0
15 47 0 0
47 42 0 0
42 47 0 0
47 44 0 0
44 47 0 0
47 48 0 0
48 47 0 0
47 61 0 0
61 47 0 0
47 78 0 0
78 47 0 0
47 89 0 0
89 47 0 0
47 141 0 0
141 47 0 0
48 14 0 0
14 48 0 0
48 28 0 0
28 48 0 0
48 41 0 0
41 48 0 0
48 43 0 0
43 48 0 0
48 44 0 0
44 48 0 0
48 46 0 0
46 48 0 0
48 71 0 0
71 48 0 0
48 73 0 0
73 48 0 0
48 74 0 0
74 48 0 0
48 80 0 0
80 48 0 0
48 89 0 0
89 48 0 0
48 110 0 0
110 48 0 0
49 1 0 0
1 49 0 0
49 42 0 0
42 49 0 0
49 96 0 0
96 49 0 0
49 128 0 0
128 49 0 0
50 3 0 0
3 50 0 0
50 8 0 0
8 50 0 0
50 44 0 0
44 50 0 0
50 47 0 0
47 50 0 0
50 49 0 0
49 50 0 0
50 54 0 0
54 50 0 0
50 95 0 0
95 50 0 0
50 102 0 0
102 50 0 0
50 138 0 0
138 50 0 0
51 19 0 0
19 51 0 0
51 25 0 0
25 51 0 0
51 37 0 0
37 51 0 0
51 54 0 0
54 51 0 0
51 60 0 0
60 51 0 0
51 64 0 0
64 51 0 0
51 124 0 0
124 51 0 0
51 138 0 0
138 51 0 0
51 155 0 0
155 51 0 0
52 5 0 0
5 52 0 0
52 9 0 0
9 52 0 0
52 23 0 0
23 52 0 0
52 44 0 0
44 52 0 0
52 51 0 0
51 52 0 0
52 54 0 0
54 52 0 0
52 55 0 0
55 52 0 0
52 81 0 0
81 52 0 0
52 83 0 0
83 52 0 0
52 138 0 0
138 52 0 0
52 142 0 0
142 52 0 0
53 30 0 0
30 53 0 0
53 44 0 0
44 53 0 0
53 46 0 0
46 53 0 0
53 55 0 0
55 53 0 0
53 89 0 0
89 53 0 0
53 135 0 0
135 53 0 0
53 139 0 0
139 53 0 0
54 4 0 0
4 54 0 0
54 16 0 0
16 54 0 0
54 24 0 0
24 54 0 0
54 33 0 0
33 54 0 0
54 39 0 0
39 54 0 0
54 51 0 0
51 54 0 0
54 52 0 0
52 54 0 0
54 57 0 0
57 54 0 0
54 59 0 0
59 54 0 0
54 84 0 0
84 54 0 0
54 108 0 0
108 54 0 0
54 123 0 0
123 54 0 0
54 134 0 0
134 54 0 0
54 142 0 0
142 54 0 0
54 160 0 0
160 54 0 0
55 30 0 0
30 55 0 0
55 40 0 0
40 55 0 0
55 57 0 0
57 55 0 0
55 58 0 0
58 55 0 0
55 59 0 0
59 55 0 0
55 65 0 0
65 55 0 0
55 77 0 0
77 55 0 0
55 89 0 0
89 55 0 0
55 97 0 0
97 55 0 0
55 132 0 0
132 55 0 0
55 154 0 0
154 55 0 0
55 155 0 0
155 55 0 0
56 27 0 0
27 56 0 0
56 37 0 0
37 56 0 0
56 43 0 0
43 56 0 0
56 65 0 0
65 56 0 0
56 70 0 0
70 56 0 0
56 80 0 0
80 56 0 0
56 114 0 0
114 56 0 0
56 155 0 0
155 56 0 0
57 4 0 0
4 57 0 0
57 40 0 0
40 57 0 0
57 52 0 0
52 57 0 0
57 59 0 0
59 57 0 0
57 144 0 0
144 57 0 0
58 12 0 0
12 58 0 0
58 42 0 0
42 58 0 0
58 43 0 0
43 58 0 0
58 54 0 0
54 58 0 0
58 60 0 0
60 58 0 0
58 89 0 0
89 58 0 0
58 133 0 0
133 58 0 0
58 139 0 0
139 58 0 0
58 143 0 0
143 58 0 0
59 53 0 0
53 59 0 0
59 60 0 0
60 59 0 0
59 65 0 0
65 59 0 0
59 68 0 0
68 59 0 0
59 76 0 0
76 59 0 0
59 101 0 0
101 59 0 0
59 103 0 0
103 59 0 0
59 112 0 0
112 59 0 0
59 140 0 0
140 59 0 0
59 156 0 0
156 59 0 0
60 37 0 0
37 60 0 0
60 40 0 0
40 60 0 0
60 45 0 0
45 60 0 0
60 51 0 0
51 60 0 0
60 55 0 0
55 60 0 0
60 58 0 0
58 60 0 0
60 94 0 0
94 60 0 0
60 103 0 0
103 60 0 0
60 114 0 0
114 60 0 0
60 127 0 0
127 60 0 0
60 130 0 0
130 60 0 0
60 152 0 0
152 60 0 0
61 24 0 0
24 61 0 0
61 28 0 0
28 61 0 0
61 39 0 0
39 61 0 0
61 58 0 0
58 61 0 0
61 62 0 0
62 61 0 0
61 64 0 0
64 61 0 0
61 65 0 0
65 61 0 0
61 67 0 0
67 61 0 0
61 89 0 0
89 61 0 0
61 97 0 0
97 61 0 0
61 146 0 0
146 61 0 0
62 12 0 0
12 62 0 0
62 30 0 0
30 62 0 0
62 64 0 0
64 62 0 0
62 67 0 0
67 62 0 0
62 96 0 0
96 62 0 0
62 97 0 0
97 62 0 0
62 113 0 0
113 62 0 0
62 125 0 0
125 62 0 0
62 138 0 0
138 62 0 0
62 148 0 0
148 62 0 0
63 5 0 0
5 63 0 0
63 33 0 0
33 63 0 0
63 40 0 0
40 63 0 0
63 61 0 0
61 63 0 0
63 65 0 0
65 63 0 0
63 66 0 0
66 63 0 0
63 67 0 0
67 63 0 0
63 79 0 0
79 63 0 0
63 90 0 0
90 63 0 0
63 99 0 0
99 63 0 0
63 103 0 0
103 63 0 0
63 110 0 0
110 63 0 0
63 125 0 0
125 63 0 0
63 144 0 0
144 63 0 0
64 35 0 0
35 64 0 0
64 53 0 0
53 64 0 0
64 59 0 0
59 64 0 0
64 61 0 0
61 64 0 0
64 62 0 0
62 64 0 0
64 63 0 0
63 64 0 0
64 65 0 0
65 64 0 0
64 68 0 0
68 64 0 0
64 75 0 0
75 64 0 0
64 107 0 0
107 64 0 0
64 116 0 0
116 64 0 0
64 133 0 0
133 64 0 0
64 135 0 0
135 64 0 0
64 146 0 0
146 64 0 0
65 7 0 0
7 65 0 0
65 41 0 0
41 65 0 0
65 53 0 0
53 65 0 0
65 62 0 0
62 65 0 0
65 63 0 0
63 65 0 0
65 66 0 0
66 65 0 0
65 69 0 0
69 65 0 0
65 70 0 0
70 65 0 0
65 114 0 0
114 65 0 0
65 135 0 0
135 65 0 0
65 138 0 0
138 65 0 0
65 141 0 0
141 65 0 0
65 157 0 0
157 65 0 0
65 159 0 0
159 65 0 0
65 160 0 0
160 65 0 0
66 4 0 0
4 66 0 0
66 63 0 0
63 66 0 0
66 67 0 0
67 66 0 0
66 69 0 0
69 66 0 0
66 76 0 0
76 66 0 0
66 125 0 0
125 66 0 0
66 131 0 0
131 66 0 0
66 136 0 0
136 66 0 0
66 142 0 0
142 66 0 0
67 11 0 0
11 67 0 0
67 28 0 0
28 67 0 0
67 44 0 0
44 67 0 0
67 66 0 0
66 67 0 0
67 75 0 0
75 67 0 0
67 79 0 0
79 67 0 0
67 87 0 0
87 67 0 0
68 4 0 0
4 68 0 0
68 9 0 0
9 68 0 0
68 66 0 0
66 68 0 0
68 93 0 0
93 68 0 0
68 122 0 0
122 68 0 0
68 148 0 0
148 68 0 0
69 54 0 0
54 69 0 0
69 62 0 0
62 69 0 0
69 67 0 0
67 69 0 0
69 70 0 0
70 69 0 0
69 74 0 0
74 69 0 0
69 104 0 0
104 69 0 0
69 106 0 0
106 69 0 0
70 3 0 0
3 70 0 0
70 22 0 0
22 70 0 0
70 61 0 0
61 70 0 0
70 62 0 0
62 70 0 0
70 63 0 0
63 70 0 0
70 64 0 0
64 70 0 0
70 69 0 0
69 70 0 0
70 79 0 0
79 70 0 0
70 91 0 0
91 70 0 0
70 123 0 0
123 70 0 0
70 128 0 0
128 70 0 0
70 139 0 0
139 70 0 0
70 154 0 0
154 70 0 0
70 155 0 0
155 70 0 0
71 2 0 0
2 71 0 0
71 7 0 0
7 71 0 0
71 41 0 0
41 71 0 0
71 47 0 0
47 71 0 0
71 52 0 0
52 71 0 0
71 66 0 0
66 71 0 0
71 72 0 0
72 71 0 0
71 75 0 0
75 71 0 0
71 78 0 0
78 71 0 0
71 79 0 0
79 71 0 0
71 80 0 0
80 71 0 0
71 101 0 0
101 71 0 0
71 133 0 0
133 71 0 0
71 143 0 0
143 71 0 0
72 3 0 0
3 72 0 0
72 65 0 0
65 72 0 0
72 71 0 0
71 72 0 0
72 74 0 0
74 72 0 0
72 75 0 0
75 72 0 0
72 76 0 0
76 72 0 0
72 78 0 0
78 72 0 0
72 79 0 0
79 72 0 0
72 80 0 0
80 72 0 0
72 96 0 0
96 72 0 0
72 106 0 0
106 72 0 0
72 111 0 0
111 72 0 0
72 117 0 0
117 72 0 0
72 139 0 0
139 72 0 0
73 9 0 0
9 73 0 0
73 40 0 0
40 73 0 0
73 71 0 0
71 73 0 0
73 74 0 0
74 73 0 0
73 101 0 0
101 73 0 0
73 131 0 0
131 73 0 0
73 156 0 0
156 73 0 0
74 32 0 0
32 74 0 0
74 35 0 0
35 74 0 0
74 48 0 0
48 74 0 0
74 63 0 0
63 74 0 0
74 73 0 0
73 74 0 0
74 77 0 0
77 74 0 0
74 129 0 0
129 74 0 0
74 141 0 0
141 74 0 0
75 7 0 0
7 75 0 0
75 23 0 0
23 75 0 0
75 80 0 0
80 75 0 0
75 82 0 0
82 75 0 0
75 87 0 0
87 75 0 0
75 94 0 0
94 75 0 0
75 103 0 0
103 75 0 0
75 124 0 0
124 75 0 0
76 6 0 0
6 76 0 0
76 26 0 0
26 76 0 0
76 58 0 0
58 76 0 0
76 67 0 0
67 76 0 0
76 71 0 0
71 76 0 0
76 72 0 0
72 76 0 0
76 73 0 0
73 76 0 0
76 75 0 0
75 76 0 0
76 101 0 0
101 76 0 0
76 108 0 0
108 76 0 0
76 144 0 0
144 76 0 0
77 25 0 0
25 77 0 0
77 31 0 0
31 77 0 0
77 35 0 0
35 77 0 0
77 36 0 0
36 77 0 0
77 57 0 0
57 77 0 0
77 74 0 0
74 77 0 0
77 88 0 0
88 77 0 0
77 113 0 0
113 77 0 0
77 119 0 0
119 77 0 0
77 143 0 0
143 77 0 0
77 156 0 0
156 77 0 0
78 22 0 0
22 78 0 0
78 33 0 0
33 78 0 0
78 40 0 0
40 78 0 0
78 59 0 0
59 78 0 0
78 75 0 0
75 78 0 0
78 80 0 0
80 78 0 0
78 85 0 0
85 78 0 0
78 93 0 0
93 78 0 0
78 106 0 0
106 78 0 0
78 148 0 0
148 78 0 0
78 155 0 0
155 78 0 0
79 4 0 0
4 79 0 0
79 70 0 0
70 79 0 0
79 77 0 0
77 79 0 0
79 78 0 0
78 79 0 0
79 86 0 0
86 79 0 0
79 109 0 0
109 79 0 0
79 116 0 0
116 79 0 0
79 118 0 0
118 79 0 0
79 124 0 0
124 79 0 0
79 125 0 0
125 79 0 0
79 136 0 0
136 79 0 0
79 149 0 0
149 79 0 0
79 154 0 0
154 79 0 0
80 24 0 0
24 80 0 0
80 30 0 0
30 80 0 0
80 36 0 0
36 80 0 0
80 51 0 0
51 80 0 0
80 60 0 0
60 80 0 0
80 74 0 0
74 80 0 0
80 77 0 0
77 80 0 0
80 90 0 0
90 80 0 0
80 103 0 0
103 80 0 0
80 116 0 0
116 80 0 0
81 15 0 0
15 81 0 0
81 19 0 0
19 81 0 0
81 40 0 0
40 81 0 0
81 77 0 0
77 81 0 0
81 82 0 0
82 81 0 0
81 83 0 0
83 81 0 0
81 84 0 0
84 81 0 0
81 85 0 0
85 81 0 0
81 87 0 0
87 81 0 0
81 105 0 0
105 81 0 0
81 129 0 0
129 81 0 0
81 152 0 0
152 81 0 0
81 160 0 0
160 81 0 0
82 14 0 0
14 82 0 0
82 19 0 0
19 82 0 0
82 52 0 0
52 82 0 0
82 57 0 0
57 82 0 0
82 61 0 0
61 82 0 0
82 66 0 0
66 82 0 0
82 79 0 0
79 82 0 0
82 80 0 0
80 82 0 0
82 119 0 0
119 82 0 0
82 135 0 0
135 82 0 0
83 1 0 0
1 83 0 0
83 14 0 0
14 83 0 0
83 34 0 0
34 83 0 0
83 45 0 0
45 83 0 0
83 56 0 0
56 83 0 0
83 133 0 0
133 83 0 0
83 150 0 0
150 83 0 0
84 11 0 0
11 84 0 0
84 14 0 0
14 84 0 0
84 15 0 0
15 84 0 0
84 19 0 0
19 84 0 0
84 39 0 0
39 84 0 0
84 42 0 0
42 84 0 0
84 55 0 0
55 84 0 0
84 60 0 0
60 84 0 0
84 61 0 0
61 84 0 0
84 71 0 0
71 84 0 0
84 76 0 0
76 84 0 0
84 82 0 0
82 84 0 0
84 86 0 0
86 84 0 0
84 102 0 0
102 84 0 0
85 21 0 0
21 85 0 0
85 24 0 0
24 85 0 0
85 27 0 0
27 85 0 0
85 56 0 0
56 85 0 0
85 64 0 0
64 85 0 0
85 67 0 0
67 85 0 0
85 83 0 0
83 85 0 0
85 84 0 0
84 85 0 0
85 102 0 0
102 85 0 0
85 126 0 0
126 85 0 0
85 142 0 0
142 85 0 0
85 145 0 0
145 85 0 0
86 10 0 0
10 86 0 0
86 19 0 0
19 86 0 0
86 58 0 0
58 86 0 0
86 64 0 0
64 86 0 0
86 77 0 0
77 86 0 0
86 87 0 0
87 86 0 0
86 96 0 0
96 86 0 0
86 110 0 0
110 86 0 0
86 119 0 0
119 86 0 0
86 121 0 0
121 86 0 0
86 133 0 0
133 86 0 0
86 146 0 0
146 86 0 0
87 34 0 0
34 87 0 0
87 69 0 0
69 87 0 0
87 81 0 0
81 87 0 0
87 82 0 0
82 87 0 0
87 89 0 0
89 87 0 0
87 90 0 0
90 87 0 0
87 95 0 0
95 87 0 0
87 102 0 0
102 87 0 0
87 108 0 0
108 87 0 0
87 122 0 0
122 87 0 0
88 81 0 0
81 88 0 0
88 86 0 0
86 88 0 0
88 133 0 0
133 88 0 0
88 143 0 0
143 88 0 0
88 151 0 0
151 88 0 0
88 158 0 0
158 88 0 0
89 25 0 0
25 89 0 0
89 39 0 0
39 89 0 0
89 45 0 0
45 89 0 0
89 84 0 0
84 89 0 0
89 86 0 0
86 89 0 0
89 90 0 0
90 89 0 0
89 93 0 0
93 89 0 0
89 94 0 0
94 89 0 0
89 97 0 0
97 89 0 0
89 98 0 0
98 89 0 0
89 110 0 0
110 89 0 0
89 115 0 0
115 89 0 0
89 117 0 0
117 89 0 0
90 19 0 0
19 90 0 0
90 29 0 0
29 90 0 0
90 50 0 0
50 90 0 0
90 55 0 0
55 90 0 0
90 76 0 0
76 90 0 0
90 87 0 0
87 90 0 0
90 91 0 0
91 90 0 0
90 113 0 0
113 90 0 0
90 115 0 0
115 90 0 0
91 53 0 0
53 91 0 0
91 58 0 0
58 91 0 0
91 95 0 0
95 91 0 0
91 116 0 0
116 91 0 0
91 136 0 0
136 91 0 0
92 18 0 0
18 92 0 0
92 24 0 0
24 92 0 0
92 51 0 0
51 92 0 0
92 61 0 0
61 92 0 0
92 75 0 0
75 92 0 0
92 86 0 0
86 92 0 0
92 95 0 0
95 92 0 0
92 97 0 0
97 92 0 0
92 98 0 0
98 92 0 0
92 99 0 0
99 92 0 0
92 105 0 0
105 92 0 0
92 140 0 0
140 92 0 0
93 47 0 0
47 93 0 0
93 53 0 0
53 93 0 0
93 67 0 0
67 93 0 0
93 68 0 0
68 93 0 0
93 89 0 0
89 93 0 0
93 97 0 0
97 93 0 0
93 98 0 0
98 93 0 0
93 140 0 0
140 93 0 0
93 143 0 0
143 93 0 0
93 144 0 0
144 93 0 0
94 8 0 0
8 94 0 0
94 21 0 0
21 94 0 0
94 40 0 0
40 94 0 0
94 43 0 0
43 94 0 0
94 96 0 0
96 94 0 0
94 97 0 0
97 94 0 0
94 98 0 0
98 94 0 0
94 121 0 0
121 94 0 0
94 151 0 0
151 94 0 0
95 17 0 0
17 95 0 0
95 29 0 0
29 95 0 0
95 49 0 0
49 95 0 0
95 70 0 0
70 95 0 0
95 87 0 0
87 95 0 0
95 98 0 0
98 95 0 0
95 99 0 0
99 95 0 0
95 110 0 0
110 95 0 0
95 142 0 0
142 95 0 0
96 15 0 0
15 96 0 0
96 21 0 0
21 96 0 0
96 30 0 0
30 96 0 0
96 43 0 0
43 96 0 0
96 58 0 0
58 96 0 0
96 98 0 0
98 96 0 0
96 108 0 0
108 96 0 0
96 127 0 0
127 96 0 0
96 153 0 0
153 96 0 0
96 154 0 0
154 96 0 0
97 11 0 0
11 97 0 0
97 31 0 0
31 97 0 0
97 32 0 0
32 97 0 0
97 41 0 0
41 97 0 0
97 65 0 0
65 97 0 0
97 82 0 0
82 97 0 0
97 98 0 0
98 97 0 0
97 122 0 0
122 97 0 0
97 152 0 0
152 97 0 0
98 31 0 0
31 98 0 0
98 39 0 0
39 98 0 0
98 49 0 0
49 98 0 0
98 58 0 0
58 98 0 0
98 67 0 0
67 98 0 0
98 91 0 0
91 98 0 0
98 94 0 0
94 98 0 0
98 95 0 0
95 98 0 0
98 96 0 0
96 98 0 0
98 97 0 0
97 98 0 0
98 120 0 0
120 98 0 0
98 149 0 0
149 98 0 0
99 7 0 0
7 99 0 0
99 63 0 0
63 99 0 0
99 93 0 0
93 99 0 0
99 98 0 0
98 99 0 0
99 113 0 0
113 99 0 0
99 120 0 0
120 99 0 0
99 145 0 0
145 99 0 0
100 5 0 0
5 100 0 0
100 8 0 0
8 100 0 0
100 9 0 0
9 100 0 0
100 27 0 0
27 100 0 0
100 38 0 0
38 100 0 0
100 63 0 0
63 100 0 0
100 72 0 0
72 100 0 0
100 94 0 0
94 100 0 0
100 96 0 0
96 100 0 0
100 98 0 0
98 100 0 0
100 142 0 0
142 100 0 0
100 153 0 0
153 100 0 0
101 21 0 0
21 101 0 0
101 39 0 0
39 101 0 0
101 49 0 0
49 101 0 0
101 53 0 0
53 101 0 0
101 79 0 0
79 101 0 0
101 83 0 0
83 101 0 0
101 85 0 0
85 101 0 0
101 99 0 0
99 101 0 0
101 105 0 0
105 101 0 0
101 106 0 0
106 101 0 0
101 108 0 0
108 101 0 0
101 109 0 0
109 101 0 0
101 150 0 0
150 101 0 0
102 26 0 0
26 102 0 0
102 31 0 0
31 102 0 0
102 73 0 0
73 102 0 0
102 88 0 0
88 102 0 0
102 94 0 0
94 102 0 0
102 110 0 0
110 102 0 0
102 127 0 0
127 102 0 0
102 147 0 0
147 102 0 0
102 151 0 0
151 102 0 0
103 24 0 0
24 103 0 0
103 52 0 0
52 103 0 0
103 56 0 0
56 103 0 0
103 71 0 0
71 103 0 0
103 101 0 0
101 103 0 0
103 104 0 0
104 103 0 0
103 106 0 0
106 103 0 0
103 110 0 0
110 103 0 0
103 113 0 0
113 103 0 0
104 8 0 0
8 104 0 0
104 25 0 0
25 104 0 0
104 45 0 0
45 104 0 0
104 85 0 0
85 104 0 0
104 102 0 0
102 104 0 0
104 105 0 0
105 104 0 0
104 106 0 0
106 104 0 0
104 108 0 0
108 104 0 0
104 109 0 0
109 104 0 0
104 122 0 0
122 104 0 0
104 139 0 0
139 104 0 0
104 151 0 0
151 104 0 0
104 153 0 0
153 104 0 0
105 4 0 0
4 105 0 0
105 12 0 0
12 105 0 0
105 28 0 0
28 105 0 0
105 48 0 0
48 105 0 0
105 79 0 0
79 105 0 0
105 86 0 0
86 105 0 0
105 90 0 0
90 105 0 0
105 96 0 0
96 105 0 0
105 102 0 0
102 105 0 0
105 106 0 0
106 105 0 0
105 133 0 0
133 105 0 0
105 136 0 0
136 105 0 0
106 42 0 0
42 106 0 0
106 61 0 0
61 106 0 0
106 62 0 0
62 106 0 0
106 82 0 0
82 106 0 0
106 89 0 0
89 106 0 0
106 118 0 0
118 106 0 0
106 134 0 0
134 106 0 0
106 160 0 0
160 106 0 0
107 36 0 0
36 107 0 0
107 46 0 0
46 107 0 0
107 60 0 0
60 107 0 0
107 68 0 0
68 107 0 0
107 78 0 0
78 107 0 0
107 80 0 0
80 107 0 0
107 92 0 0
92 107 0 0
107 104 0 0
104 107 0 0
107 105 0 0
105 107 0 0
107 111 0 0
111 107 0 0
107 127 0 0
127 107 0 0
107 141 0 0
141 107 0 0
108 43 0 0
43 108 0 0
108 68 0 0
68 108 0 0
108 92 0 0
92 108 0 0
108 96 0 0
96 108 0 0
108 104 0 0
104 108 0 0
108 105 0 0
105 108 0 0
108 115 0 0
115 108 0 0
108 136 0 0
136 108 0 0
108 138 0 0
138 108 0 0
108 146 0 0
146 108 0 0
109 89 0 0
89 109 0 0
109 105 0 0
105 109 0 0
109 108 0 0
108 109 0 0
109 122 0 0
122 109 0 0
110 8 0 0
8 110 0 0
110 40 0 0
40 110 0 0
110 44 0 0
44 110 0 0
110 64 0 0
64 110 0 0
110 73 0 0
73 110 0 0
110 93 0 0
93 110 0 0
110 101 0 0
101 110 0 0
110 105 0 0
105 110 0 0
110 157 0 0
157 110 0 0
111 22 0 0
22 111 0 0
111 73 0 0
73 111 0 0
111 106 0 0
106 111 0 0
111 109 0 0
109 111 0 0
111 113 0 0
113 111 0 0
111 114 0 0
114 111 0 0
111 115 0 0
115 111 0 0
111 118 0 0
118 111 0 0
111 158 0 0
158 111 0 0
112 10 0 0
10 112 0 0
112 15 0 0
15 112 0 0
112 16 0 0
16 112 0 0
112 22 0 0
22 112 0 0
112 23 0 0
23 112 0 0
112 38 0 0
38 112 0 0
112 46 0 0
46 112 0 0
112 73 0 0
73 112 0 0
112 103 0 0
103 112 0 0
112 105 0 0
105 112 0 0
112 111 0 0
111 112 0 0
112 115 0 0
115 112 0 0
112 116 0 0
116 112 0 0
112 119 0 0
119 112 0 0
112 120 0 0
120 112 0 0
112 141 0 0
141 112 0 0
112 144 0 0
144 112 0 0
112 149 0 0
149 112 0 0
113 9 0 0
9 113 0 0
113 15 0 0
15 113 0 0
113 20 0 0
20 113 0 0
113 40 0 0
40 113 0 0
113 41 0 0
41 113 0 0
113 84 0 0
84 113 0 0
113 93 0 0
93 113 0 0
113 94 0 0
94 113 0 0
113 114 0 0
114 113 0 0
113 115 0 0
115 113 0 0
113 120 0 0
120 113 0 0
113 159 0 0
159 113 0 0
114 2 0 0
2 114 0 0
114 46 0 0
46 114 0 0
114 49 0 0
49 114 0 0
114 51 0 0
51 114 0 0
114 71 0 0
71 114 0 0
114 76 0 0
76 114 0 0
114 87 0 0
87 114 0 0
114 134 0 0
134 114 0 0
115 14 0 0
14 115 0 0
115 17 0 0
17 115 0 0
115 90 0 0
90 115 0 0
115 106 0 0
106 115 0 0
115 113 0 0
113 115 0 0
115 114 0 0
114 115 0 0
115 118 0 0
118 115 0 0
116 20 0 0
20 116 0 0
116 35 0 0
35 116 0 0
116 93 0 0
93 116 0 0
116 112 0 0
112 116 0 0
116 113 0 0
113 116 0 0
116 120 0 0
120 116 0 0
117 24 0 0
24 117 0 0
117 69 0 0
69 117 0 0
117 73 0 0
73 117 0 0
117 74 0 0
74 117 0 0
117 80 0 0
80 117 0 0
117 112 0 0
112 117 0 0
117 119 0 0
119 117 0 0
117 120 0 0
120 117 0 0
117 129 0 0
129 117 0 0
117 138 0 0
138 117 0 0
117 144 0 0
144 117 0 0
117 147 0 0
147 117 0 0
117 150 0 0
150 117 0 0
118 2 0 0
2 118 0 0
118 92 0 0
92 118 0 0
118 112 0 0
112 118 0 0
118 124 0 0
124 118 0 0
118 136 0 0
136 118 0 0
119 28 0 0
28 119 0 0
119 42 0 0
42 119 0 0
119 47 0 0
47 119 0 0
119 66 0 0
66 119 0 0
119 77 0 0
77 119 0 0
119 80 0 0
80 119 0 0
119 113 0 0
113 119 0 0
119 115 0 0
115 119 0 0
119 120 0 0
120 119 0 0
119 123 0 0
123 119 0 0
119 127 0 0
127 119 0 0
119 132 0 0
132 119 0 0
119 153 0 0
153 119 0 0
120 3 0 0
3 120 0 0
120 112 0 0
112 120 0 0
120 113 0 0
113 120 0 0
120 115 0 0
115 120 0 0
120 118 0 0
118 120 0 0
120 119 0 0
119 120 0 0
121 17 0 0
17 121 0 0
121 34 0 0
34 121 0 0
121 92 0 0
92 121 0 0
121 103 0 0
103 121 0 0
121 107 0 0
107 121 0 0
121 122 0 0
122 121 0 0
121 127 0 0
127 121 0 0
121 128 0 0
128 121 0 0
121 130 0 0
130 121 0 0
121 149 0 0
149 121 0 0
122 40 0 0
40 122 0 0
122 43 0 0
43 122 0 0
122 72 0 0
72 122 0 0
122 74 0 0
74 122 0 0
122 102 0 0
102 122 0 0
122 113 0 0
113 122 0 0
122 121 0 0
121 122 0 0
122 126 0 0
126 122 0 0
122 130 0 0
130 122 0 0
122 137 0 0
137 122 0 0
122 141 0 0
141 122 0 0
122 145 0 0
145 122 0 0
122 146 0 0
146 122 0 0
122 151 0 0
151 122 0 0
123 69 0 0
69 123 0 0
123 79 0 0
79 123 0 0
123 119 0 0
119 123 0 0
123 124 0 0
124 123 0 0
123 129 0 0
129 123 0 0
123 140 0 0
140 123 0 0
124 6 0 0
6 124 0 0
124 9 0 0
9 124 0 0
124 13 0 0
13 124 0 0
124 20 0 0
20 124 0 0
124 77 0 0
77 124 0 0
124 89 0 0
89 124 0 0
124 128 0 0
128 124 0 0
124 129 0 0
129 124 0 0
124 134 0 0
134 124 0 0
124 147 0 0
147 124 0 0
125 31 0 0
31 125 0 0
125 48 0 0
48 125 0 0
125 64 0 0
64 125 0 0
125 79 0 0
79 125 0 0
125 83 0 0
83 125 0 0
125 85 0 0
85 125 0 0
125 96 0 0
96 125 0 0
125 127 0 0
127 125 0 0
125 134 0 0
134 125 0 0
125 139 0 0
139 125 0 0
125 151 0 0
151 125 0 0
125 154 0 0
154 125 0 0
125 156 0 0
156 125 0 0
126 1 0 0
1 126 0 0
126 3 0 0
3 126 0 0
126 56 0 0
56 126 0 0
126 74 0 0
74 126 0 0
126 79 0 0
79 126 0 0
126 85 0 0
85 126 0 0
126 93 0 0
93 126 0 0
126 121 0 0
121 126 0 0
126 123 0 0
123 126 0 0
126 127 0 0
127 126 0 0
126 150 0 0
150 126 0 0
126 158 0 0
158 126 0 0
126 160 0 0
160 126 0 0
127 11 0 0
11 127 0 0
127 73 0 0
73 127 0 0
127 99 0 0
99 127 0 0
127 128 0 0
128 127 0 0
127 129 0 0
129 127 0 0
127 132 0 0
132 127 0 0
127 135 0 0
135 127 0 0
128 10 0 0
10 128 0 0
128 27 0 0
27 128 0 0
128 62 0 0
62 128 0 0
128 77 0 0
77 128 0 0
128 88 0 0
88 128 0 0
128 100 0 0
100 128 0 0
128 125 0 0
125 128 0 0
128 126 0 0
126 128 0 0
128 129 0 0
129 128 0 0
128 131 0 0
131 128 0 0
128 154 0 0
154 128 0 0
128 159 0 0
159 128 0 0
129 21 0 0
21 129 0 0
129 98 0 0
98 129 0 0
129 114 0 0
114 129 0 0
129 117 0 0
117 129 0 0
129 128 0 0
128 129 0 0
129 159 0 0
159 129 0 0
130 27 0 0
27 130 0 0
130 69 0 0
69 130 0 0
130 89 0 0
89 130 0 0
130 123 0 0
123 130 0 0
130 125 0 0
125 130 0 0
130 126 0 0
126 130 0 0
130 128 0 0
128 130 0 0
130 136 0 0
136 130 0 0
131 4 0 0
4 131 0 0
131 76 0 0
76 131 0 0
131 78 0 0
78 131 0 0
131 93 0 0
93 131 0 0
131 132 0 0
132 131 0 0
131 134 0 0
134 131 0 0
131 135 0 0
135 131 0 0
131 145 0 0
145 131 0 0
131 152 0 0
152 131 0 0
132 47 0 0
47 132 0 0
132 64 0 0
64 132 0 0
132 71 0 0
71 132 0 0
132 75 0 0
75 132 0 0
132 77 0 0
77 132 0 0
132 80 0 0
80 132 0 0
132 88 0 0
88 132 0 0
132 121 0 0
121 132 0 0
132 131 0 0
131 132 0 0
132 154 0 0
154 132 0 0
133 31 0 0
31 133 0 0
133 32 0 0
32 133 0 0
133 79 0 0
79 133 0 0
133 84 0 0
84 133 0 0
133 111 0 0
111 133 0 0
133 122 0 0
122 133 0 0
133 129 0 0
129 133 0 0
133 139 0 0
139 133 0 0
133 153 0 0
153 133 0 0
134 21 0 0
21 134 0 0
134 47 0 0
47 134 0 0
134 77 0 0
77 134 0 0
134 81 0 0
81 134 0 0
134 131 0 0
131 134 0 0
134 132 0 0
132 134 0 0
134 135 0 0
135 134 0 0
134 140 0 0
140 134 0 0
134 151 0 0
151 134 0 0
135 5 0 0
5 135 0 0
135 23 0 0
23 135 0 0
135 28 0 0
28 135 0 0
135 49 0 0
49 135 0 0
135 58 0 0
58 135 0 0
135 62 0 0
62 135 0 0
135 75 0 0
75 135 0 0
135 133 0 0
133 135 0 0
135 136 0 0
136 135 0 0
135 140 0 0
140 135 0 0
135 148 0 0
148 135 0 0
135 153 0 0
153 135 0 0
136 2 0 0
2 136 0 0
136 5 0 0
5 136 0 0
136 6 0 0
6 136 0 0
136 19 0 0
19 136 0 0
136 22 0 0
22 136 0 0
136 39 0 0
39 136 0 0
136 44 0 0
44 136 0 0
136 47 0 0
47 136 0 0
136 50 0 0
50 136 0 0
136 66 0 0
66 136 0 0
136 86 0 0
86 136 0 0
136 108 0 0
108 136 0 0
136 119 0 0
119 136 0 0
136 123 0 0
123 136 0 0
136 125 0 0
125 136 0 0
136 138 0 0
138 136 0 0
136 141 0 0
141 136 0 0
136 148 0 0
148 136 0 0
136 149 0 0
149 136 0 0
136 153 0 0
153 136 0 0
137 13 0 0
13 137 0 0
137 45 0 0
45 137 0 0
137 55 0 0
55 137 0 0
137 57 0 0
57 137 0 0
137 136 0 0
136 137 0 0
137 143 0 0
143 137 0 0
137 152 0 0
152 137 0 0
138 32 0 0
32 138 0 0
138 68 0 0
68 138 0 0
138 133 0 0
133 138 0 0
138 139 0 0
139 138 0 0
138 142 0 0
142 138 0 0
138 155 0 0
155 138 0 0
139 7 0 0
7 139 0 0
139 10 0 0
10 139 0 0
139 14 0 0
14 139 0 0
139 52 0 0
52 139 0 0
139 62 0 0
62 139 0 0
139 97 0 0
97 139 0 0
139 134 0 0
134 139 0 0
139 140 0 0
140 139 0 0
139 141 0 0
141 139 0 0
139 154 0 0
154 139 0 0
140 1 0 0
1 140 0 0
140 7 0 0
7 140 0 0
140 21 0 0
21 140 0 0
140 22 0 0
22 140 0 0
140 102 0 0
102 140 0 0
140 103 0 0
103 140 0 0
140 135 0 0
135 140 0 0
140 138 0 0
138 140 0 0
141 4 0 0
4 141 0 0
141 24 0 0
24 141 0 0
141 42 0 0
42 141 0 0
141 52 0 0
52 141 0 0
141 66 0 0
66 141 0 0
141 97 0 0
97 141 0 0
141 112 0 0
112 141 0 0
141 115 0 0
115 141 0 0
141 122 0 0
122 141 0 0
141 126 0 0
126 141 0 0
141 143 0 0
143 141 0 0
141 144 0 0
144 141 0 0
141 146 0 0
146 141 0 0
142 49 0 0
49 142 0 0
142 79 0 0
79 142 0 0
142 86 0 0
86 142 0 0
142 108 0 0
108 142 0 0
142 135 0 0
135 142 0 0
142 145 0 0
145 142 0 0
142 148 0 0
148 142 0 0
142 150 0 0
150 142 0 0
143 34 0 0
34 143 0 0
143 80 0 0
80 143 0 0
143 108 0 0
108 143 0 0
143 110 0 0
110 143 0 0
143 116 0 0
116 143 0 0
143 142 0 0
142 143 0 0
143 145 0 0
145 143 0 0
143 150 0 0
150 143 0 0
144 43 0 0
43 144 0 0
144 82 0 0
82 144 0 0
144 85 0 0
85 144 0 0
144 92 0 0
92 144 0 0
144 111 0 0
111 144 0 0
144 139 0 0
139 144 0 0
144 142 0 0
142 144 0 0
144 146 0 0
146 144 0 0
144 149 0 0
149 144 0 0
144 150 0 0
150 144 0 0
145 68 0 0
68 145 0 0
145 79 0 0
79 145 0 0
145 101 0 0
101 145 0 0
145 107 0 0
107 145 0 0
145 133 0 0
133 145 0 0
145 144 0 0
144 145 0 0
145 147 0 0
147 145 0 0
145 150 0 0
150 145 0 0
146 36 0 0
36 146 0 0
146 70 0 0
70 146 0 0
146 131 0 0
131 146 0 0
146 134 0 0
134 146 0 0
146 142 0 0
142 146 0 0
147 94 0 0
94 147 0 0
147 98 0 0
98 147 0 0
147 111 0 0
111 147 0 0
147 114 0 0
114 147 0 0
147 135 0 0
135 147 0 0
147 141 0 0
141 147 0 0
147 142 0 0
142 147 0 0
147 146 0 0
146 147 0 0
147 149 0 0
149 147 0 0
148 10 0 0
10 148 0 0
148 35 0 0
35 148 0 0
148 39 0 0
39 148 0 0
148 40 0 0
40 148 0 0
148 141 0 0
141 148 0 0
148 145 0 0
145 148 0 0
148 146 0 0
146 148 0 0
148 147 0 0
147 148 0 0
148 151 0 0
151 148 0 0
148 153 0 0
153 148 0 0
149 13 0 0
13 149 0 0
149 15 0 0
15 149 0 0
149 16 0 0
16 149 0 0
149 26 0 0
26 149 0 0
149 76 0 0
76 149 0 0
149 92 0 0
92 149 0 0
149 110 0 0
110 149 0 0
149 141 0 0
141 149 0 0
149 143 0 0
143 149 0 0
149 146 0 0
146 149 0 0
149 148 0 0
148 149 0 0
150 11 0 0
11 150 0 0
150 27 0 0
27 150 0 0
150 64 0 0
64 150 0 0
150 94 0 0
94 150 0 0
150 101 0 0
101 150 0 0
150 104 0 0
104 150 0 0
150 111 0 0
111 150 0 0
150 118 0 0
118 150 0 0
150 146 0 0
146 150 0 0
150 147 0 0
147 150 0 0
150 157 0 0
157 150 0 0
151 12 0 0
12 151 0 0
151 33 0 0
33 151 0 0
151 41 0 0
41 151 0 0
151 59 0 0
59 151 0 0
151 60 0 0
60 151 0 0
151 77 0 0
77 151 0 0
151 93 0 0
93 151 0 0
151 115 0 0
115 151 0 0
151 129 0 0
129 151 0 0
151 157 0 0
157 151 0 0
151 159 0 0
159 151 0 0
151 160 0 0
160 151 0 0
152 7 0 0
7 152 0 0
152 42 0 0
42 152 0 0
152 56 0 0
56 152 0 0
152 126 0 0
126 152 0 0
152 156 0 0
156 152 0 0
152 159 0 0
159 152 0 0
152 160 0 0
160 152 0 0
153 11 0 0
11 153 0 0
153 37 0 0
37 153 0 0
153 67 0 0
67 153 0 0
153 98 0 0
98 153 0 0
153 110 0 0
110 153 0 0
153 115 0 0
115 153 0 0
153 124 0 0
124 153 0 0
153 143 0 0
143 153 0 0
153 148 0 0
148 153 0 0
153 150 0 0
150 153 0 0
153 155 0 0
155 153 0 0
154 13 0 0
13 154 0 0
154 21 0 0
21 154 0 0
154 26 0 0
26 154 0 0
154 106 0 0
106 154 0 0
154 126 0 0
126 154 0 0
154 136 0 0
136 154 0 0
154 152 0 0
152 154 0 0
154 153 0 0
153 154 0 0
154 156 0 0
156 154 0 0
154 157 0 0
157 154 0 0
154 158 0 0
158 154 0 0
155 96 0 0
96 155 0 0
155 141 0 0
141 155 0 0
155 152 0 0
152 155 0 0
155 156 0 0
156 155 0 0
155 157 0 0
157 155 0 0
156 5 0 0
5 156 0 0
156 26 0 0
26 156 0 0
156 30 0 0
30 156 0 0
156 48 0 0
48 156 0 0
156 59 0 0
59 156 0 0
156 71 0 0
71 156 0 0
156 97 0 0
97 156 0 0
156 126 0 0
126 156 0 0
156 132 0 0
132 156 0 0
156 136 0 0
136 156 0 0
156 157 0 0
157 156 0 0
157 26 0 0
26 157 0 0
157 55 0 0
55 157 0 0
157 82 0 0
82 157 0 0
157 91 0 0
91 157 0 0
157 123 0 0
123 157 0 0
157 151 0 0
151 157 0 0
157 154 0 0
154 157 0 0
157 160 0 0
160 157 0 0
158 8 0 0
8 158 0 0
158 61 0 0
61 158 0 0
158 84 0 0
84 158 0 0
158 88 0 0
88 158 0 0
158 122 0 0
122 158 0 0
158 124 0 0
124 158 0 0
158 126 0 0
126 158 0 0
158 152 0 0
152 158 0 0
158 156 0 0
156 158 0 0
158 157 0 0
157 158 0 0
158 160 0 0
160 158 0 0
159 47 0 0
47 159 0 0
159 120 0 0
120 159 0 0
159 127 0 0
127 159 0 0
159 140 0 0
140 159 0 0
159 151 0 0
151 159 0 0
159 153 0 0
153 159 0 0
159 155 0 0
155 159 0 0
159 160 0 0
160 159 0 0
160 90 0 0
90 160 0 0
160 99 0 0
99 160 0 0
160 150 0 0
150 160 0 0
160 152 0 0
152 160 0 0
160 154 0 0
154 160 0 0
160 157 0 0
157 160 0 0
160 159 0 0
159 160 0 0
