160 3248
2
0 1
3 2 2 3
2
1 0
3 2 2 3
2
0 4
3 2 2 3
2
4 0
3 2 2 3
2
0 5
3 2 2 3
2
5 0
3 2 2 3
2
0 6
3 2 2 3
2
6 0
3 2 2 3
2
0 67
3 2 2 3
2
67 0
3 2 2 3
2
0 72
3 2 2 3
2
72 0
3 2 2 3
2
0 74
3 2 2 3
2
74 0
3 2 2 3
2
0 76
3 2 2 3
2
76 0
3 2 2 3
2
0 130
3 2 2 3
2
130 0
3 2 2 3
2
0 152
3 2 2 3
2
152 0
3 2 2 3
2
1 3
3 2 2 3
2
3 1
3 2 2 3
2
1 4
3 2 2 3
2
4 1
3 2 2 3
2
1 5
3 2 2 3
2
5 1
3 2 2 3
2
1 74
3 2 2 3
2
74 1
3 2 2 3
2
1 75
3 2 2 3
2
75 1
3 2 2 3
2
1 106
3 2 2 3
2
106 1
3 2 2 3
2
1 130
3 2 2 3
2
130 1
3 2 2 3
2
1 133
3 2 2 3
2
133 1
3 2 2 3
2
1 141
3 2 2 3
2
141 1
3 2 2 3
2
1 149
3 2 2 3
2
149 1
3 2 2 3
2
1 158
3 2 2 3
2
158 1
3 2 2 3
2
2 4
3 2 2 3
2
4 2
3 2 2 3
2
2 6
3 2 2 3
2
6 2
3 2 2 3
2
2 8
3 2 2 3
2
8 2
3 2 2 3
2
2 10
3 2 2 3
2
10 2
3 2 2 3
2
2 46
3 2 2 3
2
46 2
3 2 2 3
2
2 50
3 2 2 3
2
50 2
3 2 2 3
2
2 52
3 2 2 3
2
52 2
3 2 2 3
2
2 57
3 2 2 3
2
57 2
3 2 2 3
2
2 103
3 2 2 3
2
103 2
3 2 2 3
2
2 124
3 2 2 3
2
124 2
3 2 2 3
2
2 135
3 2 2 3
2
135 2
3 2 2 3
2
3 1
3 2 2 3
2
1 3
3 2 2 3
2
3 2
3 2 2 3
2
2 3
3 2 2 3
2
3 6
3 2 2 3
2
6 3
3 2 2 3
2
3 7
3 2 2 3
2
7 3
3 2 2 3
2
3 8
3 2 2 3
2
8 3
3 2 2 3
2
3 11
3 2 2 3
2
11 3
3 2 2 3
2
3 50
3 2 2 3
2
50 3
3 2 2 3
2
4 0
3 2 2 3
2
0 4
3 2 2 3
2
4 2
3 2 2 3
2
2 4
3 2 2 3
2
4 3
3 2 2 3
2
3 4
3 2 2 3
2
4 7
3 2 2 3
2
7 4
3 2 2 3
2
4 8
3 2 2 3
2
8 4
3 2 2 3
2
4 12
3 2 2 3
2
12 4
3 2 2 3
2
4 19
3 2 2 3
2
19 4
3 2 2 3
2
4 35
3 2 2 3
2
35 4
3 2 2 3
2
4 62
3 2 2 3
2
62 4
3 2 2 3
2
4 91
3 2 2 3
2
91 4
3 2 2 3
2
5 3
3 2 2 3
2
3 5
3 2 2 3
2
5 4
3 2 2 3
2
4 5
3 2 2 3
2
5 8
3 2 2 3
2
8 5
3 2 2 3
2
5 9
3 2 2 3
2
9 5
3 2 2 3
2
5 22
3 2 2 3
2
22 5
3 2 2 3
2
5 30
3 2 2 3
2
30 5
3 2 2 3
2
5 77
3 2 2 3
2
77 5
3 2 2 3
2
5 86
3 2 2 3
2
86 5
3 2 2 3
2
5 101
3 2 2 3
2
101 5
3 2 2 3
2
5 151
3 2 2 3
2
151 5
3 2 2 3
2
5 157
3 2 2 3
2
157 5
3 2 2 3
2
6 7
3 2 2 3
2
7 6
3 2 2 3
2
6 9
3 2 2 3
2
9 6
3 2 2 3
2
6 12
3 2 2 3
2
12 6
3 2 2 3
2
6 41
3 2 2 3
2
41 6
3 2 2 3
2
6 79
3 2 2 3
2
79 6
3 2 2 3
2
6 102
3 2 2 3
2
102 6
3 2 2 3
2
6 103
3 2 2 3
2
103 6
3 2 2 3
2
6 118
3 2 2 3
2
118 6
3 2 2 3
2
6 123
3 2 2 3
2
123 6
3 2 2 3
2
6 133
3 2 2 3
2
133 6
3 2 2 3
2
6 134
3 2 2 3
2
134 6
3 2 2 3
2
6 136
3 2 2 3
2
136 6
3 2 2 3
2
6 152
3 2 2 3
2
152 6
3 2 2 3
2
7 0
3 2 2 3
2
0 7
3 2 2 3
2
7 1
3 2 2 3
2
1 7
3 2 2 3
2
7 2
3 2 2 3
2
2 7
3 2 2 3
2
7 8
3 2 2 3
2
8 7
3 2 2 3
2
7 51
3 2 2 3
2
51 7
3 2 2 3
2
7 61
3 2 2 3
2
61 7
3 2 2 3
2
7 85
3 2 2 3
2
85 7
3 2 2 3
2
7 92
3 2 2 3
2
92 7
3 2 2 3
2
7 97
3 2 2 3
2
97 7
3 2 2 3
2
7 115
3 2 2 3
2
115 7
3 2 2 3
2
7 133
3 2 2 3
2
133 7
3 2 2 3
2
7 138
3 2 2 3
2
138 7
3 2 2 3
2
7 142
3 2 2 3
2
142 7
3 2 2 3
2
8 1
3 2 2 3
2
1 8
3 2 2 3
2
8 4
3 2 2 3
2
4 8
3 2 2 3
2
8 14
3 2 2 3
2
14 8
3 2 2 3
2
8 19
3 2 2 3
2
19 8
3 2 2 3
2
8 28
3 2 2 3
2
28 8
3 2 2 3
2
8 51
3 2 2 3
2
51 8
3 2 2 3
2
8 72
3 2 2 3
2
72 8
3 2 2 3
2
8 82
3 2 2 3
2
82 8
3 2 2 3
2
8 89
3 2 2 3
2
89 8
3 2 2 3
2
8 91
3 2 2 3
2
91 8
3 2 2 3
2
8 94
3 2 2 3
2
94 8
3 2 2 3
2
8 119
3 2 2 3
2
119 8
3 2 2 3
2
8 142
3 2 2 3
2
142 8
3 2 2 3
2
9 1
3 2 2 3
2
1 9
3 2 2 3
2
9 2
3 2 2 3
2
2 9
3 2 2 3
2
9 3
3 2 2 3
2
3 9
3 2 2 3
2
9 48
3 2 2 3
2
48 9
3 2 2 3
2
9 67
3 2 2 3
2
67 9
3 2 2 3
2
9 78
3 2 2 3
2
78 9
3 2 2 3
2
9 84
3 2 2 3
2
84 9
3 2 2 3
2
9 118
3 2 2 3
2
118 9
3 2 2 3
2
9 124
3 2 2 3
2
124 9
3 2 2 3
2
9 151
3 2 2 3
2
151 9
3 2 2 3
2
10 11
3 2 2 3
2
11 10
3 2 2 3
2
10 12
3 2 2 3
2
12 10
3 2 2 3
2
10 13
3 2 2 3
2
13 10
3 2 2 3
2
10 14
3 2 2 3
2
14 10
3 2 2 3
2
10 16
3 2 2 3
2
16 10
3 2 2 3
2
10 19
3 2 2 3
2
19 10
3 2 2 3
2
10 22
3 2 2 3
2
22 10
3 2 2 3
2
10 34
3 2 2 3
2
34 10
3 2 2 3
2
10 39
3 2 2 3
2
39 10
3 2 2 3
2
10 41
3 2 2 3
2
41 10
3 2 2 3
2
10 42
3 2 2 3
2
42 10
3 2 2 3
2
10 57
3 2 2 3
2
57 10
3 2 2 3
2
10 61
3 2 2 3
2
61 10
3 2 2 3
2
10 77
3 2 2 3
2
77 10
3 2 2 3
2
10 106
3 2 2 3
2
106 10
3 2 2 3
2
10 113
3 2 2 3
2
113 10
3 2 2 3
2
10 134
3 2 2 3
2
134 10
3 2 2 3
2
10 153
3 2 2 3
2
153 10
3 2 2 3
2
11 12
3 2 2 3
2
12 11
3 2 2 3
2
11 13
3 2 2 3
2
13 11
3 2 2 3
2
11 15
3 2 2 3
2
15 11
3 2 2 3
2
11 16
3 2 2 3
2
16 11
3 2 2 3
2
11 18
3 2 2 3
2
18 11
3 2 2 3
2
11 31
3 2 2 3
2
31 11
3 2 2 3
2
11 38
3 2 2 3
2
38 11
3 2 2 3
2
11 44
3 2 2 3
2
44 11
3 2 2 3
2
11 52
3 2 2 3
2
52 11
3 2 2 3
2
11 61
3 2 2 3
2
61 11
3 2 2 3
2
11 80
3 2 2 3
2
80 11
3 2 2 3
2
11 92
3 2 2 3
2
92 11
3 2 2 3
2
11 139
3 2 2 3
2
139 11
3 2 2 3
2
11 158
3 2 2 3
2
158 11
3 2 2 3
2
12 11
3 2 2 3
2
11 12
3 2 2 3
2
12 17
3 2 2 3
2
17 12
3 2 2 3
2
12 18
3 2 2 3
2
18 12
3 2 2 3
2
12 28
3 2 2 3
2
28 12
3 2 2 3
2
12 82
3 2 2 3
2
82 12
3 2 2 3
2
12 90
3 2 2 3
2
90 12
3 2 2 3
2
12 131
3 2 2 3
2
131 12
3 2 2 3
2
12 143
3 2 2 3
2
143 12
3 2 2 3
2
12 144
3 2 2 3
2
144 12
3 2 2 3
2
12 151
3 2 2 3
2
151 12
3 2 2 3
2
13 3
3 2 2 3
2
3 13
3 2 2 3
2
13 4
3 2 2 3
2
4 13
3 2 2 3
2
13 32
3 2 2 3
2
32 13
3 2 2 3
2
13 38
3 2 2 3
2
38 13
3 2 2 3
2
13 49
3 2 2 3
2
49 13
3 2 2 3
2
13 56
3 2 2 3
2
56 13
3 2 2 3
2
13 87
3 2 2 3
2
87 13
3 2 2 3
2
13 120
3 2 2 3
2
120 13
3 2 2 3
2
13 128
3 2 2 3
2
128 13
3 2 2 3
2
14 2
3 2 2 3
2
2 14
3 2 2 3
2
14 3
3 2 2 3
2
3 14
3 2 2 3
2
14 4
3 2 2 3
2
4 14
3 2 2 3
2
14 51
3 2 2 3
2
51 14
3 2 2 3
2
14 71
3 2 2 3
2
71 14
3 2 2 3
2
14 78
3 2 2 3
2
78 14
3 2 2 3
2
14 113
3 2 2 3
2
113 14
3 2 2 3
2
14 123
3 2 2 3
2
123 14
3 2 2 3
2
14 129
3 2 2 3
2
129 14
3 2 2 3
2
14 130
3 2 2 3
2
130 14
3 2 2 3
2
15 10
3 2 2 3
2
10 15
3 2 2 3
2
15 13
3 2 2 3
2
13 15
3 2 2 3
2
15 17
3 2 2 3
2
17 15
3 2 2 3
2
15 18
3 2 2 3
2
18 15
3 2 2 3
2
15 47
3 2 2 3
2
47 15
3 2 2 3
2
15 50
3 2 2 3
2
50 15
3 2 2 3
2
15 88
3 2 2 3
2
88 15
3 2 2 3
2
15 94
3 2 2 3
2
94 15
3 2 2 3
2
15 96
3 2 2 3
2
96 15
3 2 2 3
2
15 122
3 2 2 3
2
122 15
3 2 2 3
2
15 124
3 2 2 3
2
124 15
3 2 2 3
2
15 139
3 2 2 3
2
139 15
3 2 2 3
2
15 143
3 2 2 3
2
143 15
3 2 2 3
2
15 149
3 2 2 3
2
149 15
3 2 2 3
2
16 12
3 2 2 3
2
12 16
3 2 2 3
2
16 15
3 2 2 3
2
15 16
3 2 2 3
2
16 17
3 2 2 3
2
17 16
3 2 2 3
2
16 55
3 2 2 3
2
55 16
3 2 2 3
2
16 59
3 2 2 3
2
59 16
3 2 2 3
2
16 72
3 2 2 3
2
72 16
3 2 2 3
2
16 133
3 2 2 3
2
133 16
3 2 2 3
2
16 135
3 2 2 3
2
135 16
3 2 2 3
2
16 142
3 2 2 3
2
142 16
3 2 2 3
2
16 146
3 2 2 3
2
146 16
3 2 2 3
2
16 157
3 2 2 3
2
157 16
3 2 2 3
2
17 10
3 2 2 3
2
10 17
3 2 2 3
2
17 11
3 2 2 3
2
11 17
3 2 2 3
2
17 12
3 2 2 3
2
12 17
3 2 2 3
2
17 13
3 2 2 3
2
13 17
3 2 2 3
2
17 28
3 2 2 3
2
28 17
3 2 2 3
2
17 49
3 2 2 3
2
49 17
3 2 2 3
2
17 56
3 2 2 3
2
56 17
3 2 2 3
2
17 73
3 2 2 3
2
73 17
3 2 2 3
2
17 88
3 2 2 3
2
88 17
3 2 2 3
2
17 142
3 2 2 3
2
142 17
3 2 2 3
2
18 10
3 2 2 3
2
10 18
3 2 2 3
2
18 11
3 2 2 3
2
11 18
3 2 2 3
2
18 15
3 2 2 3
2
15 18
3 2 2 3
2
18 16
3 2 2 3
2
16 18
3 2 2 3
2
18 43
3 2 2 3
2
43 18
3 2 2 3
2
18 89
3 2 2 3
2
89 18
3 2 2 3
2
18 98
3 2 2 3
2
98 18
3 2 2 3
2
18 103
3 2 2 3
2
103 18
3 2 2 3
2
18 125
3 2 2 3
2
125 18
3 2 2 3
2
18 130
3 2 2 3
2
130 18
3 2 2 3
2
18 132
3 2 2 3
2
132 18
3 2 2 3
2
18 153
3 2 2 3
2
153 18
3 2 2 3
2
19 12
3 2 2 3
2
12 19
3 2 2 3
2
19 13
3 2 2 3
2
13 19
3 2 2 3
2
19 14
3 2 2 3
2
14 19
3 2 2 3
2
19 17
3 2 2 3
2
17 19
3 2 2 3
2
19 21
3 2 2 3
2
21 19
3 2 2 3
2
19 29
3 2 2 3
2
29 19
3 2 2 3
2
19 50
3 2 2 3
2
50 19
3 2 2 3
2
19 60
3 2 2 3
2
60 19
3 2 2 3
2
19 61
3 2 2 3
2
61 19
3 2 2 3
2
19 64
3 2 2 3
2
64 19
3 2 2 3
2
19 122
3 2 2 3
2
122 19
3 2 2 3
2
19 124
3 2 2 3
2
124 19
3 2 2 3
2
19 128
3 2 2 3
2
128 19
3 2 2 3
2
20 12
3 2 2 3
2
12 20
3 2 2 3
2
20 14
3 2 2 3
2
14 20
3 2 2 3
2
20 23
3 2 2 3
2
23 20
3 2 2 3
2
20 26
3 2 2 3
2
26 20
3 2 2 3
2
20 39
3 2 2 3
2
39 20
3 2 2 3
2
20 47
3 2 2 3
2
47 20
3 2 2 3
2
20 51
3 2 2 3
2
51 20
3 2 2 3
2
20 80
3 2 2 3
2
80 20
3 2 2 3
2
20 100
3 2 2 3
2
100 20
3 2 2 3
2
20 133
3 2 2 3
2
133 20
3 2 2 3
2
20 136
3 2 2 3
2
136 20
3 2 2 3
2
20 146
3 2 2 3
2
146 20
3 2 2 3
2
20 153
3 2 2 3
2
153 20
3 2 2 3
2
20 157
3 2 2 3
2
157 20
3 2 2 3
2
21 16
3 2 2 3
2
16 21
3 2 2 3
2
21 20
3 2 2 3
2
20 21
3 2 2 3
2
21 22
3 2 2 3
2
22 21
3 2 2 3
2
21 23
3 2 2 3
2
23 21
3 2 2 3
2
21 26
3 2 2 3
2
26 21
3 2 2 3
2
21 29
3 2 2 3
2
29 21
3 2 2 3
2
21 55
3 2 2 3
2
55 21
3 2 2 3
2
21 69
3 2 2 3
2
69 21
3 2 2 3
2
21 83
3 2 2 3
2
83 21
3 2 2 3
2
21 137
3 2 2 3
2
137 21
3 2 2 3
2
21 139
3 2 2 3
2
139 21
3 2 2 3
2
22 19
3 2 2 3
2
19 22
3 2 2 3
2
22 20
3 2 2 3
2
20 22
3 2 2 3
2
22 27
3 2 2 3
2
27 22
3 2 2 3
2
22 28
3 2 2 3
2
28 22
3 2 2 3
2
22 33
3 2 2 3
2
33 22
3 2 2 3
2
23 20
3 2 2 3
2
20 23
3 2 2 3
2
23 24
3 2 2 3
2
24 23
3 2 2 3
2
23 28
3 2 2 3
2
28 23
3 2 2 3
2
23 34
3 2 2 3
2
34 23
3 2 2 3
2
23 62
3 2 2 3
2
62 23
3 2 2 3
2
23 83
3 2 2 3
2
83 23
3 2 2 3
2
23 105
3 2 2 3
2
105 23
3 2 2 3
2
23 118
3 2 2 3
2
118 23
3 2 2 3
2
23 120
3 2 2 3
2
120 23
3 2 2 3
2
24 23
3 2 2 3
2
23 24
3 2 2 3
2
24 31
3 2 2 3
2
31 24
3 2 2 3
2
24 40
3 2 2 3
2
40 24
3 2 2 3
2
24 55
3 2 2 3
2
55 24
3 2 2 3
2
24 78
3 2 2 3
2
78 24
3 2 2 3
2
24 91
3 2 2 3
2
91 24
3 2 2 3
2
24 109
3 2 2 3
2
109 24
3 2 2 3
2
24 114
3 2 2 3
2
114 24
3 2 2 3
2
24 126
3 2 2 3
2
126 24
3 2 2 3
2
24 134
3 2 2 3
2
134 24
3 2 2 3
2
25 20
3 2 2 3
2
20 25
3 2 2 3
2
25 21
3 2 2 3
2
21 25
3 2 2 3
2
25 23
3 2 2 3
2
23 25
3 2 2 3
2
25 32
3 2 2 3
2
32 25
3 2 2 3
2
25 53
3 2 2 3
2
53 25
3 2 2 3
2
25 59
3 2 2 3
2
59 25
3 2 2 3
2
25 85
3 2 2 3
2
85 25
3 2 2 3
2
25 106
3 2 2 3
2
106 25
3 2 2 3
2
25 118
3 2 2 3
2
118 25
3 2 2 3
2
25 137
3 2 2 3
2
137 25
3 2 2 3
2
25 141
3 2 2 3
2
141 25
3 2 2 3
2
26 8
3 2 2 3
2
8 26
3 2 2 3
2
26 11
3 2 2 3
2
11 26
3 2 2 3
2
26 20
3 2 2 3
2
20 26
3 2 2 3
2
26 23
3 2 2 3
2
23 26
3 2 2 3
2
26 25
3 2 2 3
2
25 26
3 2 2 3
2
26 29
3 2 2 3
2
29 26
3 2 2 3
2
26 55
3 2 2 3
2
55 26
3 2 2 3
2
26 60
3 2 2 3
2
60 26
3 2 2 3
2
26 92
3 2 2 3
2
92 26
3 2 2 3
2
26 94
3 2 2 3
2
94 26
3 2 2 3
2
27 5
3 2 2 3
2
5 27
3 2 2 3
2
27 22
3 2 2 3
2
22 27
3 2 2 3
2
27 38
3 2 2 3
2
38 27
3 2 2 3
2
27 61
3 2 2 3
2
61 27
3 2 2 3
2
27 66
3 2 2 3
2
66 27
3 2 2 3
2
27 93
3 2 2 3
2
93 27
3 2 2 3
2
27 111
3 2 2 3
2
111 27
3 2 2 3
2
27 118
3 2 2 3
2
118 27
3 2 2 3
2
27 122
3 2 2 3
2
122 27
3 2 2 3
2
27 134
3 2 2 3
2
134 27
3 2 2 3
2
27 141
3 2 2 3
2
141 27
3 2 2 3
2
27 143
3 2 2 3
2
143 27
3 2 2 3
2
27 153
3 2 2 3
2
153 27
3 2 2 3
2
28 17
3 2 2 3
2
17 28
3 2 2 3
2
28 24
3 2 2 3
2
24 28
3 2 2 3
2
28 25
3 2 2 3
2
25 28
3 2 2 3
2
28 27
3 2 2 3
2
27 28
3 2 2 3
2
28 59
3 2 2 3
2
59 28
3 2 2 3
2
28 60
3 2 2 3
2
60 28
3 2 2 3
2
28 66
3 2 2 3
2
66 28
3 2 2 3
2
28 78
3 2 2 3
2
78 28
3 2 2 3
2
28 79
3 2 2 3
2
79 28
3 2 2 3
2
29 0
3 2 2 3
2
0 29
3 2 2 3
2
29 20
3 2 2 3
2
20 29
3 2 2 3
2
29 21
3 2 2 3
2
21 29
3 2 2 3
2
29 23
3 2 2 3
2
23 29
3 2 2 3
2
29 25
3 2 2 3
2
25 29
3 2 2 3
2
29 26
3 2 2 3
2
26 29
3 2 2 3
2
29 49
3 2 2 3
2
49 29
3 2 2 3
2
29 60
3 2 2 3
2
60 29
3 2 2 3
2
29 104
3 2 2 3
2
104 29
3 2 2 3
2
29 115
3 2 2 3
2
115 29
3 2 2 3
2
29 152
3 2 2 3
2
152 29
3 2 2 3
2
30 23
3 2 2 3
2
23 30
3 2 2 3
2
30 36
3 2 2 3
2
36 30
3 2 2 3
2
30 37
3 2 2 3
2
37 30
3 2 2 3
2
30 38
3 2 2 3
2
38 30
3 2 2 3
2
30 48
3 2 2 3
2
48 30
3 2 2 3
2
30 53
3 2 2 3
2
53 30
3 2 2 3
2
30 123
3 2 2 3
2
123 30
3 2 2 3
2
30 141
3 2 2 3
2
141 30
3 2 2 3
2
31 0
3 2 2 3
2
0 31
3 2 2 3
2
31 17
3 2 2 3
2
17 31
3 2 2 3
2
31 30
3 2 2 3
2
30 31
3 2 2 3
2
31 32
3 2 2 3
2
32 31
3 2 2 3
2
31 34
3 2 2 3
2
34 31
3 2 2 3
2
31 37
3 2 2 3
2
37 31
3 2 2 3
2
31 53
3 2 2 3
2
53 31
3 2 2 3
2
31 54
3 2 2 3
2
54 31
3 2 2 3
2
31 81
3 2 2 3
2
81 31
3 2 2 3
2
31 91
3 2 2 3
2
91 31
3 2 2 3
2
31 115
3 2 2 3
2
115 31
3 2 2 3
2
31 133
3 2 2 3
2
133 31
3 2 2 3
2
32 30
3 2 2 3
2
30 32
3 2 2 3
2
32 34
3 2 2 3
2
34 32
3 2 2 3
2
32 35
3 2 2 3
2
35 32
3 2 2 3
2
32 49
3 2 2 3
2
49 32
3 2 2 3
2
32 51
3 2 2 3
2
51 32
3 2 2 3
2
32 52
3 2 2 3
2
52 32
3 2 2 3
2
32 77
3 2 2 3
2
77 32
3 2 2 3
2
32 78
3 2 2 3
2
78 32
3 2 2 3
2
32 88
3 2 2 3
2
88 32
3 2 2 3
2
32 111
3 2 2 3
2
111 32
3 2 2 3
2
32 136
3 2 2 3
2
136 32
3 2 2 3
2
32 144
3 2 2 3
2
144 32
3 2 2 3
2
32 147
3 2 2 3
2
147 32
3 2 2 3
2
33 17
3 2 2 3
2
17 33
3 2 2 3
2
33 21
3 2 2 3
2
21 33
3 2 2 3
2
33 32
3 2 2 3
2
32 33
3 2 2 3
2
33 36
3 2 2 3
2
36 33
3 2 2 3
2
33 37
3 2 2 3
2
37 33
3 2 2 3
2
33 39
3 2 2 3
2
39 33
3 2 2 3
2
33 80
3 2 2 3
2
80 33
3 2 2 3
2
33 81
3 2 2 3
2
81 33
3 2 2 3
2
33 83
3 2 2 3
2
83 33
3 2 2 3
2
33 102
3 2 2 3
2
102 33
3 2 2 3
2
33 137
3 2 2 3
2
137 33
3 2 2 3
2
33 157
3 2 2 3
2
157 33
3 2 2 3
2
34 12
3 2 2 3
2
12 34
3 2 2 3
2
34 14
3 2 2 3
2
14 34
3 2 2 3
2
34 22
3 2 2 3
2
22 34
3 2 2 3
2
34 38
3 2 2 3
2
38 34
3 2 2 3
2
34 58
3 2 2 3
2
58 34
3 2 2 3
2
34 79
3 2 2 3
2
79 34
3 2 2 3
2
34 87
3 2 2 3
2
87 34
3 2 2 3
2
34 94
3 2 2 3
2
94 34
3 2 2 3
2
34 116
3 2 2 3
2
116 34
3 2 2 3
2
34 139
3 2 2 3
2
139 34
3 2 2 3
2
34 141
3 2 2 3
2
141 34
3 2 2 3
2
35 27
3 2 2 3
2
27 35
3 2 2 3
2
35 32
3 2 2 3
2
32 35
3 2 2 3
2
35 71
3 2 2 3
2
71 35
3 2 2 3
2
35 98
3 2 2 3
2
98 35
3 2 2 3
2
35 115
3 2 2 3
2
115 35
3 2 2 3
2
35 119
3 2 2 3
2
119 35
3 2 2 3
2
35 122
3 2 2 3
2
122 35
3 2 2 3
2
35 130
3 2 2 3
2
130 35
3 2 2 3
2
36 5
3 2 2 3
2
5 36
3 2 2 3
2
36 38
3 2 2 3
2
38 36
3 2 2 3
2
36 52
3 2 2 3
2
52 36
3 2 2 3
2
36 99
3 2 2 3
2
99 36
3 2 2 3
2
36 109
3 2 2 3
2
109 36
3 2 2 3
2
36 124
3 2 2 3
2
124 36
3 2 2 3
2
37 27
3 2 2 3
2
27 37
3 2 2 3
2
37 30
3 2 2 3
2
30 37
3 2 2 3
2
37 63
3 2 2 3
2
63 37
3 2 2 3
2
37 83
3 2 2 3
2
83 37
3 2 2 3
2
37 112
3 2 2 3
2
112 37
3 2 2 3
2
37 115
3 2 2 3
2
115 37
3 2 2 3
2
37 116
3 2 2 3
2
116 37
3 2 2 3
2
37 127
3 2 2 3
2
127 37
3 2 2 3
2
37 150
3 2 2 3
2
150 37
3 2 2 3
2
38 30
3 2 2 3
2
30 38
3 2 2 3
2
38 37
3 2 2 3
2
37 38
3 2 2 3
2
38 43
3 2 2 3
2
43 38
3 2 2 3
2
38 89
3 2 2 3
2
89 38
3 2 2 3
2
38 104
3 2 2 3
2
104 38
3 2 2 3
2
38 108
3 2 2 3
2
108 38
3 2 2 3
2
38 119
3 2 2 3
2
119 38
3 2 2 3
2
38 124
3 2 2 3
2
124 38
3 2 2 3
2
38 127
3 2 2 3
2
127 38
3 2 2 3
2
39 10
3 2 2 3
2
10 39
3 2 2 3
2
39 30
3 2 2 3
2
30 39
3 2 2 3
2
39 33
3 2 2 3
2
33 39
3 2 2 3
2
39 34
3 2 2 3
2
34 39
3 2 2 3
2
39 35
3 2 2 3
2
35 39
3 2 2 3
2
39 36
3 2 2 3
2
36 39
3 2 2 3
2
39 38
3 2 2 3
2
38 39
3 2 2 3
2
39 43
3 2 2 3
2
43 39
3 2 2 3
2
39 48
3 2 2 3
2
48 39
3 2 2 3
2
39 70
3 2 2 3
2
70 39
3 2 2 3
2
39 72
3 2 2 3
2
72 39
3 2 2 3
2
40 5
3 2 2 3
2
5 40
3 2 2 3
2
40 12
3 2 2 3
2
12 40
3 2 2 3
2
40 41
3 2 2 3
2
41 40
3 2 2 3
2
40 43
3 2 2 3
2
43 40
3 2 2 3
2
40 45
3 2 2 3
2
45 40
3 2 2 3
2
40 46
3 2 2 3
2
46 40
3 2 2 3
2
40 47
3 2 2 3
2
47 40
3 2 2 3
2
40 49
3 2 2 3
2
49 40
3 2 2 3
2
40 63
3 2 2 3
2
63 40
3 2 2 3
2
40 69
3 2 2 3
2
69 40
3 2 2 3
2
40 103
3 2 2 3
2
103 40
3 2 2 3
2
40 113
3 2 2 3
2
113 40
3 2 2 3
2
40 139
3 2 2 3
2
139 40
3 2 2 3
2
41 25
3 2 2 3
2
25 41
3 2 2 3
2
41 27
3 2 2 3
2
27 41
3 2 2 3
2
41 48
3 2 2 3
2
48 41
3 2 2 3
2
41 49
3 2 2 3
2
49 41
3 2 2 3
2
41 53
3 2 2 3
2
53 41
3 2 2 3
2
41 77
3 2 2 3
2
77 41
3 2 2 3
2
41 128
3 2 2 3
2
128 41
3 2 2 3
2
41 138
3 2 2 3
2
138 41
3 2 2 3
2
41 143
3 2 2 3
2
143 41
3 2 2 3
2
41 158
3 2 2 3
2
158 41
3 2 2 3
2
42 37
3 2 2 3
2
37 42
3 2 2 3
2
42 45
3 2 2 3
2
45 42
3 2 2 3
2
42 48
3 2 2 3
2
48 42
3 2 2 3
2
42 54
3 2 2 3
2
54 42
3 2 2 3
2
42 60
3 2 2 3
2
60 42
3 2 2 3
2
42 90
3 2 2 3
2
90 42
3 2 2 3
2
42 118
3 2 2 3
2
118 42
3 2 2 3
2
42 119
3 2 2 3
2
119 42
3 2 2 3
2
42 136
3 2 2 3
2
136 42
3 2 2 3
2
42 143
3 2 2 3
2
143 42
3 2 2 3
2
42 152
3 2 2 3
2
152 42
3 2 2 3
2
43 31
3 2 2 3
2
31 43
3 2 2 3
2
43 34
3 2 2 3
2
34 43
3 2 2 3
2
43 37
3 2 2 3
2
37 43
3 2 2 3
2
43 48
3 2 2 3
2
48 43
3 2 2 3
2
43 93
3 2 2 3
2
93 43
3 2 2 3
2
43 148
3 2 2 3
2
148 43
3 2 2 3
2
43 153
3 2 2 3
2
153 43
3 2 2 3
2
44 4
3 2 2 3
2
4 44
3 2 2 3
2
44 15
3 2 2 3
2
15 44
3 2 2 3
2
44 23
3 2 2 3
2
23 44
3 2 2 3
2
44 35
3 2 2 3
2
35 44
3 2 2 3
2
44 45
3 2 2 3
2
45 44
3 2 2 3
2
44 47
3 2 2 3
2
47 44
3 2 2 3
2
44 48
3 2 2 3
2
48 44
3 2 2 3
2
44 50
3 2 2 3
2
50 44
3 2 2 3
2
44 69
3 2 2 3
2
69 44
3 2 2 3
2
44 80
3 2 2 3
2
80 44
3 2 2 3
2
44 107
3 2 2 3
2
107 44
3 2 2 3
2
44 129
3 2 2 3
2
129 44
3 2 2 3
2
44 137
3 2 2 3
2
137 44
3 2 2 3
2
44 141
3 2 2 3
2
141 44
3 2 2 3
2
44 149
3 2 2 3
2
149 44
3 2 2 3
2
44 155
3 2 2 3
2
155 44
3 2 2 3
2
45 6
3 2 2 3
2
6 45
3 2 2 3
2
45 42
3 2 2 3
2
42 45
3 2 2 3
2
45 46
3 2 2 3
2
46 45
3 2 2 3
2
45 48
3 2 2 3
2
48 45
3 2 2 3
2
45 96
3 2 2 3
2
96 45
3 2 2 3
2
45 100
3 2 2 3
2
100 45
3 2 2 3
2
45 109
3 2 2 3
2
109 45
3 2 2 3
2
45 115
3 2 2 3
2
115 45
3 2 2 3
2
45 132
3 2 2 3
2
132 45
3 2 2 3
2
46 6
3 2 2 3
2
6 46
3 2 2 3
2
46 14
3 2 2 3
2
14 46
3 2 2 3
2
46 41
3 2 2 3
2
41 46
3 2 2 3
2
46 43
3 2 2 3
2
43 46
3 2 2 3
2
46 47
3 2 2 3
2
47 46
3 2 2 3
2
46 60
3 2 2 3
2
60 46
3 2 2 3
2
46 77
3 2 2 3
2
77 46
3 2 2 3
2
46 88
3 2 2 3
2
88 46
3 2 2 3
2
46 140
3 2 2 3
2
140 46
3 2 2 3
2
47 13
3 2 2 3
2
13 47
3 2 2 3
2
47 27
3 2 2 3
2
27 47
3 2 2 3
2
47 40
3 2 2 3
2
40 47
3 2 2 3
2
47 42
3 2 2 3
2
42 47
3 2 2 3
2
47 43
3 2 2 3
2
43 47
3 2 2 3
2
47 45
3 2 2 3
2
45 47
3 2 2 3
2
47 70
3 2 2 3
2
70 47
3 2 2 3
2
47 72
3 2 2 3
2
72 47
3 2 2 3
2
47 73
3 2 2 3
2
73 47
3 2 2 3
2
47 79
3 2 2 3
2
79 47
3 2 2 3
2
47 88
3 2 2 3
2
88 47
3 2 2 3
2
47 109
3 2 2 3
2
109 47
3 2 2 3
2
48 0
3 2 2 3
2
0 48
3 2 2 3
2
48 41
3 2 2 3
2
41 48
3 2 2 3
2
48 95
3 2 2 3
2
95 48
3 2 2 3
2
48 127
3 2 2 3
2
127 48
3 2 2 3
2
49 2
3 2 2 3
2
2 49
3 2 2 3
2
49 7
3 2 2 3
2
7 49
3 2 2 3
2
49 43
3 2 2 3
2
43 49
3 2 2 3
2
49 46
3 2 2 3
2
46 49
3 2 2 3
2
49 48
3 2 2 3
2
48 49
3 2 2 3
2
49 53
3 2 2 3
2
53 49
3 2 2 3
2
49 94
3 2 2 3
2
94 49
3 2 2 3
2
49 101
3 2 2 3
2
101 49
3 2 2 3
2
49 137
3 2 2 3
2
137 49
3 2 2 3
2
50 18
3 2 2 3
2
18 50
3 2 2 3
2
50 24
3 2 2 3
2
24 50
3 2 2 3
2
50 36
3 2 2 3
2
36 50
3 2 2 3
2
50 53
3 2 2 3
2
53 50
3 2 2 3
2
50 59
3 2 2 3
2
59 50
3 2 2 3
2
50 63
3 2 2 3
2
63 50
3 2 2 3
2
50 123
3 2 2 3
2
123 50
3 2 2 3
2
50 137
3 2 2 3
2
137 50
3 2 2 3
2
50 154
3 2 2 3
2
154 50
3 2 2 3
2
51 4
3 2 2 3
2
4 51
3 2 2 3
2
51 8
3 2 2 3
2
8 51
3 2 2 3
2
51 22
3 2 2 3
2
22 51
3 2 2 3
2
51 43
3 2 2 3
2
43 51
3 2 2 3
2
51 50
3 2 2 3
2
50 51
3 2 2 3
2
51 53
3 2 2 3
2
53 51
3 2 2 3
2
51 54
3 2 2 3
2
54 51
3 2 2 3
2
51 80
3 2 2 3
2
80 51
3 2 2 3
2
51 82
3 2 2 3
2
82 51
3 2 2 3
2
51 137
3 2 2 3
2
137 51
3 2 2 3
2
51 141
3 2 2 3
2
141 51
3 2 2 3
2
52 29
3 2 2 3
2
29 52
3 2 2 3
2
52 43
3 2 2 3
2
43 52
3 2 2 3
2
52 45
3 2 2 3
2
45 52
3 2 2 3
2
52 54
3 2 2 3
2
54 52
3 2 2 3
2
52 88
3 2 2 3
2
88 52
3 2 2 3
2
52 134
3 2 2 3
2
134 52
3 2 2 3
2
52 138
3 2 2 3
2
138 52
3 2 2 3
2
53 3
3 2 2 3
2
3 53
3 2 2 3
2
53 15
3 2 2 3
2
15 53
3 2 2 3
2
53 23
3 2 2 3
2
23 53
3 2 2 3
2
53 32
3 2 2 3
2
32 53
3 2 2 3
2
53 38
3 2 2 3
2
38 53
3 2 2 3
2
53 50
3 2 2 3
2
50 53
3 2 2 3
2
53 51
3 2 2 3
2
51 53
3 2 2 3
2
53 56
3 2 2 3
2
56 53
3 2 2 3
2
53 58
3 2 2 3
2
58 53
3 2 2 3
2
53 83
3 2 2 3
2
83 53
3 2 2 3
2
53 107
3 2 2 3
2
107 53
3 2 2 3
2
53 122
3 2 2 3
2
122 53
3 2 2 3
2
53 133
3 2 2 3
2
133 53
3 2 2 3
2
53 141
3 2 2 3
2
141 53
3 2 2 3
2
53 159
3 2 2 3
2
159 53
3 2 2 3
2
54 29
3 2 2 3
2
29 54
3 2 2 3
2
54 39
3 2 2 3
2
39 54
3 2 2 3
2
54 56
3 2 2 3
2
56 54
3 2 2 3
2
54 57
3 2 2 3
2
57 54
3 2 2 3
2
54 58
3 2 2 3
2
58 54
3 2 2 3
2
54 64
3 2 2 3
2
64 54
3 2 2 3
2
54 76
3 2 2 3
2
76 54
3 2 2 3
2
54 88
3 2 2 3
2
88 54
3 2 2 3
2
54 96
3 2 2 3
2
96 54
3 2 2 3
2
54 131
3 2 2 3
2
131 54
3 2 2 3
2
54 153
3 2 2 3
2
153 54
3 2 2 3
2
54 154
3 2 2 3
2
154 54
3 2 2 3
2
55 26
3 2 2 3
2
26 55
3 2 2 3
2
55 36
3 2 2 3
2
36 55
3 2 2 3
2
55 42
3 2 2 3
2
42 55
3 2 2 3
2
55 64
3 2 2 3
2
64 55
3 2 2 3
2
55 69
3 2 2 3
2
69 55
3 2 2 3
2
55 79
3 2 2 3
2
79 55
3 2 2 3
2
55 113
3 2 2 3
2
113 55
3 2 2 3
2
55 154
3 2 2 3
2
154 55
3 2 2 3
2
56 3
3 2 2 3
2
3 56
3 2 2 3
2
56 39
3 2 2 3
2
39 56
3 2 2 3
2
56 51
3 2 2 3
2
51 56
3 2 2 3
2
56 58
3 2 2 3
2
58 56
3 2 2 3
2
56 143
3 2 2 3
2
143 56
3 2 2 3
2
57 11
3 2 2 3
2
11 57
3 2 2 3
2
57 41
3 2 2 3
2
41 57
3 2 2 3
2
57 42
3 2 2 3
2
42 57
3 2 2 3
2
57 53
3 2 2 3
2
53 57
3 2 2 3
2
57 59
3 2 2 3
2
59 57
3 2 2 3
2
57 88
3 2 2 3
2
88 57
3 2 2 3
2
57 132
3 2 2 3
2
132 57
3 2 2 3
2
57 138
3 2 2 3
2
138 57
3 2 2 3
2
57 142
3 2 2 3
2
142 57
3 2 2 3
2
58 52
3 2 2 3
2
52 58
3 2 2 3
2
58 59
3 2 2 3
2
59 58
3 2 2 3
2
58 64
3 2 2 3
2
64 58
3 2 2 3
2
58 67
3 2 2 3
2
67 58
3 2 2 3
2
58 75
3 2 2 3
2
75 58
3 2 2 3
2
58 100
3 2 2 3
2
100 58
3 2 2 3
2
58 102
3 2 2 3
2
102 58
3 2 2 3
2
58 111
3 2 2 3
2
111 58
3 2 2 3
2
58 139
3 2 2 3
2
139 58
3 2 2 3
2
58 155
3 2 2 3
2
155 58
3 2 2 3
2
59 36
3 2 2 3
2
36 59
3 2 2 3
2
59 39
3 2 2 3
2
39 59
3 2 2 3
2
59 44
3 2 2 3
2
44 59
3 2 2 3
2
59 50
3 2 2 3
2
50 59
3 2 2 3
2
59 54
3 2 2 3
2
54 59
3 2 2 3
2
59 57
3 2 2 3
2
57 59
3 2 2 3
2
59 93
3 2 2 3
2
93 59
3 2 2 3
2
59 102
3 2 2 3
2
102 59
3 2 2 3
2
59 113
3 2 2 3
2
113 59
3 2 2 3
2
59 126
3 2 2 3
2
126 59
3 2 2 3
2
59 129
3 2 2 3
2
129 59
3 2 2 3
2
59 151
3 2 2 3
2
151 59
3 2 2 3
2
60 23
3 2 2 3
2
23 60
3 2 2 3
2
60 27
3 2 2 3
2
27 60
3 2 2 3
2
60 38
3 2 2 3
2
38 60
3 2 2 3
2
60 57
3 2 2 3
2
57 60
3 2 2 3
2
60 61
3 2 2 3
2
61 60
3 2 2 3
2
60 63
3 2 2 3
2
63 60
3 2 2 3
2
60 64
3 2 2 3
2
64 60
3 2 2 3
2
60 66
3 2 2 3
2
66 60
3 2 2 3
2
60 88
3 2 2 3
2
88 60
3 2 2 3
2
60 96
3 2 2 3
2
96 60
3 2 2 3
2
60 145
3 2 2 3
2
145 60
3 2 2 3
2
61 11
3 2 2 3
2
11 61
3 2 2 3
2
61 29
3 2 2 3
2
29 61
3 2 2 3
2
61 63
3 2 2 3
2
63 61
3 2 2 3
2
61 66
3 2 2 3
2
66 61
3 2 2 3
2
61 95
3 2 2 3
2
95 61
3 2 2 3
2
61 96
3 2 2 3
2
96 61
3 2 2 3
2
61 112
3 2 2 3
2
112 61
3 2 2 3
2
61 124
3 2 2 3
2
124 61
3 2 2 3
2
61 137
3 2 2 3
2
137 61
3 2 2 3
2
61 147
3 2 2 3
2
147 61
3 2 2 3
2
62 4
3 2 2 3
2
4 62
3 2 2 3
2
62 32
3 2 2 3
2
32 62
3 2 2 3
2
62 39
3 2 2 3
2
39 62
3 2 2 3
2
62 60
3 2 2 3
2
60 62
3 2 2 3
2
62 64
3 2 2 3
2
64 62
3 2 2 3
2
62 65
3 2 2 3
2
65 62
3 2 2 3
2
62 66
3 2 2 3
2
66 62
3 2 2 3
2
62 78
3 2 2 3
2
78 62
3 2 2 3
2
62 89
3 2 2 3
2
89 62
3 2 2 3
2
62 98
3 2 2 3
2
98 62
3 2 2 3
2
62 102
3 2 2 3
2
102 62
3 2 2 3
2
62 109
3 2 2 3
2
109 62
3 2 2 3
2
62 124
3 2 2 3
2
124 62
3 2 2 3
2
62 143
3 2 2 3
2
143 62
3 2 2 3
2
63 34
3 2 2 3
2
34 63
3 2 2 3
2
63 52
3 2 2 3
2
52 63
3 2 2 3
2
63 58
3 2 2 3
2
58 63
3 2 2 3
2
63 60
3 2 2 3
2
60 63
3 2 2 3
2
63 61
3 2 2 3
2
61 63
3 2 2 3
2
63 62
3 2 2 3
2
62 63
3 2 2 3
2
63 64
3 2 2 3
2
64 63
3 2 2 3
2
63 67
3 2 2 3
2
67 63
3 2 2 3
2
63 74
3 2 2 3
2
74 63
3 2 2 3
2
63 106
3 2 2 3
2
106 63
3 2 2 3
2
63 115
3 2 2 3
2
115 63
3 2 2 3
2
63 132
3 2 2 3
2
132 63
3 2 2 3
2
63 134
3 2 2 3
2
134 63
3 2 2 3
2
63 145
3 2 2 3
2
145 63
3 2 2 3
2
64 6
3 2 2 3
2
6 64
3 2 2 3
2
64 40
3 2 2 3
2
40 64
3 2 2 3
2
64 52
3 2 2 3
2
52 64
3 2 2 3
2
64 61
3 2 2 3
2
61 64
3 2 2 3
2
64 62
3 2 2 3
2
62 64
3 2 2 3
2
64 65
3 2 2 3
2
65 64
3 2 2 3
2
64 68
3 2 2 3
2
68 64
3 2 2 3
2
64 69
3 2 2 3
2
69 64
3 2 2 3
2
64 113
3 2 2 3
2
113 64
3 2 2 3
2
64 134
3 2 2 3
2
134 64
3 2 2 3
2
64 137
3 2 2 3
2
137 64
3 2 2 3
2
64 140
3 2 2 3
2
140 64
3 2 2 3
2
64 156
3 2 2 3
2
156 64
3 2 2 3
2
64 158
3 2 2 3
2
158 64
3 2 2 3
2
64 159
3 2 2 3
2
159 64
3 2 2 3
2
65 3
3 2 2 3
2
3 65
3 2 2 3
2
65 62
3 2 2 3
2
62 65
3 2 2 3
2
65 66
3 2 2 3
2
66 65
3 2 2 3
2
65 68
3 2 2 3
2
68 65
3 2 2 3
2
65 75
3 2 2 3
2
75 65
3 2 2 3
2
65 124
3 2 2 3
2
124 65
3 2 2 3
2
65 130
3 2 2 3
2
130 65
3 2 2 3
2
65 135
3 2 2 3
2
135 65
3 2 2 3
2
65 141
3 2 2 3
2
141 65
3 2 2 3
2
66 10
3 2 2 3
2
10 66
3 2 2 3
2
66 27
3 2 2 3
2
27 66
3 2 2 3
2
66 43
3 2 2 3
2
43 66
3 2 2 3
2
66 65
3 2 2 3
2
65 66
3 2 2 3
2
66 74
3 2 2 3
2
74 66
3 2 2 3
2
66 78
3 2 2 3
2
78 66
3 2 2 3
2
66 86
3 2 2 3
2
86 66
3 2 2 3
2
67 3
3 2 2 3
2
3 67
3 2 2 3
2
67 8
3 2 2 3
2
8 67
3 2 2 3
2
67 65
3 2 2 3
2
65 67
3 2 2 3
2
67 92
3 2 2 3
2
92 67
3 2 2 3
2
67 121
3 2 2 3
2
121 67
3 2 2 3
2
67 147
3 2 2 3
2
147 67
3 2 2 3
2
68 53
3 2 2 3
2
53 68
3 2 2 3
2
68 61
3 2 2 3
2
61 68
3 2 2 3
2
68 66
3 2 2 3
2
66 68
3 2 2 3
2
68 69
3 2 2 3
2
69 68
3 2 2 3
2
68 73
3 2 2 3
2
73 68
3 2 2 3
2
68 103
3 2 2 3
2
103 68
3 2 2 3
2
68 105
3 2 2 3
2
105 68
3 2 2 3
2
69 2
3 2 2 3
2
2 69
3 2 2 3
2
69 21
3 2 2 3
2
21 69
3 2 2 3
2
69 60
3 2 2 3
2
60 69
3 2 2 3
2
69 61
3 2 2 3
2
61 69
3 2 2 3
2
69 62
3 2 2 3
2
62 69
3 2 2 3
2
69 63
3 2 2 3
2
63 69
3 2 2 3
2
69 68
3 2 2 3
2
68 69
3 2 2 3
2
69 78
3 2 2 3
2
78 69
3 2 2 3
2
69 90
3 2 2 3
2
90 69
3 2 2 3
2
69 122
3 2 2 3
2
122 69
3 2 2 3
2
69 127
3 2 2 3
2
127 69
3 2 2 3
2
69 138
3 2 2 3
2
138 69
3 2 2 3
2
69 153
3 2 2 3
2
153 69
3 2 2 3
2
69 154
3 2 2 3
2
154 69
3 2 2 3
2
70 1
3 2 2 3
2
1 70
3 2 2 3
2
70 6
3 2 2 3
2
6 70
3 2 2 3
2
70 40
3 2 2 3
2
40 70
3 2 2 3
2
70 46
3 2 2 3
2
46 70
3 2 2 3
2
70 51
3 2 2 3
2
51 70
3 2 2 3
2
70 65
3 2 2 3
2
65 70
3 2 2 3
2
70 71
3 2 2 3
2
71 70
3 2 2 3
2
70 74
3 2 2 3
2
74 70
3 2 2 3
2
70 77
3 2 2 3
2
77 70
3 2 2 3
2
70 78
3 2 2 3
2
78 70
3 2 2 3
2
70 79
3 2 2 3
2
79 70
3 2 2 3
2
70 100
3 2 2 3
2
100 70
3 2 2 3
2
70 132
3 2 2 3
2
132 70
3 2 2 3
2
70 142
3 2 2 3
2
142 70
3 2 2 3
2
71 2
3 2 2 3
2
2 71
3 2 2 3
2
71 64
3 2 2 3
2
64 71
3 2 2 3
2
71 70
3 2 2 3
2
70 71
3 2 2 3
2
71 73
3 2 2 3
2
73 71
3 2 2 3
2
71 74
3 2 2 3
2
74 71
3 2 2 3
2
71 75
3 2 2 3
2
75 71
3 2 2 3
2
71 77
3 2 2 3
2
77 71
3 2 2 3
2
71 78
3 2 2 3
2
78 71
3 2 2 3
2
71 79
3 2 2 3
2
79 71
3 2 2 3
2
71 95
3 2 2 3
2
95 71
3 2 2 3
2
71 105
3 2 2 3
2
105 71
3 2 2 3
2
71 110
3 2 2 3
2
110 71
3 2 2 3
2
71 116
3 2 2 3
2
116 71
3 2 2 3
2
71 138
3 2 2 3
2
138 71
3 2 2 3
2
72 8
3 2 2 3
2
8 72
3 2 2 3
2
72 39
3 2 2 3
2
39 72
3 2 2 3
2
72 70
3 2 2 3
2
70 72
3 2 2 3
2
72 73
3 2 2 3
2
73 72
3 2 2 3
2
72 100
3 2 2 3
2
100 72
3 2 2 3
2
72 130
3 2 2 3
2
130 72
3 2 2 3
2
72 155
3 2 2 3
2
155 72
3 2 2 3
2
73 31
3 2 2 3
2
31 73
3 2 2 3
2
73 34
3 2 2 3
2
34 73
3 2 2 3
2
73 47
3 2 2 3
2
47 73
3 2 2 3
2
73 62
3 2 2 3
2
62 73
3 2 2 3
2
73 72
3 2 2 3
2
72 73
3 2 2 3
2
73 76
3 2 2 3
2
76 73
3 2 2 3
2
73 128
3 2 2 3
2
128 73
3 2 2 3
2
73 140
3 2 2 3
2
140 73
3 2 2 3
2
74 6
3 2 2 3
2
6 74
3 2 2 3
2
74 22
3 2 2 3
2
22 74
3 2 2 3
2
74 79
3 2 2 3
2
79 74
3 2 2 3
2
74 81
3 2 2 3
2
81 74
3 2 2 3
2
74 86
3 2 2 3
2
86 74
3 2 2 3
2
74 93
3 2 2 3
2
93 74
3 2 2 3
2
74 102
3 2 2 3
2
102 74
3 2 2 3
2
74 123
3 2 2 3
2
123 74
3 2 2 3
2
75 5
3 2 2 3
2
5 75
3 2 2 3
2
75 25
3 2 2 3
2
25 75
3 2 2 3
2
75 57
3 2 2 3
2
57 75
3 2 2 3
2
75 66
3 2 2 3
2
66 75
3 2 2 3
2
75 70
3 2 2 3
2
70 75
3 2 2 3
2
75 71
3 2 2 3
2
71 75
3 2 2 3
2
75 72
3 2 2 3
2
72 75
3 2 2 3
2
75 74
3 2 2 3
2
74 75
3 2 2 3
2
75 100
3 2 2 3
2
100 75
3 2 2 3
2
75 107
3 2 2 3
2
107 75
3 2 2 3
2
75 143
3 2 2 3
2
143 75
3 2 2 3
2
76 24
3 2 2 3
2
24 76
3 2 2 3
2
76 30
3 2 2 3
2
30 76
3 2 2 3
2
76 34
3 2 2 3
2
34 76
3 2 2 3
2
76 35
3 2 2 3
2
35 76
3 2 2 3
2
76 56
3 2 2 3
2
56 76
3 2 2 3
2
76 73
3 2 2 3
2
73 76
3 2 2 3
2
76 87
3 2 2 3
2
87 76
3 2 2 3
2
76 112
3 2 2 3
2
112 76
3 2 2 3
2
76 118
3 2 2 3
2
118 76
3 2 2 3
2
76 142
3 2 2 3
2
142 76
3 2 2 3
2
76 155
3 2 2 3
2
155 76
3 2 2 3
2
77 21
3 2 2 3
2
21 77
3 2 2 3
2
77 32
3 2 2 3
2
32 77
3 2 2 3
2
77 39
3 2 2 3
2
39 77
3 2 2 3
2
77 58
3 2 2 3
2
58 77
3 2 2 3
2
77 74
3 2 2 3
2
74 77
3 2 2 3
2
77 79
3 2 2 3
2
79 77
3 2 2 3
2
77 84
3 2 2 3
2
84 77
3 2 2 3
2
77 92
3 2 2 3
2
92 77
3 2 2 3
2
77 105
3 2 2 3
2
105 77
3 2 2 3
2
77 147
3 2 2 3
2
147 77
3 2 2 3
2
77 154
3 2 2 3
2
154 77
3 2 2 3
2
78 3
3 2 2 3
2
3 78
3 2 2 3
2
78 69
3 2 2 3
2
69 78
3 2 2 3
2
78 76
3 2 2 3
2
76 78
3 2 2 3
2
78 77
3 2 2 3
2
77 78
3 2 2 3
2
78 85
3 2 2 3
2
85 78
3 2 2 3
2
78 108
3 2 2 3
2
108 78
3 2 2 3
2
78 115
3 2 2 3
2
115 78
3 2 2 3
2
78 117
3 2 2 3
2
117 78
3 2 2 3
2
78 123
3 2 2 3
2
123 78
3 2 2 3
2
78 124
3 2 2 3
2
124 78
3 2 2 3
2
78 135
3 2 2 3
2
135 78
3 2 2 3
2
78 148
3 2 2 3
2
148 78
3 2 2 3
2
78 153
3 2 2 3
2
153 78
3 2 2 3
2
79 23
3 2 2 3
2
23 79
3 2 2 3
2
79 29
3 2 2 3
2
29 79
3 2 2 3
2
79 35
3 2 2 3
2
35 79
3 2 2 3
2
79 50
3 2 2 3
2
50 79
3 2 2 3
2
79 59
3 2 2 3
2
59 79
3 2 2 3
2
79 73
3 2 2 3
2
73 79
3 2 2 3
2
79 76
3 2 2 3
2
76 79
3 2 2 3
2
79 89
3 2 2 3
2
89 79
3 2 2 3
2
79 102
3 2 2 3
2
102 79
3 2 2 3
2
79 115
3 2 2 3
2
115 79
3 2 2 3
2
80 14
3 2 2 3
2
14 80
3 2 2 3
2
80 18
3 2 2 3
2
18 80
3 2 2 3
2
80 39
3 2 2 3
2
39 80
3 2 2 3
2
80 76
3 2 2 3
2
76 80
3 2 2 3
2
80 81
3 2 2 3
2
81 80
3 2 2 3
2
80 82
3 2 2 3
2
82 80
3 2 2 3
2
80 83
3 2 2 3
2
83 80
3 2 2 3
2
80 84
3 2 2 3
2
84 80
3 2 2 3
2
80 86
3 2 2 3
2
86 80
3 2 2 3
2
80 104
3 2 2 3
2
104 80
3 2 2 3
2
80 128
3 2 2 3
2
128 80
3 2 2 3
2
80 151
3 2 2 3
2
151 80
3 2 2 3
2
80 159
3 2 2 3
2
159 80
3 2 2 3
2
81 13
3 2 2 3
2
13 81
3 2 2 3
2
81 18
3 2 2 3
2
18 81
3 2 2 3
2
81 51
3 2 2 3
2
51 81
3 2 2 3
2
81 56
3 2 2 3
2
56 81
3 2 2 3
2
81 60
3 2 2 3
2
60 81
3 2 2 3
2
81 65
3 2 2 3
2
65 81
3 2 2 3
2
81 78
3 2 2 3
2
78 81
3 2 2 3
2
81 79
3 2 2 3
2
79 81
3 2 2 3
2
81 118
3 2 2 3
2
118 81
3 2 2 3
2
81 134
3 2 2 3
2
134 81
3 2 2 3
2
82 0
3 2 2 3
2
0 82
3 2 2 3
2
82 13
3 2 2 3
2
13 82
3 2 2 3
2
82 33
3 2 2 3
2
33 82
3 2 2 3
2
82 44
3 2 2 3
2
44 82
3 2 2 3
2
82 55
3 2 2 3
2
55 82
3 2 2 3
2
82 132
3 2 2 3
2
132 82
3 2 2 3
2
82 149
3 2 2 3
2
149 82
3 2 2 3
2
83 10
3 2 2 3
2
10 83
3 2 2 3
2
83 13
3 2 2 3
2
13 83
3 2 2 3
2
83 14
3 2 2 3
2
14 83
3 2 2 3
2
83 18
3 2 2 3
2
18 83
3 2 2 3
2
83 38
3 2 2 3
2
38 83
3 2 2 3
2
83 41
3 2 2 3
2
41 83
3 2 2 3
2
83 54
3 2 2 3
2
54 83
3 2 2 3
2
83 59
3 2 2 3
2
59 83
3 2 2 3
2
83 60
3 2 2 3
2
60 83
3 2 2 3
2
83 70
3 2 2 3
2
70 83
3 2 2 3
2
83 75
3 2 2 3
2
75 83
3 2 2 3
2
83 81
3 2 2 3
2
81 83
3 2 2 3
2
83 85
3 2 2 3
2
85 83
3 2 2 3
2
83 101
3 2 2 3
2
101 83
3 2 2 3
2
84 20
3 2 2 3
2
20 84
3 2 2 3
2
84 23
3 2 2 3
2
23 84
3 2 2 3
2
84 26
3 2 2 3
2
26 84
3 2 2 3
2
84 55
3 2 2 3
2
55 84
3 2 2 3
2
84 63
3 2 2 3
2
63 84
3 2 2 3
2
84 66
3 2 2 3
2
66 84
3 2 2 3
2
84 82
3 2 2 3
2
82 84
3 2 2 3
2
84 83
3 2 2 3
2
83 84
3 2 2 3
2
84 101
3 2 2 3
2
101 84
3 2 2 3
2
84 125
3 2 2 3
2
125 84
3 2 2 3
2
84 141
3 2 2 3
2
141 84
3 2 2 3
2
84 144
3 2 2 3
2
144 84
3 2 2 3
2
85 9
3 2 2 3
2
9 85
3 2 2 3
2
85 18
3 2 2 3
2
18 85
3 2 2 3
2
85 57
3 2 2 3
2
57 85
3 2 2 3
2
85 63
3 2 2 3
2
63 85
3 2 2 3
2
85 76
3 2 2 3
2
76 85
3 2 2 3
2
85 86
3 2 2 3
2
86 85
3 2 2 3
2
85 95
3 2 2 3
2
95 85
3 2 2 3
2
85 109
3 2 2 3
2
109 85
3 2 2 3
2
85 118
3 2 2 3
2
118 85
3 2 2 3
2
85 120
3 2 2 3
2
120 85
3 2 2 3
2
85 132
3 2 2 3
2
132 85
3 2 2 3
2
85 145
3 2 2 3
2
145 85
3 2 2 3
2
86 33
3 2 2 3
2
33 86
3 2 2 3
2
86 68
3 2 2 3
2
68 86
3 2 2 3
2
86 80
3 2 2 3
2
80 86
3 2 2 3
2
86 81
3 2 2 3
2
81 86
3 2 2 3
2
86 88
3 2 2 3
2
88 86
3 2 2 3
2
86 89
3 2 2 3
2
89 86
3 2 2 3
2
86 94
3 2 2 3
2
94 86
3 2 2 3
2
86 101
3 2 2 3
2
101 86
3 2 2 3
2
86 107
3 2 2 3
2
107 86
3 2 2 3
2
86 121
3 2 2 3
2
121 86
3 2 2 3
2
87 80
3 2 2 3
2
80 87
3 2 2 3
2
87 85
3 2 2 3
2
85 87
3 2 2 3
2
87 132
3 2 2 3
2
132 87
3 2 2 3
2
87 142
3 2 2 3
2
142 87
3 2 2 3
2
87 150
3 2 2 3
2
150 87
3 2 2 3
2
87 157
3 2 2 3
2
157 87
3 2 2 3
2
88 24
3 2 2 3
2
24 88
3 2 2 3
2
88 38
3 2 2 3
2
38 88
3 2 2 3
2
88 44
3 2 2 3
2
44 88
3 2 2 3
2
88 83
3 2 2 3
2
83 88
3 2 2 3
2
88 85
3 2 2 3
2
85 88
3 2 2 3
2
88 89
3 2 2 3
2
89 88
3 2 2 3
2
88 92
3 2 2 3
2
92 88
3 2 2 3
2
88 93
3 2 2 3
2
93 88
3 2 2 3
2
88 96
3 2 2 3
2
96 88
3 2 2 3
2
88 97
3 2 2 3
2
97 88
3 2 2 3
2
88 109
3 2 2 3
2
109 88
3 2 2 3
2
88 114
3 2 2 3
2
114 88
3 2 2 3
2
88 116
3 2 2 3
2
116 88
3 2 2 3
2
89 18
3 2 2 3
2
18 89
3 2 2 3
2
89 28
3 2 2 3
2
28 89
3 2 2 3
2
89 49
3 2 2 3
2
49 89
3 2 2 3
2
89 54
3 2 2 3
2
54 89
3 2 2 3
2
89 75
3 2 2 3
2
75 89
3 2 2 3
2
89 86
3 2 2 3
2
86 89
3 2 2 3
2
89 90
3 2 2 3
2
90 89
3 2 2 3
2
89 112
3 2 2 3
2
112 89
3 2 2 3
2
89 114
3 2 2 3
2
114 89
3 2 2 3
2
90 52
3 2 2 3
2
52 90
3 2 2 3
2
90 57
3 2 2 3
2
57 90
3 2 2 3
2
90 94
3 2 2 3
2
94 90
3 2 2 3
2
90 115
3 2 2 3
2
115 90
3 2 2 3
2
90 135
3 2 2 3
2
135 90
3 2 2 3
2
91 17
3 2 2 3
2
17 91
3 2 2 3
2
91 23
3 2 2 3
2
23 91
3 2 2 3
2
91 50
3 2 2 3
2
50 91
3 2 2 3
2
91 60
3 2 2 3
2
60 91
3 2 2 3
2
91 74
3 2 2 3
2
74 91
3 2 2 3
2
91 85
3 2 2 3
2
85 91
3 2 2 3
2
91 94
3 2 2 3
2
94 91
3 2 2 3
2
91 96
3 2 2 3
2
96 91
3 2 2 3
2
91 97
3 2 2 3
2
97 91
3 2 2 3
2
91 98
3 2 2 3
2
98 91
3 2 2 3
2
91 104
3 2 2 3
2
104 91
3 2 2 3
2
91 139
3 2 2 3
2
139 91
3 2 2 3
2
92 46
3 2 2 3
2
46 92
3 2 2 3
2
92 52
3 2 2 3
2
52 92
3 2 2 3
2
92 66
3 2 2 3
2
66 92
3 2 2 3
2
92 67
3 2 2 3
2
67 92
3 2 2 3
2
92 88
3 2 2 3
2
88 92
3 2 2 3
2
92 96
3 2 2 3
2
96 92
3 2 2 3
2
92 97
3 2 2 3
2
97 92
3 2 2 3
2
92 139
3 2 2 3
2
139 92
3 2 2 3
2
92 142
3 2 2 3
2
142 92
3 2 2 3
2
92 143
3 2 2 3
2
143 92
3 2 2 3
2
93 7
3 2 2 3
2
7 93
3 2 2 3
2
93 20
3 2 2 3
2
20 93
3 2 2 3
2
93 39
3 2 2 3
2
39 93
3 2 2 3
2
93 42
3 2 2 3
2
42 93
3 2 2 3
2
93 95
3 2 2 3
2
95 93
3 2 2 3
2
93 96
3 2 2 3
2
96 93
3 2 2 3
2
93 97
3 2 2 3
2
97 93
3 2 2 3
2
93 120
3 2 2 3
2
120 93
3 2 2 3
2
93 150
3 2 2 3
2
150 93
3 2 2 3
2
94 16
3 2 2 3
2
16 94
3 2 2 3
2
94 28
3 2 2 3
2
28 94
3 2 2 3
2
94 48
3 2 2 3
2
48 94
3 2 2 3
2
94 69
3 2 2 3
2
69 94
3 2 2 3
2
94 86
3 2 2 3
2
86 94
3 2 2 3
2
94 97
3 2 2 3
2
97 94
3 2 2 3
2
94 98
3 2 2 3
2
98 94
3 2 2 3
2
94 109
3 2 2 3
2
109 94
3 2 2 3
2
94 141
3 2 2 3
2
141 94
3 2 2 3
2
95 14
3 2 2 3
2
14 95
3 2 2 3
2
95 20
3 2 2 3
2
20 95
3 2 2 3
2
95 29
3 2 2 3
2
29 95
3 2 2 3
2
95 42
3 2 2 3
2
42 95
3 2 2 3
2
95 57
3 2 2 3
2
57 95
3 2 2 3
2
95 97
3 2 2 3
2
97 95
3 2 2 3
2
95 107
3 2 2 3
2
107 95
3 2 2 3
2
95 126
3 2 2 3
2
126 95
3 2 2 3
2
95 152
3 2 2 3
2
152 95
3 2 2 3
2
95 153
3 2 2 3
2
153 95
3 2 2 3
2
96 10
3 2 2 3
2
10 96
3 2 2 3
2
96 30
3 2 2 3
2
30 96
3 2 2 3
2
96 31
3 2 2 3
2
31 96
3 2 2 3
2
96 40
3 2 2 3
2
40 96
3 2 2 3
2
96 64
3 2 2 3
2
64 96
3 2 2 3
2
96 81
3 2 2 3
2
81 96
3 2 2 3
2
96 97
3 2 2 3
2
97 96
3 2 2 3
2
96 121
3 2 2 3
2
121 96
3 2 2 3
2
96 151
3 2 2 3
2
151 96
3 2 2 3
2
97 30
3 2 2 3
2
30 97
3 2 2 3
2
97 38
3 2 2 3
2
38 97
3 2 2 3
2
97 48
3 2 2 3
2
48 97
3 2 2 3
2
97 57
3 2 2 3
2
57 97
3 2 2 3
2
97 66
3 2 2 3
2
66 97
3 2 2 3
2
97 90
3 2 2 3
2
90 97
3 2 2 3
2
97 93
3 2 2 3
2
93 97
3 2 2 3
2
97 94
3 2 2 3
2
94 97
3 2 2 3
2
97 95
3 2 2 3
2
95 97
3 2 2 3
2
97 96
3 2 2 3
2
96 97
3 2 2 3
2
97 119
3 2 2 3
2
119 97
3 2 2 3
2
97 148
3 2 2 3
2
148 97
3 2 2 3
2
98 6
3 2 2 3
2
6 98
3 2 2 3
2
98 62
3 2 2 3
2
62 98
3 2 2 3
2
98 92
3 2 2 3
2
92 98
3 2 2 3
2
98 97
3 2 2 3
2
97 98
3 2 2 3
2
98 112
3 2 2 3
2
112 98
3 2 2 3
2
98 119
3 2 2 3
2
119 98
3 2 2 3
2
98 144
3 2 2 3
2
144 98
3 2 2 3
2
99 4
3 2 2 3
2
4 99
3 2 2 3
2
99 7
3 2 2 3
2
7 99
3 2 2 3
2
99 8
3 2 2 3
2
8 99
3 2 2 3
2
99 26
3 2 2 3
2
26 99
3 2 2 3
2
99 37
3 2 2 3
2
37 99
3 2 2 3
2
99 62
3 2 2 3
2
62 99
3 2 2 3
2
99 71
3 2 2 3
2
71 99
3 2 2 3
2
99 93
3 2 2 3
2
93 99
3 2 2 3
2
99 95
3 2 2 3
2
95 99
3 2 2 3
2
99 97
3 2 2 3
2
97 99
3 2 2 3
2
99 141
3 2 2 3
2
141 99
3 2 2 3
2
99 152
3 2 2 3
2
152 99
3 2 2 3
2
100 20
3 2 2 3
2
20 100
3 2 2 3
2
100 38
3 2 2 3
2
38 100
3 2 2 3
2
100 48
3 2 2 3
2
48 100
3 2 2 3
2
100 52
3 2 2 3
2
52 100
3 2 2 3
2
100 78
3 2 2 3
2
78 100
3 2 2 3
2
100 82
3 2 2 3
2
82 100
3 2 2 3
2
100 84
3 2 2 3
2
84 100
3 2 2 3
2
100 98
3 2 2 3
2
98 100
3 2 2 3
2
100 104
3 2 2 3
2
104 100
3 2 2 3
2
100 105
3 2 2 3
2
105 100
3 2 2 3
2
100 107
3 2 2 3
2
107 100
3 2 2 3
2
100 108
3 2 2 3
2
108 100
3 2 2 3
2
100 149
3 2 2 3
2
149 100
3 2 2 3
2
101 25
3 2 2 3
2
25 101
3 2 2 3
2
101 30
3 2 2 3
2
30 101
3 2 2 3
2
101 72
3 2 2 3
2
72 101
3 2 2 3
2
101 87
3 2 2 3
2
87 101
3 2 2 3
2
101 93
3 2 2 3
2
93 101
3 2 2 3
2
101 109
3 2 2 3
2
109 101
3 2 2 3
2
101 126
3 2 2 3
2
126 101
3 2 2 3
2
101 146
3 2 2 3
2
146 101
3 2 2 3
2
101 150
3 2 2 3
2
150 101
3 2 2 3
2
102 23
3 2 2 3
2
23 102
3 2 2 3
2
102 51
3 2 2 3
2
51 102
3 2 2 3
2
102 55
3 2 2 3
2
55 102
3 2 2 3
2
102 70
3 2 2 3
2
70 102
3 2 2 3
2
102 100
3 2 2 3
2
100 102
3 2 2 3
2
102 103
3 2 2 3
2
103 102
3 2 2 3
2
102 105
3 2 2 3
2
105 102
3 2 2 3
2
102 109
3 2 2 3
2
109 102
3 2 2 3
2
102 112
3 2 2 3
2
112 102
3 2 2 3
2
103 7
3 2 2 3
2
7 103
3 2 2 3
2
103 24
3 2 2 3
2
24 103
3 2 2 3
2
103 44
3 2 2 3
2
44 103
3 2 2 3
2
103 84
3 2 2 3
2
84 103
3 2 2 3
2
103 101
3 2 2 3
2
101 103
3 2 2 3
2
103 104
3 2 2 3
2
104 103
3 2 2 3
2
103 105
3 2 2 3
2
105 103
3 2 2 3
2
103 107
3 2 2 3
2
107 103
3 2 2 3
2
103 108
3 2 2 3
2
108 103
3 2 2 3
2
103 121
3 2 2 3
2
121 103
3 2 2 3
2
103 138
3 2 2 3
2
138 103
3 2 2 3
2
103 150
3 2 2 3
2
150 103
3 2 2 3
2
103 152
3 2 2 3
2
152 103
3 2 2 3
2
104 3
3 2 2 3
2
3 104
3 2 2 3
2
104 11
3 2 2 3
2
11 104
3 2 2 3
2
104 27
3 2 2 3
2
27 104
3 2 2 3
2
104 47
3 2 2 3
2
47 104
3 2 2 3
2
104 78
3 2 2 3
2
78 104
3 2 2 3
2
104 85
3 2 2 3
2
85 104
3 2 2 3
2
104 89
3 2 2 3
2
89 104
3 2 2 3
2
104 95
3 2 2 3
2
95 104
3 2 2 3
2
104 101
3 2 2 3
2
101 104
3 2 2 3
2
104 105
3 2 2 3
2
105 104
3 2 2 3
2
104 132
3 2 2 3
2
132 104
3 2 2 3
2
104 135
3 2 2 3
2
135 104
3 2 2 3
2
105 41
3 2 2 3
2
41 105
3 2 2 3
2
105 60
3 2 2 3
2
60 105
3 2 2 3
2
105 61
3 2 2 3
2
61 105
3 2 2 3
2
105 81
3 2 2 3
2
81 105
3 2 2 3
2
105 88
3 2 2 3
2
88 105
3 2 2 3
2
105 117
3 2 2 3
2
117 105
3 2 2 3
2
105 133
3 2 2 3
2
133 105
3 2 2 3
2
105 159
3 2 2 3
2
159 105
3 2 2 3
2
106 35
3 2 2 3
2
35 106
3 2 2 3
2
106 45
3 2 2 3
2
45 106
3 2 2 3
2
106 59
3 2 2 3
2
59 106
3 2 2 3
2
106 67
3 2 2 3
2
67 106
3 2 2 3
2
106 77
3 2 2 3
2
77 106
3 2 2 3
2
106 79
3 2 2 3
2
79 106
3 2 2 3
2
106 91
3 2 2 3
2
91 106
3 2 2 3
2
106 103
3 2 2 3
2
103 106
3 2 2 3
2
106 104
3 2 2 3
2
104 106
3 2 2 3
2
106 110
3 2 2 3
2
110 106
3 2 2 3
2
106 126
3 2 2 3
2
126 106
3 2 2 3
2
106 140
3 2 2 3
2
140 106
3 2 2 3
2
107 42
3 2 2 3
2
42 107
3 2 2 3
2
107 67
3 2 2 3
2
67 107
3 2 2 3
2
107 91
3 2 2 3
2
91 107
3 2 2 3
2
107 95
3 2 2 3
2
95 107
3 2 2 3
2
107 103
3 2 2 3
2
103 107
3 2 2 3
2
107 104
3 2 2 3
2
104 107
3 2 2 3
2
107 114
3 2 2 3
2
114 107
3 2 2 3
2
107 135
3 2 2 3
2
135 107
3 2 2 3
2
107 137
3 2 2 3
2
137 107
3 2 2 3
2
107 145
3 2 2 3
2
145 107
3 2 2 3
2
108 88
3 2 2 3
2
88 108
3 2 2 3
2
108 104
3 2 2 3
2
104 108
3 2 2 3
2
108 107
3 2 2 3
2
107 108
3 2 2 3
2
108 121
3 2 2 3
2
121 108
3 2 2 3
2
109 7
3 2 2 3
2
7 109
3 2 2 3
2
109 39
3 2 2 3
2
39 109
3 2 2 3
2
109 43
3 2 2 3
2
43 109
3 2 2 3
2
109 63
3 2 2 3
2
63 109
3 2 2 3
2
109 72
3 2 2 3
2
72 109
3 2 2 3
2
109 92
3 2 2 3
2
92 109
3 2 2 3
2
109 100
3 2 2 3
2
100 109
3 2 2 3
2
109 104
3 2 2 3
2
104 109
3 2 2 3
2
109 156
3 2 2 3
2
156 109
3 2 2 3
2
110 21
3 2 2 3
2
21 110
3 2 2 3
2
110 72
3 2 2 3
2
72 110
3 2 2 3
2
110 105
3 2 2 3
2
105 110
3 2 2 3
2
110 108
3 2 2 3
2
108 110
3 2 2 3
2
110 112
3 2 2 3
2
112 110
3 2 2 3
2
110 113
3 2 2 3
2
113 110
3 2 2 3
2
110 114
3 2 2 3
2
114 110
3 2 2 3
2
110 117
3 2 2 3
2
117 110
3 2 2 3
2
110 157
3 2 2 3
2
157 110
3 2 2 3
2
111 9
3 2 2 3
2
9 111
3 2 2 3
2
111 14
3 2 2 3
2
14 111
3 2 2 3
2
111 15
3 2 2 3
2
15 111
3 2 2 3
2
111 21
3 2 2 3
2
21 111
3 2 2 3
2
111 22
3 2 2 3
2
22 111
3 2 2 3
2
111 37
3 2 2 3
2
37 111
3 2 2 3
2
111 45
3 2 2 3
2
45 111
3 2 2 3
2
111 72
3 2 2 3
2
72 111
3 2 2 3
2
111 102
3 2 2 3
2
102 111
3 2 2 3
2
111 104
3 2 2 3
2
104 111
3 2 2 3
2
111 110
3 2 2 3
2
110 111
3 2 2 3
2
111 114
3 2 2 3
2
114 111
3 2 2 3
2
111 115
3 2 2 3
2
115 111
3 2 2 3
2
111 118
3 2 2 3
2
118 111
3 2 2 3
2
111 119
3 2 2 3
2
119 111
3 2 2 3
2
111 140
3 2 2 3
2
140 111
3 2 2 3
2
111 143
3 2 2 3
2
143 111
3 2 2 3
2
111 148
3 2 2 3
2
148 111
3 2 2 3
2
112 8
3 2 2 3
2
8 112
3 2 2 3
2
112 14
3 2 2 3
2
14 112
3 2 2 3
2
112 19
3 2 2 3
2
19 112
3 2 2 3
2
112 39
3 2 2 3
2
39 112
3 2 2 3
2
112 40
3 2 2 3
2
40 112
3 2 2 3
2
112 83
3 2 2 3
2
83 112
3 2 2 3
2
112 92
3 2 2 3
2
92 112
3 2 2 3
2
112 93
3 2 2 3
2
93 112
3 2 2 3
2
112 113
3 2 2 3
2
113 112
3 2 2 3
2
112 114
3 2 2 3
2
114 112
3 2 2 3
2
112 119
3 2 2 3
2
119 112
3 2 2 3
2
112 158
3 2 2 3
2
158 112
3 2 2 3
2
113 1
3 2 2 3
2
1 113
3 2 2 3
2
113 45
3 2 2 3
2
45 113
3 2 2 3
2
113 48
3 2 2 3
2
48 113
3 2 2 3
2
113 50
3 2 2 3
2
50 113
3 2 2 3
2
113 70
3 2 2 3
2
70 113
3 2 2 3
2
113 75
3 2 2 3
2
75 113
3 2 2 3
2
113 86
3 2 2 3
2
86 113
3 2 2 3
2
113 133
3 2 2 3
2
133 113
3 2 2 3
2
114 13
3 2 2 3
2
13 114
3 2 2 3
2
114 16
3 2 2 3
2
16 114
3 2 2 3
2
114 89
3 2 2 3
2
89 114
3 2 2 3
2
114 105
3 2 2 3
2
105 114
3 2 2 3
2
114 112
3 2 2 3
2
112 114
3 2 2 3
2
114 113
3 2 2 3
2
113 114
3 2 2 3
2
114 117
3 2 2 3
2
117 114
3 2 2 3
2
115 19
3 2 2 3
2
19 115
3 2 2 3
2
115 34
3 2 2 3
2
34 115
3 2 2 3
2
115 92
3 2 2 3
2
92 115
3 2 2 3
2
115 111
3 2 2 3
2
111 115
3 2 2 3
2
115 112
3 2 2 3
2
112 115
3 2 2 3
2
115 119
3 2 2 3
2
119 115
3 2 2 3
2
116 23
3 2 2 3
2
23 116
3 2 2 3
2
116 68
3 2 2 3
2
68 116
3 2 2 3
2
116 72
3 2 2 3
2
72 116
3 2 2 3
2
116 73
3 2 2 3
2
73 116
3 2 2 3
2
116 79
3 2 2 3
2
79 116
3 2 2 3
2
116 111
3 2 2 3
2
111 116
3 2 2 3
2
116 118
3 2 2 3
2
118 116
3 2 2 3
2
116 119
3 2 2 3
2
119 116
3 2 2 3
2
116 128
3 2 2 3
2
128 116
3 2 2 3
2
116 137
3 2 2 3
2
137 116
3 2 2 3
2
116 143
3 2 2 3
2
143 116
3 2 2 3
2
116 146
3 2 2 3
2
146 116
3 2 2 3
2
116 149
3 2 2 3
2
149 116
3 2 2 3
2
117 1
3 2 2 3
2
1 117
3 2 2 3
2
117 91
3 2 2 3
2
91 117
3 2 2 3
2
117 111
3 2 2 3
2
111 117
3 2 2 3
2
117 123
3 2 2 3
2
123 117
3 2 2 3
2
117 135
3 2 2 3
2
135 117
3 2 2 3
2
118 27
3 2 2 3
2
27 118
3 2 2 3
2
118 41
3 2 2 3
2
41 118
3 2 2 3
2
118 46
3 2 2 3
2
46 118
3 2 2 3
2
118 65
3 2 2 3
2
65 118
3 2 2 3
2
118 76
3 2 2 3
2
76 118
3 2 2 3
2
118 79
3 2 2 3
2
79 118
3 2 2 3
2
118 112
3 2 2 3
2
112 118
3 2 2 3
2
118 114
3 2 2 3
2
114 118
3 2 2 3
2
118 119
3 2 2 3
2
119 118
3 2 2 3
2
118 122
3 2 2 3
2
122 118
3 2 2 3
2
118 126
3 2 2 3
2
126 118
3 2 2 3
2
118 131
3 2 2 3
2
131 118
3 2 2 3
2
118 152
3 2 2 3
2
152 118
3 2 2 3
2
119 2
3 2 2 3
2
2 119
3 2 2 3
2
119 111
3 2 2 3
2
111 119
3 2 2 3
2
119 112
3 2 2 3
2
112 119
3 2 2 3
2
119 114
3 2 2 3
2
114 119
3 2 2 3
2
119 117
3 2 2 3
2
117 119
3 2 2 3
2
119 118
3 2 2 3
2
118 119
3 2 2 3
2
120 16
3 2 2 3
2
16 120
3 2 2 3
2
120 33
3 2 2 3
2
33 120
3 2 2 3
2
120 91
3 2 2 3
2
91 120
3 2 2 3
2
120 102
3 2 2 3
2
102 120
3 2 2 3
2
120 106
3 2 2 3
2
106 120
3 2 2 3
2
120 121
3 2 2 3
2
121 120
3 2 2 3
2
120 126
3 2 2 3
2
126 120
3 2 2 3
2
120 127
3 2 2 3
2
127 120
3 2 2 3
2
120 129
3 2 2 3
2
129 120
3 2 2 3
2
120 148
3 2 2 3
2
148 120
3 2 2 3
2
121 39
3 2 2 3
2
39 121
3 2 2 3
2
121 42
3 2 2 3
2
42 121
3 2 2 3
2
121 71
3 2 2 3
2
71 121
3 2 2 3
2
121 73
3 2 2 3
2
73 121
3 2 2 3
2
121 101
3 2 2 3
2
101 121
3 2 2 3
2
121 112
3 2 2 3
2
112 121
3 2 2 3
2
121 120
3 2 2 3
2
120 121
3 2 2 3
2
121 125
3 2 2 3
2
125 121
3 2 2 3
2
121 129
3 2 2 3
2
129 121
3 2 2 3
2
121 136
3 2 2 3
2
136 121
3 2 2 3
2
121 140
3 2 2 3
2
140 121
3 2 2 3
2
121 144
3 2 2 3
2
144 121
3 2 2 3
2
121 145
3 2 2 3
2
145 121
3 2 2 3
2
121 150
3 2 2 3
2
150 121
3 2 2 3
2
122 68
3 2 2 3
2
68 122
3 2 2 3
2
122 78
3 2 2 3
2
78 122
3 2 2 3
2
122 118
3 2 2 3
2
118 122
3 2 2 3
2
122 123
3 2 2 3
2
123 122
3 2 2 3
2
122 128
3 2 2 3
2
128 122
3 2 2 3
2
122 139
3 2 2 3
2
139 122
3 2 2 3
2
123 5
3 2 2 3
2
5 123
3 2 2 3
2
123 8
3 2 2 3
2
8 123
3 2 2 3
2
123 12
3 2 2 3
2
12 123
3 2 2 3
2
123 19
3 2 2 3
2
19 123
3 2 2 3
2
123 76
3 2 2 3
2
76 123
3 2 2 3
2
123 88
3 2 2 3
2
88 123
3 2 2 3
2
123 127
3 2 2 3
2
127 123
3 2 2 3
2
123 128
3 2 2 3
2
128 123
3 2 2 3
2
123 133
3 2 2 3
2
133 123
3 2 2 3
2
123 146
3 2 2 3
2
146 123
3 2 2 3
2
124 30
3 2 2 3
2
30 124
3 2 2 3
2
124 47
3 2 2 3
2
47 124
3 2 2 3
2
124 63
3 2 2 3
2
63 124
3 2 2 3
2
124 78
3 2 2 3
2
78 124
3 2 2 3
2
124 82
3 2 2 3
2
82 124
3 2 2 3
2
124 84
3 2 2 3
2
84 124
3 2 2 3
2
124 95
3 2 2 3
2
95 124
3 2 2 3
2
124 126
3 2 2 3
2
126 124
3 2 2 3
2
124 133
3 2 2 3
2
133 124
3 2 2 3
2
124 138
3 2 2 3
2
138 124
3 2 2 3
2
124 150
3 2 2 3
2
150 124
3 2 2 3
2
124 153
3 2 2 3
2
153 124
3 2 2 3
2
124 155
3 2 2 3
2
155 124
3 2 2 3
2
125 0
3 2 2 3
2
0 125
3 2 2 3
2
125 2
3 2 2 3
2
2 125
3 2 2 3
2
125 55
3 2 2 3
2
55 125
3 2 2 3
2
125 73
3 2 2 3
2
73 125
3 2 2 3
2
125 78
3 2 2 3
2
78 125
3 2 2 3
2
125 84
3 2 2 3
2
84 125
3 2 2 3
2
125 92
3 2 2 3
2
92 125
3 2 2 3
2
125 120
3 2 2 3
2
120 125
3 2 2 3
2
125 122
3 2 2 3
2
122 125
3 2 2 3
2
125 126
3 2 2 3
2
126 125
3 2 2 3
2
125 149
3 2 2 3
2
149 125
3 2 2 3
2
125 157
3 2 2 3
2
157 125
3 2 2 3
2
125 159
3 2 2 3
2
159 125
3 2 2 3
2
126 10
3 2 2 3
2
10 126
3 2 2 3
2
126 72
3 2 2 3
2
72 126
3 2 2 3
2
126 98
3 2 2 3
2
98 126
3 2 2 3
2
126 127
3 2 2 3
2
127 126
3 2 2 3
2
126 128
3 2 2 3
2
128 126
3 2 2 3
2
126 131
3 2 2 3
2
131 126
3 2 2 3
2
126 134
3 2 2 3
2
134 126
3 2 2 3
2
127 9
3 2 2 3
2
9 127
3 2 2 3
2
127 26
3 2 2 3
2
26 127
3 2 2 3
2
127 61
3 2 2 3
2
61 127
3 2 2 3
2
127 76
3 2 2 3
2
76 127
3 2 2 3
2
127 87
3 2 2 3
2
87 127
3 2 2 3
2
127 99
3 2 2 3
2
99 127
3 2 2 3
2
127 124
3 2 2 3
2
124 127
3 2 2 3
2
127 125
3 2 2 3
2
125 127
3 2 2 3
2
127 128
3 2 2 3
2
128 127
3 2 2 3
2
127 130
3 2 2 3
2
130 127
3 2 2 3
2
127 153
3 2 2 3
2
153 127
3 2 2 3
2
127 158
3 2 2 3
2
158 127
3 2 2 3
2
128 20
3 2 2 3
2
20 128
3 2 2 3
2
128 97
3 2 2 3
2
97 128
3 2 2 3
2
128 113
3 2 2 3
2
113 128
3 2 2 3
2
128 116
3 2 2 3
2
116 128
3 2 2 3
2
128 127
3 2 2 3
2
127 128
3 2 2 3
2
128 158
3 2 2 3
2
158 128
3 2 2 3
2
129 26
3 2 2 3
2
26 129
3 2 2 3
2
129 68
3 2 2 3
2
68 129
3 2 2 3
2
129 88
3 2 2 3
2
88 129
3 2 2 3
2
129 122
3 2 2 3
2
122 129
3 2 2 3
2
129 124
3 2 2 3
2
124 129
3 2 2 3
2
129 125
3 2 2 3
2
125 129
3 2 2 3
2
129 127
3 2 2 3
2
127 129
3 2 2 3
2
129 135
3 2 2 3
2
135 129
3 2 2 3
2
130 3
3 2 2 3
2
3 130
3 2 2 3
2
130 75
3 2 2 3
2
75 130
3 2 2 3
2
130 77
3 2 2 3
2
77 130
3 2 2 3
2
130 92
3 2 2 3
2
92 130
3 2 2 3
2
130 131
3 2 2 3
2
131 130
3 2 2 3
2
130 133
3 2 2 3
2
133 130
3 2 2 3
2
130 134
3 2 2 3
2
134 130
3 2 2 3
2
130 144
3 2 2 3
2
144 130
3 2 2 3
2
130 151
3 2 2 3
2
151 130
3 2 2 3
2
131 46
3 2 2 3
2
46 131
3 2 2 3
2
131 63
3 2 2 3
2
63 131
3 2 2 3
2
131 70
3 2 2 3
2
70 131
3 2 2 3
2
131 74
3 2 2 3
2
74 131
3 2 2 3
2
131 76
3 2 2 3
2
76 131
3 2 2 3
2
131 79
3 2 2 3
2
79 131
3 2 2 3
2
131 87
3 2 2 3
2
87 131
3 2 2 3
2
131 120
3 2 2 3
2
120 131
3 2 2 3
2
131 130
3 2 2 3
2
130 131
3 2 2 3
2
131 153
3 2 2 3
2
153 131
3 2 2 3
2
132 30
3 2 2 3
2
30 132
3 2 2 3
2
132 31
3 2 2 3
2
31 132
3 2 2 3
2
132 78
3 2 2 3
2
78 132
3 2 2 3
2
132 83
3 2 2 3
2
83 132
3 2 2 3
2
132 110
3 2 2 3
2
110 132
3 2 2 3
2
132 121
3 2 2 3
2
121 132
3 2 2 3
2
132 128
3 2 2 3
2
128 132
3 2 2 3
2
132 138
3 2 2 3
2
138 132
3 2 2 3
2
132 152
3 2 2 3
2
152 132
3 2 2 3
2
133 20
3 2 2 3
2
20 133
3 2 2 3
2
133 46
3 2 2 3
2
46 133
3 2 2 3
2
133 76
3 2 2 3
2
76 133
3 2 2 3
2
133 80
3 2 2 3
2
80 133
3 2 2 3
2
133 130
3 2 2 3
2
130 133
3 2 2 3
2
133 131
3 2 2 3
2
131 133
3 2 2 3
2
133 134
3 2 2 3
2
134 133
3 2 2 3
2
133 139
3 2 2 3
2
139 133
3 2 2 3
2
133 150
3 2 2 3
2
150 133
3 2 2 3
2
134 4
3 2 2 3
2
4 134
3 2 2 3
2
134 22
3 2 2 3
2
22 134
3 2 2 3
2
134 27
3 2 2 3
2
27 134
3 2 2 3
2
134 48
3 2 2 3
2
48 134
3 2 2 3
2
134 57
3 2 2 3
2
57 134
3 2 2 3
2
134 61
3 2 2 3
2
61 134
3 2 2 3
2
134 74
3 2 2 3
2
74 134
3 2 2 3
2
134 132
3 2 2 3
2
132 134
3 2 2 3
2
134 135
3 2 2 3
2
135 134
3 2 2 3
2
134 139
3 2 2 3
2
139 134
3 2 2 3
2
134 147
3 2 2 3
2
147 134
3 2 2 3
2
134 152
3 2 2 3
2
152 134
3 2 2 3
2
135 1
3 2 2 3
2
1 135
3 2 2 3
2
135 4
3 2 2 3
2
4 135
3 2 2 3
2
135 5
3 2 2 3
2
5 135
3 2 2 3
2
135 18
3 2 2 3
2
18 135
3 2 2 3
2
135 21
3 2 2 3
2
21 135
3 2 2 3
2
135 38
3 2 2 3
2
38 135
3 2 2 3
2
135 43
3 2 2 3
2
43 135
3 2 2 3
2
135 46
3 2 2 3
2
46 135
3 2 2 3
2
135 49
3 2 2 3
2
49 135
3 2 2 3
2
135 65
3 2 2 3
2
65 135
3 2 2 3
2
135 85
3 2 2 3
2
85 135
3 2 2 3
2
135 107
3 2 2 3
2
107 135
3 2 2 3
2
135 118
3 2 2 3
2
118 135
3 2 2 3
2
135 122
3 2 2 3
2
122 135
3 2 2 3
2
135 124
3 2 2 3
2
124 135
3 2 2 3
2
135 137
3 2 2 3
2
137 135
3 2 2 3
2
135 140
3 2 2 3
2
140 135
3 2 2 3
2
135 147
3 2 2 3
2
147 135
3 2 2 3
2
135 148
3 2 2 3
2
148 135
3 2 2 3
2
135 152
3 2 2 3
2
152 135
3 2 2 3
2
136 12
3 2 2 3
2
12 136
3 2 2 3
2
136 44
3 2 2 3
2
44 136
3 2 2 3
2
136 54
3 2 2 3
2
54 136
3 2 2 3
2
136 56
3 2 2 3
2
56 136
3 2 2 3
2
136 135
3 2 2 3
2
135 136
3 2 2 3
2
136 142
3 2 2 3
2
142 136
3 2 2 3
2
136 151
3 2 2 3
2
151 136
3 2 2 3
2
137 31
3 2 2 3
2
31 137
3 2 2 3
2
137 67
3 2 2 3
2
67 137
3 2 2 3
2
137 132
3 2 2 3
2
132 137
3 2 2 3
2
137 138
3 2 2 3
2
138 137
3 2 2 3
2
137 141
3 2 2 3
2
141 137
3 2 2 3
2
137 154
3 2 2 3
2
154 137
3 2 2 3
2
138 6
3 2 2 3
2
6 138
3 2 2 3
2
138 9
3 2 2 3
2
9 138
3 2 2 3
2
138 13
3 2 2 3
2
13 138
3 2 2 3
2
138 51
3 2 2 3
2
51 138
3 2 2 3
2
138 61
3 2 2 3
2
61 138
3 2 2 3
2
138 96
3 2 2 3
2
96 138
3 2 2 3
2
138 133
3 2 2 3
2
133 138
3 2 2 3
2
138 139
3 2 2 3
2
139 138
3 2 2 3
2
138 140
3 2 2 3
2
140 138
3 2 2 3
2
138 153
3 2 2 3
2
153 138
3 2 2 3
2
139 0
3 2 2 3
2
0 139
3 2 2 3
2
139 6
3 2 2 3
2
6 139
3 2 2 3
2
139 20
3 2 2 3
2
20 139
3 2 2 3
2
139 21
3 2 2 3
2
21 139
3 2 2 3
2
139 101
3 2 2 3
2
101 139
3 2 2 3
2
139 102
3 2 2 3
2
102 139
3 2 2 3
2
139 134
3 2 2 3
2
134 139
3 2 2 3
2
139 137
3 2 2 3
2
137 139
3 2 2 3
2
140 3
3 2 2 3
2
3 140
3 2 2 3
2
140 23
3 2 2 3
2
23 140
3 2 2 3
2
140 41
3 2 2 3
2
41 140
3 2 2 3
2
140 51
3 2 2 3
2
51 140
3 2 2 3
2
140 65
3 2 2 3
2
65 140
3 2 2 3
2
140 96
3 2 2 3
2
96 140
3 2 2 3
2
140 111
3 2 2 3
2
111 140
3 2 2 3
2
140 114
3 2 2 3
2
114 140
3 2 2 3
2
140 121
3 2 2 3
2
121 140
3 2 2 3
2
140 125
3 2 2 3
2
125 140
3 2 2 3
2
140 142
3 2 2 3
2
142 140
3 2 2 3
2
140 143
3 2 2 3
2
143 140
3 2 2 3
2
140 145
3 2 2 3
2
145 140
3 2 2 3
2
141 48
3 2 2 3
2
48 141
3 2 2 3
2
141 78
3 2 2 3
2
78 141
3 2 2 3
2
141 85
3 2 2 3
2
85 141
3 2 2 3
2
141 107
3 2 2 3
2
107 141
3 2 2 3
2
141 134
3 2 2 3
2
134 141
3 2 2 3
2
141 144
3 2 2 3
2
144 141
3 2 2 3
2
141 147
3 2 2 3
2
147 141
3 2 2 3
2
141 149
3 2 2 3
2
149 141
3 2 2 3
2
142 33
3 2 2 3
2
33 142
3 2 2 3
2
142 79
3 2 2 3
2
79 142
3 2 2 3
2
142 107
3 2 2 3
2
107 142
3 2 2 3
2
142 109
3 2 2 3
2
109 142
3 2 2 3
2
142 115
3 2 2 3
2
115 142
3 2 2 3
2
142 141
3 2 2 3
2
141 142
3 2 2 3
2
142 144
3 2 2 3
2
144 142
3 2 2 3
2
142 149
3 2 2 3
2
149 142
3 2 2 3
2
143 42
3 2 2 3
2
42 143
3 2 2 3
2
143 81
3 2 2 3
2
81 143
3 2 2 3
2
143 84
3 2 2 3
2
84 143
3 2 2 3
2
143 91
3 2 2 3
2
91 143
3 2 2 3
2
143 110
3 2 2 3
2
110 143
3 2 2 3
2
143 138
3 2 2 3
2
138 143
3 2 2 3
2
143 141
3 2 2 3
2
141 143
3 2 2 3
2
143 145
3 2 2 3
2
145 143
3 2 2 3
2
143 148
3 2 2 3
2
148 143
3 2 2 3
2
143 149
3 2 2 3
2
149 143
3 2 2 3
2
144 67
3 2 2 3
2
67 144
3 2 2 3
2
144 78
3 2 2 3
2
78 144
3 2 2 3
2
144 100
3 2 2 3
2
100 144
3 2 2 3
2
144 106
3 2 2 3
2
106 144
3 2 2 3
2
144 132
3 2 2 3
2
132 144
3 2 2 3
2
144 143
3 2 2 3
2
143 144
3 2 2 3
2
144 146
3 2 2 3
2
146 144
3 2 2 3
2
144 149
3 2 2 3
2
149 144
3 2 2 3
2
145 35
3 2 2 3
2
35 145
3 2 2 3
2
145 69
3 2 2 3
2
69 145
3 2 2 3
2
145 130
3 2 2 3
2
130 145
3 2 2 3
2
145 133
3 2 2 3
2
133 145
3 2 2 3
2
145 141
3 2 2 3
2
141 145
3 2 2 3
2
146 93
3 2 2 3
2
93 146
3 2 2 3
2
146 97
3 2 2 3
2
97 146
3 2 2 3
2
146 110
3 2 2 3
2
110 146
3 2 2 3
2
146 113
3 2 2 3
2
113 146
3 2 2 3
2
146 134
3 2 2 3
2
134 146
3 2 2 3
2
146 140
3 2 2 3
2
140 146
3 2 2 3
2
146 141
3 2 2 3
2
141 146
3 2 2 3
2
146 145
3 2 2 3
2
145 146
3 2 2 3
2
146 148
3 2 2 3
2
148 146
3 2 2 3
2
147 9
3 2 2 3
2
9 147
3 2 2 3
2
147 34
3 2 2 3
2
34 147
3 2 2 3
2
147 38
3 2 2 3
2
38 147
3 2 2 3
2
147 39
3 2 2 3
2
39 147
3 2 2 3
2
147 140
3 2 2 3
2
140 147
3 2 2 3
2
147 144
3 2 2 3
2
144 147
3 2 2 3
2
147 145
3 2 2 3
2
145 147
3 2 2 3
2
147 146
3 2 2 3
2
146 147
3 2 2 3
2
147 150
3 2 2 3
2
150 147
3 2 2 3
2
147 152
3 2 2 3
2
152 147
3 2 2 3
2
148 12
3 2 2 3
2
12 148
3 2 2 3
2
148 14
3 2 2 3
2
14 148
3 2 2 3
2
148 15
3 2 2 3
2
15 148
3 2 2 3
2
148 25
3 2 2 3
2
25 148
3 2 2 3
2
148 75
3 2 2 3
2
75 148
3 2 2 3
2
148 91
3 2 2 3
2
91 148
3 2 2 3
2
148 109
3 2 2 3
2
109 148
3 2 2 3
2
148 140
3 2 2 3
2
140 148
3 2 2 3
2
148 142
3 2 2 3
2
142 148
3 2 2 3
2
148 145
3 2 2 3
2
145 148
3 2 2 3
2
148 147
3 2 2 3
2
147 148
3 2 2 3
2
149 10
3 2 2 3
2
10 149
3 2 2 3
2
149 26
3 2 2 3
2
26 149
3 2 2 3
2
149 63
3 2 2 3
2
63 149
3 2 2 3
2
149 93
3 2 2 3
2
93 149
3 2 2 3
2
149 100
3 2 2 3
2
100 149
3 2 2 3
2
149 103
3 2 2 3
2
103 149
3 2 2 3
2
149 110
3 2 2 3
2
110 149
3 2 2 3
2
149 117
3 2 2 3
2
117 149
3 2 2 3
2
149 145
3 2 2 3
2
145 149
3 2 2 3
2
149 146
3 2 2 3
2
146 149
3 2 2 3
2
149 156
3 2 2 3
2
156 149
3 2 2 3
2
150 11
3 2 2 3
2
11 150
3 2 2 3
2
150 32
3 2 2 3
2
32 150
3 2 2 3
2
150 40
3 2 2 3
2
40 150
3 2 2 3
2
150 58
3 2 2 3
2
58 150
3 2 2 3
2
150 59
3 2 2 3
2
59 150
3 2 2 3
2
150 76
3 2 2 3
2
76 150
3 2 2 3
2
150 92
3 2 2 3
2
92 150
3 2 2 3
2
150 114
3 2 2 3
2
114 150
3 2 2 3
2
150 128
3 2 2 3
2
128 150
3 2 2 3
2
150 156
3 2 2 3
2
156 150
3 2 2 3
2
150 158
3 2 2 3
2
158 150
3 2 2 3
2
150 159
3 2 2 3
2
159 150
3 2 2 3
2
151 6
3 2 2 3
2
6 151
3 2 2 3
2
151 41
3 2 2 3
2
41 151
3 2 2 3
2
151 55
3 2 2 3
2
55 151
3 2 2 3
2
151 125
3 2 2 3
2
125 151
3 2 2 3
2
151 155
3 2 2 3
2
155 151
3 2 2 3
2
151 158
3 2 2 3
2
158 151
3 2 2 3
2
151 159
3 2 2 3
2
159 151
3 2 2 3
2
152 10
3 2 2 3
2
10 152
3 2 2 3
2
152 36
3 2 2 3
2
36 152
3 2 2 3
2
152 66
3 2 2 3
2
66 152
3 2 2 3
2
152 97
3 2 2 3
2
97 152
3 2 2 3
2
152 109
3 2 2 3
2
109 152
3 2 2 3
2
152 114
3 2 2 3
2
114 152
3 2 2 3
2
152 123
3 2 2 3
2
123 152
3 2 2 3
2
152 142
3 2 2 3
2
142 152
3 2 2 3
2
152 147
3 2 2 3
2
147 152
3 2 2 3
2
152 149
3 2 2 3
2
149 152
3 2 2 3
2
152 154
3 2 2 3
2
154 152
3 2 2 3
2
153 12
3 2 2 3
2
12 153
3 2 2 3
2
153 20
3 2 2 3
2
20 153
3 2 2 3
2
153 25
3 2 2 3
2
25 153
3 2 2 3
2
153 105
3 2 2 3
2
105 153
3 2 2 3
2
153 125
3 2 2 3
2
125 153
3 2 2 3
2
153 135
3 2 2 3
2
135 153
3 2 2 3
2
153 151
3 2 2 3
2
151 153
3 2 2 3
2
153 152
3 2 2 3
2
152 153
3 2 2 3
2
153 155
3 2 2 3
2
155 153
3 2 2 3
2
153 156
3 2 2 3
2
156 153
3 2 2 3
2
153 157
3 2 2 3
2
157 153
3 2 2 3
2
154 95
3 2 2 3
2
95 154
3 2 2 3
2
154 140
3 2 2 3
2
140 154
3 2 2 3
2
154 151
3 2 2 3
2
151 154
3 2 2 3
2
154 155
3 2 2 3
2
155 154
3 2 2 3
2
154 156
3 2 2 3
2
156 154
3 2 2 3
2
155 4
3 2 2 3
2
4 155
3 2 2 3
2
155 25
3 2 2 3
2
25 155
3 2 2 3
2
155 29
3 2 2 3
2
29 155
3 2 2 3
2
155 47
3 2 2 3
2
47 155
3 2 2 3
2
155 58
3 2 2 3
2
58 155
3 2 2 3
2
155 70
3 2 2 3
2
70 155
3 2 2 3
2
155 96
3 2 2 3
2
96 155
3 2 2 3
2
155 125
3 2 2 3
2
125 155
3 2 2 3
2
155 131
3 2 2 3
2
131 155
3 2 2 3
2
155 135
3 2 2 3
2
135 155
3 2 2 3
2
155 156
3 2 2 3
2
156 155
3 2 2 3
2
156 25
3 2 2 3
2
25 156
3 2 2 3
2
156 54
3 2 2 3
2
54 156
3 2 2 3
2
156 81
3 2 2 3
2
81 156
3 2 2 3
2
156 90
3 2 2 3
2
90 156
3 2 2 3
2
156 122
3 2 2 3
2
122 156
3 2 2 3
2
156 150
3 2 2 3
2
150 156
3 2 2 3
2
156 153
3 2 2 3
2
153 156
3 2 2 3
2
156 159
3 2 2 3
2
159 156
3 2 2 3
2
157 7
3 2 2 3
2
7 157
3 2 2 3
2
157 60
3 2 2 3
2
60 157
3 2 2 3
2
157 83
3 2 2 3
2
83 157
3 2 2 3
2
157 87
3 2 2 3
2
87 157
3 2 2 3
2
157 121
3 2 2 3
2
121 157
3 2 2 3
2
157 123
3 2 2 3
2
123 157
3 2 2 3
2
157 125
3 2 2 3
2
125 157
3 2 2 3
2
157 151
3 2 2 3
2
151 157
3 2 2 3
2
157 155
3 2 2 3
2
155 157
3 2 2 3
2
157 156
3 2 2 3
2
156 157
3 2 2 3
2
157 159
3 2 2 3
2
159 157
3 2 2 3
2
158 46
3 2 2 3
2
46 158
3 2 2 3
2
158 119
3 2 2 3
2
119 158
3 2 2 3
2
158 126
3 2 2 3
2
126 158
3 2 2 3
2
158 139
3 2 2 3
2
139 158
3 2 2 3
2
158 150
3 2 2 3
2
150 158
3 2 2 3
2
158 152
3 2 2 3
2
152 158
3 2 2 3
2
158 154
3 2 2 3
2
154 158
3 2 2 3
2
158 159
3 2 2 3
2
159 158
3 2 2 3
2
159 89
3 2 2 3
2
89 159
3 2 2 3
2
159 98
3 2 2 3
2
98 159
3 2 2 3
2
159 149
3 2 2 3
2
149 159
3 2 2 3
2
159 151
3 2 2 3
2
151 159
3 2 2 3
2
159 153
3 2 2 3
2
153 159
3 2 2 3
2
159 156
3 2 2 3
2
156 159
3 2 2 3
2
159 158
3 2 2 3
2
158 159
3 2 2 3
