1 6 0 0
6 1 0 0
1 7 0 0
7 1 0 0
1 8 0 0
8 1 0 0
1 14 0 0
14 1 0 0
1 21 0 0
21 1 0 0
1 33 0 0
33 1 0 0
1 37 0 0
37 1 0 0
1 40 0 0
40 1 0 0
1 48 0 0
48 1 0 0
1 147 0 0
147 1 0 0
2 4 0 0
4 2 0 0
2 5 0 0
5 2 0 0
2 6 0 0
6 2 0 0
2 8 0 0
8 2 0 0
2 19 0 0
19 2 0 0
2 25 0 0
25 2 0 0
2 27 0 0
27 2 0 0
2 35 0 0
35 2 0 0
2 53 0 0
53 2 0 0
2 69 0 0
69 2 0 0
2 92 0 0
92 2 0 0
2 97 0 0
97 2 0 0
2 140 0 0
140 2 0 0
3 5 0 0
5 3 0 0
3 6 0 0
6 3 0 0
3 8 0 0
8 3 0 0
3 9 0 0
9 3 0 0
3 10 0 0
10 3 0 0
3 17 0 0
17 3 0 0
3 27 0 0
27 3 0 0
3 82 0 0
82 3 0 0
3 85 0 0
85 3 0 0
3 126 0 0
126 3 0 0
4 3 0 0
3 4 0 0
4 6 0 0
6 4 0 0
4 10 0 0
10 4 0 0
4 14 0 0
14 4 0 0
4 55 0 0
55 4 0 0
4 66 0 0
66 4 0 0
5 1 0 0
1 5 0 0
5 3 0 0
3 5 0 0
5 32 0 0
32 5 0 0
5 61 0 0
61 5 0 0
5 109 0 0
109 5 0 0
5 115 0 0
115 5 0 0
5 138 0 0
138 5 0 0
5 139 0 0
139 5 0 0
5 146 0 0
146 5 0 0
6 4 0 0
4 6 0 0
6 5 0 0
5 6 0 0
6 7 0 0
7 6 0 0
6 9 0 0
9 6 0 0
6 11 0 0
11 6 0 0
6 14 0 0
14 6 0 0
6 86 0 0
86 6 0 0
6 133 0 0
133 6 0 0
6 138 0 0
138 6 0 0
6 156 0 0
156 6 0 0
7 1 0 0
1 7 0 0
7 5 0 0
5 7 0 0
7 9 0 0
9 7 0 0
7 15 0 0
15 7 0 0
7 45 0 0
45 7 0 0
7 53 0 0
53 7 0 0
7 76 0 0
76 7 0 0
7 82 0 0
82 7 0 0
7 85 0 0
85 7 0 0
7 99 0 0
99 7 0 0
7 128 0 0
128 7 0 0
7 129 0 0
129 7 0 0
7 141 0 0
141 7 0 0
7 143 0 0
143 7 0 0
7 144 0 0
144 7 0 0
8 1 0 0
1 8 0 0
8 6 0 0
6 8 0 0
8 7 0 0
7 8 0 0
8 9 0 0
9 8 0 0
8 15 0 0
15 8 0 0
8 46 0 0
46 8 0 0
8 62 0 0
62 8 0 0
8 126 0 0
126 8 0 0
8 129 0 0
129 8 0 0
8 130 0 0
130 8 0 0
9 1 0 0
1 9 0 0
9 3 0 0
3 9 0 0
9 4 0 0
4 9 0 0
9 5 0 0
5 9 0 0
9 6 0 0
6 9 0 0
9 7 0 0
7 9 0 0
9 8 0 0
8 9 0 0
9 10 0 0
10 9 0 0
9 34 0 0
34 9 0 0
9 61 0 0
61 9 0 0
9 90 0 0
90 9 0 0
9 92 0 0
92 9 0 0
9 93 0 0
93 9 0 0
10 1 0 0
1 10 0 0
10 4 0 0
4 10 0 0
10 5 0 0
5 10 0 0
10 6 0 0
6 10 0 0
10 9 0 0
9 10 0 0
10 33 0 0
33 10 0 0
10 103 0 0
103 10 0 0
10 130 0 0
130 10 0 0
10 151 0 0
151 10 0 0
11 12 0 0
12 11 0 0
11 14 0 0
14 11 0 0
11 24 0 0
24 11 0 0
11 35 0 0
35 11 0 0
11 67 0 0
67 11 0 0
11 129 0 0
129 11 0 0
11 146 0 0
146 11 0 0
12 11 0 0
11 12 0 0
12 21 0 0
21 12 0 0
12 30 0 0
30 12 0 0
12 64 0 0
64 12 0 0
12 150 0 0
150 12 0 0
13 8 0 0
8 13 0 0
13 10 0 0
10 13 0 0
13 18 0 0
18 13 0 0
13 26 0 0
26 13 0 0
13 27 0 0
27 13 0 0
13 29 0 0
29 13 0 0
13 39 0 0
39 13 0 0
13 52 0 0
52 13 0 0
13 71 0 0
71 13 0 0
13 130 0 0
130 13 0 0
13 133 0 0
133 13 0 0
13 160 0 0
160 13 0 0
14 13 0 0
13 14 0 0
14 15 0 0
15 14 0 0
14 33 0 0
33 14 0 0
14 37 0 0
37 14 0 0
14 59 0 0
59 14 0 0
14 64 0 0
64 14 0 0
14 74 0 0
74 14 0 0
14 123 0 0
123 14 0 0
14 126 0 0
126 14 0 0
14 137 0 0
137 14 0 0
15 5 0 0
5 15 0 0
15 16 0 0
16 15 0 0
15 18 0 0
18 15 0 0
15 37 0 0
37 15 0 0
15 39 0 0
39 15 0 0
15 94 0 0
94 15 0 0
15 130 0 0
130 15 0 0
15 132 0 0
132 15 0 0
16 12 0 0
12 16 0 0
16 17 0 0
17 16 0 0
16 19 0 0
19 16 0 0
16 36 0 0
36 16 0 0
16 42 0 0
42 16 0 0
16 48 0 0
48 16 0 0
16 65 0 0
65 16 0 0
16 85 0 0
85 16 0 0
16 103 0 0
103 16 0 0
16 123 0 0
123 16 0 0
16 153 0 0
153 16 0 0
17 11 0 0
11 17 0 0
17 12 0 0
12 17 0 0
17 16 0 0
16 17 0 0
17 20 0 0
20 17 0 0
17 51 0 0
51 17 0 0
17 64 0 0
64 17 0 0
17 100 0 0
100 17 0 0
17 142 0 0
142 17 0 0
18 11 0 0
11 18 0 0
18 13 0 0
13 18 0 0
18 17 0 0
17 18 0 0
18 49 0 0
49 18 0 0
18 111 0 0
111 18 0 0
19 8 0 0
8 19 0 0
19 11 0 0
11 19 0 0
19 13 0 0
13 19 0 0
19 18 0 0
18 19 0 0
19 35 0 0
35 19 0 0
19 37 0 0
37 19 0 0
19 48 0 0
48 19 0 0
19 49 0 0
49 19 0 0
19 105 0 0
105 19 0 0
19 113 0 0
113 19 0 0
19 150 0 0
150 19 0 0
20 12 0 0
12 20 0 0
20 16 0 0
16 20 0 0
20 37 0 0
37 20 0 0
20 51 0 0
51 20 0 0
20 69 0 0
69 20 0 0
20 96 0 0
96 20 0 0
20 140 0 0
140 20 0 0
20 157 0 0
157 20 0 0
21 23 0 0
23 21 0 0
21 39 0 0
39 21 0 0
21 63 0 0
63 21 0 0
21 87 0 0
87 21 0 0
21 88 0 0
88 21 0 0
21 128 0 0
128 21 0 0
21 142 0 0
142 21 0 0
22 6 0 0
6 22 0 0
22 24 0 0
24 22 0 0
22 25 0 0
25 22 0 0
22 30 0 0
30 22 0 0
22 32 0 0
32 22 0 0
22 79 0 0
79 22 0 0
22 88 0 0
88 22 0 0
22 89 0 0
89 22 0 0
22 123 0 0
123 22 0 0
22 149 0 0
149 22 0 0
23 30 0 0
30 23 0 0
23 37 0 0
37 23 0 0
23 47 0 0
47 23 0 0
23 63 0 0
63 23 0 0
23 70 0 0
70 23 0 0
23 96 0 0
96 23 0 0
23 118 0 0
118 23 0 0
23 122 0 0
122 23 0 0
23 130 0 0
130 23 0 0
24 14 0 0
14 24 0 0
24 15 0 0
15 24 0 0
24 21 0 0
21 24 0 0
24 23 0 0
23 24 0 0
24 25 0 0
25 24 0 0
24 28 0 0
28 24 0 0
24 65 0 0
65 24 0 0
24 106 0 0
106 24 0 0
24 124 0 0
124 24 0 0
24 155 0 0
155 24 0 0
25 10 0 0
10 25 0 0
25 13 0 0
13 25 0 0
25 24 0 0
24 25 0 0
25 26 0 0
26 25 0 0
25 32 0 0
32 25 0 0
25 38 0 0
38 25 0 0
25 69 0 0
69 25 0 0
25 70 0 0
70 25 0 0
25 86 0 0
86 25 0 0
25 120 0 0
120 25 0 0
25 152 0 0
152 25 0 0
26 24 0 0
24 26 0 0
26 25 0 0
25 26 0 0
26 29 0 0
29 26 0 0
26 61 0 0
61 26 0 0
26 87 0 0
87 26 0 0
26 118 0 0
118 26 0 0
26 125 0 0
125 26 0 0
26 160 0 0
160 26 0 0
27 22 0 0
22 27 0 0
27 24 0 0
24 27 0 0
27 28 0 0
28 27 0 0
27 30 0 0
30 27 0 0
27 40 0 0
40 27 0 0
27 41 0 0
41 27 0 0
27 49 0 0
49 27 0 0
27 58 0 0
58 27 0 0
27 80 0 0
80 27 0 0
27 91 0 0
91 27 0 0
27 95 0 0
95 27 0 0
27 102 0 0
102 27 0 0
28 11 0 0
11 28 0 0
28 14 0 0
14 28 0 0
28 21 0 0
21 28 0 0
28 23 0 0
23 28 0 0
28 25 0 0
25 28 0 0
28 104 0 0
104 28 0 0
28 123 0 0
123 28 0 0
28 124 0 0
124 28 0 0
28 142 0 0
142 28 0 0
28 160 0 0
160 28 0 0
29 24 0 0
24 29 0 0
29 27 0 0
27 29 0 0
29 50 0 0
50 29 0 0
29 54 0 0
54 29 0 0
29 59 0 0
59 29 0 0
29 63 0 0
63 29 0 0
29 87 0 0
87 29 0 0
29 89 0 0
89 29 0 0
29 94 0 0
94 29 0 0
29 124 0 0
124 29 0 0
29 131 0 0
131 29 0 0
29 148 0 0
148 29 0 0
30 25 0 0
25 30 0 0
30 27 0 0
27 30 0 0
30 52 0 0
52 30 0 0
30 68 0 0
68 30 0 0
30 93 0 0
93 30 0 0
30 133 0 0
133 30 0 0
30 140 0 0
140 30 0 0
31 9 0 0
9 31 0 0
31 13 0 0
13 31 0 0
31 16 0 0
16 31 0 0
31 26 0 0
26 31 0 0
31 29 0 0
29 31 0 0
31 36 0 0
36 31 0 0
31 39 0 0
39 31 0 0
31 83 0 0
83 31 0 0
31 114 0 0
114 31 0 0
31 120 0 0
120 31 0 0
31 123 0 0
123 31 0 0
32 7 0 0
7 32 0 0
32 26 0 0
26 32 0 0
32 33 0 0
33 32 0 0
32 37 0 0
37 32 0 0
32 39 0 0
39 32 0 0
32 40 0 0
40 32 0 0
32 63 0 0
63 32 0 0
32 88 0 0
88 32 0 0
32 96 0 0
96 32 0 0
32 102 0 0
102 32 0 0
32 107 0 0
107 32 0 0
32 145 0 0
145 32 0 0
32 152 0 0
152 32 0 0
33 27 0 0
27 33 0 0
33 37 0 0
37 33 0 0
33 38 0 0
38 33 0 0
33 62 0 0
62 33 0 0
33 66 0 0
66 33 0 0
33 69 0 0
69 33 0 0
33 105 0 0
105 33 0 0
33 117 0 0
117 33 0 0
33 127 0 0
127 33 0 0
33 128 0 0
128 33 0 0
33 132 0 0
132 33 0 0
33 157 0 0
157 33 0 0
34 3 0 0
3 34 0 0
34 31 0 0
31 34 0 0
34 32 0 0
32 34 0 0
34 37 0 0
37 34 0 0
34 45 0 0
45 34 0 0
34 52 0 0
52 34 0 0
34 84 0 0
84 34 0 0
34 98 0 0
98 34 0 0
34 120 0 0
120 34 0 0
34 137 0 0
137 34 0 0
34 156 0 0
156 34 0 0
35 4 0 0
4 35 0 0
35 20 0 0
20 35 0 0
35 29 0 0
29 35 0 0
35 31 0 0
31 35 0 0
35 34 0 0
34 35 0 0
35 37 0 0
37 35 0 0
35 64 0 0
64 35 0 0
35 74 0 0
74 35 0 0
35 92 0 0
92 35 0 0
35 126 0 0
126 35 0 0
35 140 0 0
140 35 0 0
36 35 0 0
35 36 0 0
36 40 0 0
40 36 0 0
36 43 0 0
43 36 0 0
36 44 0 0
44 36 0 0
36 99 0 0
99 36 0 0
36 119 0 0
119 36 0 0
36 122 0 0
122 36 0 0
36 127 0 0
127 36 0 0
37 1 0 0
1 37 0 0
37 13 0 0
13 37 0 0
37 34 0 0
34 37 0 0
37 36 0 0
36 37 0 0
37 38 0 0
38 37 0 0
37 42 0 0
42 37 0 0
37 74 0 0
74 37 0 0
37 75 0 0
75 37 0 0
37 97 0 0
97 37 0 0
37 101 0 0
101 37 0 0
37 102 0 0
102 37 0 0
37 132 0 0
132 37 0 0
37 145 0 0
145 37 0 0
38 53 0 0
53 38 0 0
38 70 0 0
70 38 0 0
38 73 0 0
73 38 0 0
38 74 0 0
74 38 0 0
38 86 0 0
86 38 0 0
38 133 0 0
133 38 0 0
38 139 0 0
139 38 0 0
39 32 0 0
32 39 0 0
39 34 0 0
34 39 0 0
39 37 0 0
37 39 0 0
39 42 0 0
42 39 0 0
39 86 0 0
86 39 0 0
39 108 0 0
108 39 0 0
39 111 0 0
111 39 0 0
39 125 0 0
125 39 0 0
40 41 0 0
41 40 0 0
40 50 0 0
50 40 0 0
40 56 0 0
56 40 0 0
40 57 0 0
57 40 0 0
40 71 0 0
71 40 0 0
40 75 0 0
75 40 0 0
40 76 0 0
76 40 0 0
40 89 0 0
89 40 0 0
40 100 0 0
100 40 0 0
40 134 0 0
134 40 0 0
40 149 0 0
149 40 0 0
41 6 0 0
6 41 0 0
41 31 0 0
31 41 0 0
41 39 0 0
39 41 0 0
41 44 0 0
44 41 0 0
41 57 0 0
57 41 0 0
41 64 0 0
64 41 0 0
41 65 0 0
65 41 0 0
41 74 0 0
74 41 0 0
41 110 0 0
110 41 0 0
41 133 0 0
133 41 0 0
41 143 0 0
143 41 0 0
41 155 0 0
155 41 0 0
42 15 0 0
15 42 0 0
42 41 0 0
41 42 0 0
42 48 0 0
48 42 0 0
42 50 0 0
50 42 0 0
42 59 0 0
59 42 0 0
42 88 0 0
88 42 0 0
42 103 0 0
103 42 0 0
42 112 0 0
112 42 0 0
42 122 0 0
122 42 0 0
42 158 0 0
158 42 0 0
42 160 0 0
160 42 0 0
43 13 0 0
13 43 0 0
43 39 0 0
39 43 0 0
43 44 0 0
44 43 0 0
43 47 0 0
47 43 0 0
43 50 0 0
50 43 0 0
43 96 0 0
96 43 0 0
43 105 0 0
105 43 0 0
43 107 0 0
107 43 0 0
43 130 0 0
130 43 0 0
43 132 0 0
132 43 0 0
44 43 0 0
43 44 0 0
44 48 0 0
48 44 0 0
44 50 0 0
50 44 0 0
44 84 0 0
84 44 0 0
44 105 0 0
105 44 0 0
44 112 0 0
112 44 0 0
44 148 0 0
148 44 0 0
45 3 0 0
3 45 0 0
45 4 0 0
4 45 0 0
45 16 0 0
16 45 0 0
45 49 0 0
49 45 0 0
45 53 0 0
53 45 0 0
45 56 0 0
56 45 0 0
45 69 0 0
69 45 0 0
45 70 0 0
70 45 0 0
45 89 0 0
89 45 0 0
45 93 0 0
93 45 0 0
45 101 0 0
101 45 0 0
45 116 0 0
116 45 0 0
45 117 0 0
117 45 0 0
45 136 0 0
136 45 0 0
45 140 0 0
140 45 0 0
45 147 0 0
147 45 0 0
46 12 0 0
12 46 0 0
46 42 0 0
42 46 0 0
46 48 0 0
48 46 0 0
46 49 0 0
49 46 0 0
46 54 0 0
54 46 0 0
46 62 0 0
62 46 0 0
46 85 0 0
85 46 0 0
46 119 0 0
119 46 0 0
47 1 0 0
1 47 0 0
47 8 0 0
8 47 0 0
47 44 0 0
44 47 0 0
47 49 0 0
49 47 0 0
47 59 0 0
59 47 0 0
47 81 0 0
81 47 0 0
47 82 0 0
82 47 0 0
47 103 0 0
103 47 0 0
47 106 0 0
106 47 0 0
47 148 0 0
148 47 0 0
47 157 0 0
157 47 0 0
47 159 0 0
159 47 0 0
48 1 0 0
1 48 0 0
48 4 0 0
4 48 0 0
48 9 0 0
9 48 0 0
48 15 0 0
15 48 0 0
48 46 0 0
46 48 0 0
48 57 0 0
57 48 0 0
48 70 0 0
70 48 0 0
48 80 0 0
80 48 0 0
48 110 0 0
110 48 0 0
48 113 0 0
113 48 0 0
48 152 0 0
152 48 0 0
49 23 0 0
23 49 0 0
49 31 0 0
31 49 0 0
49 43 0 0
43 49 0 0
49 88 0 0
88 49 0 0
49 105 0 0
105 49 0 0
49 112 0 0
112 49 0 0
49 125 0 0
125 49 0 0
50 45 0 0
45 50 0 0
50 57 0 0
57 50 0 0
50 60 0 0
60 50 0 0
50 102 0 0
102 50 0 0
50 146 0 0
146 50 0 0
51 20 0 0
20 51 0 0
51 55 0 0
55 51 0 0
51 57 0 0
57 51 0 0
51 59 0 0
59 51 0 0
51 69 0 0
69 51 0 0
51 76 0 0
76 51 0 0
51 84 0 0
84 51 0 0
51 95 0 0
95 51 0 0
51 153 0 0
153 51 0 0
52 13 0 0
13 52 0 0
52 34 0 0
34 52 0 0
52 49 0 0
49 52 0 0
52 51 0 0
51 52 0 0
52 58 0 0
58 52 0 0
52 60 0 0
60 52 0 0
52 63 0 0
63 52 0 0
52 68 0 0
68 52 0 0
52 90 0 0
90 52 0 0
52 97 0 0
97 52 0 0
52 136 0 0
136 52 0 0
52 146 0 0
146 52 0 0
52 156 0 0
156 52 0 0
52 160 0 0
160 52 0 0
53 23 0 0
23 53 0 0
53 27 0 0
27 53 0 0
53 50 0 0
50 53 0 0
53 56 0 0
56 53 0 0
53 69 0 0
69 53 0 0
53 97 0 0
97 53 0 0
53 100 0 0
100 53 0 0
54 1 0 0
1 54 0 0
54 30 0 0
30 54 0 0
54 57 0 0
57 54 0 0
54 123 0 0
123 54 0 0
54 134 0 0
134 54 0 0
55 11 0 0
11 55 0 0
55 12 0 0
12 55 0 0
55 19 0 0
19 55 0 0
55 45 0 0
45 55 0 0
55 53 0 0
53 55 0 0
55 56 0 0
56 55 0 0
55 57 0 0
57 55 0 0
55 60 0 0
60 55 0 0
55 66 0 0
66 55 0 0
55 84 0 0
84 55 0 0
55 117 0 0
117 55 0 0
55 118 0 0
118 55 0 0
55 119 0 0
119 55 0 0
55 139 0 0
139 55 0 0
56 20 0 0
20 56 0 0
56 25 0 0
25 56 0 0
56 76 0 0
76 56 0 0
56 90 0 0
90 56 0 0
56 91 0 0
91 56 0 0
56 102 0 0
102 56 0 0
56 143 0 0
143 56 0 0
56 150 0 0
150 56 0 0
56 159 0 0
159 56 0 0
57 17 0 0
17 57 0 0
57 20 0 0
20 57 0 0
57 51 0 0
51 57 0 0
57 54 0 0
54 57 0 0
57 59 0 0
59 57 0 0
57 65 0 0
65 57 0 0
57 103 0 0
103 57 0 0
57 122 0 0
122 57 0 0
57 130 0 0
130 57 0 0
57 138 0 0
138 57 0 0
57 159 0 0
159 57 0 0
58 6 0 0
6 58 0 0
58 20 0 0
20 58 0 0
58 33 0 0
33 58 0 0
58 52 0 0
52 58 0 0
58 53 0 0
53 58 0 0
58 55 0 0
55 58 0 0
58 56 0 0
56 58 0 0
58 96 0 0
96 58 0 0
58 107 0 0
107 58 0 0
58 112 0 0
112 58 0 0
58 132 0 0
132 58 0 0
58 140 0 0
140 58 0 0
59 13 0 0
13 59 0 0
59 46 0 0
46 59 0 0
59 50 0 0
50 59 0 0
59 51 0 0
51 59 0 0
59 56 0 0
56 59 0 0
59 57 0 0
57 59 0 0
59 60 0 0
60 59 0 0
59 69 0 0
69 59 0 0
59 101 0 0
101 59 0 0
59 138 0 0
138 59 0 0
59 156 0 0
156 59 0 0
60 23 0 0
23 60 0 0
60 24 0 0
24 60 0 0
60 25 0 0
25 60 0 0
60 47 0 0
47 60 0 0
60 52 0 0
52 60 0 0
60 69 0 0
69 60 0 0
60 140 0 0
140 60 0 0
61 11 0 0
11 61 0 0
61 12 0 0
12 61 0 0
61 14 0 0
14 61 0 0
61 18 0 0
18 61 0 0
61 20 0 0
20 61 0 0
61 41 0 0
41 61 0 0
61 68 0 0
68 61 0 0
61 70 0 0
70 61 0 0
61 93 0 0
93 61 0 0
61 115 0 0
115 61 0 0
62 25 0 0
25 62 0 0
62 58 0 0
58 62 0 0
62 63 0 0
63 62 0 0
62 66 0 0
66 62 0 0
62 76 0 0
76 62 0 0
62 92 0 0
92 62 0 0
62 130 0 0
130 62 0 0
62 131 0 0
131 62 0 0
62 152 0 0
152 62 0 0
63 21 0 0
21 63 0 0
63 62 0 0
62 63 0 0
63 66 0 0
66 63 0 0
63 67 0 0
67 63 0 0
63 68 0 0
68 63 0 0
63 69 0 0
69 63 0 0
63 72 0 0
72 63 0 0
63 92 0 0
92 63 0 0
63 95 0 0
95 63 0 0
63 110 0 0
110 63 0 0
63 134 0 0
134 63 0 0
63 142 0 0
142 63 0 0
64 7 0 0
7 64 0 0
64 10 0 0
10 64 0 0
64 16 0 0
16 64 0 0
64 39 0 0
39 64 0 0
64 61 0 0
61 64 0 0
64 62 0 0
62 64 0 0
64 63 0 0
63 64 0 0
64 70 0 0
70 64 0 0
64 85 0 0
85 64 0 0
64 101 0 0
101 64 0 0
64 105 0 0
105 64 0 0
64 116 0 0
116 64 0 0
64 131 0 0
131 64 0 0
64 154 0 0
154 64 0 0
65 19 0 0
19 65 0 0
65 25 0 0
25 65 0 0
65 35 0 0
35 65 0 0
65 42 0 0
42 65 0 0
65 62 0 0
62 65 0 0
65 64 0 0
64 65 0 0
65 74 0 0
74 65 0 0
65 128 0 0
128 65 0 0
65 130 0 0
130 65 0 0
65 141 0 0
141 65 0 0
66 10 0 0
10 66 0 0
66 17 0 0
17 66 0 0
66 53 0 0
53 66 0 0
66 62 0 0
62 66 0 0
66 63 0 0
63 66 0 0
66 68 0 0
68 66 0 0
66 89 0 0
89 66 0 0
66 102 0 0
102 66 0 0
66 103 0 0
103 66 0 0
66 115 0 0
115 66 0 0
66 134 0 0
134 66 0 0
66 145 0 0
145 66 0 0
66 146 0 0
146 66 0 0
67 16 0 0
16 67 0 0
67 45 0 0
45 67 0 0
67 91 0 0
91 67 0 0
67 126 0 0
126 67 0 0
67 140 0 0
140 67 0 0
68 6 0 0
6 68 0 0
68 10 0 0
10 68 0 0
68 66 0 0
66 68 0 0
68 67 0 0
67 68 0 0
68 70 0 0
70 68 0 0
68 86 0 0
86 68 0 0
68 133 0 0
133 68 0 0
68 142 0 0
142 68 0 0
68 145 0 0
145 68 0 0
68 149 0 0
149 68 0 0
68 160 0 0
160 68 0 0
69 3 0 0
3 69 0 0
69 4 0 0
4 69 0 0
69 19 0 0
19 69 0 0
69 29 0 0
29 69 0 0
69 48 0 0
48 69 0 0
69 56 0 0
56 69 0 0
69 61 0 0
61 69 0 0
69 78 0 0
78 69 0 0
69 81 0 0
81 69 0 0
69 131 0 0
131 69 0 0
69 142 0 0
142 69 0 0
69 147 0 0
147 69 0 0
70 16 0 0
16 70 0 0
70 32 0 0
32 70 0 0
70 39 0 0
39 70 0 0
70 41 0 0
41 70 0 0
70 53 0 0
53 70 0 0
70 61 0 0
61 70 0 0
70 65 0 0
65 70 0 0
70 67 0 0
67 70 0 0
70 80 0 0
80 70 0 0
70 104 0 0
104 70 0 0
70 138 0 0
138 70 0 0
70 152 0 0
152 70 0 0
70 155 0 0
155 70 0 0
71 24 0 0
24 71 0 0
71 32 0 0
32 71 0 0
71 35 0 0
35 71 0 0
71 56 0 0
56 71 0 0
71 72 0 0
72 71 0 0
71 76 0 0
76 71 0 0
71 102 0 0
102 71 0 0
71 136 0 0
136 71 0 0
71 143 0 0
143 71 0 0
72 2 0 0
2 72 0 0
72 24 0 0
24 72 0 0
72 35 0 0
35 72 0 0
72 79 0 0
79 72 0 0
72 83 0 0
83 72 0 0
72 112 0 0
112 72 0 0
72 132 0 0
132 72 0 0
72 138 0 0
138 72 0 0
72 149 0 0
149 72 0 0
72 160 0 0
160 72 0 0
73 11 0 0
11 73 0 0
73 14 0 0
14 73 0 0
73 30 0 0
30 73 0 0
73 37 0 0
37 73 0 0
73 42 0 0
42 73 0 0
73 55 0 0
55 73 0 0
73 56 0 0
56 73 0 0
73 71 0 0
71 73 0 0
73 80 0 0
80 73 0 0
73 82 0 0
82 73 0 0
73 91 0 0
91 73 0 0
73 150 0 0
150 73 0 0
73 152 0 0
152 73 0 0
74 23 0 0
23 74 0 0
74 24 0 0
24 74 0 0
74 50 0 0
50 74 0 0
74 71 0 0
71 74 0 0
74 72 0 0
72 74 0 0
74 73 0 0
73 74 0 0
74 75 0 0
75 74 0 0
74 77 0 0
77 74 0 0
74 87 0 0
87 74 0 0
74 89 0 0
89 74 0 0
74 115 0 0
115 74 0 0
75 5 0 0
5 75 0 0
75 21 0 0
21 75 0 0
75 22 0 0
22 75 0 0
75 23 0 0
23 75 0 0
75 68 0 0
68 75 0 0
75 122 0 0
122 75 0 0
75 126 0 0
126 75 0 0
75 129 0 0
129 75 0 0
76 15 0 0
15 76 0 0
76 54 0 0
54 76 0 0
76 73 0 0
73 76 0 0
76 74 0 0
74 76 0 0
76 75 0 0
75 76 0 0
76 77 0 0
77 76 0 0
76 78 0 0
78 76 0 0
76 80 0 0
80 76 0 0
76 85 0 0
85 76 0 0
76 97 0 0
97 76 0 0
76 100 0 0
100 76 0 0
76 105 0 0
105 76 0 0
76 111 0 0
111 76 0 0
76 116 0 0
116 76 0 0
76 120 0 0
120 76 0 0
76 127 0 0
127 76 0 0
76 133 0 0
133 76 0 0
76 140 0 0
140 76 0 0
76 160 0 0
160 76 0 0
77 1 0 0
1 77 0 0
77 72 0 0
72 77 0 0
77 75 0 0
75 77 0 0
77 79 0 0
79 77 0 0
77 101 0 0
101 77 0 0
77 109 0 0
109 77 0 0
77 113 0 0
113 77 0 0
77 122 0 0
122 77 0 0
77 124 0 0
124 77 0 0
77 140 0 0
140 77 0 0
78 3 0 0
3 78 0 0
78 30 0 0
30 78 0 0
78 34 0 0
34 78 0 0
78 40 0 0
40 78 0 0
78 59 0 0
59 78 0 0
78 75 0 0
75 78 0 0
78 77 0 0
77 78 0 0
78 79 0 0
79 78 0 0
78 88 0 0
88 78 0 0
78 96 0 0
96 78 0 0
78 105 0 0
105 78 0 0
78 124 0 0
124 78 0 0
78 158 0 0
158 78 0 0
79 3 0 0
3 79 0 0
79 5 0 0
5 79 0 0
79 6 0 0
6 79 0 0
79 12 0 0
12 79 0 0
79 29 0 0
29 79 0 0
79 34 0 0
34 79 0 0
79 38 0 0
38 79 0 0
79 60 0 0
60 79 0 0
79 66 0 0
66 79 0 0
79 70 0 0
70 79 0 0
79 71 0 0
71 79 0 0
79 81 0 0
81 79 0 0
79 108 0 0
108 79 0 0
79 158 0 0
158 79 0 0
80 30 0 0
30 80 0 0
80 74 0 0
74 80 0 0
80 76 0 0
76 80 0 0
80 102 0 0
102 80 0 0
80 114 0 0
114 80 0 0
80 139 0 0
139 80 0 0
80 151 0 0
151 80 0 0
80 157 0 0
157 80 0 0
81 1 0 0
1 81 0 0
81 56 0 0
56 81 0 0
81 84 0 0
84 81 0 0
81 85 0 0
85 81 0 0
81 87 0 0
87 81 0 0
81 90 0 0
90 81 0 0
81 133 0 0
133 81 0 0
81 138 0 0
138 81 0 0
82 29 0 0
29 82 0 0
82 45 0 0
45 82 0 0
82 81 0 0
81 82 0 0
82 83 0 0
83 82 0 0
82 86 0 0
86 82 0 0
82 101 0 0
101 82 0 0
82 138 0 0
138 82 0 0
82 155 0 0
155 82 0 0
83 4 0 0
4 83 0 0
83 5 0 0
5 83 0 0
83 21 0 0
21 83 0 0
83 35 0 0
35 83 0 0
83 37 0 0
37 83 0 0
83 40 0 0
40 83 0 0
83 49 0 0
49 83 0 0
83 54 0 0
54 83 0 0
83 67 0 0
67 83 0 0
83 81 0 0
81 83 0 0
83 86 0 0
86 83 0 0
83 89 0 0
89 83 0 0
84 8 0 0
8 84 0 0
84 17 0 0
17 84 0 0
84 18 0 0
18 84 0 0
84 19 0 0
19 84 0 0
84 57 0 0
57 84 0 0
84 61 0 0
61 84 0 0
84 83 0 0
83 84 0 0
84 91 0 0
91 84 0 0
85 42 0 0
42 85 0 0
85 43 0 0
43 85 0 0
85 71 0 0
71 85 0 0
85 84 0 0
84 85 0 0
85 103 0 0
103 85 0 0
85 106 0 0
106 85 0 0
85 145 0 0
145 85 0 0
86 33 0 0
33 86 0 0
86 46 0 0
46 86 0 0
86 69 0 0
69 86 0 0
86 79 0 0
79 86 0 0
86 87 0 0
87 86 0 0
86 122 0 0
122 86 0 0
86 125 0 0
125 86 0 0
87 8 0 0
8 87 0 0
87 23 0 0
23 87 0 0
87 34 0 0
34 87 0 0
87 64 0 0
64 87 0 0
87 82 0 0
82 87 0 0
87 83 0 0
83 87 0 0
87 88 0 0
88 87 0 0
87 89 0 0
89 87 0 0
88 6 0 0
6 88 0 0
88 32 0 0
32 88 0 0
88 72 0 0
72 88 0 0
88 81 0 0
81 88 0 0
88 82 0 0
82 88 0 0
88 87 0 0
87 88 0 0
88 90 0 0
90 88 0 0
88 110 0 0
110 88 0 0
88 126 0 0
126 88 0 0
88 141 0 0
141 88 0 0
89 20 0 0
20 89 0 0
89 28 0 0
28 89 0 0
89 37 0 0
37 89 0 0
89 81 0 0
81 89 0 0
89 82 0 0
82 89 0 0
89 84 0 0
84 89 0 0
89 90 0 0
90 89 0 0
89 100 0 0
100 89 0 0
89 155 0 0
155 89 0 0
90 4 0 0
4 90 0 0
90 41 0 0
41 90 0 0
90 53 0 0
53 90 0 0
90 73 0 0
73 90 0 0
90 81 0 0
81 90 0 0
90 83 0 0
83 90 0 0
90 86 0 0
86 90 0 0
90 88 0 0
88 90 0 0
90 124 0 0
124 90 0 0
90 158 0 0
158 90 0 0
91 27 0 0
27 91 0 0
91 44 0 0
44 91 0 0
91 57 0 0
57 91 0 0
91 63 0 0
63 91 0 0
91 93 0 0
93 91 0 0
91 98 0 0
98 91 0 0
91 108 0 0
108 91 0 0
91 137 0 0
137 91 0 0
91 142 0 0
142 91 0 0
91 149 0 0
149 91 0 0
91 152 0 0
152 91 0 0
91 155 0 0
155 91 0 0
92 6 0 0
6 92 0 0
92 9 0 0
9 92 0 0
92 11 0 0
11 92 0 0
92 33 0 0
33 92 0 0
92 54 0 0
54 92 0 0
92 80 0 0
80 92 0 0
92 87 0 0
87 92 0 0
92 94 0 0
94 92 0 0
92 98 0 0
98 92 0 0
92 99 0 0
99 92 0 0
92 116 0 0
116 92 0 0
93 42 0 0
42 93 0 0
93 44 0 0
44 93 0 0
93 85 0 0
85 93 0 0
93 92 0 0
92 93 0 0
93 102 0 0
102 93 0 0
93 114 0 0
114 93 0 0
93 126 0 0
126 93 0 0
93 152 0 0
152 93 0 0
93 158 0 0
158 93 0 0
94 4 0 0
4 94 0 0
94 5 0 0
5 94 0 0
94 17 0 0
17 94 0 0
94 63 0 0
63 94 0 0
94 87 0 0
87 94 0 0
94 91 0 0
91 94 0 0
94 93 0 0
93 94 0 0
94 99 0 0
99 94 0 0
94 119 0 0
119 94 0 0
94 141 0 0
141 94 0 0
94 145 0 0
145 94 0 0
95 64 0 0
64 95 0 0
95 69 0 0
69 95 0 0
95 74 0 0
74 95 0 0
95 83 0 0
83 95 0 0
95 84 0 0
84 95 0 0
95 92 0 0
92 95 0 0
95 94 0 0
94 95 0 0
95 116 0 0
116 95 0 0
95 148 0 0
148 95 0 0
95 160 0 0
160 95 0 0
96 9 0 0
9 96 0 0
96 38 0 0
38 96 0 0
96 46 0 0
46 96 0 0
96 58 0 0
58 96 0 0
96 125 0 0
125 96 0 0
96 154 0 0
154 96 0 0
97 15 0 0
15 97 0 0
97 46 0 0
46 97 0 0
97 59 0 0
59 97 0 0
97 87 0 0
87 97 0 0
97 92 0 0
92 97 0 0
97 112 0 0
112 97 0 0
97 145 0 0
145 97 0 0
97 158 0 0
158 97 0 0
98 10 0 0
10 98 0 0
98 19 0 0
19 98 0 0
98 25 0 0
25 98 0 0
98 37 0 0
37 98 0 0
98 85 0 0
85 98 0 0
98 88 0 0
88 98 0 0
98 94 0 0
94 98 0 0
98 96 0 0
96 98 0 0
98 99 0 0
99 98 0 0
98 100 0 0
100 98 0 0
98 106 0 0
106 98 0 0
98 127 0 0
127 98 0 0
99 13 0 0
13 99 0 0
99 93 0 0
93 99 0 0
99 97 0 0
97 99 0 0
99 98 0 0
98 99 0 0
99 100 0 0
100 99 0 0
99 113 0 0
113 99 0 0
99 135 0 0
135 99 0 0
99 151 0 0
151 99 0 0
99 152 0 0
152 99 0 0
100 30 0 0
30 100 0 0
100 38 0 0
38 100 0 0
100 42 0 0
42 100 0 0
100 47 0 0
47 100 0 0
100 52 0 0
52 100 0 0
100 75 0 0
75 100 0 0
100 81 0 0
81 100 0 0
100 92 0 0
92 100 0 0
100 95 0 0
95 100 0 0
100 98 0 0
98 100 0 0
100 99 0 0
99 100 0 0
100 107 0 0
107 100 0 0
100 119 0 0
119 100 0 0
100 120 0 0
120 100 0 0
100 124 0 0
124 100 0 0
100 136 0 0
136 100 0 0
100 138 0 0
138 100 0 0
100 159 0 0
159 100 0 0
101 6 0 0
6 101 0 0
101 7 0 0
7 101 0 0
101 11 0 0
11 101 0 0
101 14 0 0
14 101 0 0
101 42 0 0
42 101 0 0
101 50 0 0
50 101 0 0
101 79 0 0
79 101 0 0
101 104 0 0
104 101 0 0
101 106 0 0
106 101 0 0
101 110 0 0
110 101 0 0
101 138 0 0
138 101 0 0
102 22 0 0
22 102 0 0
102 61 0 0
61 102 0 0
102 84 0 0
84 102 0 0
102 101 0 0
101 102 0 0
102 108 0 0
108 102 0 0
102 110 0 0
110 102 0 0
102 147 0 0
147 102 0 0
102 155 0 0
155 102 0 0
103 6 0 0
6 103 0 0
103 44 0 0
44 103 0 0
103 45 0 0
45 103 0 0
103 59 0 0
59 103 0 0
103 67 0 0
67 103 0 0
103 72 0 0
72 103 0 0
103 95 0 0
95 103 0 0
103 106 0 0
106 103 0 0
103 134 0 0
134 103 0 0
104 23 0 0
23 104 0 0
104 28 0 0
28 104 0 0
104 38 0 0
38 104 0 0
104 51 0 0
51 104 0 0
104 64 0 0
64 104 0 0
104 96 0 0
96 104 0 0
104 105 0 0
105 104 0 0
104 106 0 0
106 104 0 0
104 109 0 0
109 104 0 0
104 143 0 0
143 104 0 0
104 149 0 0
149 104 0 0
105 4 0 0
4 105 0 0
105 59 0 0
59 105 0 0
105 70 0 0
70 105 0 0
105 100 0 0
100 105 0 0
105 101 0 0
101 105 0 0
105 102 0 0
102 105 0 0
105 104 0 0
104 105 0 0
105 107 0 0
107 105 0 0
105 130 0 0
130 105 0 0
106 11 0 0
11 106 0 0
106 78 0 0
78 106 0 0
106 102 0 0
102 106 0 0
106 110 0 0
110 106 0 0
106 153 0 0
153 106 0 0
106 158 0 0
158 106 0 0
107 32 0 0
32 107 0 0
107 37 0 0
37 107 0 0
107 40 0 0
40 107 0 0
107 41 0 0
41 107 0 0
107 44 0 0
44 107 0 0
107 55 0 0
55 107 0 0
107 74 0 0
74 107 0 0
107 79 0 0
79 107 0 0
107 101 0 0
101 107 0 0
107 104 0 0
104 107 0 0
107 106 0 0
106 107 0 0
107 125 0 0
125 107 0 0
107 156 0 0
156 107 0 0
108 52 0 0
52 108 0 0
108 101 0 0
101 108 0 0
108 104 0 0
104 108 0 0
108 106 0 0
106 108 0 0
108 157 0 0
157 108 0 0
109 44 0 0
44 109 0 0
109 62 0 0
62 109 0 0
109 66 0 0
66 109 0 0
109 94 0 0
94 109 0 0
109 104 0 0
104 109 0 0
109 107 0 0
107 109 0 0
109 113 0 0
113 109 0 0
109 137 0 0
137 109 0 0
110 14 0 0
14 110 0 0
110 53 0 0
53 110 0 0
110 100 0 0
100 110 0 0
110 106 0 0
106 110 0 0
110 118 0 0
118 110 0 0
110 151 0 0
151 110 0 0
110 153 0 0
153 110 0 0
111 26 0 0
26 111 0 0
111 66 0 0
66 111 0 0
111 79 0 0
79 111 0 0
111 88 0 0
88 111 0 0
111 91 0 0
91 111 0 0
111 98 0 0
98 111 0 0
111 103 0 0
103 111 0 0
111 116 0 0
116 111 0 0
111 117 0 0
117 111 0 0
111 119 0 0
119 111 0 0
112 25 0 0
25 112 0 0
112 30 0 0
30 112 0 0
112 39 0 0
39 112 0 0
112 54 0 0
54 112 0 0
112 111 0 0
111 112 0 0
112 113 0 0
113 112 0 0
112 115 0 0
115 112 0 0
112 118 0 0
118 112 0 0
112 147 0 0
147 112 0 0
112 151 0 0
151 112 0 0
113 35 0 0
35 113 0 0
113 45 0 0
45 113 0 0
113 56 0 0
56 113 0 0
113 62 0 0
62 113 0 0
113 65 0 0
65 113 0 0
113 102 0 0
102 113 0 0
113 107 0 0
107 113 0 0
113 111 0 0
111 113 0 0
113 115 0 0
115 113 0 0
113 148 0 0
148 113 0 0
113 158 0 0
158 113 0 0
114 69 0 0
69 114 0 0
114 86 0 0
86 114 0 0
114 90 0 0
90 114 0 0
114 108 0 0
108 114 0 0
114 111 0 0
111 114 0 0
115 2 0 0
2 115 0 0
115 6 0 0
6 115 0 0
115 19 0 0
19 115 0 0
115 21 0 0
21 115 0 0
115 49 0 0
49 115 0 0
115 58 0 0
58 115 0 0
115 66 0 0
66 115 0 0
115 93 0 0
93 115 0 0
115 113 0 0
113 115 0 0
115 116 0 0
116 115 0 0
115 118 0 0
118 115 0 0
115 156 0 0
156 115 0 0
116 37 0 0
37 116 0 0
116 47 0 0
47 116 0 0
116 69 0 0
69 116 0 0
116 101 0 0
101 116 0 0
116 113 0 0
113 116 0 0
116 114 0 0
114 116 0 0
116 117 0 0
117 116 0 0
116 121 0 0
121 116 0 0
116 134 0 0
134 116 0 0
117 7 0 0
7 117 0 0
117 78 0 0
78 117 0 0
117 98 0 0
98 117 0 0
117 111 0 0
111 117 0 0
117 116 0 0
116 117 0 0
117 125 0 0
125 117 0 0
118 10 0 0
10 118 0 0
118 19 0 0
19 118 0 0
118 22 0 0
22 118 0 0
118 50 0 0
50 118 0 0
118 111 0 0
111 118 0 0
118 112 0 0
112 118 0 0
118 113 0 0
113 118 0 0
118 116 0 0
116 118 0 0
118 144 0 0
144 118 0 0
119 1 0 0
1 119 0 0
119 42 0 0
42 119 0 0
119 45 0 0
45 119 0 0
119 101 0 0
101 119 0 0
119 103 0 0
103 119 0 0
119 139 0 0
139 119 0 0
119 144 0 0
144 119 0 0
120 4 0 0
4 120 0 0
120 28 0 0
28 120 0 0
120 40 0 0
40 120 0 0
120 87 0 0
87 120 0 0
120 93 0 0
93 120 0 0
120 112 0 0
112 120 0 0
120 114 0 0
114 120 0 0
120 116 0 0
116 120 0 0
120 134 0 0
134 120 0 0
121 7 0 0
7 121 0 0
121 30 0 0
30 121 0 0
121 40 0 0
40 121 0 0
121 106 0 0
106 121 0 0
121 110 0 0
110 121 0 0
121 122 0 0
122 121 0 0
121 124 0 0
124 121 0 0
121 126 0 0
126 121 0 0
121 130 0 0
130 121 0 0
121 150 0 0
150 121 0 0
122 2 0 0
2 122 0 0
122 6 0 0
6 122 0 0
122 23 0 0
23 122 0 0
122 37 0 0
37 122 0 0
122 43 0 0
43 122 0 0
122 70 0 0
70 122 0 0
122 126 0 0
126 122 0 0
122 128 0 0
128 122 0 0
122 130 0 0
130 122 0 0
122 133 0 0
133 122 0 0
122 148 0 0
148 122 0 0
123 8 0 0
8 123 0 0
123 16 0 0
16 123 0 0
123 23 0 0
23 123 0 0
123 27 0 0
27 123 0 0
123 37 0 0
37 123 0 0
123 38 0 0
38 123 0 0
123 77 0 0
77 123 0 0
123 83 0 0
83 123 0 0
123 93 0 0
93 123 0 0
123 103 0 0
103 123 0 0
123 122 0 0
122 123 0 0
123 129 0 0
129 123 0 0
124 25 0 0
25 124 0 0
124 36 0 0
36 124 0 0
124 76 0 0
76 124 0 0
124 86 0 0
86 124 0 0
124 92 0 0
92 124 0 0
124 94 0 0
94 124 0 0
124 121 0 0
121 124 0 0
124 132 0 0
132 124 0 0
124 158 0 0
158 124 0 0
125 57 0 0
57 125 0 0
125 108 0 0
108 125 0 0
125 109 0 0
109 125 0 0
125 126 0 0
126 125 0 0
125 128 0 0
128 125 0 0
125 129 0 0
129 125 0 0
125 134 0 0
134 125 0 0
125 145 0 0
145 125 0 0
125 155 0 0
155 125 0 0
126 1 0 0
1 126 0 0
126 21 0 0
21 126 0 0
126 38 0 0
38 126 0 0
126 114 0 0
114 126 0 0
126 124 0 0
124 126 0 0
126 128 0 0
128 126 0 0
126 138 0 0
138 126 0 0
126 140 0 0
140 126 0 0
126 141 0 0
141 126 0 0
126 142 0 0
142 126 0 0
127 14 0 0
14 127 0 0
127 37 0 0
37 127 0 0
127 41 0 0
41 127 0 0
127 70 0 0
70 127 0 0
127 71 0 0
71 127 0 0
127 97 0 0
97 127 0 0
127 114 0 0
114 127 0 0
127 122 0 0
122 127 0 0
127 128 0 0
128 127 0 0
127 129 0 0
129 127 0 0
127 139 0 0
139 127 0 0
127 148 0 0
148 127 0 0
128 18 0 0
18 128 0 0
128 57 0 0
57 128 0 0
128 65 0 0
65 128 0 0
128 69 0 0
69 128 0 0
128 74 0 0
74 128 0 0
128 122 0 0
122 128 0 0
128 127 0 0
127 128 0 0
129 7 0 0
7 129 0 0
129 27 0 0
27 129 0 0
129 32 0 0
32 129 0 0
129 82 0 0
82 129 0 0
129 102 0 0
102 129 0 0
129 117 0 0
117 129 0 0
129 121 0 0
121 129 0 0
129 126 0 0
126 129 0 0
129 128 0 0
128 129 0 0
129 155 0 0
155 129 0 0
130 10 0 0
10 130 0 0
130 61 0 0
61 130 0 0
130 78 0 0
78 130 0 0
130 79 0 0
79 130 0 0
130 129 0 0
129 130 0 0
130 131 0 0
131 130 0 0
130 153 0 0
153 130 0 0
131 22 0 0
22 131 0 0
131 27 0 0
27 131 0 0
131 45 0 0
45 131 0 0
131 55 0 0
55 131 0 0
131 69 0 0
69 131 0 0
131 72 0 0
72 131 0 0
131 74 0 0
74 131 0 0
131 83 0 0
83 131 0 0
131 135 0 0
135 131 0 0
131 136 0 0
136 131 0 0
131 137 0 0
137 131 0 0
131 143 0 0
143 131 0 0
132 58 0 0
58 132 0 0
132 61 0 0
61 132 0 0
132 131 0 0
131 132 0 0
132 135 0 0
135 132 0 0
132 136 0 0
136 132 0 0
132 137 0 0
137 132 0 0
132 139 0 0
139 132 0 0
132 141 0 0
141 132 0 0
132 146 0 0
146 132 0 0
133 18 0 0
18 133 0 0
133 24 0 0
24 133 0 0
133 40 0 0
40 133 0 0
133 65 0 0
65 133 0 0
133 69 0 0
69 133 0 0
133 88 0 0
88 133 0 0
133 94 0 0
94 133 0 0
133 117 0 0
117 133 0 0
133 118 0 0
118 133 0 0
133 136 0 0
136 133 0 0
134 20 0 0
20 134 0 0
134 74 0 0
74 134 0 0
134 80 0 0
80 134 0 0
134 126 0 0
126 134 0 0
134 132 0 0
132 134 0 0
134 135 0 0
135 134 0 0
134 139 0 0
139 134 0 0
134 158 0 0
158 134 0 0
135 19 0 0
19 135 0 0
135 21 0 0
21 135 0 0
135 41 0 0
41 135 0 0
135 56 0 0
56 135 0 0
135 87 0 0
87 135 0 0
135 95 0 0
95 135 0 0
135 115 0 0
115 135 0 0
135 131 0 0
131 135 0 0
135 136 0 0
136 135 0 0
135 139 0 0
139 135 0 0
135 146 0 0
146 135 0 0
135 147 0 0
147 135 0 0
136 32 0 0
32 136 0 0
136 56 0 0
56 136 0 0
136 131 0 0
131 136 0 0
136 133 0 0
133 136 0 0
136 134 0 0
134 136 0 0
136 137 0 0
137 136 0 0
136 138 0 0
138 136 0 0
137 9 0 0
9 137 0 0
137 90 0 0
90 137 0 0
137 135 0 0
135 137 0 0
137 140 0 0
140 137 0 0
137 141 0 0
141 137 0 0
138 18 0 0
18 138 0 0
138 62 0 0
62 138 0 0
138 78 0 0
78 138 0 0
138 79 0 0
79 138 0 0
138 92 0 0
92 138 0 0
138 132 0 0
132 138 0 0
138 140 0 0
140 138 0 0
139 2 0 0
2 139 0 0
139 11 0 0
11 139 0 0
139 14 0 0
14 139 0 0
139 23 0 0
23 139 0 0
139 37 0 0
37 139 0 0
139 58 0 0
58 139 0 0
139 68 0 0
68 139 0 0
139 91 0 0
91 139 0 0
139 128 0 0
128 139 0 0
139 133 0 0
133 139 0 0
139 134 0 0
134 139 0 0
139 137 0 0
137 139 0 0
139 138 0 0
138 139 0 0
139 140 0 0
140 139 0 0
140 32 0 0
32 140 0 0
140 39 0 0
39 140 0 0
140 95 0 0
95 140 0 0
140 102 0 0
102 140 0 0
140 118 0 0
118 140 0 0
140 119 0 0
119 140 0 0
140 135 0 0
135 140 0 0
140 138 0 0
138 140 0 0
141 28 0 0
28 141 0 0
141 40 0 0
40 141 0 0
141 59 0 0
59 141 0 0
141 78 0 0
78 141 0 0
141 113 0 0
113 141 0 0
141 118 0 0
118 141 0 0
141 139 0 0
139 141 0 0
141 150 0 0
150 141 0 0
142 6 0 0
6 142 0 0
142 15 0 0
15 142 0 0
142 28 0 0
28 142 0 0
142 33 0 0
33 142 0 0
142 44 0 0
44 142 0 0
142 83 0 0
83 142 0 0
142 115 0 0
115 142 0 0
142 148 0 0
148 142 0 0
143 14 0 0
14 143 0 0
143 33 0 0
33 143 0 0
143 43 0 0
43 143 0 0
143 52 0 0
52 143 0 0
143 86 0 0
86 143 0 0
143 105 0 0
105 143 0 0
143 146 0 0
146 143 0 0
143 147 0 0
147 143 0 0
143 148 0 0
148 143 0 0
143 150 0 0
150 143 0 0
144 15 0 0
15 144 0 0
144 30 0 0
30 144 0 0
144 53 0 0
53 144 0 0
144 77 0 0
77 144 0 0
144 80 0 0
80 144 0 0
144 103 0 0
103 144 0 0
144 115 0 0
115 144 0 0
144 127 0 0
127 144 0 0
144 141 0 0
141 144 0 0
144 142 0 0
142 144 0 0
144 149 0 0
149 144 0 0
144 150 0 0
150 144 0 0
145 3 0 0
3 145 0 0
145 12 0 0
12 145 0 0
145 13 0 0
13 145 0 0
145 27 0 0
27 145 0 0
145 81 0 0
81 145 0 0
145 88 0 0
88 145 0 0
145 89 0 0
89 145 0 0
145 99 0 0
99 145 0 0
145 132 0 0
132 145 0 0
145 143 0 0
143 145 0 0
145 144 0 0
144 145 0 0
145 147 0 0
147 145 0 0
145 149 0 0
149 145 0 0
146 35 0 0
35 146 0 0
146 56 0 0
56 146 0 0
146 70 0 0
70 146 0 0
146 81 0 0
81 146 0 0
146 90 0 0
90 146 0 0
146 112 0 0
112 146 0 0
146 128 0 0
128 146 0 0
146 142 0 0
142 146 0 0
146 148 0 0
148 146 0 0
146 150 0 0
150 146 0 0
147 16 0 0
16 147 0 0
147 21 0 0
21 147 0 0
147 49 0 0
49 147 0 0
147 93 0 0
93 147 0 0
147 141 0 0
141 147 0 0
147 143 0 0
143 147 0 0
147 152 0 0
152 147 0 0
148 2 0 0
2 148 0 0
148 22 0 0
22 148 0 0
148 47 0 0
47 148 0 0
148 91 0 0
91 148 0 0
148 144 0 0
144 148 0 0
148 146 0 0
146 148 0 0
148 151 0 0
151 148 0 0
148 156 0 0
156 148 0 0
148 158 0 0
158 148 0 0
149 15 0 0
15 149 0 0
149 30 0 0
30 149 0 0
149 38 0 0
38 149 0 0
149 79 0 0
79 149 0 0
149 80 0 0
80 149 0 0
149 94 0 0
94 149 0 0
149 95 0 0
95 149 0 0
149 124 0 0
124 149 0 0
149 129 0 0
129 149 0 0
149 144 0 0
144 149 0 0
149 145 0 0
145 149 0 0
149 146 0 0
146 149 0 0
149 152 0 0
152 149 0 0
149 153 0 0
153 149 0 0
150 8 0 0
8 150 0 0
150 39 0 0
39 150 0 0
150 52 0 0
52 150 0 0
150 110 0 0
110 150 0 0
150 119 0 0
119 150 0 0
150 122 0 0
122 150 0 0
150 142 0 0
142 150 0 0
150 144 0 0
144 150 0 0
150 147 0 0
147 150 0 0
150 156 0 0
156 150 0 0
151 10 0 0
10 151 0 0
151 15 0 0
15 151 0 0
151 23 0 0
23 151 0 0
151 27 0 0
27 151 0 0
151 28 0 0
28 151 0 0
151 29 0 0
29 151 0 0
151 75 0 0
75 151 0 0
151 125 0 0
125 151 0 0
151 130 0 0
130 151 0 0
151 156 0 0
156 151 0 0
151 158 0 0
158 151 0 0
152 12 0 0
12 152 0 0
152 27 0 0
27 152 0 0
152 28 0 0
28 152 0 0
152 30 0 0
30 152 0 0
152 54 0 0
54 152 0 0
152 78 0 0
78 152 0 0
152 85 0 0
85 152 0 0
152 149 0 0
149 152 0 0
152 153 0 0
153 152 0 0
152 154 0 0
154 152 0 0
152 157 0 0
157 152 0 0
152 158 0 0
158 152 0 0
153 25 0 0
25 153 0 0
153 91 0 0
91 153 0 0
153 103 0 0
103 153 0 0
153 104 0 0
104 153 0 0
153 146 0 0
146 153 0 0
153 156 0 0
156 153 0 0
153 159 0 0
159 153 0 0
154 11 0 0
11 154 0 0
154 13 0 0
13 154 0 0
154 45 0 0
45 154 0 0
154 59 0 0
59 154 0 0
154 91 0 0
91 154 0 0
154 107 0 0
107 154 0 0
154 119 0 0
119 154 0 0
154 127 0 0
127 154 0 0
155 10 0 0
10 155 0 0
155 36 0 0
36 155 0 0
155 40 0 0
40 155 0 0
155 50 0 0
50 155 0 0
155 54 0 0
54 155 0 0
155 86 0 0
86 155 0 0
155 100 0 0
100 155 0 0
155 112 0 0
112 155 0 0
155 117 0 0
117 155 0 0
155 127 0 0
127 155 0 0
155 130 0 0
130 155 0 0
155 136 0 0
136 155 0 0
155 152 0 0
152 155 0 0
156 55 0 0
55 156 0 0
156 68 0 0
68 156 0 0
156 108 0 0
108 156 0 0
156 126 0 0
126 156 0 0
156 128 0 0
128 156 0 0
156 132 0 0
132 156 0 0
156 153 0 0
153 156 0 0
156 158 0 0
158 156 0 0
156 160 0 0
160 156 0 0
157 1 0 0
1 157 0 0
157 2 0 0
2 157 0 0
157 7 0 0
7 157 0 0
157 19 0 0
19 157 0 0
157 85 0 0
85 157 0 0
157 131 0 0
131 157 0 0
157 132 0 0
132 157 0 0
157 133 0 0
133 157 0 0
157 152 0 0
152 157 0 0
157 153 0 0
153 157 0 0
157 155 0 0
155 157 0 0
157 158 0 0
158 157 0 0
158 5 0 0
5 158 0 0
158 8 0 0
8 158 0 0
158 16 0 0
16 158 0 0
158 17 0 0
17 158 0 0
158 26 0 0
26 158 0 0
158 32 0 0
32 158 0 0
158 40 0 0
40 158 0 0
158 50 0 0
50 158 0 0
158 93 0 0
93 158 0 0
158 110 0 0
110 158 0 0
158 118 0 0
118 158 0 0
158 157 0 0
157 158 0 0
158 159 0 0
159 158 0 0
158 160 0 0
160 158 0 0
159 12 0 0
12 159 0 0
159 15 0 0
15 159 0 0
159 21 0 0
21 159 0 0
159 23 0 0
23 159 0 0
159 41 0 0
41 159 0 0
159 45 0 0
45 159 0 0
159 77 0 0
77 159 0 0
159 101 0 0
101 159 0 0
159 118 0 0
118 159 0 0
159 122 0 0
122 159 0 0
159 131 0 0
131 159 0 0
159 137 0 0
137 159 0 0
159 153 0 0
153 159 0 0
159 154 0 0
154 159 0 0
159 158 0 0
158 159 0 0
160 13 0 0
13 160 0 0
160 21 0 0
21 160 0 0
160 39 0 0
39 160 0 0
160 57 0 0
57 160 0 0
160 78 0 0
78 160 0 0
160 87 0 0
87 160 0 0
160 89 0 0
89 160 0 0
160 93 0 0
93 160 0 0
160 100 0 0
100 160 0 0
160 113 0 0
113 160 0 0
160 117 0 0
117 160 0 0
160 118 0 0
118 160 0 0
160 125 0 0
125 160 0 0
160 132 0 0
132 160 0 0
160 151 0 0
151 160 0 0
160 156 0 0
156 160 0 0
160 159 0 0
159 160 0 0
