1 2 0 0
2 1 0 0
1 9 0 0
9 1 0 0
1 13 0 0
13 1 0 0
1 30 0 0
30 1 0 0
1 41 0 0
41 1 0 0
1 97 0 0
97 1 0 0
1 120 0 0
120 1 0 0
1 129 0 0
129 1 0 0
1 137 0 0
137 1 0 0
1 148 0 0
148 1 0 0
2 3 0 0
3 2 0 0
2 7 0 0
7 2 0 0
2 10 0 0
10 2 0 0
2 12 0 0
12 2 0 0
2 16 0 0
16 2 0 0
2 53 0 0
53 2 0 0
2 71 0 0
71 2 0 0
2 90 0 0
90 2 0 0
2 91 0 0
91 2 0 0
2 149 0 0
149 2 0 0
2 154 0 0
154 2 0 0
3 1 0 0
1 3 0 0
3 10 0 0
10 3 0 0
3 27 0 0
27 3 0 0
3 60 0 0
60 3 0 0
3 66 0 0
66 3 0 0
3 68 0 0
68 3 0 0
3 79 0 0
79 3 0 0
3 94 0 0
94 3 0 0
3 122 0 0
122 3 0 0
3 124 0 0
124 3 0 0
3 142 0 0
142 3 0 0
3 144 0 0
144 3 0 0
4 2 0 0
2 4 0 0
4 7 0 0
7 4 0 0
4 27 0 0
27 4 0 0
4 79 0 0
79 4 0 0
4 106 0 0
106 4 0 0
4 110 0 0
110 4 0 0
4 125 0 0
125 4 0 0
4 144 0 0
144 4 0 0
4 146 0 0
146 4 0 0
4 151 0 0
151 4 0 0
5 2 0 0
2 5 0 0
5 4 0 0
4 5 0 0
5 6 0 0
6 5 0 0
5 9 0 0
9 5 0 0
5 10 0 0
10 5 0 0
5 26 0 0
26 5 0 0
5 29 0 0
29 5 0 0
5 41 0 0
41 5 0 0
5 49 0 0
49 5 0 0
5 53 0 0
53 5 0 0
5 54 0 0
54 5 0 0
5 60 0 0
60 5 0 0
5 103 0 0
103 5 0 0
5 104 0 0
104 5 0 0
5 120 0 0
120 5 0 0
5 125 0 0
125 5 0 0
5 129 0 0
129 5 0 0
5 136 0 0
136 5 0 0
5 142 0 0
142 5 0 0
6 2 0 0
2 6 0 0
6 4 0 0
4 6 0 0
6 9 0 0
9 6 0 0
6 20 0 0
20 6 0 0
6 24 0 0
24 6 0 0
6 45 0 0
45 6 0 0
6 60 0 0
60 6 0 0
6 72 0 0
72 6 0 0
6 92 0 0
92 6 0 0
6 100 0 0
100 6 0 0
6 121 0 0
121 6 0 0
6 148 0 0
148 6 0 0
6 154 0 0
154 6 0 0
7 1 0 0
1 7 0 0
7 4 0 0
4 7 0 0
7 6 0 0
6 7 0 0
7 14 0 0
14 7 0 0
7 56 0 0
56 7 0 0
7 57 0 0
57 7 0 0
7 102 0 0
102 7 0 0
7 111 0 0
111 7 0 0
7 112 0 0
112 7 0 0
7 120 0 0
120 7 0 0
7 129 0 0
129 7 0 0
8 1 0 0
1 8 0 0
8 2 0 0
2 8 0 0
8 7 0 0
7 8 0 0
8 11 0 0
11 8 0 0
8 16 0 0
16 8 0 0
8 33 0 0
33 8 0 0
8 46 0 0
46 8 0 0
8 84 0 0
84 8 0 0
8 90 0 0
90 8 0 0
8 156 0 0
156 8 0 0
9 8 0 0
8 9 0 0
9 16 0 0
16 9 0 0
9 22 0 0
22 9 0 0
9 28 0 0
28 9 0 0
9 39 0 0
39 9 0 0
9 45 0 0
45 9 0 0
9 85 0 0
85 9 0 0
9 118 0 0
118 9 0 0
9 128 0 0
128 9 0 0
9 134 0 0
134 9 0 0
9 138 0 0
138 9 0 0
9 153 0 0
153 9 0 0
10 3 0 0
3 10 0 0
10 17 0 0
17 10 0 0
10 42 0 0
42 10 0 0
10 63 0 0
63 10 0 0
10 105 0 0
105 10 0 0
10 120 0 0
120 10 0 0
10 122 0 0
122 10 0 0
10 135 0 0
135 10 0 0
10 153 0 0
153 10 0 0
11 12 0 0
12 11 0 0
11 15 0 0
15 11 0 0
11 17 0 0
17 11 0 0
11 18 0 0
18 11 0 0
11 27 0 0
27 11 0 0
11 59 0 0
59 11 0 0
11 75 0 0
75 11 0 0
11 79 0 0
79 11 0 0
12 17 0 0
17 12 0 0
12 18 0 0
18 12 0 0
12 19 0 0
19 12 0 0
12 27 0 0
27 12 0 0
12 31 0 0
31 12 0 0
12 43 0 0
43 12 0 0
12 44 0 0
44 12 0 0
12 105 0 0
105 12 0 0
12 106 0 0
106 12 0 0
12 120 0 0
120 12 0 0
12 139 0 0
139 12 0 0
12 158 0 0
158 12 0 0
13 46 0 0
46 13 0 0
13 52 0 0
52 13 0 0
13 67 0 0
67 13 0 0
14 11 0 0
11 14 0 0
14 15 0 0
15 14 0 0
14 18 0 0
18 14 0 0
14 19 0 0
19 14 0 0
14 20 0 0
20 14 0 0
14 38 0 0
38 14 0 0
14 111 0 0
111 14 0 0
14 122 0 0
122 14 0 0
14 126 0 0
126 14 0 0
14 131 0 0
131 14 0 0
14 135 0 0
135 14 0 0
15 7 0 0
7 15 0 0
15 12 0 0
12 15 0 0
15 19 0 0
19 15 0 0
15 22 0 0
22 15 0 0
15 28 0 0
28 15 0 0
15 66 0 0
66 15 0 0
15 79 0 0
79 15 0 0
15 123 0 0
123 15 0 0
15 126 0 0
126 15 0 0
16 5 0 0
5 16 0 0
16 13 0 0
13 16 0 0
16 50 0 0
50 16 0 0
16 80 0 0
80 16 0 0
16 104 0 0
104 16 0 0
17 9 0 0
9 17 0 0
17 13 0 0
13 17 0 0
17 15 0 0
15 17 0 0
17 19 0 0
19 17 0 0
17 20 0 0
20 17 0 0
17 31 0 0
31 17 0 0
17 48 0 0
48 17 0 0
17 57 0 0
57 17 0 0
17 70 0 0
70 17 0 0
17 73 0 0
73 17 0 0
17 150 0 0
150 17 0 0
17 156 0 0
156 17 0 0
17 159 0 0
159 17 0 0
18 14 0 0
14 18 0 0
18 15 0 0
15 18 0 0
18 16 0 0
16 18 0 0
18 17 0 0
17 18 0 0
18 31 0 0
31 18 0 0
18 36 0 0
36 18 0 0
18 143 0 0
143 18 0 0
19 2 0 0
2 19 0 0
19 13 0 0
13 19 0 0
19 15 0 0
15 19 0 0
19 18 0 0
18 19 0 0
19 24 0 0
24 19 0 0
19 47 0 0
47 19 0 0
19 82 0 0
82 19 0 0
19 87 0 0
87 19 0 0
19 102 0 0
102 19 0 0
19 118 0 0
118 19 0 0
19 157 0 0
157 19 0 0
20 12 0 0
12 20 0 0
20 16 0 0
16 20 0 0
20 17 0 0
17 20 0 0
20 53 0 0
53 20 0 0
20 80 0 0
80 20 0 0
20 128 0 0
128 20 0 0
20 145 0 0
145 20 0 0
20 148 0 0
148 20 0 0
21 22 0 0
22 21 0 0
21 23 0 0
23 21 0 0
21 24 0 0
24 21 0 0
21 25 0 0
25 21 0 0
21 29 0 0
29 21 0 0
21 59 0 0
59 21 0 0
21 63 0 0
63 21 0 0
21 76 0 0
76 21 0 0
21 81 0 0
81 21 0 0
21 82 0 0
82 21 0 0
21 93 0 0
93 21 0 0
22 5 0 0
5 22 0 0
22 13 0 0
13 22 0 0
22 18 0 0
18 22 0 0
22 24 0 0
24 22 0 0
22 29 0 0
29 22 0 0
22 31 0 0
31 22 0 0
22 34 0 0
34 22 0 0
22 48 0 0
48 22 0 0
22 61 0 0
61 22 0 0
22 70 0 0
70 22 0 0
22 76 0 0
76 22 0 0
22 78 0 0
78 22 0 0
22 86 0 0
86 22 0 0
22 114 0 0
114 22 0 0
22 116 0 0
116 22 0 0
22 129 0 0
129 22 0 0
22 140 0 0
140 22 0 0
23 22 0 0
22 23 0 0
23 27 0 0
27 23 0 0
23 28 0 0
28 23 0 0
23 30 0 0
30 23 0 0
23 32 0 0
32 23 0 0
23 86 0 0
86 23 0 0
23 93 0 0
93 23 0 0
23 140 0 0
140 23 0 0
23 143 0 0
143 23 0 0
24 10 0 0
10 24 0 0
24 22 0 0
22 24 0 0
24 23 0 0
23 24 0 0
24 26 0 0
26 24 0 0
24 29 0 0
29 24 0 0
24 30 0 0
30 24 0 0
24 33 0 0
33 24 0 0
24 34 0 0
34 24 0 0
24 38 0 0
38 24 0 0
24 40 0 0
40 24 0 0
24 62 0 0
62 24 0 0
24 100 0 0
100 24 0 0
24 103 0 0
103 24 0 0
24 113 0 0
113 24 0 0
24 157 0 0
157 24 0 0
25 9 0 0
9 25 0 0
25 21 0 0
21 25 0 0
25 22 0 0
22 25 0 0
25 27 0 0
27 25 0 0
25 28 0 0
28 25 0 0
25 30 0 0
30 25 0 0
25 41 0 0
41 25 0 0
25 86 0 0
86 25 0 0
25 101 0 0
101 25 0 0
25 105 0 0
105 25 0 0
25 141 0 0
141 25 0 0
26 5 0 0
5 26 0 0
26 20 0 0
20 26 0 0
26 21 0 0
21 26 0 0
26 22 0 0
22 26 0 0
26 23 0 0
23 26 0 0
26 24 0 0
24 26 0 0
26 25 0 0
25 26 0 0
26 27 0 0
27 26 0 0
26 28 0 0
28 26 0 0
26 29 0 0
29 26 0 0
26 37 0 0
37 26 0 0
26 62 0 0
62 26 0 0
26 66 0 0
66 26 0 0
26 150 0 0
150 26 0 0
27 4 0 0
4 27 0 0
27 5 0 0
5 27 0 0
27 21 0 0
21 27 0 0
27 57 0 0
57 27 0 0
27 68 0 0
68 27 0 0
27 100 0 0
100 27 0 0
27 108 0 0
108 27 0 0
27 117 0 0
117 27 0 0
27 152 0 0
152 27 0 0
28 1 0 0
1 28 0 0
28 7 0 0
7 28 0 0
28 27 0 0
27 28 0 0
28 30 0 0
30 28 0 0
28 32 0 0
32 28 0 0
28 37 0 0
37 28 0 0
28 52 0 0
52 28 0 0
28 56 0 0
56 28 0 0
28 75 0 0
75 28 0 0
28 86 0 0
86 28 0 0
28 136 0 0
136 28 0 0
29 7 0 0
7 29 0 0
29 21 0 0
21 29 0 0
29 24 0 0
24 29 0 0
29 25 0 0
25 29 0 0
29 27 0 0
27 29 0 0
29 39 0 0
39 29 0 0
29 91 0 0
91 29 0 0
29 96 0 0
96 29 0 0
29 100 0 0
100 29 0 0
30 5 0 0
5 30 0 0
30 6 0 0
6 30 0 0
30 22 0 0
22 30 0 0
30 26 0 0
26 30 0 0
30 29 0 0
29 30 0 0
30 49 0 0
49 30 0 0
30 57 0 0
57 30 0 0
30 60 0 0
60 30 0 0
30 123 0 0
123 30 0 0
31 7 0 0
7 31 0 0
31 20 0 0
20 31 0 0
31 24 0 0
24 31 0 0
31 32 0 0
32 31 0 0
31 37 0 0
37 31 0 0
31 39 0 0
39 31 0 0
31 42 0 0
42 31 0 0
31 44 0 0
44 31 0 0
31 62 0 0
62 31 0 0
31 79 0 0
79 31 0 0
31 86 0 0
86 31 0 0
31 98 0 0
98 31 0 0
31 100 0 0
100 31 0 0
31 123 0 0
123 31 0 0
31 137 0 0
137 31 0 0
31 139 0 0
139 31 0 0
31 140 0 0
140 31 0 0
31 146 0 0
146 31 0 0
32 33 0 0
33 32 0 0
32 37 0 0
37 32 0 0
32 55 0 0
55 32 0 0
32 70 0 0
70 32 0 0
32 115 0 0
115 32 0 0
32 121 0 0
121 32 0 0
32 134 0 0
134 32 0 0
32 147 0 0
147 32 0 0
32 148 0 0
148 32 0 0
33 31 0 0
31 33 0 0
33 35 0 0
35 33 0 0
33 38 0 0
38 33 0 0
33 39 0 0
39 33 0 0
33 44 0 0
44 33 0 0
33 54 0 0
54 33 0 0
33 59 0 0
59 33 0 0
33 91 0 0
91 33 0 0
34 10 0 0
10 34 0 0
34 27 0 0
27 34 0 0
34 31 0 0
31 34 0 0
34 32 0 0
32 34 0 0
34 36 0 0
36 34 0 0
34 37 0 0
37 34 0 0
34 38 0 0
38 34 0 0
34 39 0 0
39 34 0 0
34 40 0 0
40 34 0 0
34 48 0 0
48 34 0 0
34 83 0 0
83 34 0 0
34 91 0 0
91 34 0 0
34 124 0 0
124 34 0 0
34 136 0 0
136 34 0 0
34 145 0 0
145 34 0 0
34 158 0 0
158 34 0 0
35 13 0 0
13 35 0 0
35 37 0 0
37 35 0 0
35 57 0 0
57 35 0 0
35 61 0 0
61 35 0 0
35 70 0 0
70 35 0 0
35 90 0 0
90 35 0 0
35 108 0 0
108 35 0 0
35 136 0 0
136 35 0 0
36 10 0 0
10 36 0 0
36 13 0 0
13 36 0 0
36 31 0 0
31 36 0 0
36 48 0 0
48 36 0 0
36 64 0 0
64 36 0 0
36 68 0 0
68 36 0 0
36 79 0 0
79 36 0 0
36 98 0 0
98 36 0 0
36 110 0 0
110 36 0 0
36 131 0 0
131 36 0 0
36 153 0 0
153 36 0 0
37 8 0 0
8 37 0 0
37 23 0 0
23 37 0 0
37 24 0 0
24 37 0 0
37 35 0 0
35 37 0 0
37 36 0 0
36 37 0 0
37 66 0 0
66 37 0 0
37 68 0 0
68 37 0 0
37 100 0 0
100 37 0 0
37 107 0 0
107 37 0 0
37 134 0 0
134 37 0 0
38 9 0 0
9 38 0 0
38 17 0 0
17 38 0 0
38 32 0 0
32 38 0 0
38 40 0 0
40 38 0 0
38 46 0 0
46 38 0 0
38 54 0 0
54 38 0 0
38 55 0 0
55 38 0 0
38 69 0 0
69 38 0 0
38 89 0 0
89 38 0 0
38 127 0 0
127 38 0 0
38 144 0 0
144 38 0 0
38 146 0 0
146 38 0 0
39 25 0 0
25 39 0 0
39 34 0 0
34 39 0 0
39 59 0 0
59 39 0 0
39 74 0 0
74 39 0 0
39 84 0 0
84 39 0 0
39 88 0 0
88 39 0 0
39 100 0 0
100 39 0 0
39 114 0 0
114 39 0 0
39 122 0 0
122 39 0 0
39 124 0 0
124 39 0 0
39 147 0 0
147 39 0 0
39 155 0 0
155 39 0 0
40 16 0 0
16 40 0 0
40 26 0 0
26 40 0 0
40 29 0 0
29 40 0 0
40 31 0 0
31 40 0 0
40 32 0 0
32 40 0 0
40 35 0 0
35 40 0 0
40 36 0 0
36 40 0 0
40 37 0 0
37 40 0 0
40 64 0 0
64 40 0 0
40 70 0 0
70 40 0 0
40 77 0 0
77 40 0 0
40 105 0 0
105 40 0 0
40 129 0 0
129 40 0 0
40 145 0 0
145 40 0 0
41 2 0 0
2 41 0 0
41 31 0 0
31 41 0 0
41 45 0 0
45 41 0 0
41 54 0 0
54 41 0 0
41 63 0 0
63 41 0 0
41 78 0 0
78 41 0 0
41 93 0 0
93 41 0 0
41 108 0 0
108 41 0 0
41 111 0 0
111 41 0 0
41 141 0 0
141 41 0 0
41 142 0 0
142 41 0 0
42 1 0 0
1 42 0 0
42 29 0 0
29 42 0 0
42 34 0 0
34 42 0 0
42 41 0 0
41 42 0 0
42 77 0 0
77 42 0 0
42 84 0 0
84 42 0 0
42 102 0 0
102 42 0 0
42 116 0 0
116 42 0 0
42 154 0 0
154 42 0 0
43 16 0 0
16 43 0 0
43 44 0 0
44 43 0 0
43 48 0 0
48 43 0 0
43 50 0 0
50 43 0 0
43 75 0 0
75 43 0 0
43 108 0 0
108 43 0 0
43 134 0 0
134 43 0 0
43 135 0 0
135 43 0 0
43 160 0 0
160 43 0 0
44 12 0 0
12 44 0 0
44 17 0 0
17 44 0 0
44 45 0 0
45 44 0 0
44 49 0 0
49 44 0 0
44 63 0 0
63 44 0 0
44 78 0 0
78 44 0 0
44 91 0 0
91 44 0 0
44 98 0 0
98 44 0 0
44 136 0 0
136 44 0 0
44 144 0 0
144 44 0 0
44 148 0 0
148 44 0 0
45 41 0 0
41 45 0 0
45 43 0 0
43 45 0 0
45 46 0 0
46 45 0 0
45 49 0 0
49 45 0 0
45 75 0 0
75 45 0 0
45 93 0 0
93 45 0 0
45 118 0 0
118 45 0 0
45 137 0 0
137 45 0 0
45 156 0 0
156 45 0 0
46 16 0 0
16 46 0 0
46 24 0 0
24 46 0 0
46 31 0 0
31 46 0 0
46 32 0 0
32 46 0 0
46 35 0 0
35 46 0 0
46 45 0 0
45 46 0 0
46 47 0 0
47 46 0 0
46 56 0 0
56 46 0 0
46 69 0 0
69 46 0 0
46 102 0 0
102 46 0 0
47 16 0 0
16 47 0 0
47 18 0 0
18 47 0 0
47 41 0 0
41 47 0 0
47 42 0 0
42 47 0 0
47 46 0 0
46 47 0 0
47 49 0 0
49 47 0 0
47 51 0 0
51 47 0 0
47 78 0 0
78 47 0 0
47 87 0 0
87 47 0 0
47 127 0 0
127 47 0 0
47 145 0 0
145 47 0 0
47 146 0 0
146 47 0 0
47 158 0 0
158 47 0 0
47 160 0 0
160 47 0 0
48 13 0 0
13 48 0 0
48 42 0 0
42 48 0 0
48 44 0 0
44 48 0 0
48 81 0 0
81 48 0 0
48 103 0 0
103 48 0 0
48 108 0 0
108 48 0 0
48 150 0 0
150 48 0 0
48 152 0 0
152 48 0 0
48 156 0 0
156 48 0 0
49 16 0 0
16 49 0 0
49 18 0 0
18 49 0 0
49 42 0 0
42 49 0 0
49 43 0 0
43 49 0 0
49 45 0 0
45 49 0 0
49 46 0 0
46 49 0 0
49 50 0 0
50 49 0 0
49 80 0 0
80 49 0 0
49 86 0 0
86 49 0 0
49 91 0 0
91 49 0 0
50 9 0 0
9 50 0 0
50 11 0 0
11 50 0 0
50 41 0 0
41 50 0 0
50 43 0 0
43 50 0 0
50 44 0 0
44 50 0 0
50 46 0 0
46 50 0 0
50 47 0 0
47 50 0 0
50 49 0 0
49 50 0 0
50 56 0 0
56 50 0 0
50 91 0 0
91 50 0 0
50 99 0 0
99 50 0 0
50 130 0 0
130 50 0 0
50 147 0 0
147 50 0 0
51 55 0 0
55 51 0 0
51 69 0 0
69 51 0 0
51 71 0 0
71 51 0 0
51 78 0 0
78 51 0 0
51 83 0 0
83 51 0 0
51 123 0 0
123 51 0 0
51 134 0 0
134 51 0 0
51 144 0 0
144 51 0 0
52 1 0 0
1 52 0 0
52 47 0 0
47 52 0 0
52 51 0 0
51 52 0 0
52 54 0 0
54 52 0 0
52 55 0 0
55 52 0 0
52 73 0 0
73 52 0 0
52 77 0 0
77 52 0 0
52 92 0 0
92 52 0 0
52 97 0 0
97 52 0 0
52 110 0 0
110 52 0 0
53 10 0 0
10 53 0 0
53 14 0 0
14 53 0 0
53 52 0 0
52 53 0 0
53 56 0 0
56 53 0 0
53 59 0 0
59 53 0 0
53 98 0 0
98 53 0 0
53 118 0 0
118 53 0 0
53 119 0 0
119 53 0 0
53 126 0 0
126 53 0 0
53 127 0 0
127 53 0 0
53 129 0 0
129 53 0 0
54 1 0 0
1 54 0 0
54 2 0 0
2 54 0 0
54 19 0 0
19 54 0 0
54 48 0 0
48 54 0 0
54 53 0 0
53 54 0 0
54 64 0 0
64 54 0 0
54 83 0 0
83 54 0 0
54 115 0 0
115 54 0 0
54 137 0 0
137 54 0 0
54 143 0 0
143 54 0 0
55 37 0 0
37 55 0 0
55 53 0 0
53 55 0 0
55 60 0 0
60 55 0 0
55 84 0 0
84 55 0 0
55 93 0 0
93 55 0 0
55 98 0 0
98 55 0 0
55 105 0 0
105 55 0 0
55 120 0 0
120 55 0 0
55 135 0 0
135 55 0 0
56 5 0 0
5 56 0 0
56 31 0 0
31 56 0 0
56 55 0 0
55 56 0 0
56 57 0 0
57 56 0 0
56 58 0 0
58 56 0 0
56 59 0 0
59 56 0 0
56 135 0 0
135 56 0 0
57 26 0 0
26 57 0 0
57 32 0 0
32 57 0 0
57 51 0 0
51 57 0 0
57 54 0 0
54 57 0 0
57 59 0 0
59 57 0 0
57 60 0 0
60 57 0 0
57 87 0 0
87 57 0 0
57 94 0 0
94 57 0 0
57 133 0 0
133 57 0 0
57 156 0 0
156 57 0 0
58 37 0 0
37 58 0 0
58 50 0 0
50 58 0 0
58 51 0 0
51 58 0 0
58 54 0 0
54 58 0 0
58 63 0 0
63 58 0 0
58 68 0 0
68 58 0 0
58 73 0 0
73 58 0 0
58 79 0 0
79 58 0 0
58 82 0 0
82 58 0 0
58 85 0 0
85 58 0 0
58 92 0 0
92 58 0 0
58 94 0 0
94 58 0 0
58 116 0 0
116 58 0 0
58 121 0 0
121 58 0 0
58 149 0 0
149 58 0 0
59 3 0 0
3 59 0 0
59 12 0 0
12 59 0 0
59 18 0 0
18 59 0 0
59 19 0 0
19 59 0 0
59 54 0 0
54 59 0 0
59 57 0 0
57 59 0 0
59 60 0 0
60 59 0 0
59 93 0 0
93 59 0 0
59 95 0 0
95 59 0 0
59 100 0 0
100 59 0 0
59 107 0 0
107 59 0 0
59 122 0 0
122 59 0 0
59 154 0 0
154 59 0 0
60 7 0 0
7 60 0 0
60 10 0 0
10 60 0 0
60 25 0 0
25 60 0 0
60 32 0 0
32 60 0 0
60 50 0 0
50 60 0 0
60 52 0 0
52 60 0 0
60 57 0 0
57 60 0 0
60 58 0 0
58 60 0 0
60 72 0 0
72 60 0 0
60 75 0 0
75 60 0 0
60 85 0 0
85 60 0 0
60 90 0 0
90 60 0 0
60 124 0 0
124 60 0 0
61 53 0 0
53 61 0 0
61 57 0 0
57 61 0 0
61 59 0 0
59 61 0 0
61 68 0 0
68 61 0 0
61 69 0 0
69 61 0 0
61 93 0 0
93 61 0 0
61 107 0 0
107 61 0 0
61 125 0 0
125 61 0 0
61 143 0 0
143 61 0 0
61 144 0 0
144 61 0 0
61 147 0 0
147 61 0 0
62 9 0 0
9 62 0 0
62 34 0 0
34 62 0 0
62 38 0 0
38 62 0 0
62 60 0 0
60 62 0 0
62 66 0 0
66 62 0 0
62 68 0 0
68 62 0 0
62 75 0 0
75 62 0 0
62 94 0 0
94 62 0 0
62 105 0 0
105 62 0 0
62 106 0 0
106 62 0 0
62 137 0 0
137 62 0 0
62 147 0 0
147 62 0 0
62 160 0 0
160 62 0 0
63 11 0 0
11 63 0 0
63 12 0 0
12 63 0 0
63 29 0 0
29 63 0 0
63 39 0 0
39 63 0 0
63 45 0 0
45 63 0 0
63 47 0 0
47 63 0 0
63 51 0 0
51 63 0 0
63 65 0 0
65 63 0 0
63 69 0 0
69 63 0 0
63 72 0 0
72 63 0 0
63 73 0 0
73 63 0 0
63 74 0 0
74 63 0 0
63 98 0 0
98 63 0 0
63 105 0 0
105 63 0 0
63 109 0 0
109 63 0 0
64 18 0 0
18 64 0 0
64 19 0 0
19 64 0 0
64 43 0 0
43 64 0 0
64 49 0 0
49 64 0 0
64 61 0 0
61 64 0 0
64 62 0 0
62 64 0 0
64 65 0 0
65 64 0 0
64 66 0 0
66 64 0 0
64 68 0 0
68 64 0 0
64 80 0 0
80 64 0 0
64 135 0 0
135 64 0 0
64 148 0 0
148 64 0 0
64 149 0 0
149 64 0 0
65 15 0 0
15 65 0 0
65 62 0 0
62 65 0 0
65 64 0 0
64 65 0 0
65 70 0 0
70 65 0 0
65 110 0 0
110 65 0 0
65 116 0 0
116 65 0 0
65 123 0 0
123 65 0 0
65 132 0 0
132 65 0 0
65 148 0 0
148 65 0 0
65 155 0 0
155 65 0 0
66 62 0 0
62 66 0 0
66 65 0 0
65 66 0 0
66 69 0 0
69 66 0 0
66 70 0 0
70 66 0 0
66 97 0 0
97 66 0 0
66 109 0 0
109 66 0 0
66 112 0 0
112 66 0 0
66 113 0 0
113 66 0 0
66 117 0 0
117 66 0 0
66 119 0 0
119 66 0 0
67 3 0 0
3 67 0 0
67 10 0 0
10 67 0 0
67 37 0 0
37 67 0 0
67 43 0 0
43 67 0 0
67 55 0 0
55 67 0 0
67 62 0 0
62 67 0 0
67 86 0 0
86 67 0 0
67 96 0 0
96 67 0 0
67 97 0 0
97 67 0 0
67 110 0 0
110 67 0 0
67 119 0 0
119 67 0 0
68 4 0 0
4 68 0 0
68 16 0 0
16 68 0 0
68 32 0 0
32 68 0 0
68 65 0 0
65 68 0 0
68 66 0 0
66 68 0 0
68 67 0 0
67 68 0 0
68 70 0 0
70 68 0 0
68 77 0 0
77 68 0 0
68 121 0 0
121 68 0 0
68 130 0 0
130 68 0 0
69 12 0 0
12 69 0 0
69 63 0 0
63 69 0 0
69 65 0 0
65 69 0 0
69 67 0 0
67 69 0 0
69 70 0 0
70 69 0 0
69 104 0 0
104 69 0 0
69 109 0 0
109 69 0 0
69 123 0 0
123 69 0 0
69 128 0 0
128 69 0 0
69 137 0 0
137 69 0 0
70 1 0 0
1 70 0 0
70 9 0 0
9 70 0 0
70 16 0 0
16 70 0 0
70 19 0 0
19 70 0 0
70 32 0 0
32 70 0 0
70 37 0 0
37 70 0 0
70 49 0 0
49 70 0 0
70 56 0 0
56 70 0 0
70 61 0 0
61 70 0 0
70 64 0 0
64 70 0 0
70 66 0 0
66 70 0 0
70 67 0 0
67 70 0 0
70 68 0 0
68 70 0 0
70 81 0 0
81 70 0 0
70 92 0 0
92 70 0 0
70 138 0 0
138 70 0 0
70 153 0 0
153 70 0 0
71 13 0 0
13 71 0 0
71 50 0 0
50 71 0 0
71 55 0 0
55 71 0 0
71 57 0 0
57 71 0 0
71 74 0 0
74 71 0 0
71 76 0 0
76 71 0 0
71 87 0 0
87 71 0 0
72 3 0 0
3 72 0 0
72 14 0 0
14 72 0 0
72 24 0 0
24 72 0 0
72 73 0 0
73 72 0 0
72 79 0 0
79 72 0 0
72 87 0 0
87 72 0 0
72 118 0 0
118 72 0 0
72 138 0 0
138 72 0 0
72 143 0 0
143 72 0 0
73 78 0 0
78 73 0 0
73 79 0 0
79 73 0 0
73 114 0 0
114 73 0 0
73 122 0 0
122 73 0 0
73 158 0 0
158 73 0 0
73 159 0 0
159 73 0 0
74 24 0 0
24 74 0 0
74 31 0 0
31 74 0 0
74 50 0 0
50 74 0 0
74 57 0 0
57 74 0 0
74 62 0 0
62 74 0 0
74 65 0 0
65 74 0 0
74 67 0 0
67 74 0 0
74 76 0 0
76 74 0 0
74 79 0 0
79 74 0 0
74 80 0 0
80 74 0 0
74 88 0 0
88 74 0 0
74 121 0 0
121 74 0 0
75 29 0 0
29 75 0 0
75 34 0 0
34 75 0 0
75 77 0 0
77 75 0 0
75 81 0 0
81 75 0 0
75 108 0 0
108 75 0 0
75 110 0 0
110 75 0 0
75 139 0 0
139 75 0 0
76 7 0 0
7 76 0 0
76 17 0 0
17 76 0 0
76 23 0 0
23 76 0 0
76 64 0 0
64 76 0 0
76 71 0 0
71 76 0 0
76 74 0 0
74 76 0 0
76 80 0 0
80 76 0 0
76 108 0 0
108 76 0 0
76 109 0 0
109 76 0 0
76 110 0 0
110 76 0 0
76 122 0 0
122 76 0 0
76 131 0 0
131 76 0 0
76 143 0 0
143 76 0 0
76 152 0 0
152 76 0 0
76 155 0 0
155 76 0 0
77 1 0 0
1 77 0 0
77 16 0 0
16 77 0 0
77 40 0 0
40 77 0 0
77 67 0 0
67 77 0 0
77 69 0 0
69 77 0 0
77 79 0 0
79 77 0 0
77 93 0 0
93 77 0 0
77 111 0 0
111 77 0 0
77 158 0 0
158 77 0 0
78 20 0 0
20 78 0 0
78 42 0 0
42 78 0 0
78 43 0 0
43 78 0 0
78 72 0 0
72 78 0 0
78 73 0 0
73 78 0 0
78 75 0 0
75 78 0 0
78 76 0 0
76 78 0 0
78 77 0 0
77 78 0 0
78 133 0 0
133 78 0 0
78 138 0 0
138 78 0 0
79 25 0 0
25 79 0 0
79 28 0 0
28 79 0 0
79 72 0 0
72 79 0 0
79 73 0 0
73 79 0 0
79 77 0 0
77 79 0 0
79 78 0 0
78 79 0 0
79 81 0 0
81 79 0 0
79 137 0 0
137 79 0 0
80 4 0 0
4 80 0 0
80 23 0 0
23 80 0 0
80 31 0 0
31 80 0 0
80 35 0 0
35 80 0 0
80 68 0 0
68 80 0 0
80 74 0 0
74 80 0 0
80 79 0 0
79 80 0 0
80 98 0 0
98 80 0 0
80 111 0 0
111 80 0 0
80 118 0 0
118 80 0 0
80 128 0 0
128 80 0 0
80 130 0 0
130 80 0 0
81 17 0 0
17 81 0 0
81 58 0 0
58 81 0 0
81 59 0 0
59 81 0 0
82 13 0 0
13 82 0 0
82 86 0 0
86 82 0 0
82 87 0 0
87 82 0 0
82 131 0 0
131 82 0 0
82 141 0 0
141 82 0 0
82 150 0 0
150 82 0 0
82 151 0 0
151 82 0 0
83 20 0 0
20 83 0 0
83 30 0 0
30 83 0 0
83 73 0 0
73 83 0 0
83 84 0 0
84 83 0 0
83 88 0 0
88 83 0 0
83 118 0 0
118 83 0 0
84 2 0 0
2 84 0 0
84 23 0 0
23 84 0 0
84 29 0 0
29 84 0 0
84 32 0 0
32 84 0 0
84 38 0 0
38 84 0 0
84 48 0 0
48 84 0 0
84 52 0 0
52 84 0 0
84 89 0 0
89 84 0 0
84 98 0 0
98 84 0 0
84 106 0 0
106 84 0 0
84 114 0 0
114 84 0 0
84 116 0 0
116 84 0 0
84 120 0 0
120 84 0 0
84 121 0 0
121 84 0 0
84 134 0 0
134 84 0 0
84 143 0 0
143 84 0 0
84 152 0 0
152 84 0 0
85 29 0 0
29 85 0 0
85 40 0 0
40 85 0 0
85 44 0 0
44 85 0 0
85 86 0 0
86 85 0 0
85 89 0 0
89 85 0 0
85 90 0 0
90 85 0 0
85 105 0 0
105 85 0 0
85 108 0 0
108 85 0 0
85 116 0 0
116 85 0 0
85 146 0 0
146 85 0 0
85 160 0 0
160 85 0 0
86 79 0 0
79 86 0 0
86 82 0 0
82 86 0 0
86 84 0 0
84 86 0 0
86 87 0 0
87 86 0 0
86 89 0 0
89 86 0 0
86 90 0 0
90 86 0 0
86 110 0 0
110 86 0 0
86 144 0 0
144 86 0 0
87 13 0 0
13 87 0 0
87 20 0 0
20 87 0 0
87 44 0 0
44 87 0 0
87 77 0 0
77 87 0 0
87 82 0 0
82 87 0 0
87 84 0 0
84 87 0 0
87 88 0 0
88 87 0 0
87 89 0 0
89 87 0 0
87 90 0 0
90 87 0 0
87 97 0 0
97 87 0 0
88 104 0 0
104 88 0 0
88 118 0 0
118 88 0 0
88 121 0 0
121 88 0 0
88 122 0 0
122 88 0 0
88 149 0 0
149 88 0 0
89 11 0 0
11 89 0 0
89 32 0 0
32 89 0 0
89 34 0 0
34 89 0 0
89 40 0 0
40 89 0 0
89 48 0 0
48 89 0 0
89 64 0 0
64 89 0 0
89 84 0 0
84 89 0 0
89 97 0 0
97 89 0 0
89 107 0 0
107 89 0 0
89 123 0 0
123 89 0 0
90 2 0 0
2 90 0 0
90 36 0 0
36 90 0 0
90 41 0 0
41 90 0 0
90 63 0 0
63 90 0 0
90 71 0 0
71 90 0 0
90 81 0 0
81 90 0 0
90 85 0 0
85 90 0 0
90 87 0 0
87 90 0 0
90 89 0 0
89 90 0 0
91 15 0 0
15 91 0 0
91 20 0 0
20 91 0 0
91 44 0 0
44 91 0 0
91 50 0 0
50 91 0 0
91 61 0 0
61 91 0 0
91 92 0 0
92 91 0 0
91 93 0 0
93 91 0 0
91 94 0 0
94 91 0 0
91 98 0 0
98 91 0 0
91 105 0 0
105 91 0 0
91 106 0 0
106 91 0 0
91 113 0 0
113 91 0 0
91 126 0 0
126 91 0 0
91 131 0 0
131 91 0 0
91 150 0 0
150 91 0 0
91 151 0 0
151 91 0 0
91 157 0 0
157 91 0 0
92 25 0 0
25 92 0 0
92 33 0 0
33 92 0 0
92 42 0 0
42 92 0 0
92 57 0 0
57 92 0 0
92 93 0 0
93 92 0 0
92 96 0 0
96 92 0 0
92 99 0 0
99 92 0 0
92 105 0 0
105 92 0 0
92 107 0 0
107 92 0 0
92 125 0 0
125 92 0 0
92 134 0 0
134 92 0 0
92 140 0 0
140 92 0 0
93 3 0 0
3 93 0 0
93 30 0 0
30 93 0 0
93 37 0 0
37 93 0 0
93 42 0 0
42 93 0 0
93 45 0 0
45 93 0 0
93 96 0 0
96 93 0 0
93 98 0 0
98 93 0 0
93 141 0 0
141 93 0 0
93 154 0 0
154 93 0 0
94 4 0 0
4 94 0 0
94 70 0 0
70 94 0 0
94 73 0 0
73 94 0 0
94 91 0 0
91 94 0 0
94 97 0 0
97 94 0 0
94 107 0 0
107 94 0 0
94 108 0 0
108 94 0 0
94 133 0 0
133 94 0 0
94 146 0 0
146 94 0 0
95 33 0 0
33 95 0 0
95 34 0 0
34 95 0 0
95 37 0 0
37 95 0 0
95 92 0 0
92 95 0 0
95 93 0 0
93 95 0 0
95 122 0 0
122 95 0 0
95 152 0 0
152 95 0 0
96 6 0 0
6 96 0 0
96 18 0 0
18 96 0 0
96 24 0 0
24 96 0 0
96 26 0 0
26 96 0 0
96 34 0 0
34 96 0 0
96 38 0 0
38 96 0 0
96 75 0 0
75 96 0 0
96 94 0 0
94 96 0 0
96 97 0 0
97 96 0 0
96 136 0 0
136 96 0 0
96 156 0 0
156 96 0 0
97 9 0 0
9 97 0 0
97 14 0 0
14 97 0 0
97 41 0 0
41 97 0 0
97 57 0 0
57 97 0 0
97 70 0 0
70 97 0 0
97 92 0 0
92 97 0 0
97 98 0 0
98 97 0 0
97 100 0 0
100 97 0 0
98 21 0 0
21 98 0 0
98 48 0 0
48 98 0 0
98 65 0 0
65 98 0 0
98 79 0 0
79 98 0 0
98 91 0 0
91 98 0 0
98 94 0 0
94 98 0 0
98 100 0 0
100 98 0 0
98 106 0 0
106 98 0 0
98 114 0 0
114 98 0 0
98 115 0 0
115 98 0 0
98 145 0 0
145 98 0 0
98 155 0 0
155 98 0 0
98 159 0 0
159 98 0 0
99 1 0 0
1 99 0 0
99 3 0 0
3 99 0 0
99 16 0 0
16 99 0 0
99 34 0 0
34 99 0 0
99 64 0 0
64 99 0 0
99 91 0 0
91 99 0 0
99 93 0 0
93 99 0 0
99 95 0 0
95 99 0 0
99 96 0 0
96 99 0 0
99 98 0 0
98 99 0 0
99 105 0 0
105 99 0 0
99 111 0 0
111 99 0 0
99 135 0 0
135 99 0 0
99 153 0 0
153 99 0 0
100 36 0 0
36 100 0 0
100 62 0 0
62 100 0 0
100 86 0 0
86 100 0 0
100 96 0 0
96 100 0 0
100 140 0 0
140 100 0 0
100 149 0 0
149 100 0 0
101 42 0 0
42 101 0 0
101 44 0 0
44 101 0 0
101 64 0 0
64 101 0 0
101 77 0 0
77 101 0 0
101 79 0 0
79 101 0 0
101 85 0 0
85 101 0 0
101 104 0 0
104 101 0 0
101 107 0 0
107 101 0 0
101 109 0 0
109 101 0 0
101 114 0 0
114 101 0 0
102 4 0 0
4 102 0 0
102 5 0 0
5 102 0 0
102 17 0 0
17 102 0 0
102 55 0 0
55 102 0 0
102 77 0 0
77 102 0 0
102 81 0 0
81 102 0 0
102 86 0 0
86 102 0 0
102 106 0 0
106 102 0 0
102 110 0 0
110 102 0 0
102 117 0 0
117 102 0 0
102 122 0 0
122 102 0 0
102 144 0 0
144 102 0 0
102 148 0 0
148 102 0 0
103 1 0 0
1 103 0 0
103 6 0 0
6 103 0 0
103 14 0 0
14 103 0 0
103 28 0 0
28 103 0 0
103 106 0 0
106 103 0 0
103 108 0 0
108 103 0 0
103 114 0 0
114 103 0 0
103 117 0 0
117 103 0 0
103 137 0 0
137 103 0 0
103 142 0 0
142 103 0 0
103 149 0 0
149 103 0 0
104 4 0 0
4 104 0 0
104 52 0 0
52 104 0 0
104 60 0 0
60 104 0 0
104 63 0 0
63 104 0 0
104 70 0 0
70 104 0 0
104 72 0 0
72 104 0 0
104 91 0 0
91 104 0 0
104 105 0 0
105 104 0 0
104 155 0 0
155 104 0 0
105 1 0 0
1 105 0 0
105 2 0 0
2 105 0 0
105 6 0 0
6 105 0 0
105 41 0 0
41 105 0 0
105 56 0 0
56 105 0 0
105 92 0 0
92 105 0 0
105 107 0 0
107 105 0 0
106 58 0 0
58 106 0 0
106 82 0 0
82 106 0 0
106 100 0 0
100 106 0 0
106 102 0 0
102 106 0 0
106 105 0 0
105 106 0 0
106 107 0 0
107 106 0 0
106 109 0 0
109 106 0 0
106 159 0 0
159 106 0 0
107 36 0 0
36 107 0 0
107 65 0 0
65 107 0 0
107 84 0 0
84 107 0 0
107 101 0 0
101 107 0 0
107 108 0 0
108 107 0 0
107 110 0 0
110 107 0 0
107 129 0 0
129 107 0 0
107 143 0 0
143 107 0 0
108 10 0 0
10 108 0 0
108 18 0 0
18 108 0 0
108 62 0 0
62 108 0 0
108 104 0 0
104 108 0 0
108 111 0 0
111 108 0 0
108 123 0 0
123 108 0 0
108 132 0 0
132 108 0 0
108 143 0 0
143 108 0 0
108 158 0 0
158 108 0 0
109 35 0 0
35 109 0 0
109 48 0 0
48 109 0 0
109 79 0 0
79 109 0 0
109 118 0 0
118 109 0 0
109 146 0 0
146 109 0 0
110 19 0 0
19 110 0 0
110 54 0 0
54 110 0 0
110 57 0 0
57 110 0 0
110 66 0 0
66 110 0 0
110 72 0 0
72 110 0 0
110 82 0 0
82 110 0 0
110 89 0 0
89 110 0 0
110 96 0 0
96 110 0 0
110 104 0 0
104 110 0 0
110 106 0 0
106 110 0 0
110 109 0 0
109 110 0 0
110 138 0 0
138 110 0 0
110 160 0 0
160 110 0 0
111 8 0 0
8 111 0 0
111 11 0 0
11 111 0 0
111 14 0 0
14 111 0 0
111 17 0 0
17 111 0 0
111 20 0 0
20 111 0 0
111 30 0 0
30 111 0 0
111 36 0 0
36 111 0 0
111 46 0 0
46 111 0 0
111 50 0 0
50 111 0 0
111 66 0 0
66 111 0 0
111 74 0 0
74 111 0 0
111 91 0 0
91 111 0 0
111 115 0 0
115 111 0 0
111 142 0 0
142 111 0 0
112 12 0 0
12 112 0 0
112 16 0 0
16 112 0 0
112 20 0 0
20 112 0 0
112 40 0 0
40 112 0 0
112 42 0 0
42 112 0 0
112 47 0 0
47 112 0 0
112 93 0 0
93 112 0 0
112 115 0 0
115 112 0 0
112 131 0 0
131 112 0 0
112 132 0 0
132 112 0 0
113 17 0 0
17 113 0 0
113 44 0 0
44 113 0 0
113 48 0 0
48 113 0 0
113 58 0 0
58 113 0 0
113 64 0 0
64 113 0 0
113 76 0 0
76 113 0 0
113 87 0 0
87 113 0 0
113 111 0 0
111 113 0 0
113 112 0 0
112 113 0 0
113 115 0 0
115 113 0 0
113 118 0 0
118 113 0 0
114 40 0 0
40 114 0 0
114 44 0 0
44 114 0 0
114 54 0 0
54 114 0 0
114 89 0 0
89 114 0 0
114 115 0 0
115 114 0 0
114 119 0 0
119 114 0 0
114 122 0 0
122 114 0 0
114 123 0 0
123 114 0 0
114 124 0 0
124 114 0 0
114 134 0 0
134 114 0 0
114 148 0 0
148 114 0 0
115 25 0 0
25 115 0 0
115 38 0 0
38 115 0 0
116 6 0 0
6 116 0 0
116 9 0 0
9 116 0 0
116 22 0 0
22 116 0 0
116 31 0 0
31 116 0 0
116 70 0 0
70 116 0 0
116 112 0 0
112 116 0 0
116 113 0 0
113 116 0 0
116 114 0 0
114 116 0 0
116 118 0 0
118 116 0 0
116 153 0 0
153 116 0 0
117 26 0 0
26 117 0 0
117 42 0 0
42 117 0 0
117 51 0 0
51 117 0 0
117 70 0 0
70 117 0 0
117 71 0 0
71 117 0 0
117 82 0 0
82 117 0 0
117 97 0 0
97 117 0 0
117 111 0 0
111 117 0 0
117 112 0 0
112 117 0 0
117 114 0 0
114 117 0 0
117 134 0 0
134 117 0 0
117 152 0 0
152 117 0 0
118 8 0 0
8 118 0 0
118 55 0 0
55 118 0 0
118 60 0 0
60 118 0 0
118 74 0 0
74 118 0 0
118 80 0 0
80 118 0 0
118 86 0 0
86 118 0 0
118 112 0 0
112 118 0 0
118 114 0 0
114 118 0 0
118 116 0 0
116 118 0 0
118 117 0 0
117 118 0 0
118 154 0 0
154 118 0 0
119 27 0 0
27 119 0 0
119 28 0 0
28 119 0 0
119 46 0 0
46 119 0 0
119 67 0 0
67 119 0 0
119 77 0 0
77 119 0 0
119 80 0 0
80 119 0 0
119 82 0 0
82 119 0 0
119 95 0 0
95 119 0 0
119 100 0 0
100 119 0 0
119 111 0 0
111 119 0 0
119 114 0 0
114 119 0 0
119 118 0 0
118 119 0 0
119 147 0 0
147 119 0 0
119 149 0 0
149 119 0 0
120 37 0 0
37 120 0 0
120 86 0 0
86 120 0 0
120 112 0 0
112 120 0 0
120 113 0 0
113 120 0 0
120 117 0 0
117 120 0 0
120 118 0 0
118 120 0 0
120 144 0 0
144 120 0 0
120 150 0 0
150 120 0 0
121 12 0 0
12 121 0 0
121 49 0 0
49 121 0 0
121 93 0 0
93 121 0 0
121 110 0 0
110 121 0 0
121 123 0 0
123 121 0 0
121 131 0 0
131 121 0 0
121 136 0 0
136 121 0 0
122 61 0 0
61 122 0 0
122 87 0 0
87 122 0 0
122 125 0 0
125 122 0 0
122 132 0 0
132 122 0 0
122 150 0 0
150 122 0 0
123 13 0 0
13 123 0 0
123 60 0 0
60 123 0 0
123 77 0 0
77 123 0 0
123 92 0 0
92 123 0 0
123 113 0 0
113 123 0 0
123 151 0 0
151 123 0 0
124 20 0 0
20 124 0 0
124 23 0 0
23 124 0 0
124 55 0 0
55 124 0 0
124 67 0 0
67 124 0 0
124 95 0 0
95 124 0 0
124 101 0 0
101 124 0 0
124 111 0 0
111 124 0 0
124 121 0 0
121 124 0 0
124 127 0 0
127 124 0 0
124 129 0 0
129 124 0 0
124 130 0 0
130 124 0 0
125 12 0 0
12 125 0 0
125 27 0 0
27 125 0 0
125 31 0 0
31 125 0 0
125 34 0 0
34 125 0 0
125 93 0 0
93 125 0 0
125 123 0 0
123 125 0 0
125 126 0 0
126 125 0 0
125 127 0 0
127 125 0 0
125 128 0 0
128 125 0 0
125 137 0 0
137 125 0 0
125 138 0 0
138 125 0 0
126 63 0 0
63 126 0 0
126 70 0 0
70 126 0 0
126 115 0 0
115 126 0 0
126 123 0 0
123 126 0 0
126 124 0 0
124 126 0 0
127 2 0 0
2 127 0 0
127 12 0 0
12 127 0 0
127 15 0 0
15 127 0 0
127 19 0 0
19 127 0 0
127 21 0 0
21 127 0 0
127 48 0 0
48 127 0 0
127 49 0 0
49 127 0 0
127 50 0 0
50 127 0 0
127 79 0 0
79 127 0 0
127 102 0 0
102 127 0 0
127 119 0 0
119 127 0 0
127 123 0 0
123 127 0 0
127 129 0 0
129 127 0 0
127 144 0 0
144 127 0 0
128 41 0 0
41 128 0 0
128 55 0 0
55 128 0 0
128 77 0 0
77 128 0 0
128 97 0 0
97 128 0 0
128 122 0 0
122 128 0 0
128 125 0 0
125 128 0 0
128 126 0 0
126 128 0 0
128 131 0 0
131 128 0 0
128 133 0 0
133 128 0 0
128 144 0 0
144 128 0 0
128 149 0 0
149 128 0 0
129 38 0 0
38 129 0 0
129 57 0 0
57 129 0 0
129 67 0 0
67 129 0 0
129 79 0 0
79 129 0 0
129 94 0 0
94 129 0 0
129 126 0 0
126 129 0 0
129 127 0 0
127 129 0 0
129 128 0 0
128 129 0 0
129 130 0 0
130 129 0 0
129 151 0 0
151 129 0 0
130 28 0 0
28 130 0 0
130 122 0 0
122 130 0 0
130 124 0 0
124 130 0 0
130 126 0 0
126 130 0 0
130 127 0 0
127 130 0 0
131 15 0 0
15 131 0 0
131 42 0 0
42 131 0 0
131 88 0 0
88 131 0 0
131 96 0 0
96 131 0 0
131 117 0 0
117 131 0 0
131 127 0 0
127 131 0 0
131 155 0 0
155 131 0 0
132 5 0 0
5 132 0 0
132 8 0 0
8 132 0 0
132 28 0 0
28 132 0 0
132 53 0 0
53 132 0 0
132 108 0 0
108 132 0 0
132 126 0 0
126 132 0 0
133 9 0 0
9 133 0 0
133 19 0 0
19 133 0 0
133 68 0 0
68 133 0 0
133 99 0 0
99 133 0 0
133 123 0 0
123 133 0 0
133 134 0 0
134 133 0 0
133 137 0 0
137 133 0 0
133 139 0 0
139 133 0 0
133 146 0 0
146 133 0 0
134 6 0 0
6 134 0 0
134 31 0 0
31 134 0 0
134 61 0 0
61 134 0 0
134 78 0 0
78 134 0 0
134 112 0 0
112 134 0 0
134 114 0 0
114 134 0 0
134 125 0 0
125 134 0 0
134 130 0 0
130 134 0 0
134 136 0 0
136 134 0 0
134 138 0 0
138 134 0 0
135 27 0 0
27 135 0 0
135 33 0 0
33 135 0 0
135 50 0 0
50 135 0 0
135 71 0 0
71 135 0 0
135 96 0 0
96 135 0 0
135 107 0 0
107 135 0 0
135 125 0 0
125 135 0 0
135 133 0 0
133 135 0 0
135 134 0 0
134 135 0 0
135 137 0 0
137 135 0 0
135 140 0 0
140 135 0 0
136 15 0 0
15 136 0 0
136 53 0 0
53 136 0 0
136 57 0 0
57 136 0 0
136 58 0 0
58 136 0 0
136 59 0 0
59 136 0 0
136 97 0 0
97 136 0 0
136 114 0 0
114 136 0 0
136 115 0 0
115 136 0 0
136 116 0 0
116 136 0 0
136 132 0 0
132 136 0 0
136 134 0 0
134 136 0 0
136 158 0 0
158 136 0 0
137 15 0 0
15 137 0 0
137 26 0 0
26 137 0 0
137 57 0 0
57 137 0 0
137 67 0 0
67 137 0 0
137 70 0 0
70 137 0 0
137 125 0 0
125 137 0 0
137 126 0 0
126 137 0 0
137 132 0 0
132 137 0 0
137 138 0 0
138 137 0 0
137 139 0 0
139 137 0 0
138 20 0 0
20 138 0 0
138 27 0 0
27 138 0 0
138 69 0 0
69 138 0 0
138 73 0 0
73 138 0 0
138 96 0 0
96 138 0 0
138 99 0 0
99 138 0 0
138 102 0 0
102 138 0 0
138 107 0 0
107 138 0 0
138 117 0 0
117 138 0 0
138 137 0 0
137 138 0 0
138 139 0 0
139 138 0 0
138 154 0 0
154 138 0 0
139 20 0 0
20 139 0 0
139 27 0 0
27 139 0 0
139 51 0 0
51 139 0 0
139 61 0 0
61 139 0 0
139 72 0 0
72 139 0 0
139 91 0 0
91 139 0 0
139 94 0 0
94 139 0 0
139 99 0 0
99 139 0 0
139 106 0 0
106 139 0 0
139 118 0 0
118 139 0 0
139 132 0 0
132 139 0 0
139 133 0 0
133 139 0 0
139 134 0 0
134 139 0 0
139 135 0 0
135 139 0 0
139 140 0 0
140 139 0 0
140 10 0 0
10 140 0 0
140 35 0 0
35 140 0 0
140 36 0 0
36 140 0 0
140 57 0 0
57 140 0 0
140 64 0 0
64 140 0 0
140 99 0 0
99 140 0 0
140 102 0 0
102 140 0 0
140 133 0 0
133 140 0 0
140 135 0 0
135 140 0 0
140 136 0 0
136 140 0 0
141 4 0 0
4 141 0 0
141 29 0 0
29 141 0 0
141 48 0 0
48 141 0 0
141 92 0 0
92 141 0 0
141 94 0 0
94 141 0 0
141 103 0 0
103 141 0 0
141 127 0 0
127 141 0 0
141 131 0 0
131 141 0 0
141 143 0 0
143 141 0 0
141 144 0 0
144 141 0 0
141 146 0 0
146 141 0 0
141 149 0 0
149 141 0 0
141 156 0 0
156 141 0 0
142 2 0 0
2 142 0 0
142 27 0 0
27 142 0 0
142 62 0 0
62 142 0 0
142 64 0 0
64 142 0 0
142 65 0 0
65 142 0 0
142 68 0 0
68 142 0 0
142 82 0 0
82 142 0 0
142 101 0 0
101 142 0 0
142 116 0 0
116 142 0 0
142 146 0 0
146 142 0 0
143 40 0 0
40 143 0 0
143 49 0 0
49 143 0 0
143 64 0 0
64 143 0 0
143 128 0 0
128 143 0 0
143 130 0 0
130 143 0 0
143 148 0 0
148 143 0 0
143 149 0 0
149 143 0 0
143 157 0 0
157 143 0 0
144 6 0 0
6 144 0 0
144 52 0 0
52 144 0 0
144 58 0 0
58 144 0 0
144 93 0 0
93 144 0 0
144 100 0 0
100 144 0 0
144 141 0 0
141 144 0 0
144 148 0 0
148 144 0 0
144 150 0 0
150 144 0 0
144 157 0 0
157 144 0 0
144 158 0 0
158 144 0 0
145 4 0 0
4 145 0 0
145 37 0 0
37 145 0 0
145 59 0 0
59 145 0 0
145 68 0 0
68 145 0 0
145 77 0 0
77 145 0 0
145 98 0 0
98 145 0 0
145 126 0 0
126 145 0 0
145 129 0 0
129 145 0 0
145 152 0 0
152 145 0 0
146 28 0 0
28 146 0 0
146 40 0 0
40 146 0 0
146 54 0 0
54 146 0 0
146 98 0 0
98 146 0 0
146 107 0 0
107 146 0 0
146 115 0 0
115 146 0 0
146 149 0 0
149 146 0 0
147 5 0 0
5 147 0 0
147 24 0 0
24 147 0 0
147 28 0 0
28 147 0 0
147 31 0 0
31 147 0 0
147 63 0 0
63 147 0 0
147 64 0 0
64 147 0 0
147 68 0 0
68 147 0 0
147 129 0 0
129 147 0 0
147 132 0 0
132 147 0 0
147 142 0 0
142 147 0 0
147 146 0 0
146 147 0 0
147 148 0 0
148 147 0 0
147 160 0 0
160 147 0 0
148 24 0 0
24 148 0 0
148 50 0 0
50 148 0 0
148 53 0 0
53 148 0 0
148 56 0 0
56 148 0 0
148 61 0 0
61 148 0 0
148 64 0 0
64 148 0 0
148 68 0 0
68 148 0 0
148 73 0 0
73 148 0 0
148 111 0 0
111 148 0 0
148 145 0 0
145 148 0 0
148 149 0 0
149 148 0 0
148 150 0 0
150 148 0 0
149 8 0 0
8 149 0 0
149 12 0 0
12 149 0 0
149 49 0 0
49 149 0 0
149 52 0 0
52 149 0 0
149 68 0 0
68 149 0 0
149 82 0 0
82 149 0 0
149 84 0 0
84 149 0 0
149 130 0 0
130 149 0 0
149 144 0 0
144 149 0 0
150 5 0 0
5 150 0 0
150 7 0 0
7 150 0 0
150 9 0 0
9 150 0 0
150 79 0 0
79 150 0 0
150 102 0 0
102 150 0 0
150 103 0 0
103 150 0 0
150 110 0 0
110 150 0 0
151 26 0 0
26 151 0 0
151 31 0 0
31 151 0 0
151 33 0 0
33 151 0 0
151 47 0 0
47 151 0 0
151 65 0 0
65 151 0 0
151 86 0 0
86 151 0 0
151 97 0 0
97 151 0 0
151 114 0 0
114 151 0 0
151 155 0 0
155 151 0 0
152 21 0 0
21 152 0 0
152 35 0 0
35 152 0 0
152 86 0 0
86 152 0 0
152 92 0 0
92 152 0 0
152 107 0 0
107 152 0 0
152 108 0 0
108 152 0 0
152 115 0 0
115 152 0 0
152 148 0 0
148 152 0 0
152 159 0 0
159 152 0 0
152 160 0 0
160 152 0 0
153 54 0 0
54 153 0 0
153 72 0 0
72 153 0 0
153 87 0 0
87 153 0 0
153 130 0 0
130 153 0 0
153 132 0 0
132 153 0 0
153 133 0 0
133 153 0 0
153 152 0 0
152 153 0 0
153 156 0 0
156 153 0 0
153 158 0 0
158 153 0 0
153 160 0 0
160 153 0 0
154 14 0 0
14 154 0 0
154 97 0 0
97 154 0 0
154 109 0 0
109 154 0 0
154 113 0 0
113 154 0 0
154 123 0 0
123 154 0 0
154 145 0 0
145 154 0 0
154 151 0 0
151 154 0 0
154 159 0 0
159 154 0 0
155 7 0 0
7 155 0 0
155 28 0 0
28 155 0 0
155 49 0 0
49 155 0 0
155 56 0 0
56 155 0 0
155 74 0 0
74 155 0 0
155 75 0 0
75 155 0 0
155 76 0 0
76 155 0 0
155 81 0 0
81 155 0 0
155 89 0 0
89 155 0 0
155 102 0 0
102 155 0 0
155 153 0 0
153 155 0 0
155 159 0 0
159 155 0 0
156 11 0 0
11 156 0 0
156 26 0 0
26 156 0 0
156 106 0 0
106 156 0 0
156 124 0 0
124 156 0 0
156 137 0 0
137 156 0 0
156 159 0 0
159 156 0 0
156 160 0 0
160 156 0 0
157 22 0 0
22 157 0 0
157 40 0 0
40 157 0 0
157 56 0 0
56 157 0 0
157 61 0 0
61 157 0 0
157 67 0 0
67 157 0 0
157 80 0 0
80 157 0 0
157 87 0 0
87 157 0 0
157 91 0 0
91 157 0 0
157 93 0 0
93 157 0 0
157 100 0 0
100 157 0 0
157 130 0 0
130 157 0 0
157 148 0 0
148 157 0 0
157 151 0 0
151 157 0 0
157 154 0 0
154 157 0 0
157 155 0 0
155 157 0 0
157 159 0 0
159 157 0 0
158 11 0 0
11 158 0 0
158 51 0 0
51 158 0 0
158 62 0 0
62 158 0 0
158 70 0 0
70 158 0 0
158 76 0 0
76 158 0 0
158 78 0 0
78 158 0 0
158 104 0 0
104 158 0 0
158 141 0 0
141 158 0 0
158 142 0 0
142 158 0 0
158 152 0 0
152 158 0 0
158 155 0 0
155 158 0 0
158 157 0 0
157 158 0 0
158 160 0 0
160 158 0 0
159 4 0 0
4 159 0 0
159 5 0 0
5 159 0 0
159 31 0 0
31 159 0 0
159 53 0 0
53 159 0 0
159 55 0 0
55 159 0 0
159 62 0 0
62 159 0 0
159 107 0 0
107 159 0 0
159 134 0 0
134 159 0 0
159 137 0 0
137 159 0 0
159 155 0 0
155 159 0 0
160 1 0 0
1 160 0 0
160 14 0 0
14 160 0 0
160 16 0 0
16 160 0 0
160 18 0 0
18 160 0 0
160 34 0 0
34 160 0 0
160 53 0 0
53 160 0 0
160 68 0 0
68 160 0 0
160 71 0 0
71 160 0 0
160 89 0 0
89 160 0 0
160 118 0 0
118 160 0 0
160 121 0 0
121 160 0 0
160 154 0 0
154 160 0 0
160 156 0 0
156 160 0 0
