----------------------------------------
Begin PBS Prologue Thu Aug 31 16:49:40 PDT 2017
Job ID:            24132694.hpc-pbs1.hpcc.usc.edu
Username:          amulyaya
Accountname:       default
Group:             csci-ar
Project:           default
Name:              0.pbs
Queue:             tambe
Shared Access:     no
All Cores:         no
Has MIC:           no
Is hsda:           false
Nodes:             hpc3443 
TMPDIR:            /tmp/24132694.hpc-pbs1.hpcc.usc.edu
End PBS Prologue Thu Aug 31 16:49:41 PDT 2017
----------------------------------------
******************************************************************************
METIS 5.0 Copyright 1998-13, Regents of the University of Minnesota
 (HEAD: , Built on: Oct 20 2015, 01:33:37)
 size of idx_t: 64bits, real_t: 32bits, idx_t *: 64bits

Graph Information -----------------------------------------------------------
 Name: /home/rcf-proj/mj1/amulyaya/pomcp-ve/src/BBRsLdh36y.txt, #Vertices: 40, #Edges: 111, #Parts: 4

Options ---------------------------------------------------------------------
 ptype=kway, objtype=cut, ctype=shem, rtype=greedy, iptype=metisrb
 dbglvl=0, ufactor=1.030, no2hop=NO, minconn=NO, contig=NO, nooutput=NO
 seed=-1, niter=10, ncuts=1

Direct k-way Partitioning ---------------------------------------------------
 - Edgecut: 50, communication volume: 66.

 - Balance:
     constraint #0:  1.000 out of 0.100

 - Most overweight partition:
     pid: 0, actual: 10, desired: 10, ratio: 1.00.

 - Subdomain connectivity: max: 3, min: 3, avg: 3.00

 - Each partition is contiguous.

Timing Information ----------------------------------------------------------
  I/O:          		   0.001 sec
  Partitioning: 		   0.003 sec   (METIS time)
  Reporting:    		  -0.000 sec

Memory Information ----------------------------------------------------------
  Max memory used:		   0.066 MB
******************************************************************************
Initialising fast UCB table... done
Main runs
Starting run 1 with 1024 simulations... 

Presence: 1111111111111101010111111111100111111011
Invited Nodes: 
Actions left: 3
Session index: 1
About to find best action in Step: 0
Values: 3.478(endSession) 6.29128(query) 7.36985(invite)
Foind best action in Step: 0
Coolie

Action Type: 1
Active Nodes: 2 4 

Presence: 1111111111111101010111111111100111111011
Invited Nodes: 2 4 
Actions left: 2
Session index: 1

Observation: ..11
Reward -0
About to find best action in Step: 1
Foind best action in Step: 1
Coolie

Action Type: 2

Presence: 0100111111111111110111111111101001011011
Invited Nodes: 2 4 
Actions left: 3
Session index: 2

Observation: ..
Reward 0
About to find best action in Step: 2
Foind best action in Step: 2
Coolie

Action Type: 2

Presence: 0000000010010000110010011010011010000001
Invited Nodes: 2 4 
Actions left: 3
Session index: 3

Observation: ..
Reward 0
About to find best action in Step: 3
Foind best action in Step: 3
Coolie

Action Type: 2

Presence: 0101000001010001111100000011001000010011
Invited Nodes: 2 4 
Actions left: 3
Session index: 4

Observation: ..
Reward 0
About to find best action in Step: 4
Foind best action in Step: 4
Coolie

Action Type: 2

Presence: 1111111111111101111111111111101111101111
Invited Nodes: 2 4 
Actions left: 3
Session index: 5

Observation: ..
Reward 0
About to find best action in Step: 5
Foind best action in Step: 5
Coolie

Action Type: 2

Presence: 1011111111001101111110111111111000101011
Invited Nodes: 2 4 
Actions left: 3
Session index: 6

Observation: ..
Reward 0
About to find best action in Step: 6
Foind best action in Step: 6
Coolie

Action Type: 2

Presence: 0010000000000011100000100100010011101000
Invited Nodes: 2 4 
Actions left: 3
Session index: 7

Observation: ..
Reward 12.677
Terminated
Discounted return = 12.677, average = 12.677
Undiscounted return = 12.677, average = 12.677
Starting run 2 with 1024 simulations... 

Presence: 0010000001000000010100000101000000101000
Invited Nodes: 
Actions left: 3
Session index: 1
About to find best action in Step: 0
Values: 5.3275(endSession) 6.26386(query) 7.84435(invite)
Foind best action in Step: 0
Coolie

Action Type: 1
Active Nodes: 6 10 

Presence: 0010000001000000010100000101000000101000
Invited Nodes: 
Actions left: 2
Session index: 1

Observation: ..
Reward -0
About to find best action in Step: 1
Values: 2.6105(endSession) 5.93767(query) 5.83764(invite)
Foind best action in Step: 1
Coolie

Action Type: 0
Active Nodes: 14 27 

Presence: 0010000001000000010100000101000000101000
Invited Nodes: 
Actions left: 1
Session index: 1

Observation: ..10
Reward -0
About to find best action in Step: 2
Values: 6.9125(endSession) 6.3219(query) 6.48021(invite)
Foind best action in Step: 2
Coolie

Action Type: 2

Presence: 0111111011111011101111110111011101101101
Invited Nodes: 
Actions left: 3
Session index: 2

Observation: ..
Reward 0
About to find best action in Step: 3
Values: 7.033(endSession) 5.95544(query) 7.48834(invite)
Foind best action in Step: 3
Coolie

Action Type: 1
Active Nodes: 0 4 

Presence: 0111111011111011101111110111011101101101
Invited Nodes: 4 
Actions left: 2
Session index: 2

Observation: ..10
Reward -0
About to find best action in Step: 4
Values: 10.063(endSession) 11.9212(query) 12.1705(invite)
Foind best action in Step: 4
Coolie

Action Type: 1
Active Nodes: 10 

Presence: 0111111011111011101111110111011101101101
Invited Nodes: 4 10 
Actions left: 1
Session index: 2

Observation: ..1
Reward -0
About to find best action in Step: 5
Foind best action in Step: 5
Coolie

Action Type: 2

Presence: 0111111101100101100010110100110001111100
Invited Nodes: 4 10 
Actions left: 3
Session index: 3

Observation: ..
Reward 0
About to find best action in Step: 6
Foind best action in Step: 6
Coolie

Action Type: 2

Presence: 1000000010010010010000000010010100000000
Invited Nodes: 4 10 
Actions left: 3
Session index: 4

Observation: ..
Reward 0
About to find best action in Step: 7
Foind best action in Step: 7
Coolie

Action Type: 2

Presence: 0001001100000001100001110000101011000011
Invited Nodes: 4 10 
Actions left: 3
Session index: 5

Observation: ..
Reward 0
About to find best action in Step: 8
Foind best action in Step: 8
Coolie

Action Type: 2

Presence: 1011101101100101111011110110001101110001
Invited Nodes: 4 10 
Actions left: 3
Session index: 6

Observation: ..
Reward 0
About to find best action in Step: 9
Foind best action in Step: 9
Coolie

Action Type: 2

Presence: 0011000000011010001001010101110000000100
Invited Nodes: 4 10 
Actions left: 3
Session index: 7

Observation: ..
Reward 14.663
Terminated
Discounted return = 14.663, average = 13.67
Undiscounted return = 14.663, average = 13.67
Starting run 3 with 1024 simulations... 

Presence: 1000000100000000000010001001010100101000
Invited Nodes: 
Actions left: 3
Session index: 1
About to find best action in Step: 0
Values: 2.294(endSession) 6.16717(query) 7.43929(invite)
Foind best action in Step: 0
Coolie

Action Type: 1
Active Nodes: 4 7 

Presence: 1000000100000000000010001001010100101000
Invited Nodes: 7 
Actions left: 2
Session index: 1

Observation: ..10
Reward -0
About to find best action in Step: 1
Values: 8.54033(endSession) 7.92615(query) 8.21035(invite)
Foind best action in Step: 1
Coolie

Action Type: 2

Presence: 1101111101111111111110111111111111011110
Invited Nodes: 7 
Actions left: 3
Session index: 2

Observation: ..
Reward 0
About to find best action in Step: 2
Values: 6.456(endSession) 8.37393(query) 8.2006(invite)
Foind best action in Step: 2
Coolie

Action Type: 0
Active Nodes: 18 30 

Presence: 1101111101111111111110111111111111011110
Invited Nodes: 7 
Actions left: 2
Session index: 2

Observation: ..11
Reward -0
About to find best action in Step: 3
Values: 8.33467(endSession) 8.35555(query) 8.73176(invite)
Foind best action in Step: 3
Coolie

Action Type: 1
Active Nodes: 4 

Presence: 1101111101111111111110111111111111011110
Invited Nodes: 4 7 
Actions left: 1
Session index: 2

Observation: ..1
Reward -0
About to find best action in Step: 4
Foind best action in Step: 4
Coolie

Action Type: 2

Presence: 1100100101000111100011011000110010010111
Invited Nodes: 4 7 
Actions left: 3
Session index: 3

Observation: ..
Reward 0
About to find best action in Step: 5
Foind best action in Step: 5
Coolie

Action Type: 2

Presence: 1111111010011011000110000010001101110011
Invited Nodes: 4 7 
Actions left: 3
Session index: 4

Observation: ..
Reward 0
About to find best action in Step: 6
Foind best action in Step: 6
Coolie

Action Type: 2

Presence: 0000100100100001001001000000011010000000
Invited Nodes: 4 7 
Actions left: 3
Session index: 5

Observation: ..
Reward 0
About to find best action in Step: 7
Foind best action in Step: 7
Coolie

Action Type: 2

Presence: 0111111101111111101110110111111100000111
Invited Nodes: 4 7 
Actions left: 3
Session index: 6

Observation: ..
Reward 0
About to find best action in Step: 8
Foind best action in Step: 8
Coolie

Action Type: 2

Presence: 1010011101111111101011001110100010100100
Invited Nodes: 4 7 
Actions left: 3
Session index: 7

Observation: ..
Reward 13.729
Terminated
Discounted return = 13.729, average = 13.6897
Undiscounted return = 13.729, average = 13.6897
Starting run 4 with 1024 simulations... 

Presence: 0100100101101101101010111001111111011111
Invited Nodes: 
Actions left: 3
Session index: 1
About to find best action in Step: 0
Values: 3.806(endSession) 6.05978(query) 6.9515(invite)
Foind best action in Step: 0
Coolie

Action Type: 1
Active Nodes: 1 7 

Presence: 0100100101101101101010111001111111011111
Invited Nodes: 1 7 
Actions left: 2
Session index: 1

Observation: ..11
Reward -0
About to find best action in Step: 1
Foind best action in Step: 1
Coolie

Action Type: 2

Presence: 0010000000000001100101110111110000000101
Invited Nodes: 1 7 
Actions left: 3
Session index: 2

Observation: ..
Reward 0
About to find best action in Step: 2
Foind best action in Step: 2
Coolie

Action Type: 2

Presence: 1111111111111110010111001011100111011100
Invited Nodes: 1 7 
Actions left: 3
Session index: 3

Observation: ..
Reward 0
About to find best action in Step: 3
Foind best action in Step: 3
Coolie

Action Type: 2

Presence: 1011111111111011101101110110011111001100
Invited Nodes: 1 7 
Actions left: 3
Session index: 4

Observation: ..
Reward 0
About to find best action in Step: 4
Foind best action in Step: 4
Coolie

Action Type: 2

Presence: 1100000000000011001000101010011010000001
Invited Nodes: 1 7 
Actions left: 3
Session index: 5

Observation: ..
Reward 0
About to find best action in Step: 5
Foind best action in Step: 5
Coolie

Action Type: 2

Presence: 0000000010000000000000100101001000100000
Invited Nodes: 1 7 
Actions left: 3
Session index: 6

Observation: ..
Reward 0
About to find best action in Step: 6
Foind best action in Step: 6
Coolie

Action Type: 2

Presence: 0111111111111111111111111011111101011111
Invited Nodes: 1 7 
Actions left: 3
Session index: 7

Observation: ..
Reward 11.287
Terminated
Discounted return = 11.287, average = 13.089
Undiscounted return = 11.287, average = 13.089
Starting run 5 with 1024 simulations... 

Presence: 0000000000101100000001001000101101000101
Invited Nodes: 
Actions left: 3
Session index: 1
About to find best action in Step: 0
Values: 4.054(endSession) 5.94383(query) 7.934(invite)
Foind best action in Step: 0
Coolie

Action Type: 1
Active Nodes: 1 4 

Presence: 0000000000101100000001001000101101000101
Invited Nodes: 
Actions left: 2
Session index: 1

Observation: ..
Reward -0
About to find best action in Step: 1
Values: 4.721(endSession) 6.22298(query) 5.93363(invite)
Foind best action in Step: 1
Coolie

Action Type: 0
Active Nodes: 1 5 

Presence: 0000000000101100000001001000101101000101
Invited Nodes: 
Actions left: 1
Session index: 1

Observation: ..
Reward -0
About to find best action in Step: 2
Values: 4.3815(endSession) 6.48175(query) 6.12143(invite)
Foind best action in Step: 2
Coolie

Action Type: 0
Active Nodes: 24 38 

Presence: 0000000000101100000001001000101101000101
Invited Nodes: 
Actions left: 0
Session index: 1

Observation: ..1
Reward -0
About to find best action in Step: 3
Foind best action in Step: 3
Coolie

Action Type: 2

Presence: 0100000110101110001011111001001101010001
Invited Nodes: 
Actions left: 3
Session index: 2

Observation: ..
Reward 0
About to find best action in Step: 4
Values: 7.6495(endSession) 6.0571(query) 6.89976(invite)
Foind best action in Step: 4
Coolie

Action Type: 2

Presence: 1111111110111110011001110110010110111110
Invited Nodes: 
Actions left: 3
Session index: 3

Observation: ..
Reward 0
About to find best action in Step: 5
Values: 5.609(endSession) 6.69464(query) 7.97232(invite)
Foind best action in Step: 5
Coolie

Action Type: 1
Active Nodes: 2 4 

Presence: 1111111110111110011001110110010110111110
Invited Nodes: 2 4 
Actions left: 2
Session index: 3

Observation: ..11
Reward -0
About to find best action in Step: 6
Foind best action in Step: 6
Coolie

Action Type: 2

Presence: 1110111111111101111011100001110111111110
Invited Nodes: 2 4 
Actions left: 3
Session index: 4

Observation: ..
Reward 0
About to find best action in Step: 7
Foind best action in Step: 7
Coolie

Action Type: 2

Presence: 1111111101111101111111111111111111111101
Invited Nodes: 2 4 
Actions left: 3
Session index: 5

Observation: ..
Reward 0
About to find best action in Step: 8
Foind best action in Step: 8
Coolie

Action Type: 2

Presence: 1111111111101111101111110100111111110101
Invited Nodes: 2 4 
Actions left: 3
Session index: 6

Observation: ..
Reward 0
About to find best action in Step: 9
Foind best action in Step: 9
Coolie

Action Type: 2

Presence: 1111111111111111011111111100111101111111
Invited Nodes: 2 4 
Actions left: 3
Session index: 7

Observation: ..
Reward 12.747
Terminated
Discounted return = 12.747, average = 13.0206
Undiscounted return = 12.747, average = 13.0206
Starting run 6 with 1024 simulations... 

Presence: 1011111011101101010100100111111111111111
Invited Nodes: 
Actions left: 3
Session index: 1
About to find best action in Step: 0
Values: 4.0995(endSession) 6.22038(query) 7.34639(invite)
Foind best action in Step: 0
Coolie

Action Type: 1
Active Nodes: 2 4 

Presence: 1011111011101101010100100111111111111111
Invited Nodes: 2 4 
Actions left: 2
Session index: 1

Observation: ..11
Reward -0
About to find best action in Step: 1
Foind best action in Step: 1
Coolie

Action Type: 2

Presence: 0000000100000010000000100000010001000000
Invited Nodes: 2 4 
Actions left: 3
Session index: 2

Observation: ..
Reward 0
About to find best action in Step: 2
Foind best action in Step: 2
Coolie

Action Type: 2

Presence: 1100111111101111111110001000111101001110
Invited Nodes: 2 4 
Actions left: 3
Session index: 3

Observation: ..
Reward 0
About to find best action in Step: 3
Foind best action in Step: 3
Coolie

Action Type: 2

Presence: 0001000011010000010000010000011101001000
Invited Nodes: 2 4 
Actions left: 3
Session index: 4

Observation: ..
Reward 0
About to find best action in Step: 4
Foind best action in Step: 4
Coolie

Action Type: 2

Presence: 1111111100111000100001110011111100101011
Invited Nodes: 2 4 
Actions left: 3
Session index: 5

Observation: ..
Reward 0
About to find best action in Step: 5
Foind best action in Step: 5
Coolie

Action Type: 2

Presence: 0010000000000000010000010111010001000000
Invited Nodes: 2 4 
Actions left: 3
Session index: 6

Observation: ..
Reward 0
About to find best action in Step: 6
Foind best action in Step: 6
Coolie

Action Type: 2

Presence: 1000000001000010000000100000000000000101
Invited Nodes: 2 4 
Actions left: 3
Session index: 7

Observation: ..
Reward 12.688
Terminated
Discounted return = 12.688, average = 12.9652
Undiscounted return = 12.688, average = 12.9652
Starting run 7 with 1024 simulations... 

Presence: 0000000000010000100000010000100000001111
Invited Nodes: 
Actions left: 3
Session index: 1
About to find best action in Step: 0
Values: 5.3005(endSession) 6.19912(query) 8.31247(invite)
Foind best action in Step: 0
Coolie

Action Type: 1
Active Nodes: 4 13 

Presence: 0000000000010000100000010000100000001111
Invited Nodes: 
Actions left: 2
Session index: 1

Observation: ..
Reward -0
About to find best action in Step: 1
Values: 5.58(endSession) 6.65354(query) 5.83414(invite)
Foind best action in Step: 1
Coolie

Action Type: 0
Active Nodes: 4 31 

Presence: 0000000000010000100000010000100000001111
Invited Nodes: 
Actions left: 1
Session index: 1

Observation: ..
Reward -0
About to find best action in Step: 2
Values: 3.4975(endSession) 6.23755(query) 5.90832(invite)
Foind best action in Step: 2
Coolie

Action Type: 0
Active Nodes: 25 26 

Presence: 0000000000010000100000010000100000001111
Invited Nodes: 
Actions left: 0
Session index: 1

Observation: ..
Reward -0
About to find best action in Step: 3
Foind best action in Step: 3
Coolie

Action Type: 2

Presence: 0000000101011000000000001000000001001000
Invited Nodes: 
Actions left: 3
Session index: 2

Observation: ..
Reward 0
About to find best action in Step: 4
Values: 6.7855(endSession) 5.95807(query) 7.18146(invite)
Foind best action in Step: 4
Coolie

Action Type: 1
Active Nodes: 5 7 

Presence: 0000000101011000000000001000000001001000
Invited Nodes: 7 
Actions left: 2
Session index: 2

Observation: ..10
Reward -0
About to find best action in Step: 5
Values: 6.822(endSession) 8.31417(query) 7.71588(invite)
Foind best action in Step: 5
Coolie

Action Type: 0
Active Nodes: 18 27 

Presence: 0000000101011000000000001000000001001000
Invited Nodes: 7 
Actions left: 1
Session index: 2

Observation: ..
Reward -0
About to find best action in Step: 6
Values: 7.93267(endSession) 8.17298(query) 8.11503(invite)
Foind best action in Step: 6
Coolie

Action Type: 0
Active Nodes: 20 24 

Presence: 0000000101011000000000001000000001001000
Invited Nodes: 7 
Actions left: 0
Session index: 2

Observation: ..10
Reward -0
About to find best action in Step: 7
Foind best action in Step: 7
Coolie

Action Type: 2

Presence: 0010000010111000101000001110001111011001
Invited Nodes: 7 
Actions left: 3
Session index: 3

Observation: ..
Reward 0
About to find best action in Step: 8
Values: 6.674(endSession) 8.10587(query) 7.89511(invite)
Foind best action in Step: 8
Coolie

Action Type: 0
Active Nodes: 17 33 

Presence: 0010000010111000101000001110001111011001
Invited Nodes: 7 
Actions left: 2
Session index: 3

Observation: ..10
Reward -0
About to find best action in Step: 9
Values: 7.58(endSession) 7.91805(query) 8.28872(invite)
Foind best action in Step: 9
Coolie

Action Type: 1
Active Nodes: 4 

Presence: 0010000010111000101000001110001111011001
Invited Nodes: 7 
Actions left: 1
Session index: 3

Observation: ..
Reward -0
About to find best action in Step: 10
Values: 6.8295(endSession) 8.06916(query) 7.90344(invite)
Foind best action in Step: 10
Coolie

Action Type: 0
Active Nodes: 13 35 

Presence: 0010000010111000101000001110001111011001
Invited Nodes: 7 
Actions left: 0
Session index: 3

Observation: ..10
Reward -0
About to find best action in Step: 11
Foind best action in Step: 11
Coolie

Action Type: 2

Presence: 1111111101101111101101111111110100101111
Invited Nodes: 7 
Actions left: 3
Session index: 4

Observation: ..
Reward 0
About to find best action in Step: 12
Values: 6.177(endSession) 8.23571(query) 8.77147(invite)
Foind best action in Step: 12
Coolie

Action Type: 1
Active Nodes: 4 

Presence: 1111111101101111101101111111110100101111
Invited Nodes: 4 7 
Actions left: 2
Session index: 4

Observation: ..1
Reward -0
About to find best action in Step: 13
Foind best action in Step: 13
Coolie

Action Type: 2

Presence: 0011111111011110100111011011111100011111
Invited Nodes: 4 7 
Actions left: 3
Session index: 5

Observation: ..
Reward 0
About to find best action in Step: 14
Foind best action in Step: 14
Coolie

Action Type: 2

Presence: 1001010001111001001100000100100001110100
Invited Nodes: 4 7 
Actions left: 3
Session index: 6

Observation: ..
Reward 0
About to find best action in Step: 15
Foind best action in Step: 15
Coolie

Action Type: 2

Presence: 0000000000000000000010110001110000001111
Invited Nodes: 4 7 
Actions left: 3
Session index: 7

Observation: ..
Reward 13.63
Terminated
Discounted return = 13.63, average = 13.0601
Undiscounted return = 13.63, average = 13.0601
Starting run 8 with 1024 simulations... 

Presence: 0100000000010100000010000100101010000011
Invited Nodes: 
Actions left: 3
Session index: 1
About to find best action in Step: 0
Values: 7.56(endSession) 6.03837(query) 6.68261(invite)
Foind best action in Step: 0
Coolie

Action Type: 2

Presence: 0010000000010010101001001110001000000000
Invited Nodes: 
Actions left: 3
Session index: 2

Observation: ..
Reward 0
About to find best action in Step: 1
Values: 6.1855(endSession) 6.20468(query) 7.73917(invite)
Foind best action in Step: 1
Coolie

Action Type: 1
Active Nodes: 3 4 

Presence: 0010000000010010101001001110001000000000
Invited Nodes: 
Actions left: 2
Session index: 2

Observation: ..
Reward -0
About to find best action in Step: 2
Values: 7.1165(endSession) 6.39865(query) 6.36654(invite)
Foind best action in Step: 2
Coolie

Action Type: 2

Presence: 0111111111111101111011111000101011101010
Invited Nodes: 
Actions left: 3
Session index: 3

Observation: ..
Reward 0
About to find best action in Step: 3
Values: 2(endSession) 6.41353(query) 6.9932(invite)
Foind best action in Step: 3
Coolie

Action Type: 1
Active Nodes: 2 4 

Presence: 0111111111111101111011111000101011101010
Invited Nodes: 2 4 
Actions left: 2
Session index: 3

Observation: ..11
Reward -0
About to find best action in Step: 4
Foind best action in Step: 4
Coolie

Action Type: 2

Presence: 0100000010010000000010100000010010100010
Invited Nodes: 2 4 
Actions left: 3
Session index: 4

Observation: ..
Reward 0
About to find best action in Step: 5
Foind best action in Step: 5
Coolie

Action Type: 2

Presence: 1111111111111111111001111011011111111010
Invited Nodes: 2 4 
Actions left: 3
Session index: 5

Observation: ..
Reward 0
About to find best action in Step: 6
Foind best action in Step: 6
Coolie

Action Type: 2

Presence: 1000000011001000000100001100010011010100
Invited Nodes: 2 4 
Actions left: 3
Session index: 6

Observation: ..
Reward 0
About to find best action in Step: 7
Foind best action in Step: 7
Coolie

Action Type: 2

Presence: 0000000000000110000010000001010001010010
Invited Nodes: 2 4 
Actions left: 3
Session index: 7

Observation: ..
Reward 12.682
Terminated
Discounted return = 12.682, average = 13.0129
Undiscounted return = 12.682, average = 13.0129
Starting run 9 with 1024 simulations... 

Presence: 1101111111001110001101110100010011111101
Invited Nodes: 
Actions left: 3
Session index: 1
About to find best action in Step: 0
Values: 5.9045(endSession) 5.96769(query) 6.83346(invite)
Foind best action in Step: 0
Coolie

Action Type: 1
Active Nodes: 4 10 

Presence: 1101111111001110001101110100010011111101
Invited Nodes: 4 
Actions left: 2
Session index: 1

Observation: ..1
Reward -0
About to find best action in Step: 1
Values: 10.699(endSession) 11.764(query) 12.0612(invite)
Foind best action in Step: 1
Coolie

Action Type: 1
Active Nodes: 6 

Presence: 1101111111001110001101110100010011111101
Invited Nodes: 4 6 
Actions left: 1
Session index: 1

Observation: ..1
Reward -0
About to find best action in Step: 2
Foind best action in Step: 2
Coolie

Action Type: 2

Presence: 0111111111111111110111111110111011101111
Invited Nodes: 4 6 
Actions left: 3
Session index: 2

Observation: ..
Reward 0
About to find best action in Step: 3
Foind best action in Step: 3
Coolie

Action Type: 2

Presence: 1101110111110110011011011101110111000001
Invited Nodes: 4 6 
Actions left: 3
Session index: 3

Observation: ..
Reward 0
About to find best action in Step: 4
Foind best action in Step: 4
Coolie

Action Type: 2

Presence: 0000000000001001000000101000000000001100
Invited Nodes: 4 6 
Actions left: 3
Session index: 4

Observation: ..
Reward 0
About to find best action in Step: 5
Foind best action in Step: 5
Coolie

Action Type: 2

Presence: 0101111101111111111111110110111111111011
Invited Nodes: 4 6 
Actions left: 3
Session index: 5

Observation: ..
Reward 0
About to find best action in Step: 6
Foind best action in Step: 6
Coolie

Action Type: 2

Presence: 0110000000010000001111110011001101011001
Invited Nodes: 4 6 
Actions left: 3
Session index: 6

Observation: ..
Reward 0
About to find best action in Step: 7
Foind best action in Step: 7
Coolie

Action Type: 2

Presence: 0100000000000110000010000001000000010010
Invited Nodes: 4 6 
Actions left: 3
Session index: 7

Observation: ..
Reward 14.275
Terminated
Discounted return = 14.275, average = 13.1531
Undiscounted return = 14.275, average = 13.1531
Starting run 10 with 1024 simulations... 

Presence: 1111111011001111000101111001110111010000
Invited Nodes: 
Actions left: 3
Session index: 1
About to find best action in Step: 0
Values: 2.6055(endSession) 6.49565(query) 7.12652(invite)
Foind best action in Step: 0
Coolie

Action Type: 1
Active Nodes: 4 5 

Presence: 1111111011001111000101111001110111010000
Invited Nodes: 4 5 
Actions left: 2
Session index: 1

Observation: ..11
Reward -0
About to find best action in Step: 1
Foind best action in Step: 1
Coolie

Action Type: 2

Presence: 0000000000000010010000000001000000110000
Invited Nodes: 4 5 
Actions left: 3
Session index: 2

Observation: ..
Reward 0
About to find best action in Step: 2
Foind best action in Step: 2
Coolie

Action Type: 2

Presence: 0110111100011110000111110011111010011111
Invited Nodes: 4 5 
Actions left: 3
Session index: 3

Observation: ..
Reward 0
About to find best action in Step: 3
Foind best action in Step: 3
Coolie

Action Type: 2

Presence: 1111111011111111101001110011111110001011
Invited Nodes: 4 5 
Actions left: 3
Session index: 4

Observation: ..
Reward 0
About to find best action in Step: 4
Foind best action in Step: 4
Coolie

Action Type: 2

Presence: 1101111111111110101111011111111111010101
Invited Nodes: 4 5 
Actions left: 3
Session index: 5

Observation: ..
Reward 0
About to find best action in Step: 5
Foind best action in Step: 5
Coolie

Action Type: 2

Presence: 1111111111101110110010001010111111011100
Invited Nodes: 4 5 
Actions left: 3
Session index: 6

Observation: ..
Reward 0
About to find best action in Step: 6
Foind best action in Step: 6
Coolie

Action Type: 2

Presence: 1111111111111111111110111111101010000000
Invited Nodes: 4 5 
Actions left: 3
Session index: 7

Observation: ..
Reward 14.524
Terminated
Discounted return = 14.524, average = 13.2902
Undiscounted return = 14.524, average = 13.2902
Starting run 11 with 1024 simulations... 

Presence: 0010000000000000000100010011001100100000
Invited Nodes: 
Actions left: 3
Session index: 1
About to find best action in Step: 0
Values: 7.097(endSession) 6.12654(query) 6.88229(invite)
Foind best action in Step: 0
Coolie

Action Type: 2

Presence: 1000000100000000011010110010011100001110
Invited Nodes: 
Actions left: 3
Session index: 2

Observation: ..
Reward 0
About to find best action in Step: 1
Values: 4.6485(endSession) 6.42289(query) 7.15449(invite)
Foind best action in Step: 1
Coolie

Action Type: 1
Active Nodes: 1 4 

Presence: 1000000100000000011010110010011100001110
Invited Nodes: 
Actions left: 2
Session index: 2

Observation: ..
Reward -0
About to find best action in Step: 2
Values: 6.551(endSession) 6.38556(query) 5.81349(invite)
Foind best action in Step: 2
Coolie

Action Type: 2

Presence: 0000000001010011000001100000001000000010
Invited Nodes: 
Actions left: 3
Session index: 3

Observation: ..
Reward 0
About to find best action in Step: 3
Values: 8.7375(endSession) 6.20331(query) 8.16636(invite)
Foind best action in Step: 3
Coolie

Action Type: 2

Presence: 1111111111111111111110110111111001101110
Invited Nodes: 
Actions left: 3
Session index: 4

Observation: ..
Reward 0
About to find best action in Step: 4
Values: 3.174(endSession) 6.38054(query) 7.45503(invite)
Foind best action in Step: 4
Coolie

Action Type: 1
Active Nodes: 4 6 

Presence: 1111111111111111111110110111111001101110
Invited Nodes: 4 6 
Actions left: 2
Session index: 4

Observation: ..11
Reward -0
About to find best action in Step: 5
Foind best action in Step: 5
Coolie

Action Type: 2

Presence: 1111111111111110111101011111111011110111
Invited Nodes: 4 6 
Actions left: 3
Session index: 5

Observation: ..
Reward 0
About to find best action in Step: 6
Foind best action in Step: 6
Coolie

Action Type: 2

Presence: 0000000001000000101011100000111010100001
Invited Nodes: 4 6 
Actions left: 3
Session index: 6

Observation: ..
Reward 0
About to find best action in Step: 7
Foind best action in Step: 7
Coolie

Action Type: 2

Presence: 1110111111111011011111111111100011101011
Invited Nodes: 4 6 
Actions left: 3
Session index: 7

Observation: ..
Reward 14.372
Terminated
Discounted return = 14.372, average = 13.3885
Undiscounted return = 14.372, average = 13.3885
Starting run 12 with 1024 simulations... 

Presence: 1101111111101111111100111111110010111111
Invited Nodes: 
Actions left: 3
Session index: 1
About to find best action in Step: 0
Values: 4.6445(endSession) 6.18525(query) 6.99486(invite)
Foind best action in Step: 0
Coolie

Action Type: 1
Active Nodes: 5 6 

Presence: 1101111111101111111100111111110010111111
Invited Nodes: 5 6 
Actions left: 2
Session index: 1

Observation: ..11
Reward -0
About to find best action in Step: 1
Foind best action in Step: 1
Coolie

Action Type: 2

Presence: 1111111111110111111011111111101111001111
Invited Nodes: 5 6 
Actions left: 3
Session index: 2

Observation: ..
Reward 0
About to find best action in Step: 2
Foind best action in Step: 2
Coolie

Action Type: 2

Presence: 0101011001111100111111101111100010011011
Invited Nodes: 5 6 
Actions left: 3
Session index: 3

Observation: ..
Reward 0
About to find best action in Step: 3
Foind best action in Step: 3
Coolie

Action Type: 2

Presence: 1101111111101101111111110100110111111111
Invited Nodes: 5 6 
Actions left: 3
Session index: 4

Observation: ..
Reward 0
About to find best action in Step: 4
Foind best action in Step: 4
Coolie

Action Type: 2

Presence: 1101111011111110111001001001001111000101
Invited Nodes: 5 6 
Actions left: 3
Session index: 5

Observation: ..
Reward 0
About to find best action in Step: 5
Foind best action in Step: 5
Coolie

Action Type: 2

Presence: 0010011010101110110001101011001010101111
Invited Nodes: 5 6 
Actions left: 3
Session index: 6

Observation: ..
Reward 0
About to find best action in Step: 6
Foind best action in Step: 6
Coolie

Action Type: 2

Presence: 1111111111110111111101101110111111111111
Invited Nodes: 5 6 
Actions left: 3
Session index: 7

Observation: ..
Reward 11.619
Terminated
Discounted return = 11.619, average = 13.2411
Undiscounted return = 11.619, average = 13.2411
Starting run 13 with 1024 simulations... 

Presence: 0000000000000001101010010111000011000100
Invited Nodes: 
Actions left: 3
Session index: 1
About to find best action in Step: 0
Values: 2.311(endSession) 6.59669(query) 7.62783(invite)
Foind best action in Step: 0
Coolie

Action Type: 1
Active Nodes: 2 4 

Presence: 0000000000000001101010010111000011000100
Invited Nodes: 
Actions left: 2
Session index: 1

Observation: ..
Reward -0
About to find best action in Step: 1
Values: 4.4195(endSession) 6.1808(query) 6.01967(invite)
Foind best action in Step: 1
Coolie

Action Type: 0
Active Nodes: 20 32 

Presence: 0000000000000001101010010111000011000100
Invited Nodes: 
Actions left: 1
Session index: 1

Observation: ..11
Reward -0
About to find best action in Step: 2
Values: 6.548(endSession) 6.74084(query) 6.28622(invite)
Foind best action in Step: 2
Coolie

Action Type: 0
Active Nodes: 1 4 

Presence: 0000000000000001101010010111000011000100
Invited Nodes: 
Actions left: 0
Session index: 1

Observation: ..
Reward -0
About to find best action in Step: 3
Foind best action in Step: 3
Coolie

Action Type: 2

Presence: 0010000000010001110010010010000010111010
Invited Nodes: 
Actions left: 3
Session index: 2

Observation: ..
Reward 0
About to find best action in Step: 4
Values: 2.302(endSession) 7.22916(query) 6.91855(invite)
Foind best action in Step: 4
Coolie

Action Type: 0
Active Nodes: 11 18 

Presence: 0010000000010001110010010010000010111010
Invited Nodes: 
Actions left: 2
Session index: 2

Observation: ..1
Reward -0
About to find best action in Step: 5
Values: 6.4155(endSession) 6.67209(query) 6.55901(invite)
Foind best action in Step: 5
Coolie

Action Type: 0
Active Nodes: 5 6 

Presence: 0010000000010001110010010010000010111010
Invited Nodes: 
Actions left: 1
Session index: 2

Observation: ..
Reward -0
About to find best action in Step: 6
Values: 4.4165(endSession) 6.04814(query) 6.03577(invite)
Foind best action in Step: 6
Coolie

Action Type: 0
Active Nodes: 6 23 

Presence: 0010000000010001110010010010000010111010
Invited Nodes: 
Actions left: 0
Session index: 2

Observation: ..10
Reward -0
About to find best action in Step: 7
Foind best action in Step: 7
Coolie

Action Type: 2

Presence: 0010001100000000000001100001101100110101
Invited Nodes: 
Actions left: 3
Session index: 3

Observation: ..
Reward 0
About to find best action in Step: 8
Values: 3.496(endSession) 6.35964(query) 6.84531(invite)
Foind best action in Step: 8
Coolie

Action Type: 1
Active Nodes: 4 7 

Presence: 0010001100000000000001100001101100110101
Invited Nodes: 7 
Actions left: 2
Session index: 3

Observation: ..10
Reward -0
About to find best action in Step: 9
Values: 6.7855(endSession) 8.12832(query) 8.04604(invite)
Foind best action in Step: 9
Coolie

Action Type: 0
Active Nodes: 18 27 

Presence: 0010001100000000000001100001101100110101
Invited Nodes: 7 
Actions left: 1
Session index: 3

Observation: ..10
Reward -0
About to find best action in Step: 10
Values: 6.266(endSession) 8.30905(query) 7.8963(invite)
Foind best action in Step: 10
Coolie

Action Type: 0
Active Nodes: 1 35 

Presence: 0010001100000000000001100001101100110101
Invited Nodes: 7 
Actions left: 0
Session index: 3

Observation: ..10
Reward -0
About to find best action in Step: 11
Foind best action in Step: 11
Coolie

Action Type: 2

Presence: 1101110111111111111111101001011111010100
Invited Nodes: 7 
Actions left: 3
Session index: 4

Observation: ..
Reward 0
About to find best action in Step: 12
Values: 6.816(endSession) 8.1182(query) 8.0185(invite)
Foind best action in Step: 12
Coolie

Action Type: 0
Active Nodes: 12 34 

Presence: 1101110111111111111111101001011111010100
Invited Nodes: 7 
Actions left: 2
Session index: 4

Observation: ..1
Reward -0
About to find best action in Step: 13
Values: 7.698(endSession) 7.91783(query) 8.81329(invite)
Foind best action in Step: 13
Coolie

Action Type: 1
Active Nodes: 4 

Presence: 1101110111111111111111101001011111010100
Invited Nodes: 4 7 
Actions left: 1
Session index: 4

Observation: ..1
Reward -0
About to find best action in Step: 14
Foind best action in Step: 14
Coolie

Action Type: 2

Presence: 1000010111110011110100100101000000100000
Invited Nodes: 4 7 
Actions left: 3
Session index: 5

Observation: ..
Reward 0
About to find best action in Step: 15
Foind best action in Step: 15
Coolie

Action Type: 2

Presence: 0111000001000010000100010111000000101001
Invited Nodes: 4 7 
Actions left: 3
Session index: 6

Observation: ..
Reward 0
About to find best action in Step: 16
Foind best action in Step: 16
Coolie

Action Type: 2

Presence: 0000000110000000111100101100000010000000
Invited Nodes: 4 7 
Actions left: 3
Session index: 7

Observation: ..
Reward 13.648
Terminated
Discounted return = 13.648, average = 13.2724
Undiscounted return = 13.648, average = 13.2724
Starting run 14 with 1024 simulations... 

Presence: 0001111001001101101100101101100001101010
Invited Nodes: 
Actions left: 3
Session index: 1
About to find best action in Step: 0
Values: 7.8325(endSession) 6.53523(query) 6.90629(invite)
Foind best action in Step: 0
Coolie

Action Type: 2

Presence: 0010000000011000001001110000000001000111
Invited Nodes: 
Actions left: 3
Session index: 2

Observation: ..
Reward 0
About to find best action in Step: 1
Values: 4.704(endSession) 6.29957(query) 6.62628(invite)
Foind best action in Step: 1
Coolie

Action Type: 1
Active Nodes: 4 6 

Presence: 0010000000011000001001110000000001000111
Invited Nodes: 
Actions left: 2
Session index: 2

Observation: ..
Reward -0
About to find best action in Step: 2
Values: 6.07(endSession) 5.98638(query) 6.08649(invite)
Foind best action in Step: 2
Coolie

Action Type: 1
Active Nodes: 5 32 

Presence: 0010000000011000001001110000000001000111
Invited Nodes: 
Actions left: 1
Session index: 2

Observation: ..
Reward -0
About to find best action in Step: 3
Values: 2.607(endSession) 6.28487(query) 6.43258(invite)
Foind best action in Step: 3
Coolie

Action Type: 1
Active Nodes: 0 1 

Presence: 0010000000011000001001110000000001000111
Invited Nodes: 
Actions left: 0
Session index: 2

Observation: ..
Reward -0
About to find best action in Step: 4
Foind best action in Step: 4
Coolie

Action Type: 2

Presence: 1111111111101110101111110101111101110111
Invited Nodes: 
Actions left: 3
Session index: 3

Observation: ..
Reward 0
About to find best action in Step: 5
Values: 8.984(endSession) 6.17684(query) 6.9691(invite)
Foind best action in Step: 5
Coolie

Action Type: 2

Presence: 0000000010000000000000000000000001110000
Invited Nodes: 
Actions left: 3
Session index: 4

Observation: ..
Reward 0
About to find best action in Step: 6
Values: 5.2215(endSession) 5.99222(query) 7.4705(invite)
Foind best action in Step: 6
Coolie

Action Type: 1
Active Nodes: 4 6 

Presence: 0000000010000000000000000000000001110000
Invited Nodes: 
Actions left: 2
Session index: 4

Observation: ..
Reward -0
About to find best action in Step: 7
Values: 4.7025(endSession) 5.81893(query) 6.17193(invite)
Foind best action in Step: 7
Coolie

Action Type: 1
Active Nodes: 18 21 

Presence: 0000000010000000000000000000000001110000
Invited Nodes: 
Actions left: 1
Session index: 4

Observation: ..
Reward -0
About to find best action in Step: 8
Values: 3.915(endSession) 5.74654(query) 5.8823(invite)
Foind best action in Step: 8
Coolie

Action Type: 1
Active Nodes: 4 8 

Presence: 0000000010000000000000000000000001110000
Invited Nodes: 8 
Actions left: 0
Session index: 4

Observation: ..10
Reward -0
About to find best action in Step: 9
Foind best action in Step: 9
Coolie

Action Type: 2

Presence: 1111111110101111111111110111101010101100
Invited Nodes: 8 
Actions left: 3
Session index: 5

Observation: ..
Reward 0
About to find best action in Step: 10
Values: 3.51(endSession) 5.62729(query) 5.84911(invite)
Foind best action in Step: 10
Coolie

Action Type: 1
Active Nodes: 1 

Presence: 1111111110101111111111110111101010101100
Invited Nodes: 1 8 
Actions left: 2
Session index: 5

Observation: ..1
Reward -0
About to find best action in Step: 11
Foind best action in Step: 11
Coolie

Action Type: 2

Presence: 0000010000001100000100000010110000010010
Invited Nodes: 1 8 
Actions left: 3
Session index: 6

Observation: ..
Reward 0
About to find best action in Step: 12
Foind best action in Step: 12
Coolie

Action Type: 2

Presence: 1101111010111010010010011100110011101111
Invited Nodes: 1 8 
Actions left: 3
Session index: 7

Observation: ..
Reward 9.238
Terminated
Discounted return = 9.238, average = 12.9842
Undiscounted return = 9.238, average = 12.9842
Starting run 15 with 1024 simulations... 

Presence: 0011100000001000010011000001011110100101
Invited Nodes: 
Actions left: 3
Session index: 1
About to find best action in Step: 0
Values: 11.8095(endSession) 6.19746(query) 7.17266(invite)
Foind best action in Step: 0
Coolie

Action Type: 2

Presence: 1111111111111111111111011001110110111111
Invited Nodes: 
Actions left: 3
Session index: 2

Observation: ..
Reward 0
About to find best action in Step: 1
Values: 6.3155(endSession) 6.11311(query) 7.36106(invite)
Foind best action in Step: 1
Coolie

Action Type: 1
Active Nodes: 1 4 

Presence: 1111111111111111111111011001110110111111
Invited Nodes: 1 4 
Actions left: 2
Session index: 2

Observation: ..11
Reward -0
About to find best action in Step: 2
Foind best action in Step: 2
Coolie

Action Type: 2

Presence: 1001000001010001010001100100000001011111
Invited Nodes: 1 4 
Actions left: 3
Session index: 3

Observation: ..
Reward 0
About to find best action in Step: 3
Foind best action in Step: 3
Coolie

Action Type: 2

Presence: 1001101110100110101101011110111111111100
Invited Nodes: 1 4 
Actions left: 3
Session index: 4

Observation: ..
Reward 0
About to find best action in Step: 4
Foind best action in Step: 4
Coolie

Action Type: 2

Presence: 0111111011101110111111111111101111010010
Invited Nodes: 1 4 
Actions left: 3
Session index: 5

Observation: ..
Reward 0
About to find best action in Step: 5
Foind best action in Step: 5
Coolie

Action Type: 2

Presence: 0110000000001000100100000011100001011111
Invited Nodes: 1 4 
Actions left: 3
Session index: 6

Observation: ..
Reward 0
About to find best action in Step: 6
Foind best action in Step: 6
Coolie

Action Type: 2

Presence: 0111111111110111110011110010110010101111
Invited Nodes: 1 4 
Actions left: 3
Session index: 7

Observation: ..
Reward 14.541
Terminated
Discounted return = 14.541, average = 13.088
Undiscounted return = 14.541, average = 13.088
Starting run 16 with 1024 simulations... 

Presence: 0000100000000001100111000100000000000100
Invited Nodes: 
Actions left: 3
Session index: 1
About to find best action in Step: 0
Values: 5.824(endSession) 6.30846(query) 7.30062(invite)
Foind best action in Step: 0
Coolie

Action Type: 1
Active Nodes: 4 13 

Presence: 0000100000000001100111000100000000000100
Invited Nodes: 4 
Actions left: 2
Session index: 1

Observation: ..1
Reward -0
About to find best action in Step: 1
Values: 10.981(endSession) 11.8806(query) 11.9515(invite)
Foind best action in Step: 1
Coolie

Action Type: 1
Active Nodes: 1 

Presence: 0000100000000001100111000100000000000100
Invited Nodes: 4 
Actions left: 1
Session index: 1

Observation: ..
Reward -0
About to find best action in Step: 2
Values: 12.6507(endSession) 11.749(query) 11.6512(invite)
Foind best action in Step: 2
Coolie

Action Type: 2

Presence: 0010000010101011100101010110010001101101
Invited Nodes: 4 
Actions left: 3
Session index: 2

Observation: ..
Reward 0
About to find best action in Step: 3
Values: 11.3667(endSession) 11.8222(query) 11.7227(invite)
Foind best action in Step: 3
Coolie

Action Type: 0
Active Nodes: 8 9 

Presence: 0010000010101011100101010110010001101101
Invited Nodes: 4 
Actions left: 2
Session index: 2

Observation: ..1
Reward -0
About to find best action in Step: 4
Values: 12.9873(endSession) 11.9576(query) 11.9275(invite)
Foind best action in Step: 4
Coolie

Action Type: 2

Presence: 0000000000000000010000000000010001101010
Invited Nodes: 4 
Actions left: 3
Session index: 3

Observation: ..
Reward 0
About to find best action in Step: 5
Values: 11.93(endSession) 11.8452(query) 12.1976(invite)
Foind best action in Step: 5
Coolie

Action Type: 1
Active Nodes: 10 

Presence: 0000000000000000010000000000010001101010
Invited Nodes: 4 
Actions left: 2
Session index: 3

Observation: ..
Reward -0
About to find best action in Step: 6
Values: 11.7633(endSession) 11.92(query) 11.6723(invite)
Foind best action in Step: 6
Coolie

Action Type: 0
Active Nodes: 12 26 

Presence: 0000000000000000010000000000010001101010
Invited Nodes: 4 
Actions left: 1
Session index: 3

Observation: ..
Reward -0
About to find best action in Step: 7
Values: 10.5115(endSession) 11.8114(query) 11.4926(invite)
Foind best action in Step: 7
Coolie

Action Type: 0
Active Nodes: 6 23 

Presence: 0000000000000000010000000000010001101010
Invited Nodes: 4 
Actions left: 0
Session index: 3

Observation: ..
Reward -0
About to find best action in Step: 8
Foind best action in Step: 8
Coolie

Action Type: 2

Presence: 1110111100111100110111001100111111111110
Invited Nodes: 4 
Actions left: 3
Session index: 4

Observation: ..
Reward 0
About to find best action in Step: 9
Values: 11.0643(endSession) 11.733(query) 11.9728(invite)
Foind best action in Step: 9
Coolie

Action Type: 1
Active Nodes: 5 

Presence: 1110111100111100110111001100111111111110
Invited Nodes: 4 5 
Actions left: 2
Session index: 4

Observation: ..1
Reward -0
About to find best action in Step: 10
Foind best action in Step: 10
Coolie

Action Type: 2

Presence: 0000000011010000001100100001001000000111
Invited Nodes: 4 5 
Actions left: 3
Session index: 5

Observation: ..
Reward 0
About to find best action in Step: 11
Foind best action in Step: 11
Coolie

Action Type: 2

Presence: 1111111011111011010101010111111101111101
Invited Nodes: 4 5 
Actions left: 3
Session index: 6

Observation: ..
Reward 0
About to find best action in Step: 12
Foind best action in Step: 12
Coolie

Action Type: 2

Presence: 1111111111111111101111010101111011110100
Invited Nodes: 4 5 
Actions left: 3
Session index: 7

Observation: ..
Reward 14.599
Terminated
Discounted return = 14.599, average = 13.1824
Undiscounted return = 14.599, average = 13.1824
Starting run 17 with 1024 simulations... 

Presence: 0010000000000000010001010110000000000000
Invited Nodes: 
Actions left: 3
Session index: 1
About to find best action in Step: 0
Values: 8.2545(endSession) 6.85008(query) 7.61782(invite)
Foind best action in Step: 0
Coolie

Action Type: 2

Presence: 0011000000001000100010000100011101001110
Invited Nodes: 
Actions left: 3
Session index: 2

Observation: ..
Reward 0
About to find best action in Step: 1
Values: 8.4205(endSession) 6.47362(query) 6.73721(invite)
Foind best action in Step: 1
Coolie

Action Type: 2

Presence: 0111111111111001101111011010111100111111
Invited Nodes: 
Actions left: 3
Session index: 3

Observation: ..
Reward 0
About to find best action in Step: 2
Values: 3.5315(endSession) 5.80213(query) 7.90105(invite)
Foind best action in Step: 2
Coolie

Action Type: 1
Active Nodes: 2 4 

Presence: 0111111111111001101111011010111100111111
Invited Nodes: 2 4 
Actions left: 2
Session index: 3

Observation: ..11
Reward -0
About to find best action in Step: 3
Foind best action in Step: 3
Coolie

Action Type: 2

Presence: 0000010100001000110001011010110101101110
Invited Nodes: 2 4 
Actions left: 3
Session index: 4

Observation: ..
Reward 0
About to find best action in Step: 4
Foind best action in Step: 4
Coolie

Action Type: 2

Presence: 0110111111110110111011111111111100011111
Invited Nodes: 2 4 
Actions left: 3
Session index: 5

Observation: ..
Reward 0
About to find best action in Step: 5
Foind best action in Step: 5
Coolie

Action Type: 2

Presence: 0000000000100000010001000000000100000011
Invited Nodes: 2 4 
Actions left: 3
Session index: 6

Observation: ..
Reward 0
About to find best action in Step: 6
Foind best action in Step: 6
Coolie

Action Type: 2

Presence: 1111111111101110111111001100111111110011
Invited Nodes: 2 4 
Actions left: 3
Session index: 7

Observation: ..
Reward 12.666
Terminated
Discounted return = 12.666, average = 13.1521
Undiscounted return = 12.666, average = 13.1521
Starting run 18 with 1024 simulations... 

Presence: 0000000000000000000000000111000101010100
Invited Nodes: 
Actions left: 3
Session index: 1
About to find best action in Step: 0
Values: 6.465(endSession) 6.29787(query) 7.4279(invite)
Foind best action in Step: 0
Coolie

Action Type: 1
Active Nodes: 2 4 

Presence: 0000000000000000000000000111000101010100
Invited Nodes: 
Actions left: 2
Session index: 1

Observation: ..
Reward -0
About to find best action in Step: 1
Values: 6.33(endSession) 6.39144(query) 6.03473(invite)
Foind best action in Step: 1
Coolie

Action Type: 0
Active Nodes: 25 26 

Presence: 0000000000000000000000000111000101010100
Invited Nodes: 
Actions left: 1
Session index: 1

Observation: ..11
Reward -0
About to find best action in Step: 2
Values: 3.2035(endSession) 6.15192(query) 5.87776(invite)
Foind best action in Step: 2
Coolie

Action Type: 0
Active Nodes: 25 27 

Presence: 0000000000000000000000000111000101010100
Invited Nodes: 
Actions left: 0
Session index: 1

Observation: ..11
Reward -0
About to find best action in Step: 3
Foind best action in Step: 3
Coolie

Action Type: 2

Presence: 0010000000000000010001010000000000000000
Invited Nodes: 
Actions left: 3
Session index: 2

Observation: ..
Reward 0
About to find best action in Step: 4
Values: 4.1125(endSession) 6.39605(query) 6.66685(invite)
Foind best action in Step: 4
Coolie

Action Type: 1
Active Nodes: 4 13 

Presence: 0010000000000000010001010000000000000000
Invited Nodes: 
Actions left: 2
Session index: 2

Observation: ..
Reward -0
About to find best action in Step: 5
Values: 7.721(endSession) 6.53363(query) 5.91221(invite)
Foind best action in Step: 5
Coolie

Action Type: 2

Presence: 0111111011111001100110111011111100000101
Invited Nodes: 
Actions left: 3
Session index: 3

Observation: ..
Reward 0
About to find best action in Step: 6
Values: 5.6085(endSession) 6.53345(query) 6.68619(invite)
Foind best action in Step: 6
Coolie

Action Type: 1
Active Nodes: 4 12 

Presence: 0111111011111001100110111011111100000101
Invited Nodes: 4 12 
Actions left: 2
Session index: 3

Observation: ..11
Reward -0
About to find best action in Step: 7
Foind best action in Step: 7
Coolie

Action Type: 2

Presence: 1010101100111111100101110101001111000011
Invited Nodes: 4 12 
Actions left: 3
Session index: 4

Observation: ..
Reward 0
About to find best action in Step: 8
Foind best action in Step: 8
Coolie

Action Type: 2

Presence: 0000000000110000000000000000000000000100
Invited Nodes: 4 12 
Actions left: 3
Session index: 5

Observation: ..
Reward 0
About to find best action in Step: 9
Foind best action in Step: 9
Coolie

Action Type: 2

Presence: 0111111111111111101101101110111101001101
Invited Nodes: 4 12 
Actions left: 3
Session index: 6

Observation: ..
Reward 0
About to find best action in Step: 10
Foind best action in Step: 10
Coolie

Action Type: 2

Presence: 1000000110000101110000100000000010100001
Invited Nodes: 4 12 
Actions left: 3
Session index: 7

Observation: ..
Reward 11.216
Terminated
Discounted return = 11.216, average = 13.0445
Undiscounted return = 11.216, average = 13.0445
Starting run 19 with 1024 simulations... 

Presence: 0011000011000001101100000010111000000101
Invited Nodes: 
Actions left: 3
Session index: 1
About to find best action in Step: 0
Values: 2.2985(endSession) 6.17225(query) 7.00183(invite)
Foind best action in Step: 0
Coolie

Action Type: 1
Active Nodes: 2 5 

Presence: 0011000011000001101100000010111000000101
Invited Nodes: 2 
Actions left: 2
Session index: 1

Observation: ..1
Reward -0
About to find best action in Step: 1
Values: 8.16467(endSession) 7.20656(query) 6.66981(invite)
Foind best action in Step: 1
Coolie

Action Type: 2

Presence: 1111111110111111111011101101111110011101
Invited Nodes: 2 
Actions left: 3
Session index: 2

Observation: ..
Reward 0
About to find best action in Step: 2
Values: 5.0005(endSession) 7.17001(query) 7.40413(invite)
Foind best action in Step: 2
Coolie

Action Type: 1
Active Nodes: 4 

Presence: 1111111110111111111011101101111110011101
Invited Nodes: 2 4 
Actions left: 2
Session index: 2

Observation: ..1
Reward -0
About to find best action in Step: 3
Foind best action in Step: 3
Coolie

Action Type: 2

Presence: 1011111011111011101101011110111110001110
Invited Nodes: 2 4 
Actions left: 3
Session index: 3

Observation: ..
Reward 0
About to find best action in Step: 4
Foind best action in Step: 4
Coolie

Action Type: 2

Presence: 1101100010001100010010011111011111110010
Invited Nodes: 2 4 
Actions left: 3
Session index: 4

Observation: ..
Reward 0
About to find best action in Step: 5
Foind best action in Step: 5
Coolie

Action Type: 2

Presence: 0000000001000000010010000101001100111000
Invited Nodes: 2 4 
Actions left: 3
Session index: 5

Observation: ..
Reward 0
About to find best action in Step: 6
Foind best action in Step: 6
Coolie

Action Type: 2

Presence: 0000000001000000000010100000000010000000
Invited Nodes: 2 4 
Actions left: 3
Session index: 6

Observation: ..
Reward 0
About to find best action in Step: 7
Foind best action in Step: 7
Coolie

Action Type: 2

Presence: 1101111111001101011011111001100111111110
Invited Nodes: 2 4 
Actions left: 3
Session index: 7

Observation: ..
Reward 12.696
Terminated
Discounted return = 12.696, average = 13.0262
Undiscounted return = 12.696, average = 13.0262
Starting run 20 with 1024 simulations... 

Presence: 1101010110000011100001110001111100110011
Invited Nodes: 
Actions left: 3
Session index: 1
About to find best action in Step: 0
Values: 4.6845(endSession) 6.80667(query) 6.69007(invite)
Foind best action in Step: 0
Coolie

Action Type: 0
Active Nodes: 4 9 

Presence: 1101010110000011100001110001111100110011
Invited Nodes: 
Actions left: 2
Session index: 1

Observation: ..
Reward -0
About to find best action in Step: 1
Values: 7.9765(endSession) 6.65399(query) 6.03042(invite)
Foind best action in Step: 1
Coolie

Action Type: 2

Presence: 1011000001110010000011001000000100100101
Invited Nodes: 
Actions left: 3
Session index: 2

Observation: ..
Reward 0
About to find best action in Step: 2
Values: 7.145(endSession) 6.31995(query) 6.3795(invite)
Foind best action in Step: 2
Coolie

Action Type: 2

Presence: 0100111101111110111110100100111101110101
Invited Nodes: 
Actions left: 3
Session index: 3

Observation: ..
Reward 0
About to find best action in Step: 3
Values: 7.1305(endSession) 6.03636(query) 7.61366(invite)
Foind best action in Step: 3
Coolie

Action Type: 1
Active Nodes: 3 4 

Presence: 0100111101111110111110100100111101110101
Invited Nodes: 4 
Actions left: 2
Session index: 3

Observation: ..10
Reward -0
About to find best action in Step: 4
Values: 11.9107(endSession) 11.9225(query) 12.1763(invite)
Foind best action in Step: 4
Coolie

Action Type: 1
Active Nodes: 10 

Presence: 0100111101111110111110100100111101110101
Invited Nodes: 4 10 
Actions left: 1
Session index: 3

Observation: ..1
Reward -0
About to find best action in Step: 5
Foind best action in Step: 5
Coolie

Action Type: 2

Presence: 0011100001001000010111010010111101000001
Invited Nodes: 4 10 
Actions left: 3
Session index: 4

Observation: ..
Reward 0
About to find best action in Step: 6
Foind best action in Step: 6
Coolie

Action Type: 2

Presence: 0001001011000000000000001100000010100100
Invited Nodes: 4 10 
Actions left: 3
Session index: 5

Observation: ..
Reward 0
About to find best action in Step: 7
Foind best action in Step: 7
Coolie

Action Type: 2

Presence: 1111111111111111101111111110111011110101
Invited Nodes: 4 10 
Actions left: 3
Session index: 6

Observation: ..
Reward 0
About to find best action in Step: 8
Foind best action in Step: 8
Coolie

Action Type: 2

Presence: 0000010000010101110110100011000010011011
Invited Nodes: 4 10 
Actions left: 3
Session index: 7

Observation: ..
Reward 14.683
Terminated
Discounted return = 14.683, average = 13.109
Undiscounted return = 14.683, average = 13.109
Simulations = 1024
Runs = 20
Undiscounted return = 13.109 +- 0.31709
Discounted return = 13.109 +- 0.31709
Time = 13.616
----------------------------------------
Begin PBS Epilogue Thu Aug 31 16:54:16 PDT 2017
Job ID:           24132694.hpc-pbs1.hpcc.usc.edu
Username:         amulyaya
Accountname:      default
Group:            csci-ar
Job Name:         0.pbs
Session:          23319
Limits:           neednodes=1:ppn=16:sl230s,nodes=1:ppn=16:sl230s,walltime=24:00:00
Resources:        cput=00:04:35,energy_used=0,mem=27985212kb,vmem=26347260kb,walltime=00:04:36
Queue:            tambe
Shared Access:    no
Has MIC:          no
Is hsda:          false
removed '/scratch'
End PBS Epilogue Thu Aug 31 16:54:17 PDT 2017
----------------------------------------
