----------------------------------------
Begin PBS Prologue Thu Aug 31 16:52:00 PDT 2017
Job ID:            24132695.hpc-pbs1.hpcc.usc.edu
Username:          amulyaya
Accountname:       default
Group:             csci-ar
Project:           default
Name:              1.pbs
Queue:             tambe
Shared Access:     no
All Cores:         no
Has MIC:           no
Is hsda:           false
Nodes:             hpc3444 
TMPDIR:            /tmp/24132695.hpc-pbs1.hpcc.usc.edu
End PBS Prologue Thu Aug 31 16:52:01 PDT 2017
----------------------------------------
******************************************************************************
METIS 5.0 Copyright 1998-13, Regents of the University of Minnesota
 (HEAD: , Built on: Oct 20 2015, 01:33:37)
 size of idx_t: 64bits, real_t: 32bits, idx_t *: 64bits

Graph Information -----------------------------------------------------------
 Name: /home/rcf-proj/mj1/amulyaya/pomcp-ve/src/isEpiiVuOh.txt, #Vertices: 40, #Edges: 111, #Parts: 4

Options ---------------------------------------------------------------------
 ptype=kway, objtype=cut, ctype=shem, rtype=greedy, iptype=metisrb
 dbglvl=0, ufactor=1.030, no2hop=NO, minconn=NO, contig=NO, nooutput=NO
 seed=-1, niter=10, ncuts=1

Direct k-way Partitioning ---------------------------------------------------
 - Edgecut: 50, communication volume: 64.

 - Balance:
     constraint #0:  1.000 out of 0.100

 - Most overweight partition:
     pid: 0, actual: 10, desired: 10, ratio: 1.00.

 - Subdomain connectivity: max: 3, min: 3, avg: 3.00

 - Each partition is contiguous.

Timing Information ----------------------------------------------------------
  I/O:          		   0.001 sec
  Partitioning: 		   0.002 sec   (METIS time)
  Reporting:    		   0.000 sec

Memory Information ----------------------------------------------------------
  Max memory used:		   0.066 MB
******************************************************************************
Initialising fast UCB table... done
Main runs
Starting run 1 with 1024 simulations... 

Presence: 0000000010001100000000100110010000010001
Invited Nodes: 
Actions left: 3
Session index: 1
About to find best action in Step: 0
Values: 7.2225(endSession) 6.81439(query) 8.12424(invite)
Foind best action in Step: 0
Coolie

Action Type: 1
Active Nodes: 3 5 

Presence: 0000000010001100000000100110010000010001
Invited Nodes: 
Actions left: 2
Session index: 1

Observation: ..
Reward -0
About to find best action in Step: 1
Values: 9.628(endSession) 6.53484(query) 6.6337(invite)
Foind best action in Step: 1
Coolie

Action Type: 2

Presence: 1010100000000010010000010100000110000100
Invited Nodes: 
Actions left: 3
Session index: 2

Observation: ..
Reward 0
About to find best action in Step: 2
Values: 2.307(endSession) 6.63753(query) 7.66103(invite)
Foind best action in Step: 2
Coolie

Action Type: 1
Active Nodes: 1 10 

Presence: 1010100000000010010000010100000110000100
Invited Nodes: 
Actions left: 2
Session index: 2

Observation: ..
Reward -0
About to find best action in Step: 3
Values: 3.1905(endSession) 6.91344(query) 5.85484(invite)
Foind best action in Step: 3
Coolie

Action Type: 0
Active Nodes: 3 16 

Presence: 1010100000000010010000010100000110000100
Invited Nodes: 
Actions left: 1
Session index: 2

Observation: ..
Reward -0
About to find best action in Step: 4
Values: 7.1035(endSession) 6.90519(query) 6.57827(invite)
Foind best action in Step: 4
Coolie

Action Type: 2

Presence: 1111111111111011111110011110011110101010
Invited Nodes: 
Actions left: 3
Session index: 3

Observation: ..
Reward 0
About to find best action in Step: 5
Values: 8.8775(endSession) 6.63169(query) 7.53363(invite)
Foind best action in Step: 5
Coolie

Action Type: 2

Presence: 0000000010010100000000001001010110110001
Invited Nodes: 
Actions left: 3
Session index: 4

Observation: ..
Reward 0
About to find best action in Step: 6
Values: 7.3845(endSession) 6.81741(query) 8.28186(invite)
Foind best action in Step: 6
Coolie

Action Type: 1
Active Nodes: 1 2 

Presence: 0000000010010100000000001001010110110001
Invited Nodes: 
Actions left: 2
Session index: 4

Observation: ..
Reward -0
About to find best action in Step: 7
Values: 8.5315(endSession) 6.75253(query) 6.33076(invite)
Foind best action in Step: 7
Coolie

Action Type: 2

Presence: 1111111111101111000111111111001011001101
Invited Nodes: 
Actions left: 3
Session index: 5

Observation: ..
Reward 0
About to find best action in Step: 8
Values: 1(endSession) 6.38871(query) 8.21912(invite)
Foind best action in Step: 8
Coolie

Action Type: 1
Active Nodes: 1 5 

Presence: 1111111111101111000111111111001011001101
Invited Nodes: 1 5 
Actions left: 2
Session index: 5

Observation: ..11
Reward -0
About to find best action in Step: 9
Foind best action in Step: 9
Coolie

Action Type: 2

Presence: 0000000000000010000001000100011001000000
Invited Nodes: 1 5 
Actions left: 3
Session index: 6

Observation: ..
Reward 0
About to find best action in Step: 10
Foind best action in Step: 10
Coolie

Action Type: 2

Presence: 0010101000000000111001010001011101010111
Invited Nodes: 1 5 
Actions left: 3
Session index: 7

Observation: ..
Reward 18.003
Terminated
Discounted return = 18.003, average = 18.003
Undiscounted return = 18.003, average = 18.003
Starting run 2 with 1024 simulations... 

Presence: 1101010011111110111011001001110111011111
Invited Nodes: 
Actions left: 3
Session index: 1
About to find best action in Step: 0
Values: 8.041(endSession) 6.76789(query) 8.65416(invite)
Foind best action in Step: 0
Coolie

Action Type: 1
Active Nodes: 1 10 

Presence: 1101010011111110111011001001110111011111
Invited Nodes: 1 10 
Actions left: 2
Session index: 1

Observation: ..11
Reward -0
About to find best action in Step: 1
Foind best action in Step: 1
Coolie

Action Type: 2

Presence: 0010000000101000100011000110011111001000
Invited Nodes: 1 10 
Actions left: 3
Session index: 2

Observation: ..
Reward 0
About to find best action in Step: 2
Foind best action in Step: 2
Coolie

Action Type: 2

Presence: 1111111111111101011111011101101111011111
Invited Nodes: 1 10 
Actions left: 3
Session index: 3

Observation: ..
Reward 0
About to find best action in Step: 3
Foind best action in Step: 3
Coolie

Action Type: 2

Presence: 1000001010010000100001010000101000000101
Invited Nodes: 1 10 
Actions left: 3
Session index: 4

Observation: ..
Reward 0
About to find best action in Step: 4
Foind best action in Step: 4
Coolie

Action Type: 2

Presence: 0000000000000000000000011010001000001000
Invited Nodes: 1 10 
Actions left: 3
Session index: 5

Observation: ..
Reward 0
About to find best action in Step: 5
Foind best action in Step: 5
Coolie

Action Type: 2

Presence: 1111111110100111101111111111101111010001
Invited Nodes: 1 10 
Actions left: 3
Session index: 6

Observation: ..
Reward 0
About to find best action in Step: 6
Foind best action in Step: 6
Coolie

Action Type: 2

Presence: 1101111111100111101111001111100011111000
Invited Nodes: 1 10 
Actions left: 3
Session index: 7

Observation: ..
Reward 19.034
Terminated
Discounted return = 19.034, average = 18.5185
Undiscounted return = 19.034, average = 18.5185
Starting run 3 with 1024 simulations... 

Presence: 1111111111111111111010111011110111111111
Invited Nodes: 
Actions left: 3
Session index: 1
About to find best action in Step: 0
Values: 4.717(endSession) 7.06728(query) 7.22997(invite)
Foind best action in Step: 0
Coolie

Action Type: 1
Active Nodes: 1 20 

Presence: 1111111111111111111010111011110111111111
Invited Nodes: 1 20 
Actions left: 2
Session index: 1

Observation: ..11
Reward -0
About to find best action in Step: 1
Foind best action in Step: 1
Coolie

Action Type: 2

Presence: 0000000000000010000110100010110101110011
Invited Nodes: 1 20 
Actions left: 3
Session index: 2

Observation: ..
Reward 0
About to find best action in Step: 2
Foind best action in Step: 2
Coolie

Action Type: 2

Presence: 1111111111110011001111111111101101001101
Invited Nodes: 1 20 
Actions left: 3
Session index: 3

Observation: ..
Reward 0
About to find best action in Step: 3
Foind best action in Step: 3
Coolie

Action Type: 2

Presence: 1111010011000110111001010110111010010111
Invited Nodes: 1 20 
Actions left: 3
Session index: 4

Observation: ..
Reward 0
About to find best action in Step: 4
Foind best action in Step: 4
Coolie

Action Type: 2

Presence: 0000001100010000000001100100000101011010
Invited Nodes: 1 20 
Actions left: 3
Session index: 5

Observation: ..
Reward 0
About to find best action in Step: 5
Foind best action in Step: 5
Coolie

Action Type: 2

Presence: 0111110111111111111010111100110110010101
Invited Nodes: 1 20 
Actions left: 3
Session index: 6

Observation: ..
Reward 0
About to find best action in Step: 6
Foind best action in Step: 6
Coolie

Action Type: 2

Presence: 1101011111111111110011110111101111110101
Invited Nodes: 1 20 
Actions left: 3
Session index: 7

Observation: ..
Reward 14.004
Terminated
Discounted return = 14.004, average = 17.0137
Undiscounted return = 14.004, average = 17.0137
Starting run 4 with 1024 simulations... 

Presence: 1111111111111111111111101101100111100111
Invited Nodes: 
Actions left: 3
Session index: 1
About to find best action in Step: 0
Values: 3.227(endSession) 6.90966(query) 8.06455(invite)
Foind best action in Step: 0
Coolie

Action Type: 1
Active Nodes: 1 5 

Presence: 1111111111111111111111101101100111100111
Invited Nodes: 1 5 
Actions left: 2
Session index: 1

Observation: ..11
Reward -0
About to find best action in Step: 1
Foind best action in Step: 1
Coolie

Action Type: 2

Presence: 1111111111111111111111111011101011101111
Invited Nodes: 1 5 
Actions left: 3
Session index: 2

Observation: ..
Reward 0
About to find best action in Step: 2
Foind best action in Step: 2
Coolie

Action Type: 2

Presence: 0000100010010000011001110000000000000001
Invited Nodes: 1 5 
Actions left: 3
Session index: 3

Observation: ..
Reward 0
About to find best action in Step: 3
Foind best action in Step: 3
Coolie

Action Type: 2

Presence: 1111111111011011110100110111001110010100
Invited Nodes: 1 5 
Actions left: 3
Session index: 4

Observation: ..
Reward 0
About to find best action in Step: 4
Foind best action in Step: 4
Coolie

Action Type: 2

Presence: 0000000100000001001000100011011100001110
Invited Nodes: 1 5 
Actions left: 3
Session index: 5

Observation: ..
Reward 0
About to find best action in Step: 5
Foind best action in Step: 5
Coolie

Action Type: 2

Presence: 0101011111111101011100101111010111001101
Invited Nodes: 1 5 
Actions left: 3
Session index: 6

Observation: ..
Reward 0
About to find best action in Step: 6
Foind best action in Step: 6
Coolie

Action Type: 2

Presence: 0000000000001000000101010000100001010001
Invited Nodes: 1 5 
Actions left: 3
Session index: 7

Observation: ..
Reward 18.132
Terminated
Discounted return = 18.132, average = 17.2933
Undiscounted return = 18.132, average = 17.2933
Starting run 5 with 1024 simulations... 

Presence: 0000000000000000011110000000010000100010
Invited Nodes: 
Actions left: 3
Session index: 1
About to find best action in Step: 0
Values: 7.741(endSession) 6.18585(query) 8.5293(invite)
Foind best action in Step: 0
Coolie

Action Type: 1
Active Nodes: 1 5 

Presence: 0000000000000000011110000000010000100010
Invited Nodes: 
Actions left: 2
Session index: 1

Observation: ..
Reward -0
About to find best action in Step: 1
Values: 2.5965(endSession) 7.43952(query) 7.1304(invite)
Foind best action in Step: 1
Coolie

Action Type: 0
Active Nodes: 30 39 

Presence: 0000000000000000011110000000010000100010
Invited Nodes: 
Actions left: 1
Session index: 1

Observation: ..
Reward -0
About to find best action in Step: 2
Values: 2.288(endSession) 7.26071(query) 6.97581(invite)
Foind best action in Step: 2
Coolie

Action Type: 0
Active Nodes: 17 23 

Presence: 0000000000000000011110000000010000100010
Invited Nodes: 
Actions left: 0
Session index: 1

Observation: ..1
Reward -0
About to find best action in Step: 3
Foind best action in Step: 3
Coolie

Action Type: 2

Presence: 0000100000000001000000100000000000010001
Invited Nodes: 
Actions left: 3
Session index: 2

Observation: ..
Reward 0
About to find best action in Step: 4
Values: 2.894(endSession) 7.02568(query) 8.03698(invite)
Foind best action in Step: 4
Coolie

Action Type: 1
Active Nodes: 3 5 

Presence: 0000100000000001000000100000000000010001
Invited Nodes: 
Actions left: 2
Session index: 2

Observation: ..
Reward -0
About to find best action in Step: 5
Values: 4.718(endSession) 6.54685(query) 5.62031(invite)
Foind best action in Step: 5
Coolie

Action Type: 0
Active Nodes: 1 23 

Presence: 0000100000000001000000100000000000010001
Invited Nodes: 
Actions left: 1
Session index: 2

Observation: ..
Reward -0
About to find best action in Step: 6
Values: 2.593(endSession) 6.64106(query) 6.71164(invite)
Foind best action in Step: 6
Coolie

Action Type: 1
Active Nodes: 10 28 

Presence: 0000100000000001000000100000000000010001
Invited Nodes: 
Actions left: 0
Session index: 2

Observation: ..
Reward -0
About to find best action in Step: 7
Foind best action in Step: 7
Coolie

Action Type: 2

Presence: 1110011111110101101101011101101111010101
Invited Nodes: 
Actions left: 3
Session index: 3

Observation: ..
Reward 0
About to find best action in Step: 8
Values: 5.0165(endSession) 6.713(query) 7.22043(invite)
Foind best action in Step: 8
Coolie

Action Type: 1
Active Nodes: 1 23 

Presence: 1110011111110101101101011101101111010101
Invited Nodes: 1 23 
Actions left: 2
Session index: 3

Observation: ..11
Reward -0
About to find best action in Step: 9
Foind best action in Step: 9
Coolie

Action Type: 2

Presence: 0000000010000000100100000001000001100010
Invited Nodes: 1 23 
Actions left: 3
Session index: 4

Observation: ..
Reward 0
About to find best action in Step: 10
Foind best action in Step: 10
Coolie

Action Type: 2

Presence: 1000010011011000000011000101101010111000
Invited Nodes: 1 23 
Actions left: 3
Session index: 5

Observation: ..
Reward 0
About to find best action in Step: 11
Foind best action in Step: 11
Coolie

Action Type: 2

Presence: 0000100000000010000000000001010000000000
Invited Nodes: 1 23 
Actions left: 3
Session index: 6

Observation: ..
Reward 0
About to find best action in Step: 12
Foind best action in Step: 12
Coolie

Action Type: 2

Presence: 1000001011101001000000101000101110000000
Invited Nodes: 1 23 
Actions left: 3
Session index: 7

Observation: ..
Reward 13.908
Terminated
Discounted return = 13.908, average = 16.6162
Undiscounted return = 13.908, average = 16.6162
Starting run 6 with 1024 simulations... 

Presence: 1111111101111001111111111111110111110111
Invited Nodes: 
Actions left: 3
Session index: 1
About to find best action in Step: 0
Values: 3.8155(endSession) 6.30377(query) 8.86993(invite)
Foind best action in Step: 0
Coolie

Action Type: 1
Active Nodes: 1 3 

Presence: 1111111101111001111111111111110111110111
Invited Nodes: 1 3 
Actions left: 2
Session index: 1

Observation: ..11
Reward -0
About to find best action in Step: 1
Foind best action in Step: 1
Coolie

Action Type: 2

Presence: 1111101001111111111101011110111111011111
Invited Nodes: 1 3 
Actions left: 3
Session index: 2

Observation: ..
Reward 0
About to find best action in Step: 2
Foind best action in Step: 2
Coolie

Action Type: 2

Presence: 0010001000001000010100001110100100010101
Invited Nodes: 1 3 
Actions left: 3
Session index: 3

Observation: ..
Reward 0
About to find best action in Step: 3
Foind best action in Step: 3
Coolie

Action Type: 2

Presence: 0000000000000000011001000001001010101000
Invited Nodes: 1 3 
Actions left: 3
Session index: 4

Observation: ..
Reward 0
About to find best action in Step: 4
Foind best action in Step: 4
Coolie

Action Type: 2

Presence: 1001011011110111000011100100111010101000
Invited Nodes: 1 3 
Actions left: 3
Session index: 5

Observation: ..
Reward 0
About to find best action in Step: 5
Foind best action in Step: 5
Coolie

Action Type: 2

Presence: 1111111111110110110011011011111101111111
Invited Nodes: 1 3 
Actions left: 3
Session index: 6

Observation: ..
Reward 0
About to find best action in Step: 6
Foind best action in Step: 6
Coolie

Action Type: 2

Presence: 0000000001110111010000101111111011101011
Invited Nodes: 1 3 
Actions left: 3
Session index: 7

Observation: ..
Reward 20.155
Terminated
Discounted return = 20.155, average = 17.206
Undiscounted return = 20.155, average = 17.206
Starting run 7 with 1024 simulations... 

Presence: 1111111111111111111111111100100100111101
Invited Nodes: 
Actions left: 3
Session index: 1
About to find best action in Step: 0
Values: 4.43(endSession) 6.61914(query) 8.52624(invite)
Foind best action in Step: 0
Coolie

Action Type: 1
Active Nodes: 1 5 

Presence: 1111111111111111111111111100100100111101
Invited Nodes: 1 5 
Actions left: 2
Session index: 1

Observation: ..11
Reward -0
About to find best action in Step: 1
Foind best action in Step: 1
Coolie

Action Type: 2

Presence: 0000000010000011011000100010010010000110
Invited Nodes: 1 5 
Actions left: 3
Session index: 2

Observation: ..
Reward 0
About to find best action in Step: 2
Foind best action in Step: 2
Coolie

Action Type: 2

Presence: 1111110110010110111011111111111100101101
Invited Nodes: 1 5 
Actions left: 3
Session index: 3

Observation: ..
Reward 0
About to find best action in Step: 3
Foind best action in Step: 3
Coolie

Action Type: 2

Presence: 0000100000000100001000000001001010000100
Invited Nodes: 1 5 
Actions left: 3
Session index: 4

Observation: ..
Reward 0
About to find best action in Step: 4
Foind best action in Step: 4
Coolie

Action Type: 2

Presence: 1111111111111111111111111011101011110111
Invited Nodes: 1 5 
Actions left: 3
Session index: 5

Observation: ..
Reward 0
About to find best action in Step: 5
Foind best action in Step: 5
Coolie

Action Type: 2

Presence: 1001001110111101110101001000111010101010
Invited Nodes: 1 5 
Actions left: 3
Session index: 6

Observation: ..
Reward 0
About to find best action in Step: 6
Foind best action in Step: 6
Coolie

Action Type: 2

Presence: 0101000101110011100110011010110011111100
Invited Nodes: 1 5 
Actions left: 3
Session index: 7

Observation: ..
Reward 18.121
Terminated
Discounted return = 18.121, average = 17.3367
Undiscounted return = 18.121, average = 17.3367
Starting run 8 with 1024 simulations... 

Presence: 1010111110000011000110011110001001000000
Invited Nodes: 
Actions left: 3
Session index: 1
About to find best action in Step: 0
Values: 3.484(endSession) 7.12453(query) 7.80046(invite)
Foind best action in Step: 0
Coolie

Action Type: 1
Active Nodes: 1 27 

Presence: 1010111110000011000110011110001001000000
Invited Nodes: 
Actions left: 2
Session index: 1

Observation: ..
Reward -0
About to find best action in Step: 1
Values: 4.698(endSession) 6.41283(query) 7.26055(invite)
Foind best action in Step: 1
Coolie

Action Type: 1
Active Nodes: 6 11 

Presence: 1010111110000011000110011110001001000000
Invited Nodes: 6 
Actions left: 1
Session index: 1

Observation: ..1
Reward -0
About to find best action in Step: 2
Values: 6.55067(endSession) 7.1046(query) 6.37911(invite)
Foind best action in Step: 2
Coolie

Action Type: 0
Active Nodes: 2 38 

Presence: 1010111110000011000110011110001001000000
Invited Nodes: 6 
Actions left: 0
Session index: 1

Observation: ..1
Reward -0
About to find best action in Step: 3
Foind best action in Step: 3
Coolie

Action Type: 2

Presence: 0000000010000100100010000010010000000010
Invited Nodes: 6 
Actions left: 3
Session index: 2

Observation: ..
Reward 0
About to find best action in Step: 4
Values: 4.721(endSession) 7.10924(query) 7.08318(invite)
Foind best action in Step: 4
Coolie

Action Type: 0
Active Nodes: 8 23 

Presence: 0000000010000100100010000010010000000010
Invited Nodes: 6 
Actions left: 2
Session index: 2

Observation: ..1
Reward -0
About to find best action in Step: 5
Values: 6.81967(endSession) 7.49853(query) 7.39618(invite)
Foind best action in Step: 5
Coolie

Action Type: 0
Active Nodes: 17 20 

Presence: 0000000010000100100010000010010000000010
Invited Nodes: 6 
Actions left: 1
Session index: 2

Observation: ..10
Reward -0
About to find best action in Step: 6
Values: 7.35267(endSession) 7.01689(query) 8.46689(invite)
Foind best action in Step: 6
Coolie

Action Type: 1
Active Nodes: 1 

Presence: 0000000010000100100010000010010000000010
Invited Nodes: 6 
Actions left: 0
Session index: 2

Observation: ..
Reward -0
About to find best action in Step: 7
Foind best action in Step: 7
Coolie

Action Type: 2

Presence: 1111111111111111111111101111111111101101
Invited Nodes: 6 
Actions left: 3
Session index: 3

Observation: ..
Reward 0
About to find best action in Step: 8
Values: 4.4365(endSession) 7.27404(query) 7.73161(invite)
Foind best action in Step: 8
Coolie

Action Type: 1
Active Nodes: 1 

Presence: 1111111111111111111111101111111111101101
Invited Nodes: 1 6 
Actions left: 2
Session index: 3

Observation: ..1
Reward -0
About to find best action in Step: 9
Foind best action in Step: 9
Coolie

Action Type: 2

Presence: 1000100100000100000000010010000100001011
Invited Nodes: 1 6 
Actions left: 3
Session index: 4

Observation: ..
Reward 0
About to find best action in Step: 10
Foind best action in Step: 10
Coolie

Action Type: 2

Presence: 0000000000000100100000000001000001101111
Invited Nodes: 1 6 
Actions left: 3
Session index: 5

Observation: ..
Reward 0
About to find best action in Step: 11
Foind best action in Step: 11
Coolie

Action Type: 2

Presence: 1111111111110110101101111111111100100011
Invited Nodes: 1 6 
Actions left: 3
Session index: 6

Observation: ..
Reward 0
About to find best action in Step: 12
Foind best action in Step: 12
Coolie

Action Type: 2

Presence: 1111111111110111111111111101111110101010
Invited Nodes: 1 6 
Actions left: 3
Session index: 7

Observation: ..
Reward 15.711
Terminated
Discounted return = 15.711, average = 17.1335
Undiscounted return = 15.711, average = 17.1335
Starting run 9 with 1024 simulations... 

Presence: 0000000010001100011101000000001101001010
Invited Nodes: 
Actions left: 3
Session index: 1
About to find best action in Step: 0
Values: 2.891(endSession) 6.87429(query) 8.15179(invite)
Foind best action in Step: 0
Coolie

Action Type: 1
Active Nodes: 3 5 

Presence: 0000000010001100011101000000001101001010
Invited Nodes: 
Actions left: 2
Session index: 1

Observation: ..
Reward -0
About to find best action in Step: 1
Values: 7.022(endSession) 6.83963(query) 6.24365(invite)
Foind best action in Step: 1
Coolie

Action Type: 2

Presence: 0000000010000010000000110101000000100000
Invited Nodes: 
Actions left: 3
Session index: 2

Observation: ..
Reward 0
About to find best action in Step: 2
Values: 2.901(endSession) 7.98973(query) 8.2019(invite)
Foind best action in Step: 2
Coolie

Action Type: 1
Active Nodes: 1 27 

Presence: 0000000010000010000000110101000000100000
Invited Nodes: 27 
Actions left: 2
Session index: 2

Observation: ..10
Reward -0
About to find best action in Step: 3
Values: 2.904(endSession) 5.10369(query) 4.24155(invite)
Foind best action in Step: 3
Coolie

Action Type: 0
Active Nodes: 4 7 

Presence: 0000000010000010000000110101000000100000
Invited Nodes: 27 
Actions left: 1
Session index: 2

Observation: ..
Reward -0
About to find best action in Step: 4
Values: 2(endSession) 4.60285(query) 4.3934(invite)
Foind best action in Step: 4
Coolie

Action Type: 0
Active Nodes: 25 28 

Presence: 0000000010000010000000110101000000100000
Invited Nodes: 27 
Actions left: 0
Session index: 2

Observation: ..1
Reward -0
About to find best action in Step: 5
Foind best action in Step: 5
Coolie

Action Type: 2

Presence: 1111111111110011110111110111111111111010
Invited Nodes: 27 
Actions left: 3
Session index: 3

Observation: ..
Reward 0
About to find best action in Step: 6
Values: 2.6095(endSession) 4.69147(query) 4.81501(invite)
Foind best action in Step: 6
Coolie

Action Type: 1
Active Nodes: 1 

Presence: 1111111111110011110111110111111111111010
Invited Nodes: 1 27 
Actions left: 2
Session index: 3

Observation: ..1
Reward -0
About to find best action in Step: 7
Foind best action in Step: 7
Coolie

Action Type: 2

Presence: 0010000000000000000000000010000100010010
Invited Nodes: 1 27 
Actions left: 3
Session index: 4

Observation: ..
Reward 0
About to find best action in Step: 8
Foind best action in Step: 8
Coolie

Action Type: 2

Presence: 1111111111111111101101101111110101101001
Invited Nodes: 1 27 
Actions left: 3
Session index: 5

Observation: ..
Reward 0
About to find best action in Step: 9
Foind best action in Step: 9
Coolie

Action Type: 2

Presence: 0101111111110111110111110101101101111111
Invited Nodes: 1 27 
Actions left: 3
Session index: 6

Observation: ..
Reward 0
About to find best action in Step: 10
Foind best action in Step: 10
Coolie

Action Type: 2

Presence: 0000100000001010100110001001000000010110
Invited Nodes: 1 27 
Actions left: 3
Session index: 7

Observation: ..
Reward 14.637
Terminated
Discounted return = 14.637, average = 16.8561
Undiscounted return = 14.637, average = 16.8561
Starting run 10 with 1024 simulations... 

Presence: 0000000000010000000000100000110000010010
Invited Nodes: 
Actions left: 3
Session index: 1
About to find best action in Step: 0
Values: 2.895(endSession) 6.41991(query) 8.96366(invite)
Foind best action in Step: 0
Coolie

Action Type: 1
Active Nodes: 1 2 

Presence: 0000000000010000000000100000110000010010
Invited Nodes: 
Actions left: 2
Session index: 1

Observation: ..
Reward -0
About to find best action in Step: 1
Values: 4.736(endSession) 6.95159(query) 5.93332(invite)
Foind best action in Step: 1
Coolie

Action Type: 0
Active Nodes: 34 35 

Presence: 0000000000010000000000100000110000010010
Invited Nodes: 
Actions left: 1
Session index: 1

Observation: ..10
Reward -0
About to find best action in Step: 2
Values: 5.901(endSession) 6.63371(query) 6.52329(invite)
Foind best action in Step: 2
Coolie

Action Type: 0
Active Nodes: 2 31 

Presence: 0000000000010000000000100000110000010010
Invited Nodes: 
Actions left: 0
Session index: 1

Observation: ..
Reward -0
About to find best action in Step: 3
Foind best action in Step: 3
Coolie

Action Type: 2

Presence: 0111111111111011110110010010010101111110
Invited Nodes: 
Actions left: 3
Session index: 2

Observation: ..
Reward 0
About to find best action in Step: 4
Values: 4.668(endSession) 6.76964(query) 7.72836(invite)
Foind best action in Step: 4
Coolie

Action Type: 1
Active Nodes: 1 10 

Presence: 0111111111111011110110010010010101111110
Invited Nodes: 1 10 
Actions left: 2
Session index: 2

Observation: ..11
Reward -0
About to find best action in Step: 5
Foind best action in Step: 5
Coolie

Action Type: 2

Presence: 0000000000000100011100000001000010100010
Invited Nodes: 1 10 
Actions left: 3
Session index: 3

Observation: ..
Reward 0
About to find best action in Step: 6
Foind best action in Step: 6
Coolie

Action Type: 2

Presence: 0000000000000011010110000000000010000110
Invited Nodes: 1 10 
Actions left: 3
Session index: 4

Observation: ..
Reward 0
About to find best action in Step: 7
Foind best action in Step: 7
Coolie

Action Type: 2

Presence: 0111110111101111110110100111111000101111
Invited Nodes: 1 10 
Actions left: 3
Session index: 5

Observation: ..
Reward 0
About to find best action in Step: 8
Foind best action in Step: 8
Coolie

Action Type: 2

Presence: 1101111111110111111010101101110010001111
Invited Nodes: 1 10 
Actions left: 3
Session index: 6

Observation: ..
Reward 0
About to find best action in Step: 9
Foind best action in Step: 9
Coolie

Action Type: 2

Presence: 0000001000101000000110110110100100010011
Invited Nodes: 1 10 
Actions left: 3
Session index: 7

Observation: ..
Reward 18.928
Terminated
Discounted return = 18.928, average = 17.0633
Undiscounted return = 18.928, average = 17.0633
Starting run 11 with 1024 simulations... 

Presence: 0000100101011000000010001001111111000000
Invited Nodes: 
Actions left: 3
Session index: 1
About to find best action in Step: 0
Values: 6.804(endSession) 6.7031(query) 7.85895(invite)
Foind best action in Step: 0
Coolie

Action Type: 1
Active Nodes: 1 27 

Presence: 0000100101011000000010001001111111000000
Invited Nodes: 27 
Actions left: 2
Session index: 1

Observation: ..10
Reward -0
About to find best action in Step: 1
Values: 2(endSession) 4.57292(query) 4.4366(invite)
Foind best action in Step: 1
Coolie

Action Type: 0
Active Nodes: 8 24 

Presence: 0000100101011000000010001001111111000000
Invited Nodes: 27 
Actions left: 1
Session index: 1

Observation: ..10
Reward -0
About to find best action in Step: 2
Values: 3.192(endSession) 4.85353(query) 3.98289(invite)
Foind best action in Step: 2
Coolie

Action Type: 0
Active Nodes: 1 24 

Presence: 0000100101011000000010001001111111000000
Invited Nodes: 27 
Actions left: 0
Session index: 1

Observation: ..10
Reward -0
About to find best action in Step: 3
Foind best action in Step: 3
Coolie

Action Type: 2

Presence: 0000010100001000100100011001000100110100
Invited Nodes: 27 
Actions left: 3
Session index: 2

Observation: ..
Reward 0
About to find best action in Step: 4
Values: 2.292(endSession) 4.43694(query) 4.19391(invite)
Foind best action in Step: 4
Coolie

Action Type: 0
Active Nodes: 15 25 

Presence: 0000010100001000100100011001000100110100
Invited Nodes: 27 
Actions left: 2
Session index: 2

Observation: ..
Reward -0
About to find best action in Step: 5
Values: 2.294(endSession) 4.90686(query) 4.1007(invite)
Foind best action in Step: 5
Coolie

Action Type: 0
Active Nodes: 9 32 

Presence: 0000010100001000100100011001000100110100
Invited Nodes: 27 
Actions left: 1
Session index: 2

Observation: ..
Reward -0
About to find best action in Step: 6
Values: 2.297(endSession) 4.3099(query) 4.13681(invite)
Foind best action in Step: 6
Coolie

Action Type: 0
Active Nodes: 5 23 

Presence: 0000010100001000100100011001000100110100
Invited Nodes: 27 
Actions left: 0
Session index: 2

Observation: ..11
Reward -0
About to find best action in Step: 7
Foind best action in Step: 7
Coolie

Action Type: 2

Presence: 0000000010000000000010011101000100100010
Invited Nodes: 27 
Actions left: 3
Session index: 3

Observation: ..
Reward 0
About to find best action in Step: 8
Values: 1.5(endSession) 4.61667(query) 5.66015(invite)
Foind best action in Step: 8
Coolie

Action Type: 1
Active Nodes: 1 

Presence: 0000000010000000000010011101000100100010
Invited Nodes: 27 
Actions left: 2
Session index: 3

Observation: ..
Reward -0
About to find best action in Step: 9
Values: 3.62133(endSession) 4.98875(query) 4.25459(invite)
Foind best action in Step: 9
Coolie

Action Type: 0
Active Nodes: 19 31 

Presence: 0000000010000000000010011101000100100010
Invited Nodes: 27 
Actions left: 1
Session index: 3

Observation: ..10
Reward -0
About to find best action in Step: 10
Values: 4.99667(endSession) 4.85535(query) 5.02468(invite)
Foind best action in Step: 10
Coolie

Action Type: 1
Active Nodes: 2 

Presence: 0000000010000000000010011101000100100010
Invited Nodes: 27 
Actions left: 0
Session index: 3

Observation: ..
Reward -0
About to find best action in Step: 11
Foind best action in Step: 11
Coolie

Action Type: 2

Presence: 1101111111110110110111001010111111011011
Invited Nodes: 27 
Actions left: 3
Session index: 4

Observation: ..
Reward 0
About to find best action in Step: 12
Values: 2.889(endSession) 4.88084(query) 4.51444(invite)
Foind best action in Step: 12
Coolie

Action Type: 0
Active Nodes: 5 8 

Presence: 1101111111110110110111001010111111011011
Invited Nodes: 27 
Actions left: 2
Session index: 4

Observation: ..11
Reward -0
About to find best action in Step: 13
Values: 2.3035(endSession) 4.80674(query) 5.57107(invite)
Foind best action in Step: 13
Coolie

Action Type: 1
Active Nodes: 3 

Presence: 1101111111110110110111001010111111011011
Invited Nodes: 3 27 
Actions left: 1
Session index: 4

Observation: ..1
Reward -0
About to find best action in Step: 14
Foind best action in Step: 14
Coolie

Action Type: 2

Presence: 1111111000110110111011110100011100000111
Invited Nodes: 3 27 
Actions left: 3
Session index: 5

Observation: ..
Reward 0
About to find best action in Step: 15
Foind best action in Step: 15
Coolie

Action Type: 2

Presence: 0000000000000111000100100101110000000000
Invited Nodes: 3 27 
Actions left: 3
Session index: 6

Observation: ..
Reward 0
About to find best action in Step: 16
Foind best action in Step: 16
Coolie

Action Type: 2

Presence: 0010000000011000010000001110100110000000
Invited Nodes: 3 27 
Actions left: 3
Session index: 7

Observation: ..
Reward 11.017
Terminated
Discounted return = 11.017, average = 16.5136
Undiscounted return = 11.017, average = 16.5136
Starting run 12 with 1024 simulations... 

Presence: 0100101100000010010010010101000010110100
Invited Nodes: 
Actions left: 3
Session index: 1
About to find best action in Step: 0
Values: 8.599(endSession) 6.82188(query) 8.55404(invite)
Foind best action in Step: 0
Coolie

Action Type: 2

Presence: 1001111111011001110001101101101001110100
Invited Nodes: 
Actions left: 3
Session index: 2

Observation: ..
Reward 0
About to find best action in Step: 1
Values: 4.1055(endSession) 6.83577(query) 8.22769(invite)
Foind best action in Step: 1
Coolie

Action Type: 1
Active Nodes: 1 5 

Presence: 1001111111011001110001101101101001110100
Invited Nodes: 5 
Actions left: 2
Session index: 2

Observation: ..10
Reward -0
About to find best action in Step: 2
Values: 8.681(endSession) 11.0201(query) 9.91831(invite)
Foind best action in Step: 2
Coolie

Action Type: 0
Active Nodes: 2 3 

Presence: 1001111111011001110001101101101001110100
Invited Nodes: 5 
Actions left: 1
Session index: 2

Observation: ..10
Reward -0
About to find best action in Step: 3
Values: 9.79833(endSession) 10.6237(query) 11.009(invite)
Foind best action in Step: 3
Coolie

Action Type: 1
Active Nodes: 3 

Presence: 1001111111011001110001101101101001110100
Invited Nodes: 3 5 
Actions left: 0
Session index: 2

Observation: ..1
Reward -0
About to find best action in Step: 4
Foind best action in Step: 4
Coolie

Action Type: 2

Presence: 0000000100000001000000000110000001001101
Invited Nodes: 3 5 
Actions left: 3
Session index: 3

Observation: ..
Reward 0
About to find best action in Step: 5
Foind best action in Step: 5
Coolie

Action Type: 2

Presence: 1000100000010010100001000001001010000000
Invited Nodes: 3 5 
Actions left: 3
Session index: 4

Observation: ..
Reward 0
About to find best action in Step: 6
Foind best action in Step: 6
Coolie

Action Type: 2

Presence: 0001000000010001010000100000000000010000
Invited Nodes: 3 5 
Actions left: 3
Session index: 5

Observation: ..
Reward 0
About to find best action in Step: 7
Foind best action in Step: 7
Coolie

Action Type: 2

Presence: 0000000000000101000010100000010000000100
Invited Nodes: 3 5 
Actions left: 3
Session index: 6

Observation: ..
Reward 0
About to find best action in Step: 8
Foind best action in Step: 8
Coolie

Action Type: 2

Presence: 0000000010000100000001000010010000010010
Invited Nodes: 3 5 
Actions left: 3
Session index: 7

Observation: ..
Reward 15.22
Terminated
Discounted return = 15.22, average = 16.4058
Undiscounted return = 15.22, average = 16.4058
Starting run 13 with 1024 simulations... 

Presence: 0000000001110010001010100000110100110011
Invited Nodes: 
Actions left: 3
Session index: 1
About to find best action in Step: 0
Values: 3.2005(endSession) 7.23302(query) 7.30122(invite)
Foind best action in Step: 0
Coolie

Action Type: 1
Active Nodes: 1 5 

Presence: 0000000001110010001010100000110100110011
Invited Nodes: 
Actions left: 2
Session index: 1

Observation: ..
Reward -0
About to find best action in Step: 1
Values: 2.3075(endSession) 7.03809(query) 6.69141(invite)
Foind best action in Step: 1
Coolie

Action Type: 0
Active Nodes: 12 29 

Presence: 0000000001110010001010100000110100110011
Invited Nodes: 
Actions left: 1
Session index: 1

Observation: ..10
Reward -0
About to find best action in Step: 2
Values: 3.79(endSession) 7.20022(query) 6.94645(invite)
Foind best action in Step: 2
Coolie

Action Type: 0
Active Nodes: 1 14 

Presence: 0000000001110010001010100000110100110011
Invited Nodes: 
Actions left: 0
Session index: 1

Observation: ..10
Reward -0
About to find best action in Step: 3
Foind best action in Step: 3
Coolie

Action Type: 2

Presence: 0000000000000100000000100110000010101000
Invited Nodes: 
Actions left: 3
Session index: 2

Observation: ..
Reward 0
About to find best action in Step: 4
Values: 8.0475(endSession) 6.5052(query) 7.64874(invite)
Foind best action in Step: 4
Coolie

Action Type: 2

Presence: 1111111111111110111111111110111111101101
Invited Nodes: 
Actions left: 3
Session index: 3

Observation: ..
Reward 0
About to find best action in Step: 5
Values: 2.8915(endSession) 6.93201(query) 7.09648(invite)
Foind best action in Step: 5
Coolie

Action Type: 1
Active Nodes: 2 5 

Presence: 1111111111111110111111111110111111101101
Invited Nodes: 2 5 
Actions left: 2
Session index: 3

Observation: ..11
Reward -0
About to find best action in Step: 6
Foind best action in Step: 6
Coolie

Action Type: 2

Presence: 1111111111110101111011111110011010101111
Invited Nodes: 2 5 
Actions left: 3
Session index: 4

Observation: ..
Reward 0
About to find best action in Step: 7
Foind best action in Step: 7
Coolie

Action Type: 2

Presence: 0000000000000000001000110000000001000000
Invited Nodes: 2 5 
Actions left: 3
Session index: 5

Observation: ..
Reward 0
About to find best action in Step: 8
Foind best action in Step: 8
Coolie

Action Type: 2

Presence: 0000000000000001000000000001000100000000
Invited Nodes: 2 5 
Actions left: 3
Session index: 6

Observation: ..
Reward 0
About to find best action in Step: 9
Foind best action in Step: 9
Coolie

Action Type: 2

Presence: 1111011011100110011110101101111010011010
Invited Nodes: 2 5 
Actions left: 3
Session index: 7

Observation: ..
Reward 11.959
Terminated
Discounted return = 11.959, average = 16.0638
Undiscounted return = 11.959, average = 16.0638
Starting run 14 with 1024 simulations... 

Presence: 1111111111111111100111010111110010101111
Invited Nodes: 
Actions left: 3
Session index: 1
About to find best action in Step: 0
Values: 2.2985(endSession) 6.69104(query) 8.03886(invite)
Foind best action in Step: 0
Coolie

Action Type: 1
Active Nodes: 3 5 

Presence: 1111111111111111100111010111110010101111
Invited Nodes: 3 5 
Actions left: 2
Session index: 1

Observation: ..11
Reward -0
About to find best action in Step: 1
Foind best action in Step: 1
Coolie

Action Type: 2

Presence: 0000001001011100001100000110100010000011
Invited Nodes: 3 5 
Actions left: 3
Session index: 2

Observation: ..
Reward 0
About to find best action in Step: 2
Foind best action in Step: 2
Coolie

Action Type: 2

Presence: 0010000011101101100111110111100010010110
Invited Nodes: 3 5 
Actions left: 3
Session index: 3

Observation: ..
Reward 0
About to find best action in Step: 3
Foind best action in Step: 3
Coolie

Action Type: 2

Presence: 1111111111011011000000111111011011001001
Invited Nodes: 3 5 
Actions left: 3
Session index: 4

Observation: ..
Reward 0
About to find best action in Step: 4
Foind best action in Step: 4
Coolie

Action Type: 2

Presence: 0000000000100111000000100110001000000100
Invited Nodes: 3 5 
Actions left: 3
Session index: 5

Observation: ..
Reward 0
About to find best action in Step: 5
Foind best action in Step: 5
Coolie

Action Type: 2

Presence: 1111111111100111111011111011000111011010
Invited Nodes: 3 5 
Actions left: 3
Session index: 6

Observation: ..
Reward 0
About to find best action in Step: 6
Foind best action in Step: 6
Coolie

Action Type: 2

Presence: 0011011100001111000100111111010100111110
Invited Nodes: 3 5 
Actions left: 3
Session index: 7

Observation: ..
Reward 15.283
Terminated
Discounted return = 15.283, average = 16.008
Undiscounted return = 15.283, average = 16.008
Starting run 15 with 1024 simulations... 

Presence: 1111111101111111100110110110111110111100
Invited Nodes: 
Actions left: 3
Session index: 1
About to find best action in Step: 0
Values: 2.895(endSession) 7.72109(query) 8.55069(invite)
Foind best action in Step: 0
Coolie

Action Type: 1
Active Nodes: 1 9 

Presence: 1111111101111111100110110110111110111100
Invited Nodes: 1 9 
Actions left: 2
Session index: 1

Observation: ..11
Reward -0
About to find best action in Step: 1
Foind best action in Step: 1
Coolie

Action Type: 2

Presence: 0000000000010000000101100100001000101010
Invited Nodes: 1 9 
Actions left: 3
Session index: 2

Observation: ..
Reward 0
About to find best action in Step: 2
Foind best action in Step: 2
Coolie

Action Type: 2

Presence: 1111111010001001110011111111011001011110
Invited Nodes: 1 9 
Actions left: 3
Session index: 3

Observation: ..
Reward 0
About to find best action in Step: 3
Foind best action in Step: 3
Coolie

Action Type: 2

Presence: 1011111101110111000010011111110000101010
Invited Nodes: 1 9 
Actions left: 3
Session index: 4

Observation: ..
Reward 0
About to find best action in Step: 4
Foind best action in Step: 4
Coolie

Action Type: 2

Presence: 0111111111111110111110011010110011011110
Invited Nodes: 1 9 
Actions left: 3
Session index: 5

Observation: ..
Reward 0
About to find best action in Step: 5
Foind best action in Step: 5
Coolie

Action Type: 2

Presence: 0000000010000000100000100000000011000101
Invited Nodes: 1 9 
Actions left: 3
Session index: 6

Observation: ..
Reward 0
About to find best action in Step: 6
Foind best action in Step: 6
Coolie

Action Type: 2

Presence: 1111111101110011011011111111110110111000
Invited Nodes: 1 9 
Actions left: 3
Session index: 7

Observation: ..
Reward 18.174
Terminated
Discounted return = 18.174, average = 16.1524
Undiscounted return = 18.174, average = 16.1524
Starting run 16 with 1024 simulations... 

Presence: 0111111111101110011111100110011111111011
Invited Nodes: 
Actions left: 3
Session index: 1
About to find best action in Step: 0
Values: 3.191(endSession) 6.9346(query) 8.20261(invite)
Foind best action in Step: 0
Coolie

Action Type: 1
Active Nodes: 3 5 

Presence: 0111111111101110011111100110011111111011
Invited Nodes: 3 5 
Actions left: 2
Session index: 1

Observation: ..11
Reward -0
About to find best action in Step: 1
Foind best action in Step: 1
Coolie

Action Type: 2

Presence: 1111111101110011111111011101111100111111
Invited Nodes: 3 5 
Actions left: 3
Session index: 2

Observation: ..
Reward 0
About to find best action in Step: 2
Foind best action in Step: 2
Coolie

Action Type: 2

Presence: 0000001100000010001000100010001000101001
Invited Nodes: 3 5 
Actions left: 3
Session index: 3

Observation: ..
Reward 0
About to find best action in Step: 3
Foind best action in Step: 3
Coolie

Action Type: 2

Presence: 0000101010000001000011000000000010001000
Invited Nodes: 3 5 
Actions left: 3
Session index: 4

Observation: ..
Reward 0
About to find best action in Step: 4
Foind best action in Step: 4
Coolie

Action Type: 2

Presence: 1010000010010100000011100101101000000000
Invited Nodes: 3 5 
Actions left: 3
Session index: 5

Observation: ..
Reward 0
About to find best action in Step: 5
Foind best action in Step: 5
Coolie

Action Type: 2

Presence: 0010100101110110100010000101011100001000
Invited Nodes: 3 5 
Actions left: 3
Session index: 6

Observation: ..
Reward 0
About to find best action in Step: 6
Foind best action in Step: 6
Coolie

Action Type: 2

Presence: 0000000010110000000101100000010010110000
Invited Nodes: 3 5 
Actions left: 3
Session index: 7

Observation: ..
Reward 15.198
Terminated
Discounted return = 15.198, average = 16.0928
Undiscounted return = 15.198, average = 16.0928
Starting run 17 with 1024 simulations... 

Presence: 1111111111111011111001100011011011001111
Invited Nodes: 
Actions left: 3
Session index: 1
About to find best action in Step: 0
Values: 2.6235(endSession) 6.98555(query) 7.43453(invite)
Foind best action in Step: 0
Coolie

Action Type: 1
Active Nodes: 1 24 

Presence: 1111111111111011111001100011011011001111
Invited Nodes: 1 
Actions left: 2
Session index: 1

Observation: ..1
Reward -0
About to find best action in Step: 1
Values: 15.9843(endSession) 15.8315(query) 16.5864(invite)
Foind best action in Step: 1
Coolie

Action Type: 1
Active Nodes: 3 

Presence: 1111111111111011111001100011011011001111
Invited Nodes: 1 3 
Actions left: 1
Session index: 1

Observation: ..1
Reward -0
About to find best action in Step: 2
Foind best action in Step: 2
Coolie

Action Type: 2

Presence: 1111111111111010111011110110111111011110
Invited Nodes: 1 3 
Actions left: 3
Session index: 2

Observation: ..
Reward 0
About to find best action in Step: 3
Foind best action in Step: 3
Coolie

Action Type: 2

Presence: 1000000000001100011100100101100000010011
Invited Nodes: 1 3 
Actions left: 3
Session index: 3

Observation: ..
Reward 0
About to find best action in Step: 4
Foind best action in Step: 4
Coolie

Action Type: 2

Presence: 1111111111011111111111001110111011110011
Invited Nodes: 1 3 
Actions left: 3
Session index: 4

Observation: ..
Reward 0
About to find best action in Step: 5
Foind best action in Step: 5
Coolie

Action Type: 2

Presence: 1111011111111110111111101111111111111001
Invited Nodes: 1 3 
Actions left: 3
Session index: 5

Observation: ..
Reward 0
About to find best action in Step: 6
Foind best action in Step: 6
Coolie

Action Type: 2

Presence: 1111111111101111110001011100110111111111
Invited Nodes: 1 3 
Actions left: 3
Session index: 6

Observation: ..
Reward 0
About to find best action in Step: 7
Foind best action in Step: 7
Coolie

Action Type: 2

Presence: 1111111111110111111101110011011111111111
Invited Nodes: 1 3 
Actions left: 3
Session index: 7

Observation: ..
Reward 20.16
Terminated
Discounted return = 20.16, average = 16.332
Undiscounted return = 20.16, average = 16.332
Starting run 18 with 1024 simulations... 

Presence: 0101011111001111011111101011111101100111
Invited Nodes: 
Actions left: 3
Session index: 1
About to find best action in Step: 0
Values: 2.601(endSession) 7.27996(query) 8.33065(invite)
Foind best action in Step: 0
Coolie

Action Type: 1
Active Nodes: 1 2 

Presence: 0101011111001111011111101011111101100111
Invited Nodes: 1 
Actions left: 2
Session index: 1

Observation: ..1
Reward -0
About to find best action in Step: 1
Values: 14.946(endSession) 16.0592(query) 16.4864(invite)
Foind best action in Step: 1
Coolie

Action Type: 1
Active Nodes: 3 

Presence: 0101011111001111011111101011111101100111
Invited Nodes: 1 3 
Actions left: 1
Session index: 1

Observation: ..1
Reward -0
About to find best action in Step: 2
Foind best action in Step: 2
Coolie

Action Type: 2

Presence: 0000000100011100010100010100000001110010
Invited Nodes: 1 3 
Actions left: 3
Session index: 2

Observation: ..
Reward 0
About to find best action in Step: 3
Foind best action in Step: 3
Coolie

Action Type: 2

Presence: 1111111111101111111110011011010111010111
Invited Nodes: 1 3 
Actions left: 3
Session index: 3

Observation: ..
Reward 0
About to find best action in Step: 4
Foind best action in Step: 4
Coolie

Action Type: 2

Presence: 0000000000100001011110001110100110001010
Invited Nodes: 1 3 
Actions left: 3
Session index: 4

Observation: ..
Reward 0
About to find best action in Step: 5
Foind best action in Step: 5
Coolie

Action Type: 2

Presence: 1101111111111101111011111111111111111101
Invited Nodes: 1 3 
Actions left: 3
Session index: 5

Observation: ..
Reward 0
About to find best action in Step: 6
Foind best action in Step: 6
Coolie

Action Type: 2

Presence: 0111111111111011111011101111101111111010
Invited Nodes: 1 3 
Actions left: 3
Session index: 6

Observation: ..
Reward 0
About to find best action in Step: 7
Foind best action in Step: 7
Coolie

Action Type: 2

Presence: 0000000000001100100100010000010000000000
Invited Nodes: 1 3 
Actions left: 3
Session index: 7

Observation: ..
Reward 20.13
Terminated
Discounted return = 20.13, average = 16.543
Undiscounted return = 20.13, average = 16.543
Starting run 19 with 1024 simulations... 

Presence: 1111111111101111111111111111111111111101
Invited Nodes: 
Actions left: 3
Session index: 1
About to find best action in Step: 0
Values: 3.757(endSession) 6.95154(query) 8.92887(invite)
Foind best action in Step: 0
Coolie

Action Type: 1
Active Nodes: 1 2 

Presence: 1111111111101111111111111111111111111101
Invited Nodes: 1 2 
Actions left: 2
Session index: 1

Observation: ..11
Reward -0
About to find best action in Step: 1
Foind best action in Step: 1
Coolie

Action Type: 2

Presence: 0101111101111111011011101001001011010110
Invited Nodes: 1 2 
Actions left: 3
Session index: 2

Observation: ..
Reward 0
About to find best action in Step: 2
Foind best action in Step: 2
Coolie

Action Type: 2

Presence: 0010000101010100100000000000110111100000
Invited Nodes: 1 2 
Actions left: 3
Session index: 3

Observation: ..
Reward 0
About to find best action in Step: 3
Foind best action in Step: 3
Coolie

Action Type: 2

Presence: 0111111000100110111111011000011001101110
Invited Nodes: 1 2 
Actions left: 3
Session index: 4

Observation: ..
Reward 0
About to find best action in Step: 4
Foind best action in Step: 4
Coolie

Action Type: 2

Presence: 1000100000000100000000000001100000000000
Invited Nodes: 1 2 
Actions left: 3
Session index: 5

Observation: ..
Reward 0
About to find best action in Step: 5
Foind best action in Step: 5
Coolie

Action Type: 2

Presence: 1111101010001010111111110001101101110011
Invited Nodes: 1 2 
Actions left: 3
Session index: 6

Observation: ..
Reward 0
About to find best action in Step: 6
Foind best action in Step: 6
Coolie

Action Type: 2

Presence: 1111111111110001111011011111011111101001
Invited Nodes: 1 2 
Actions left: 3
Session index: 7

Observation: ..
Reward 16.616
Terminated
Discounted return = 16.616, average = 16.5468
Undiscounted return = 16.616, average = 16.5468
Starting run 20 with 1024 simulations... 

Presence: 1111111101111100101010011111111111111101
Invited Nodes: 
Actions left: 3
Session index: 1
About to find best action in Step: 0
Values: 2.5955(endSession) 6.5724(query) 8.27492(invite)
Foind best action in Step: 0
Coolie

Action Type: 1
Active Nodes: 1 3 

Presence: 1111111101111100101010011111111111111101
Invited Nodes: 1 3 
Actions left: 2
Session index: 1

Observation: ..11
Reward -0
About to find best action in Step: 1
Foind best action in Step: 1
Coolie

Action Type: 2

Presence: 0000000001001000100000000000110100010110
Invited Nodes: 1 3 
Actions left: 3
Session index: 2

Observation: ..
Reward 0
About to find best action in Step: 2
Foind best action in Step: 2
Coolie

Action Type: 2

Presence: 1111111100111011111001111011011111010110
Invited Nodes: 1 3 
Actions left: 3
Session index: 3

Observation: ..
Reward 0
About to find best action in Step: 3
Foind best action in Step: 3
Coolie

Action Type: 2

Presence: 0000000100000001000001011000000001000110
Invited Nodes: 1 3 
Actions left: 3
Session index: 4

Observation: ..
Reward 0
About to find best action in Step: 4
Foind best action in Step: 4
Coolie

Action Type: 2

Presence: 1111001101110111100111110110101001000001
Invited Nodes: 1 3 
Actions left: 3
Session index: 5

Observation: ..
Reward 0
About to find best action in Step: 5
Foind best action in Step: 5
Coolie

Action Type: 2

Presence: 1101111100011111010110011001010001010101
Invited Nodes: 1 3 
Actions left: 3
Session index: 6

Observation: ..
Reward 0
About to find best action in Step: 6
Foind best action in Step: 6
Coolie

Action Type: 2

Presence: 0000100000100000100100010101110001110010
Invited Nodes: 1 3 
Actions left: 3
Session index: 7

Observation: ..
Reward 20.095
Terminated
Discounted return = 20.095, average = 16.7242
Undiscounted return = 20.095, average = 16.7242
Simulations = 1024
Runs = 20
Undiscounted return = 16.7242 +- 0.606367
Discounted return = 16.7242 +- 0.606367
Time = 13.5845
----------------------------------------
Begin PBS Epilogue Thu Aug 31 16:56:35 PDT 2017
Job ID:           24132695.hpc-pbs1.hpcc.usc.edu
Username:         amulyaya
Accountname:      default
Group:            csci-ar
Job Name:         1.pbs
Session:          20618
Limits:           neednodes=1:ppn=16:sl230s,nodes=1:ppn=16:sl230s,walltime=24:00:00
Resources:        cput=00:04:34,energy_used=0,mem=24821896kb,vmem=24657556kb,walltime=00:04:35
Queue:            tambe
Shared Access:    no
Has MIC:          no
Is hsda:          false
removed '/scratch'
End PBS Epilogue Thu Aug 31 16:56:36 PDT 2017
----------------------------------------
