----------------------------------------
Begin PBS Prologue Thu Aug 31 16:57:52 PDT 2017
Job ID:            24132697.hpc-pbs1.hpcc.usc.edu
Username:          amulyaya
Accountname:       default
Group:             csci-ar
Project:           default
Name:              3.pbs
Queue:             tambe
Shared Access:     no
All Cores:         no
Has MIC:           no
Is hsda:           false
Nodes:             hpc3444 
TMPDIR:            /tmp/24132697.hpc-pbs1.hpcc.usc.edu
End PBS Prologue Thu Aug 31 16:57:53 PDT 2017
----------------------------------------
******************************************************************************
METIS 5.0 Copyright 1998-13, Regents of the University of Minnesota
 (HEAD: , Built on: Oct 20 2015, 01:33:37)
 size of idx_t: 64bits, real_t: 32bits, idx_t *: 64bits

Graph Information -----------------------------------------------------------
 Name: /home/rcf-proj/mj1/amulyaya/pomcp-ve/src/RX9cn58Xgt.txt, #Vertices: 40, #Edges: 111, #Parts: 4

Options ---------------------------------------------------------------------
 ptype=kway, objtype=cut, ctype=shem, rtype=greedy, iptype=metisrb
 dbglvl=0, ufactor=1.030, no2hop=NO, minconn=NO, contig=NO, nooutput=NO
 seed=-1, niter=10, ncuts=1

Direct k-way Partitioning ---------------------------------------------------
 - Edgecut: 54, communication volume: 73.

 - Balance:
     constraint #0:  1.000 out of 0.100

 - Most overweight partition:
     pid: 0, actual: 10, desired: 10, ratio: 1.00.

 - Subdomain connectivity: max: 3, min: 3, avg: 3.00

 - Each partition is contiguous.

Timing Information ----------------------------------------------------------
  I/O:          		   0.001 sec
  Partitioning: 		   0.003 sec   (METIS time)
  Reporting:    		   0.000 sec

Memory Information ----------------------------------------------------------
  Max memory used:		   0.066 MB
******************************************************************************
Initialising fast UCB table... done
Main runs
Starting run 1 with 1024 simulations... 

Presence: 0000000000000000110100001100001001010101
Invited Nodes: 
Actions left: 3
Session index: 1
About to find best action in Step: 0
Values: 4.369(endSession) 6.74372(query) 7.47137(invite)
Foind best action in Step: 0
Coolie

Action Type: 1
Active Nodes: 6 12 

Presence: 0000000000000000110100001100001001010101
Invited Nodes: 
Actions left: 2
Session index: 1

Observation: ..
Reward -0
About to find best action in Step: 1
Values: 7.4475(endSession) 5.87743(query) 6.16958(invite)
Foind best action in Step: 1
Coolie

Action Type: 2

Presence: 0000010010001010010010011110001001100001
Invited Nodes: 
Actions left: 3
Session index: 2

Observation: ..
Reward 0
About to find best action in Step: 2
Values: 5.876(endSession) 6.71043(query) 8.36564(invite)
Foind best action in Step: 2
Coolie

Action Type: 1
Active Nodes: 2 3 

Presence: 0000010010001010010010011110001001100001
Invited Nodes: 
Actions left: 2
Session index: 2

Observation: ..
Reward -0
About to find best action in Step: 3
Values: 4.0895(endSession) 6.03366(query) 5.99467(invite)
Foind best action in Step: 3
Coolie

Action Type: 0
Active Nodes: 3 36 

Presence: 0000010010001010010010011110001001100001
Invited Nodes: 
Actions left: 1
Session index: 2

Observation: ..
Reward -0
About to find best action in Step: 4
Values: 4.3915(endSession) 6.23202(query) 6.3337(invite)
Foind best action in Step: 4
Coolie

Action Type: 1
Active Nodes: 4 28 

Presence: 0000010010001010010010011110001001100001
Invited Nodes: 
Actions left: 0
Session index: 2

Observation: ..
Reward -0
About to find best action in Step: 5
Foind best action in Step: 5
Coolie

Action Type: 2

Presence: 0000000000100100100000000010001000001000
Invited Nodes: 
Actions left: 3
Session index: 3

Observation: ..
Reward 0
About to find best action in Step: 6
Values: 5.604(endSession) 6.15995(query) 8.39891(invite)
Foind best action in Step: 6
Coolie

Action Type: 1
Active Nodes: 2 3 

Presence: 0000000000100100100000000010001000001000
Invited Nodes: 
Actions left: 2
Session index: 3

Observation: ..
Reward -0
About to find best action in Step: 7
Values: 3.227(endSession) 6.69105(query) 5.6891(invite)
Foind best action in Step: 7
Coolie

Action Type: 0
Active Nodes: 15 31 

Presence: 0000000000100100100000000010001000001000
Invited Nodes: 
Actions left: 1
Session index: 3

Observation: ..
Reward -0
About to find best action in Step: 8
Values: 2(endSession) 6.97048(query) 6.13385(invite)
Foind best action in Step: 8
Coolie

Action Type: 0
Active Nodes: 15 18 

Presence: 0000000000100100100000000010001000001000
Invited Nodes: 
Actions left: 0
Session index: 3

Observation: ..
Reward -0
About to find best action in Step: 9
Foind best action in Step: 9
Coolie

Action Type: 2

Presence: 0100111100011111001011111101001010110010
Invited Nodes: 
Actions left: 3
Session index: 4

Observation: ..
Reward 0
About to find best action in Step: 10
Values: 3.499(endSession) 6.38265(query) 8.0958(invite)
Foind best action in Step: 10
Coolie

Action Type: 1
Active Nodes: 2 12 

Presence: 0100111100011111001011111101001010110010
Invited Nodes: 12 
Actions left: 2
Session index: 4

Observation: ..10
Reward -0
About to find best action in Step: 11
Values: 5.708(endSession) 8.36235(query) 7.58156(invite)
Foind best action in Step: 11
Coolie

Action Type: 0
Active Nodes: 27 30 

Presence: 0100111100011111001011111101001010110010
Invited Nodes: 12 
Actions left: 1
Session index: 4

Observation: ..11
Reward -0
About to find best action in Step: 12
Values: 6.514(endSession) 8.39896(query) 8.03725(invite)
Foind best action in Step: 12
Coolie

Action Type: 0
Active Nodes: 26 33 

Presence: 0100111100011111001011111101001010110010
Invited Nodes: 12 
Actions left: 0
Session index: 4

Observation: ..
Reward -0
About to find best action in Step: 13
Foind best action in Step: 13
Coolie

Action Type: 2

Presence: 0011111111110000111000011110011000101100
Invited Nodes: 12 
Actions left: 3
Session index: 5

Observation: ..
Reward 0
About to find best action in Step: 14
Values: 6.2145(endSession) 8.00341(query) 9.21228(invite)
Foind best action in Step: 14
Coolie

Action Type: 1
Active Nodes: 2 

Presence: 0011111111110000111000011110011000101100
Invited Nodes: 2 12 
Actions left: 2
Session index: 5

Observation: ..1
Reward -0
About to find best action in Step: 15
Foind best action in Step: 15
Coolie

Action Type: 2

Presence: 0001000101000110000000001111100000101000
Invited Nodes: 2 12 
Actions left: 3
Session index: 6

Observation: ..
Reward 0
About to find best action in Step: 16
Foind best action in Step: 16
Coolie

Action Type: 2

Presence: 1111111011111111111101111110010110010000
Invited Nodes: 2 12 
Actions left: 3
Session index: 7

Observation: ..
Reward 15.547
Terminated
Discounted return = 15.547, average = 15.547
Undiscounted return = 15.547, average = 15.547
Starting run 2 with 1024 simulations... 

Presence: 1111111011111101101111101011110011101010
Invited Nodes: 
Actions left: 3
Session index: 1
About to find best action in Step: 0
Values: 4.397(endSession) 6.16408(query) 8.03968(invite)
Foind best action in Step: 0
Coolie

Action Type: 1
Active Nodes: 0 2 

Presence: 1111111011111101101111101011110011101010
Invited Nodes: 0 2 
Actions left: 2
Session index: 1

Observation: ..11
Reward -0
About to find best action in Step: 1
Foind best action in Step: 1
Coolie

Action Type: 2

Presence: 1011111101111111110110111111101011111000
Invited Nodes: 0 2 
Actions left: 3
Session index: 2

Observation: ..
Reward 0
About to find best action in Step: 2
Foind best action in Step: 2
Coolie

Action Type: 2

Presence: 1111111111111110110101111111111011100111
Invited Nodes: 0 2 
Actions left: 3
Session index: 3

Observation: ..
Reward 0
About to find best action in Step: 3
Foind best action in Step: 3
Coolie

Action Type: 2

Presence: 0000000000100000101100010110010010101000
Invited Nodes: 0 2 
Actions left: 3
Session index: 4

Observation: ..
Reward 0
About to find best action in Step: 4
Foind best action in Step: 4
Coolie

Action Type: 2

Presence: 0100001100010101010011011010000110000000
Invited Nodes: 0 2 
Actions left: 3
Session index: 5

Observation: ..
Reward 0
About to find best action in Step: 5
Foind best action in Step: 5
Coolie

Action Type: 2

Presence: 1000000010000001000000001000000000000000
Invited Nodes: 0 2 
Actions left: 3
Session index: 6

Observation: ..
Reward 0
About to find best action in Step: 6
Foind best action in Step: 6
Coolie

Action Type: 2

Presence: 0001010001000000100001011010000000000110
Invited Nodes: 0 2 
Actions left: 3
Session index: 7

Observation: ..
Reward 15.034
Terminated
Discounted return = 15.034, average = 15.2905
Undiscounted return = 15.034, average = 15.2905
Starting run 3 with 1024 simulations... 

Presence: 1100000000000100110001000100011000010011
Invited Nodes: 
Actions left: 3
Session index: 1
About to find best action in Step: 0
Values: 5.2865(endSession) 6.73323(query) 7.76831(invite)
Foind best action in Step: 0
Coolie

Action Type: 1
Active Nodes: 2 14 

Presence: 1100000000000100110001000100011000010011
Invited Nodes: 
Actions left: 2
Session index: 1

Observation: ..
Reward -0
About to find best action in Step: 1
Values: 2.894(endSession) 6.40916(query) 6.38822(invite)
Foind best action in Step: 1
Coolie

Action Type: 0
Active Nodes: 19 37 

Presence: 1100000000000100110001000100011000010011
Invited Nodes: 
Actions left: 1
Session index: 1

Observation: ..
Reward -0
About to find best action in Step: 2
Values: 5.579(endSession) 6.31298(query) 6.11508(invite)
Foind best action in Step: 2
Coolie

Action Type: 0
Active Nodes: 5 12 

Presence: 1100000000000100110001000100011000010011
Invited Nodes: 
Actions left: 0
Session index: 1

Observation: ..
Reward -0
About to find best action in Step: 3
Foind best action in Step: 3
Coolie

Action Type: 2

Presence: 1000000000000000000000001000001000100000
Invited Nodes: 
Actions left: 3
Session index: 2

Observation: ..
Reward 0
About to find best action in Step: 4
Values: 2.6075(endSession) 6.44746(query) 8.0325(invite)
Foind best action in Step: 4
Coolie

Action Type: 1
Active Nodes: 2 6 

Presence: 1000000000000000000000001000001000100000
Invited Nodes: 
Actions left: 2
Session index: 2

Observation: ..
Reward -0
About to find best action in Step: 5
Values: 3.796(endSession) 5.92399(query) 6.45346(invite)
Foind best action in Step: 5
Coolie

Action Type: 1
Active Nodes: 5 6 

Presence: 1000000000000000000000001000001000100000
Invited Nodes: 
Actions left: 1
Session index: 2

Observation: ..
Reward -0
About to find best action in Step: 6
Values: 5.4115(endSession) 6.22578(query) 6.42724(invite)
Foind best action in Step: 6
Coolie

Action Type: 1
Active Nodes: 25 31 

Presence: 1000000000000000000000001000001000100000
Invited Nodes: 
Actions left: 0
Session index: 2

Observation: ..
Reward -0
About to find best action in Step: 7
Foind best action in Step: 7
Coolie

Action Type: 2

Presence: 1000000000010100000000100101010001010001
Invited Nodes: 
Actions left: 3
Session index: 3

Observation: ..
Reward 0
About to find best action in Step: 8
Values: 4.818(endSession) 6.52456(query) 7.32496(invite)
Foind best action in Step: 8
Coolie

Action Type: 1
Active Nodes: 2 4 

Presence: 1000000000010100000000100101010001010001
Invited Nodes: 
Actions left: 2
Session index: 3

Observation: ..
Reward -0
About to find best action in Step: 9
Values: 5.005(endSession) 6.45573(query) 6.38873(invite)
Foind best action in Step: 9
Coolie

Action Type: 0
Active Nodes: 2 7 

Presence: 1000000000010100000000100101010001010001
Invited Nodes: 
Actions left: 1
Session index: 3

Observation: ..
Reward -0
About to find best action in Step: 10
Values: 1.7975(endSession) 6.49479(query) 6.10866(invite)
Foind best action in Step: 10
Coolie

Action Type: 0
Active Nodes: 9 11 

Presence: 1000000000010100000000100101010001010001
Invited Nodes: 
Actions left: 0
Session index: 3

Observation: ..10
Reward -0
About to find best action in Step: 11
Foind best action in Step: 11
Coolie

Action Type: 2

Presence: 0001000100000010000000000000000000010000
Invited Nodes: 
Actions left: 3
Session index: 4

Observation: ..
Reward 0
About to find best action in Step: 12
Values: 3.2205(endSession) 6.75138(query) 7.14242(invite)
Foind best action in Step: 12
Coolie

Action Type: 1
Active Nodes: 2 10 

Presence: 0001000100000010000000000000000000010000
Invited Nodes: 
Actions left: 2
Session index: 4

Observation: ..
Reward -0
About to find best action in Step: 13
Values: 3.7955(endSession) 6.49417(query) 6.44977(invite)
Foind best action in Step: 13
Coolie

Action Type: 0
Active Nodes: 8 10 

Presence: 0001000100000010000000000000000000010000
Invited Nodes: 
Actions left: 1
Session index: 4

Observation: ..
Reward -0
About to find best action in Step: 14
Values: 4.2135(endSession) 6.38834(query) 5.86133(invite)
Foind best action in Step: 14
Coolie

Action Type: 0
Active Nodes: 5 20 

Presence: 0001000100000010000000000000000000010000
Invited Nodes: 
Actions left: 0
Session index: 4

Observation: ..
Reward -0
About to find best action in Step: 15
Foind best action in Step: 15
Coolie

Action Type: 2

Presence: 0010111111111010101110010111111111101011
Invited Nodes: 
Actions left: 3
Session index: 5

Observation: ..
Reward 0
About to find best action in Step: 16
Values: 4.103(endSession) 6.02573(query) 6.57522(invite)
Foind best action in Step: 16
Coolie

Action Type: 1
Active Nodes: 6 18 

Presence: 0010111111111010101110010111111111101011
Invited Nodes: 6 18 
Actions left: 2
Session index: 5

Observation: ..11
Reward -0
About to find best action in Step: 17
Foind best action in Step: 17
Coolie

Action Type: 2

Presence: 0000010000000110100010100000111000110101
Invited Nodes: 6 18 
Actions left: 3
Session index: 6

Observation: ..
Reward 0
About to find best action in Step: 18
Foind best action in Step: 18
Coolie

Action Type: 2

Presence: 0100011001011100010111011011110001101011
Invited Nodes: 6 18 
Actions left: 3
Session index: 7

Observation: ..
Reward 10.57
Terminated
Discounted return = 10.57, average = 13.717
Undiscounted return = 10.57, average = 13.717
Starting run 4 with 1024 simulations... 

Presence: 0000000010000010010000100010001000011110
Invited Nodes: 
Actions left: 3
Session index: 1
About to find best action in Step: 0
Values: 2(endSession) 6.30551(query) 7.65762(invite)
Foind best action in Step: 0
Coolie

Action Type: 1
Active Nodes: 1 2 

Presence: 0000000010000010010000100010001000011110
Invited Nodes: 
Actions left: 2
Session index: 1

Observation: ..
Reward -0
About to find best action in Step: 1
Values: 7.4325(endSession) 6.80241(query) 6.145(invite)
Foind best action in Step: 1
Coolie

Action Type: 2

Presence: 0000000100100000010011010100110010100110
Invited Nodes: 
Actions left: 3
Session index: 2

Observation: ..
Reward 0
About to find best action in Step: 2
Values: 4.0605(endSession) 6.56441(query) 8.74018(invite)
Foind best action in Step: 2
Coolie

Action Type: 1
Active Nodes: 2 3 

Presence: 0000000100100000010011010100110010100110
Invited Nodes: 
Actions left: 2
Session index: 2

Observation: ..
Reward -0
About to find best action in Step: 3
Values: 3.4835(endSession) 6.82812(query) 6.71047(invite)
Foind best action in Step: 3
Coolie

Action Type: 0
Active Nodes: 5 20 

Presence: 0000000100100000010011010100110010100110
Invited Nodes: 
Actions left: 1
Session index: 2

Observation: ..10
Reward -0
About to find best action in Step: 4
Values: 3.5055(endSession) 6.20188(query) 6.46753(invite)
Foind best action in Step: 4
Coolie

Action Type: 1
Active Nodes: 7 9 

Presence: 0000000100100000010011010100110010100110
Invited Nodes: 7 
Actions left: 0
Session index: 2

Observation: ..1
Reward -0
About to find best action in Step: 5
Foind best action in Step: 5
Coolie

Action Type: 2

Presence: 1101111101111111011101011101111000110111
Invited Nodes: 7 
Actions left: 3
Session index: 3

Observation: ..
Reward 0
About to find best action in Step: 6
Values: 4.393(endSession) 6.0218(query) 6.00858(invite)
Foind best action in Step: 6
Coolie

Action Type: 0
Active Nodes: 3 31 

Presence: 1101111101111111011101011101111000110111
Invited Nodes: 7 
Actions left: 2
Session index: 3

Observation: ..1
Reward -0
About to find best action in Step: 7
Values: 4.075(endSession) 6.05343(query) 6.06899(invite)
Foind best action in Step: 7
Coolie

Action Type: 1
Active Nodes: 2 

Presence: 1101111101111111011101011101111000110111
Invited Nodes: 7 
Actions left: 1
Session index: 3

Observation: ..
Reward -0
About to find best action in Step: 8
Values: 3.851(endSession) 6.09972(query) 5.96865(invite)
Foind best action in Step: 8
Coolie

Action Type: 0
Active Nodes: 3 36 

Presence: 1101111101111111011101011101111000110111
Invited Nodes: 7 
Actions left: 0
Session index: 3

Observation: ..1
Reward -0
About to find best action in Step: 9
Foind best action in Step: 9
Coolie

Action Type: 2

Presence: 0111110110111111111001111010111110000010
Invited Nodes: 7 
Actions left: 3
Session index: 4

Observation: ..
Reward 0
About to find best action in Step: 10
Values: 3.8215(endSession) 6.22861(query) 6.66072(invite)
Foind best action in Step: 10
Coolie

Action Type: 1
Active Nodes: 2 

Presence: 0111110110111111111001111010111110000010
Invited Nodes: 2 7 
Actions left: 2
Session index: 4

Observation: ..1
Reward -0
About to find best action in Step: 11
Foind best action in Step: 11
Coolie

Action Type: 2

Presence: 0000000011010000010111000100001000001000
Invited Nodes: 2 7 
Actions left: 3
Session index: 5

Observation: ..
Reward 0
About to find best action in Step: 12
Foind best action in Step: 12
Coolie

Action Type: 2

Presence: 1111111111111111111111111110011111101111
Invited Nodes: 2 7 
Actions left: 3
Session index: 6

Observation: ..
Reward 0
About to find best action in Step: 13
Foind best action in Step: 13
Coolie

Action Type: 2

Presence: 0110000001011100001101011001011010110111
Invited Nodes: 2 7 
Actions left: 3
Session index: 7

Observation: ..
Reward 13.001
Terminated
Discounted return = 13.001, average = 13.538
Undiscounted return = 13.001, average = 13.538
Starting run 5 with 1024 simulations... 

Presence: 1111111110011011111010111111001111100011
Invited Nodes: 
Actions left: 3
Session index: 1
About to find best action in Step: 0
Values: 7.717(endSession) 6.51331(query) 7.49084(invite)
Foind best action in Step: 0
Coolie

Action Type: 2

Presence: 1111111101111111100111111110011111110100
Invited Nodes: 
Actions left: 3
Session index: 2

Observation: ..
Reward 0
About to find best action in Step: 1
Values: 7.969(endSession) 6.23656(query) 8.54929(invite)
Foind best action in Step: 1
Coolie

Action Type: 1
Active Nodes: 0 2 

Presence: 1111111101111111100111111110011111110100
Invited Nodes: 0 2 
Actions left: 2
Session index: 2

Observation: ..11
Reward -0
About to find best action in Step: 2
Foind best action in Step: 2
Coolie

Action Type: 2

Presence: 0000001011000000000110010011010011010010
Invited Nodes: 0 2 
Actions left: 3
Session index: 3

Observation: ..
Reward 0
About to find best action in Step: 3
Foind best action in Step: 3
Coolie

Action Type: 2

Presence: 0111110001010001001111111010101110110101
Invited Nodes: 0 2 
Actions left: 3
Session index: 4

Observation: ..
Reward 0
About to find best action in Step: 4
Foind best action in Step: 4
Coolie

Action Type: 2

Presence: 1111111111001111011110111100111011111111
Invited Nodes: 0 2 
Actions left: 3
Session index: 5

Observation: ..
Reward 0
About to find best action in Step: 5
Foind best action in Step: 5
Coolie

Action Type: 2

Presence: 0011000011000001010100000000000101000101
Invited Nodes: 0 2 
Actions left: 3
Session index: 6

Observation: ..
Reward 0
About to find best action in Step: 6
Foind best action in Step: 6
Coolie

Action Type: 2

Presence: 0101000000001110010010100001001000100000
Invited Nodes: 0 2 
Actions left: 3
Session index: 7

Observation: ..
Reward 15.154
Terminated
Discounted return = 15.154, average = 13.8612
Undiscounted return = 15.154, average = 13.8612
Starting run 6 with 1024 simulations... 

Presence: 1000000000000100000000001010000110111000
Invited Nodes: 
Actions left: 3
Session index: 1
About to find best action in Step: 0
Values: 5.5885(endSession) 6.38719(query) 8.27465(invite)
Foind best action in Step: 0
Coolie

Action Type: 1
Active Nodes: 2 3 

Presence: 1000000000000100000000001010000110111000
Invited Nodes: 
Actions left: 2
Session index: 1

Observation: ..
Reward -0
About to find best action in Step: 1
Values: 4.098(endSession) 7.15997(query) 6.05461(invite)
Foind best action in Step: 1
Coolie

Action Type: 0
Active Nodes: 7 31 

Presence: 1000000000000100000000001010000110111000
Invited Nodes: 
Actions left: 1
Session index: 1

Observation: ..10
Reward -0
About to find best action in Step: 2
Values: 4.814(endSession) 6.49759(query) 5.88485(invite)
Foind best action in Step: 2
Coolie

Action Type: 0
Active Nodes: 14 35 

Presence: 1000000000000100000000001010000110111000
Invited Nodes: 
Actions left: 0
Session index: 1

Observation: ..10
Reward -0
About to find best action in Step: 3
Foind best action in Step: 3
Coolie

Action Type: 2

Presence: 1111111101101100111101111010000110010101
Invited Nodes: 
Actions left: 3
Session index: 2

Observation: ..
Reward 0
About to find best action in Step: 4
Values: 7.629(endSession) 6.65075(query) 7.27235(invite)
Foind best action in Step: 4
Coolie

Action Type: 2

Presence: 1000000010000110000100010010101010011001
Invited Nodes: 
Actions left: 3
Session index: 3

Observation: ..
Reward 0
About to find best action in Step: 5
Values: 4.6855(endSession) 6.77723(query) 6.75433(invite)
Foind best action in Step: 5
Coolie

Action Type: 0
Active Nodes: 7 31 

Presence: 1000000010000110000100010010101010011001
Invited Nodes: 
Actions left: 2
Session index: 3

Observation: ..
Reward -0
About to find best action in Step: 6
Values: 5.3475(endSession) 6.18568(query) 6.48188(invite)
Foind best action in Step: 6
Coolie

Action Type: 1
Active Nodes: 2 8 

Presence: 1000000010000110000100010010101010011001
Invited Nodes: 8 
Actions left: 1
Session index: 3

Observation: ..10
Reward -0
About to find best action in Step: 7
Values: 3.822(endSession) 6.20053(query) 5.14406(invite)
Foind best action in Step: 7
Coolie

Action Type: 0
Active Nodes: 17 21 

Presence: 1000000010000110000100010010101010011001
Invited Nodes: 8 
Actions left: 0
Session index: 3

Observation: ..
Reward -0
About to find best action in Step: 8
Foind best action in Step: 8
Coolie

Action Type: 2

Presence: 0111111111111111110111111111101110011000
Invited Nodes: 8 
Actions left: 3
Session index: 4

Observation: ..
Reward 0
About to find best action in Step: 9
Values: 6.87667(endSession) 6.50162(query) 6.02568(invite)
Foind best action in Step: 9
Coolie

Action Type: 2

Presence: 1111111101101110011001001001011111011110
Invited Nodes: 8 
Actions left: 3
Session index: 5

Observation: ..
Reward 0
About to find best action in Step: 10
Values: 2.8115(endSession) 6.05264(query) 5.77196(invite)
Foind best action in Step: 10
Coolie

Action Type: 0
Active Nodes: 30 35 

Presence: 1111111101101110011001001001011111011110
Invited Nodes: 8 
Actions left: 2
Session index: 5

Observation: ..11
Reward -0
About to find best action in Step: 11
Values: 3.5735(endSession) 5.45292(query) 7.22671(invite)
Foind best action in Step: 11
Coolie

Action Type: 1
Active Nodes: 2 

Presence: 1111111101101110011001001001011111011110
Invited Nodes: 2 8 
Actions left: 1
Session index: 5

Observation: ..1
Reward -0
About to find best action in Step: 12
Foind best action in Step: 12
Coolie

Action Type: 2

Presence: 1111111111001111111110111011111011111111
Invited Nodes: 2 8 
Actions left: 3
Session index: 6

Observation: ..
Reward 0
About to find best action in Step: 13
Foind best action in Step: 13
Coolie

Action Type: 2

Presence: 1111111011111111111101111100010110111110
Invited Nodes: 2 8 
Actions left: 3
Session index: 7

Observation: ..
Reward 13.025
Terminated
Discounted return = 13.025, average = 13.7218
Undiscounted return = 13.025, average = 13.7218
Starting run 7 with 1024 simulations... 

Presence: 1111111111111111011111001101111010001111
Invited Nodes: 
Actions left: 3
Session index: 1
About to find best action in Step: 0
Values: 3.8035(endSession) 6.36294(query) 7.41979(invite)
Foind best action in Step: 0
Coolie

Action Type: 1
Active Nodes: 2 3 

Presence: 1111111111111111011111001101111010001111
Invited Nodes: 2 3 
Actions left: 2
Session index: 1

Observation: ..11
Reward -0
About to find best action in Step: 1
Foind best action in Step: 1
Coolie

Action Type: 2

Presence: 0111111111001011111010111010111110100111
Invited Nodes: 2 3 
Actions left: 3
Session index: 2

Observation: ..
Reward 0
About to find best action in Step: 2
Foind best action in Step: 2
Coolie

Action Type: 2

Presence: 1000001000100100100000001000000101000000
Invited Nodes: 2 3 
Actions left: 3
Session index: 3

Observation: ..
Reward 0
About to find best action in Step: 3
Foind best action in Step: 3
Coolie

Action Type: 2

Presence: 1011111111111001100011101111101101101010
Invited Nodes: 2 3 
Actions left: 3
Session index: 4

Observation: ..
Reward 0
About to find best action in Step: 4
Foind best action in Step: 4
Coolie

Action Type: 2

Presence: 0000000110000000000101000010000000101000
Invited Nodes: 2 3 
Actions left: 3
Session index: 5

Observation: ..
Reward 0
About to find best action in Step: 5
Foind best action in Step: 5
Coolie

Action Type: 2

Presence: 0000000000100000000000000100010000100000
Invited Nodes: 2 3 
Actions left: 3
Session index: 6

Observation: ..
Reward 0
About to find best action in Step: 6
Foind best action in Step: 6
Coolie

Action Type: 2

Presence: 0000000000001100000101000111000001010010
Invited Nodes: 2 3 
Actions left: 3
Session index: 7

Observation: ..
Reward 14.685
Terminated
Discounted return = 14.685, average = 13.8594
Undiscounted return = 14.685, average = 13.8594
Starting run 8 with 1024 simulations... 

Presence: 1111111011111011111111111110101010010011
Invited Nodes: 
Actions left: 3
Session index: 1
About to find best action in Step: 0
Values: 4.8175(endSession) 6.66482(query) 7.11767(invite)
Foind best action in Step: 0
Coolie

Action Type: 1
Active Nodes: 2 25 

Presence: 1111111011111011111111111110101010010011
Invited Nodes: 2 25 
Actions left: 2
Session index: 1

Observation: ..11
Reward -0
About to find best action in Step: 1
Foind best action in Step: 1
Coolie

Action Type: 2

Presence: 0000000011000111010001001000000101100100
Invited Nodes: 2 25 
Actions left: 3
Session index: 2

Observation: ..
Reward 0
About to find best action in Step: 2
Foind best action in Step: 2
Coolie

Action Type: 2

Presence: 0000000000000001000010100010000000100000
Invited Nodes: 2 25 
Actions left: 3
Session index: 3

Observation: ..
Reward 0
About to find best action in Step: 3
Foind best action in Step: 3
Coolie

Action Type: 2

Presence: 1101111001101111011110100101110001111110
Invited Nodes: 2 25 
Actions left: 3
Session index: 4

Observation: ..
Reward 0
About to find best action in Step: 4
Foind best action in Step: 4
Coolie

Action Type: 2

Presence: 0111001111111011111111111101010011101110
Invited Nodes: 2 25 
Actions left: 3
Session index: 5

Observation: ..
Reward 0
About to find best action in Step: 5
Foind best action in Step: 5
Coolie

Action Type: 2

Presence: 0000000000000100000001000000000000001000
Invited Nodes: 2 25 
Actions left: 3
Session index: 6

Observation: ..
Reward 0
About to find best action in Step: 6
Foind best action in Step: 6
Coolie

Action Type: 2

Presence: 1111111111110101101100001110011111111110
Invited Nodes: 2 25 
Actions left: 3
Session index: 7

Observation: ..
Reward 12.733
Terminated
Discounted return = 12.733, average = 13.7186
Undiscounted return = 12.733, average = 13.7186
Starting run 9 with 1024 simulations... 

Presence: 1111111000110001001110011110111111001011
Invited Nodes: 
Actions left: 3
Session index: 1
About to find best action in Step: 0
Values: 4.12(endSession) 6.19813(query) 7.67108(invite)
Foind best action in Step: 0
Coolie

Action Type: 1
Active Nodes: 2 3 

Presence: 1111111000110001001110011110111111001011
Invited Nodes: 2 3 
Actions left: 2
Session index: 1

Observation: ..11
Reward -0
About to find best action in Step: 1
Foind best action in Step: 1
Coolie

Action Type: 2

Presence: 1111111011011011011111110110001101111010
Invited Nodes: 2 3 
Actions left: 3
Session index: 2

Observation: ..
Reward 0
About to find best action in Step: 2
Foind best action in Step: 2
Coolie

Action Type: 2

Presence: 1001000010000000000011100110011100111000
Invited Nodes: 2 3 
Actions left: 3
Session index: 3

Observation: ..
Reward 0
About to find best action in Step: 3
Foind best action in Step: 3
Coolie

Action Type: 2

Presence: 0111111001101100011110111010110011011101
Invited Nodes: 2 3 
Actions left: 3
Session index: 4

Observation: ..
Reward 0
About to find best action in Step: 4
Foind best action in Step: 4
Coolie

Action Type: 2

Presence: 1100000001000001010111011001101010100001
Invited Nodes: 2 3 
Actions left: 3
Session index: 5

Observation: ..
Reward 0
About to find best action in Step: 5
Foind best action in Step: 5
Coolie

Action Type: 2

Presence: 0000000000000000001000000101001001000100
Invited Nodes: 2 3 
Actions left: 3
Session index: 6

Observation: ..
Reward 0
About to find best action in Step: 6
Foind best action in Step: 6
Coolie

Action Type: 2

Presence: 1000000000000001000000010000000101011000
Invited Nodes: 2 3 
Actions left: 3
Session index: 7

Observation: ..
Reward 14.715
Terminated
Discounted return = 14.715, average = 13.8293
Undiscounted return = 14.715, average = 13.8293
Starting run 10 with 1024 simulations... 

Presence: 1111111001111111001101010101011011111110
Invited Nodes: 
Actions left: 3
Session index: 1
About to find best action in Step: 0
Values: 8.9225(endSession) 6.19037(query) 8.57052(invite)
Foind best action in Step: 0
Coolie

Action Type: 2

Presence: 1111111110011111100101011111000000100100
Invited Nodes: 
Actions left: 3
Session index: 2

Observation: ..
Reward 0
About to find best action in Step: 1
Values: 8.6325(endSession) 6.595(query) 7.90919(invite)
Foind best action in Step: 1
Coolie

Action Type: 2

Presence: 0000000000000001100000001100000101110010
Invited Nodes: 
Actions left: 3
Session index: 3

Observation: ..
Reward 0
About to find best action in Step: 2
Values: 5.586(endSession) 6.15545(query) 6.90382(invite)
Foind best action in Step: 2
Coolie

Action Type: 1
Active Nodes: 2 25 

Presence: 0000000000000001100000001100000101110010
Invited Nodes: 25 
Actions left: 2
Session index: 3

Observation: ..10
Reward -0
About to find best action in Step: 3
Values: 6.603(endSession) 4.99537(query) 4.49707(invite)
Foind best action in Step: 3
Coolie

Action Type: 2

Presence: 0100010000100000010000010010000000000011
Invited Nodes: 25 
Actions left: 3
Session index: 4

Observation: ..
Reward 0
About to find best action in Step: 4
Values: 2.599(endSession) 5.27991(query) 5.23915(invite)
Foind best action in Step: 4
Coolie

Action Type: 0
Active Nodes: 4 20 

Presence: 0100010000100000010000010010000000000011
Invited Nodes: 25 
Actions left: 2
Session index: 4

Observation: ..
Reward -0
About to find best action in Step: 5
Values: 3.82167(endSession) 4.84822(query) 4.46501(invite)
Foind best action in Step: 5
Coolie

Action Type: 0
Active Nodes: 3 19 

Presence: 0100010000100000010000010010000000000011
Invited Nodes: 25 
Actions left: 1
Session index: 4

Observation: ..
Reward -0
About to find best action in Step: 6
Values: 2.9185(endSession) 5.02054(query) 4.52816(invite)
Foind best action in Step: 6
Coolie

Action Type: 0
Active Nodes: 31 34 

Presence: 0100010000100000010000010010000000000011
Invited Nodes: 25 
Actions left: 0
Session index: 4

Observation: ..
Reward -0
About to find best action in Step: 7
Foind best action in Step: 7
Coolie

Action Type: 2

Presence: 1111111111100011001111111101100111111111
Invited Nodes: 25 
Actions left: 3
Session index: 5

Observation: ..
Reward 0
About to find best action in Step: 8
Values: 3.4575(endSession) 4.80381(query) 5.74822(invite)
Foind best action in Step: 8
Coolie

Action Type: 1
Active Nodes: 2 

Presence: 1111111111100011001111111101100111111111
Invited Nodes: 2 25 
Actions left: 2
Session index: 5

Observation: ..1
Reward -0
About to find best action in Step: 9
Foind best action in Step: 9
Coolie

Action Type: 2

Presence: 1000010001001001110010001110100100000111
Invited Nodes: 2 25 
Actions left: 3
Session index: 6

Observation: ..
Reward 0
About to find best action in Step: 10
Foind best action in Step: 10
Coolie

Action Type: 2

Presence: 0000000000000000000000000000000001101010
Invited Nodes: 2 25 
Actions left: 3
Session index: 7

Observation: ..
Reward 12.76
Terminated
Discounted return = 12.76, average = 13.7224
Undiscounted return = 12.76, average = 13.7224
Starting run 11 with 1024 simulations... 

Presence: 0000000000000000000000001000000000001001
Invited Nodes: 
Actions left: 3
Session index: 1
About to find best action in Step: 0
Values: 5.591(endSession) 6.11466(query) 7.96318(invite)
Foind best action in Step: 0
Coolie

Action Type: 1
Active Nodes: 2 6 

Presence: 0000000000000000000000001000000000001001
Invited Nodes: 
Actions left: 2
Session index: 1

Observation: ..
Reward -0
About to find best action in Step: 1
Values: 2.4165(endSession) 6.05848(query) 6.26528(invite)
Foind best action in Step: 1
Coolie

Action Type: 1
Active Nodes: 2 26 

Presence: 0000000000000000000000001000000000001001
Invited Nodes: 
Actions left: 1
Session index: 1

Observation: ..
Reward -0
About to find best action in Step: 2
Values: 2.591(endSession) 6.66622(query) 6.33641(invite)
Foind best action in Step: 2
Coolie

Action Type: 0
Active Nodes: 7 37 

Presence: 0000000000000000000000001000000000001001
Invited Nodes: 
Actions left: 0
Session index: 1

Observation: ..
Reward -0
About to find best action in Step: 3
Foind best action in Step: 3
Coolie

Action Type: 2

Presence: 0000000001001100010101011000011001010101
Invited Nodes: 
Actions left: 3
Session index: 2

Observation: ..
Reward 0
About to find best action in Step: 4
Values: 2.8825(endSession) 6.73561(query) 7.7119(invite)
Foind best action in Step: 4
Coolie

Action Type: 1
Active Nodes: 2 22 

Presence: 0000000001001100010101011000011001010101
Invited Nodes: 
Actions left: 2
Session index: 2

Observation: ..
Reward -0
About to find best action in Step: 5
Values: 2(endSession) 6.143(query) 5.92557(invite)
Foind best action in Step: 5
Coolie

Action Type: 0
Active Nodes: 26 28 

Presence: 0000000001001100010101011000011001010101
Invited Nodes: 
Actions left: 1
Session index: 2

Observation: ..
Reward -0
About to find best action in Step: 6
Values: 4.0965(endSession) 6.08817(query) 5.97591(invite)
Foind best action in Step: 6
Coolie

Action Type: 0
Active Nodes: 13 17 

Presence: 0000000001001100010101011000011001010101
Invited Nodes: 
Actions left: 0
Session index: 2

Observation: ..11
Reward -0
About to find best action in Step: 7
Foind best action in Step: 7
Coolie

Action Type: 2

Presence: 0000010000001110000011101110010010100011
Invited Nodes: 
Actions left: 3
Session index: 3

Observation: ..
Reward 0
About to find best action in Step: 8
Values: 5.364(endSession) 6.98078(query) 7.5912(invite)
Foind best action in Step: 8
Coolie

Action Type: 1
Active Nodes: 2 6 

Presence: 0000010000001110000011101110010010100011
Invited Nodes: 
Actions left: 2
Session index: 3

Observation: ..
Reward -0
About to find best action in Step: 9
Values: 4.399(endSession) 6.18999(query) 5.64771(invite)
Foind best action in Step: 9
Coolie

Action Type: 0
Active Nodes: 0 11 

Presence: 0000010000001110000011101110010010100011
Invited Nodes: 
Actions left: 1
Session index: 3

Observation: ..
Reward -0
About to find best action in Step: 10
Values: 3.7755(endSession) 6.21704(query) 5.7338(invite)
Foind best action in Step: 10
Coolie

Action Type: 0
Active Nodes: 8 15 

Presence: 0000010000001110000011101110010010100011
Invited Nodes: 
Actions left: 0
Session index: 3

Observation: ..
Reward -0
About to find best action in Step: 11
Foind best action in Step: 11
Coolie

Action Type: 2

Presence: 1111111011111111111111111101110101111110
Invited Nodes: 
Actions left: 3
Session index: 4

Observation: ..
Reward 0
About to find best action in Step: 12
Values: 5.83(endSession) 6.85991(query) 7.66009(invite)
Foind best action in Step: 12
Coolie

Action Type: 1
Active Nodes: 2 4 

Presence: 1111111011111111111111111101110101111110
Invited Nodes: 2 4 
Actions left: 2
Session index: 4

Observation: ..11
Reward -0
About to find best action in Step: 13
Foind best action in Step: 13
Coolie

Action Type: 2

Presence: 1111111111111111111010010011110101101010
Invited Nodes: 2 4 
Actions left: 3
Session index: 5

Observation: ..
Reward 0
About to find best action in Step: 14
Foind best action in Step: 14
Coolie

Action Type: 2

Presence: 1111111111111110011011111111111110110110
Invited Nodes: 2 4 
Actions left: 3
Session index: 6

Observation: ..
Reward 0
About to find best action in Step: 15
Foind best action in Step: 15
Coolie

Action Type: 2

Presence: 0000000000010001000000010100000000010010
Invited Nodes: 2 4 
Actions left: 3
Session index: 7

Observation: ..
Reward 15.327
Terminated
Discounted return = 15.327, average = 13.8683
Undiscounted return = 15.327, average = 13.8683
Starting run 12 with 1024 simulations... 

Presence: 1111101111111110000111011011101110110100
Invited Nodes: 
Actions left: 3
Session index: 1
About to find best action in Step: 0
Values: 2.5965(endSession) 6.37667(query) 7.6577(invite)
Foind best action in Step: 0
Coolie

Action Type: 1
Active Nodes: 2 3 

Presence: 1111101111111110000111011011101110110100
Invited Nodes: 2 3 
Actions left: 2
Session index: 1

Observation: ..11
Reward -0
About to find best action in Step: 1
Foind best action in Step: 1
Coolie

Action Type: 2

Presence: 0011110111111111000000101000111110111001
Invited Nodes: 2 3 
Actions left: 3
Session index: 2

Observation: ..
Reward 0
About to find best action in Step: 2
Foind best action in Step: 2
Coolie

Action Type: 2

Presence: 1101100001011010010111101010010110100100
Invited Nodes: 2 3 
Actions left: 3
Session index: 3

Observation: ..
Reward 0
About to find best action in Step: 3
Foind best action in Step: 3
Coolie

Action Type: 2

Presence: 0000000000000000000000101101000000100000
Invited Nodes: 2 3 
Actions left: 3
Session index: 4

Observation: ..
Reward 0
About to find best action in Step: 4
Foind best action in Step: 4
Coolie

Action Type: 2

Presence: 0000110000000000000101010010110011010110
Invited Nodes: 2 3 
Actions left: 3
Session index: 5

Observation: ..
Reward 0
About to find best action in Step: 5
Foind best action in Step: 5
Coolie

Action Type: 2

Presence: 0000000100100000110010100100000101010100
Invited Nodes: 2 3 
Actions left: 3
Session index: 6

Observation: ..
Reward 0
About to find best action in Step: 6
Foind best action in Step: 6
Coolie

Action Type: 2

Presence: 0000010000000000100110010010100001011010
Invited Nodes: 2 3 
Actions left: 3
Session index: 7

Observation: ..
Reward 14.747
Terminated
Discounted return = 14.747, average = 13.9415
Undiscounted return = 14.747, average = 13.9415
Starting run 13 with 1024 simulations... 

Presence: 1111111001101110111101010110001001000110
Invited Nodes: 
Actions left: 3
Session index: 1
About to find best action in Step: 0
Values: 2.902(endSession) 6.29056(query) 7.40258(invite)
Foind best action in Step: 0
Coolie

Action Type: 1
Active Nodes: 2 4 

Presence: 1111111001101110111101010110001001000110
Invited Nodes: 2 4 
Actions left: 2
Session index: 1

Observation: ..11
Reward -0
About to find best action in Step: 1
Foind best action in Step: 1
Coolie

Action Type: 2

Presence: 1000000000000011001000100100000000000000
Invited Nodes: 2 4 
Actions left: 3
Session index: 2

Observation: ..
Reward 0
About to find best action in Step: 2
Foind best action in Step: 2
Coolie

Action Type: 2

Presence: 0000000000000000000000000000000100001001
Invited Nodes: 2 4 
Actions left: 3
Session index: 3

Observation: ..
Reward 0
About to find best action in Step: 3
Foind best action in Step: 3
Coolie

Action Type: 2

Presence: 0010010010000101100010001000000101010000
Invited Nodes: 2 4 
Actions left: 3
Session index: 4

Observation: ..
Reward 0
About to find best action in Step: 4
Foind best action in Step: 4
Coolie

Action Type: 2

Presence: 1101110000111011010111010001100011000011
Invited Nodes: 2 4 
Actions left: 3
Session index: 5

Observation: ..
Reward 0
About to find best action in Step: 5
Foind best action in Step: 5
Coolie

Action Type: 2

Presence: 0000010010001000000000101000010010001110
Invited Nodes: 2 4 
Actions left: 3
Session index: 6

Observation: ..
Reward 0
About to find best action in Step: 6
Foind best action in Step: 6
Coolie

Action Type: 2

Presence: 0101011101011010011100101101110000101000
Invited Nodes: 2 4 
Actions left: 3
Session index: 7

Observation: ..
Reward 15.409
Terminated
Discounted return = 15.409, average = 14.0544
Undiscounted return = 15.409, average = 14.0544
Starting run 14 with 1024 simulations... 

Presence: 0000001000101100010100100010100001111101
Invited Nodes: 
Actions left: 3
Session index: 1
About to find best action in Step: 0
Values: 3.1685(endSession) 6.58059(query) 7.20978(invite)
Foind best action in Step: 0
Coolie

Action Type: 1
Active Nodes: 1 2 

Presence: 0000001000101100010100100010100001111101
Invited Nodes: 
Actions left: 2
Session index: 1

Observation: ..
Reward -0
About to find best action in Step: 1
Values: 9.2095(endSession) 5.98715(query) 6.05142(invite)
Foind best action in Step: 1
Coolie

Action Type: 2

Presence: 0000000000000000100001101100001000000001
Invited Nodes: 
Actions left: 3
Session index: 2

Observation: ..
Reward 0
About to find best action in Step: 2
Values: 5.4825(endSession) 6.59287(query) 8.21899(invite)
Foind best action in Step: 2
Coolie

Action Type: 1
Active Nodes: 2 3 

Presence: 0000000000000000100001101100001000000001
Invited Nodes: 
Actions left: 2
Session index: 2

Observation: ..
Reward -0
About to find best action in Step: 3
Values: 3.206(endSession) 6.74807(query) 5.90077(invite)
Foind best action in Step: 3
Coolie

Action Type: 0
Active Nodes: 24 25 

Presence: 0000000000000000100001101100001000000001
Invited Nodes: 
Actions left: 1
Session index: 2

Observation: ..11
Reward -0
About to find best action in Step: 4
Values: 5.267(endSession) 6.51603(query) 6.79665(invite)
Foind best action in Step: 4
Coolie

Action Type: 1
Active Nodes: 6 14 

Presence: 0000000000000000100001101100001000000001
Invited Nodes: 
Actions left: 0
Session index: 2

Observation: ..
Reward -0
About to find best action in Step: 5
Foind best action in Step: 5
Coolie

Action Type: 2

Presence: 1000000000000100100001000100010100111010
Invited Nodes: 
Actions left: 3
Session index: 3

Observation: ..
Reward 0
About to find best action in Step: 6
Values: 4.988(endSession) 6.49283(query) 6.89247(invite)
Foind best action in Step: 6
Coolie

Action Type: 1
Active Nodes: 2 8 

Presence: 1000000000000100100001000100010100111010
Invited Nodes: 
Actions left: 2
Session index: 3

Observation: ..
Reward -0
About to find best action in Step: 7
Values: 2.302(endSession) 6.23105(query) 6.18035(invite)
Foind best action in Step: 7
Coolie

Action Type: 0
Active Nodes: 9 13 

Presence: 1000000000000100100001000100010100111010
Invited Nodes: 
Actions left: 1
Session index: 3

Observation: ..10
Reward -0
About to find best action in Step: 8
Values: 3.801(endSession) 6.41416(query) 6.60961(invite)
Foind best action in Step: 8
Coolie

Action Type: 1
Active Nodes: 3 12 

Presence: 1000000000000100100001000100010100111010
Invited Nodes: 
Actions left: 0
Session index: 3

Observation: ..
Reward -0
About to find best action in Step: 9
Foind best action in Step: 9
Coolie

Action Type: 2

Presence: 0100000000100011011110100101000011110011
Invited Nodes: 
Actions left: 3
Session index: 4

Observation: ..
Reward 0
About to find best action in Step: 10
Values: 7.8955(endSession) 6.04007(query) 6.91653(invite)
Foind best action in Step: 10
Coolie

Action Type: 2

Presence: 0000110000000000000100001010000011110010
Invited Nodes: 
Actions left: 3
Session index: 5

Observation: ..
Reward 0
About to find best action in Step: 11
Values: 0.8075(endSession) 5.82348(query) 7.39179(invite)
Foind best action in Step: 11
Coolie

Action Type: 1
Active Nodes: 2 5 

Presence: 0000110000000000000100001010000011110010
Invited Nodes: 5 
Actions left: 2
Session index: 5

Observation: ..10
Reward -0
About to find best action in Step: 12
Values: 5.1385(endSession) 7.25505(query) 7.24194(invite)
Foind best action in Step: 12
Coolie

Action Type: 0
Active Nodes: 6 10 

Presence: 0000110000000000000100001010000011110010
Invited Nodes: 5 
Actions left: 1
Session index: 5

Observation: ..
Reward -0
About to find best action in Step: 13
Values: 5.92733(endSession) 6.973(query) 6.92221(invite)
Foind best action in Step: 13
Coolie

Action Type: 0
Active Nodes: 1 15 

Presence: 0000110000000000000100001010000011110010
Invited Nodes: 5 
Actions left: 0
Session index: 5

Observation: ..
Reward -0
About to find best action in Step: 14
Foind best action in Step: 14
Coolie

Action Type: 2

Presence: 1111111100111111100010111101110111000010
Invited Nodes: 5 
Actions left: 3
Session index: 6

Observation: ..
Reward 0
About to find best action in Step: 15
Values: 4.561(endSession) 6.36764(query) 8.03553(invite)
Foind best action in Step: 15
Coolie

Action Type: 1
Active Nodes: 2 

Presence: 1111111100111111100010111101110111000010
Invited Nodes: 2 5 
Actions left: 2
Session index: 6

Observation: ..1
Reward -0
About to find best action in Step: 16
Foind best action in Step: 16
Coolie

Action Type: 2

Presence: 0100000011100010000010100010110001011000
Invited Nodes: 2 5 
Actions left: 3
Session index: 7

Observation: ..
Reward 15.3
Terminated
Discounted return = 15.3, average = 14.1434
Undiscounted return = 15.3, average = 14.1434
Starting run 15 with 1024 simulations... 

Presence: 1000110110011011000010100111011010101001
Invited Nodes: 
Actions left: 3
Session index: 1
About to find best action in Step: 0
Values: 2(endSession) 6.67362(query) 7.93211(invite)
Foind best action in Step: 0
Coolie

Action Type: 1
Active Nodes: 2 11 

Presence: 1000110110011011000010100111011010101001
Invited Nodes: 11 
Actions left: 2
Session index: 1

Observation: ..10
Reward -0
About to find best action in Step: 1
Values: 4.9735(endSession) 6.60057(query) 6.56421(invite)
Foind best action in Step: 1
Coolie

Action Type: 0
Active Nodes: 22 28 

Presence: 1000110110011011000010100111011010101001
Invited Nodes: 11 
Actions left: 1
Session index: 1

Observation: ..1
Reward -0
About to find best action in Step: 2
Values: 6.845(endSession) 6.63501(query) 5.96463(invite)
Foind best action in Step: 2
Coolie

Action Type: 2

Presence: 0000000001000000010000000000000001000000
Invited Nodes: 11 
Actions left: 3
Session index: 2

Observation: ..
Reward 0
About to find best action in Step: 3
Values: 6.07033(endSession) 6.54617(query) 6.28548(invite)
Foind best action in Step: 3
Coolie

Action Type: 0
Active Nodes: 9 21 

Presence: 0000000001000000010000000000000001000000
Invited Nodes: 11 
Actions left: 2
Session index: 2

Observation: ..1
Reward -0
About to find best action in Step: 4
Values: 4.412(endSession) 7.25761(query) 6.87047(invite)
Foind best action in Step: 4
Coolie

Action Type: 0
Active Nodes: 19 29 

Presence: 0000000001000000010000000000000001000000
Invited Nodes: 11 
Actions left: 1
Session index: 2

Observation: ..
Reward -0
About to find best action in Step: 5
Values: 4.3815(endSession) 6.53559(query) 7.01516(invite)
Foind best action in Step: 5
Coolie

Action Type: 1
Active Nodes: 2 

Presence: 0000000001000000010000000000000001000000
Invited Nodes: 11 
Actions left: 0
Session index: 2

Observation: ..
Reward -0
About to find best action in Step: 6
Foind best action in Step: 6
Coolie

Action Type: 2

Presence: 1000000000000001110000000001100000000001
Invited Nodes: 11 
Actions left: 3
Session index: 3

Observation: ..
Reward 0
About to find best action in Step: 7
Values: 5.43633(endSession) 6.94803(query) 7.12341(invite)
Foind best action in Step: 7
Coolie

Action Type: 1
Active Nodes: 2 

Presence: 1000000000000001110000000001100000000001
Invited Nodes: 11 
Actions left: 2
Session index: 3

Observation: ..
Reward -0
About to find best action in Step: 8
Values: 5.59667(endSession) 6.76864(query) 6.19704(invite)
Foind best action in Step: 8
Coolie

Action Type: 0
Active Nodes: 7 16 

Presence: 1000000000000001110000000001100000000001
Invited Nodes: 11 
Actions left: 1
Session index: 3

Observation: ..10
Reward -0
About to find best action in Step: 9
Values: 4.9805(endSession) 7.02852(query) 6.49649(invite)
Foind best action in Step: 9
Coolie

Action Type: 0
Active Nodes: 3 18 

Presence: 1000000000000001110000000001100000000001
Invited Nodes: 11 
Actions left: 0
Session index: 3

Observation: ..
Reward -0
About to find best action in Step: 10
Foind best action in Step: 10
Coolie

Action Type: 2

Presence: 1000000000001100000001010100000010011000
Invited Nodes: 11 
Actions left: 3
Session index: 4

Observation: ..
Reward 0
About to find best action in Step: 11
Values: 3.574(endSession) 6.97794(query) 6.95147(invite)
Foind best action in Step: 11
Coolie

Action Type: 0
Active Nodes: 5 39 

Presence: 1000000000001100000001010100000010011000
Invited Nodes: 11 
Actions left: 2
Session index: 4

Observation: ..
Reward -0
About to find best action in Step: 12
Values: 6.37067(endSession) 6.63026(query) 6.30808(invite)
Foind best action in Step: 12
Coolie

Action Type: 0
Active Nodes: 12 24 

Presence: 1000000000001100000001010100000010011000
Invited Nodes: 11 
Actions left: 1
Session index: 4

Observation: ..1
Reward -0
About to find best action in Step: 13
Values: 4.3995(endSession) 6.55813(query) 6.4132(invite)
Foind best action in Step: 13
Coolie

Action Type: 0
Active Nodes: 31 34 

Presence: 1000000000001100000001010100000010011000
Invited Nodes: 11 
Actions left: 0
Session index: 4

Observation: ..
Reward -0
About to find best action in Step: 14
Foind best action in Step: 14
Coolie

Action Type: 2

Presence: 0111111011111011110001111011011110110101
Invited Nodes: 11 
Actions left: 3
Session index: 5

Observation: ..
Reward 0
About to find best action in Step: 15
Values: 5.48767(endSession) 6.29669(query) 6.93392(invite)
Foind best action in Step: 15
Coolie

Action Type: 1
Active Nodes: 2 

Presence: 0111111011111011110001111011011110110101
Invited Nodes: 2 11 
Actions left: 2
Session index: 5

Observation: ..1
Reward -0
About to find best action in Step: 16
Foind best action in Step: 16
Coolie

Action Type: 2

Presence: 0000000000010100100000001001100000011001
Invited Nodes: 2 11 
Actions left: 3
Session index: 6

Observation: ..
Reward 0
About to find best action in Step: 17
Foind best action in Step: 17
Coolie

Action Type: 2

Presence: 0111111101111111111101001010011110000111
Invited Nodes: 2 11 
Actions left: 3
Session index: 7

Observation: ..
Reward 14.08
Terminated
Discounted return = 14.08, average = 14.1391
Undiscounted return = 14.08, average = 14.1391
Starting run 16 with 1024 simulations... 

Presence: 0111111111010010111001111111111011111110
Invited Nodes: 
Actions left: 3
Session index: 1
About to find best action in Step: 0
Values: 2.606(endSession) 6.13824(query) 7.68436(invite)
Foind best action in Step: 0
Coolie

Action Type: 1
Active Nodes: 2 14 

Presence: 0111111111010010111001111111111011111110
Invited Nodes: 2 14 
Actions left: 2
Session index: 1

Observation: ..11
Reward -0
About to find best action in Step: 1
Foind best action in Step: 1
Coolie

Action Type: 2

Presence: 1111111011111111110011110111100110111100
Invited Nodes: 2 14 
Actions left: 3
Session index: 2

Observation: ..
Reward 0
About to find best action in Step: 2
Foind best action in Step: 2
Coolie

Action Type: 2

Presence: 1111111111111111111111011111111111100111
Invited Nodes: 2 14 
Actions left: 3
Session index: 3

Observation: ..
Reward 0
About to find best action in Step: 3
Foind best action in Step: 3
Coolie

Action Type: 2

Presence: 1111111111011111111111101011111111110101
Invited Nodes: 2 14 
Actions left: 3
Session index: 4

Observation: ..
Reward 0
About to find best action in Step: 4
Foind best action in Step: 4
Coolie

Action Type: 2

Presence: 0000000000000000010100000000000000010000
Invited Nodes: 2 14 
Actions left: 3
Session index: 5

Observation: ..
Reward 0
About to find best action in Step: 5
Foind best action in Step: 5
Coolie

Action Type: 2

Presence: 0111110111100100011100110110111101111111
Invited Nodes: 2 14 
Actions left: 3
Session index: 6

Observation: ..
Reward 0
About to find best action in Step: 6
Foind best action in Step: 6
Coolie

Action Type: 2

Presence: 1001000111010001011101101100000000100110
Invited Nodes: 2 14 
Actions left: 3
Session index: 7

Observation: ..
Reward 14.258
Terminated
Discounted return = 14.258, average = 14.1466
Undiscounted return = 14.258, average = 14.1466
Starting run 17 with 1024 simulations... 

Presence: 1111111101011101100111010000011110010110
Invited Nodes: 
Actions left: 3
Session index: 1
About to find best action in Step: 0
Values: 8.287(endSession) 7.01156(query) 7.59579(invite)
Foind best action in Step: 0
Coolie

Action Type: 2

Presence: 1111111101111011111001010100111111000111
Invited Nodes: 
Actions left: 3
Session index: 2

Observation: ..
Reward 0
About to find best action in Step: 1
Values: 2(endSession) 6.30914(query) 7.64011(invite)
Foind best action in Step: 1
Coolie

Action Type: 1
Active Nodes: 2 6 

Presence: 1111111101111011111001010100111111000111
Invited Nodes: 2 6 
Actions left: 2
Session index: 2

Observation: ..11
Reward -0
About to find best action in Step: 2
Foind best action in Step: 2
Coolie

Action Type: 2

Presence: 0101000000000110010010100011100001111010
Invited Nodes: 2 6 
Actions left: 3
Session index: 3

Observation: ..
Reward 0
About to find best action in Step: 3
Foind best action in Step: 3
Coolie

Action Type: 2

Presence: 0000000000000000010000010010100100100010
Invited Nodes: 2 6 
Actions left: 3
Session index: 4

Observation: ..
Reward 0
About to find best action in Step: 4
Foind best action in Step: 4
Coolie

Action Type: 2

Presence: 0000000000100000011000000000000010000000
Invited Nodes: 2 6 
Actions left: 3
Session index: 5

Observation: ..
Reward 0
About to find best action in Step: 5
Foind best action in Step: 5
Coolie

Action Type: 2

Presence: 1001110011001101010110111111110100001111
Invited Nodes: 2 6 
Actions left: 3
Session index: 6

Observation: ..
Reward 0
About to find best action in Step: 6
Foind best action in Step: 6
Coolie

Action Type: 2

Presence: 0000000000001101100000101000000100100000
Invited Nodes: 2 6 
Actions left: 3
Session index: 7

Observation: ..
Reward 15.977
Terminated
Discounted return = 15.977, average = 14.2542
Undiscounted return = 15.977, average = 14.2542
Starting run 18 with 1024 simulations... 

Presence: 0010111000000000100011000101010111001110
Invited Nodes: 
Actions left: 3
Session index: 1
About to find best action in Step: 0
Values: 2.7175(endSession) 6.4319(query) 7.40957(invite)
Foind best action in Step: 0
Coolie

Action Type: 1
Active Nodes: 2 17 

Presence: 0010111000000000100011000101010111001110
Invited Nodes: 2 
Actions left: 2
Session index: 1

Observation: ..1
Reward -0
About to find best action in Step: 1
Values: 12.5875(endSession) 13.6314(query) 13.7495(invite)
Foind best action in Step: 1
Coolie

Action Type: 1
Active Nodes: 6 

Presence: 0010111000000000100011000101010111001110
Invited Nodes: 2 6 
Actions left: 1
Session index: 1

Observation: ..1
Reward -0
About to find best action in Step: 2
Foind best action in Step: 2
Coolie

Action Type: 2

Presence: 1111111110111111011011111110011110101110
Invited Nodes: 2 6 
Actions left: 3
Session index: 2

Observation: ..
Reward 0
About to find best action in Step: 3
Foind best action in Step: 3
Coolie

Action Type: 2

Presence: 0010000000010010000000000011011010001010
Invited Nodes: 2 6 
Actions left: 3
Session index: 3

Observation: ..
Reward 0
About to find best action in Step: 4
Foind best action in Step: 4
Coolie

Action Type: 2

Presence: 1111000100110101110010101100000111011001
Invited Nodes: 2 6 
Actions left: 3
Session index: 4

Observation: ..
Reward 0
About to find best action in Step: 5
Foind best action in Step: 5
Coolie

Action Type: 2

Presence: 0000000010000010000000101010000000100000
Invited Nodes: 2 6 
Actions left: 3
Session index: 5

Observation: ..
Reward 0
About to find best action in Step: 6
Foind best action in Step: 6
Coolie

Action Type: 2

Presence: 1111111111001101111101011101111011011011
Invited Nodes: 2 6 
Actions left: 3
Session index: 6

Observation: ..
Reward 0
About to find best action in Step: 7
Foind best action in Step: 7
Coolie

Action Type: 2

Presence: 1010100000100001100000101110011110100101
Invited Nodes: 2 6 
Actions left: 3
Session index: 7

Observation: ..
Reward 16.193
Terminated
Discounted return = 16.193, average = 14.3619
Undiscounted return = 16.193, average = 14.3619
Starting run 19 with 1024 simulations... 

Presence: 1101011001110000000101110010100111100000
Invited Nodes: 
Actions left: 3
Session index: 1
About to find best action in Step: 0
Values: 2(endSession) 6.51939(query) 7.89645(invite)
Foind best action in Step: 0
Coolie

Action Type: 1
Active Nodes: 2 3 

Presence: 1101011001110000000101110010100111100000
Invited Nodes: 3 
Actions left: 2
Session index: 1

Observation: ..10
Reward -0
About to find best action in Step: 1
Values: 6.5505(endSession) 8.26424(query) 8.23463(invite)
Foind best action in Step: 1
Coolie

Action Type: 0
Active Nodes: 4 33 

Presence: 1101011001110000000101110010100111100000
Invited Nodes: 3 
Actions left: 1
Session index: 1

Observation: ..10
Reward -0
About to find best action in Step: 2
Values: 7.613(endSession) 8.2909(query) 7.92003(invite)
Foind best action in Step: 2
Coolie

Action Type: 0
Active Nodes: 10 28 

Presence: 1101011001110000000101110010100111100000
Invited Nodes: 3 
Actions left: 0
Session index: 1

Observation: ..11
Reward -0
About to find best action in Step: 3
Foind best action in Step: 3
Coolie

Action Type: 2

Presence: 0000010010010001100011010010100011001101
Invited Nodes: 3 
Actions left: 3
Session index: 2

Observation: ..
Reward 0
About to find best action in Step: 4
Values: 7.265(endSession) 8.4515(query) 7.60662(invite)
Foind best action in Step: 4
Coolie

Action Type: 0
Active Nodes: 22 28 

Presence: 0000010010010001100011010010100011001101
Invited Nodes: 3 
Actions left: 2
Session index: 2

Observation: ..10
Reward -0
About to find best action in Step: 5
Values: 7.33833(endSession) 8.18924(query) 8.06048(invite)
Foind best action in Step: 5
Coolie

Action Type: 0
Active Nodes: 3 29 

Presence: 0000010010010001100011010010100011001101
Invited Nodes: 3 
Actions left: 1
Session index: 2

Observation: ..
Reward -0
About to find best action in Step: 6
Values: 8.04167(endSession) 8.06486(query) 7.73085(invite)
Foind best action in Step: 6
Coolie

Action Type: 0
Active Nodes: 17 21 

Presence: 0000010010010001100011010010100011001101
Invited Nodes: 3 
Actions left: 0
Session index: 2

Observation: ..10
Reward -0
About to find best action in Step: 7
Foind best action in Step: 7
Coolie

Action Type: 2

Presence: 0111111111011110010101110111011010110111
Invited Nodes: 3 
Actions left: 3
Session index: 3

Observation: ..
Reward 0
About to find best action in Step: 8
Values: 8.039(endSession) 8.13172(query) 9.17274(invite)
Foind best action in Step: 8
Coolie

Action Type: 1
Active Nodes: 2 

Presence: 0111111111011110010101110111011010110111
Invited Nodes: 2 3 
Actions left: 2
Session index: 3

Observation: ..1
Reward -0
About to find best action in Step: 9
Foind best action in Step: 9
Coolie

Action Type: 2

Presence: 0110111011110101111110011010110111010110
Invited Nodes: 2 3 
Actions left: 3
Session index: 4

Observation: ..
Reward 0
About to find best action in Step: 10
Foind best action in Step: 10
Coolie

Action Type: 2

Presence: 0101111111011010101110100000110010100111
Invited Nodes: 2 3 
Actions left: 3
Session index: 5

Observation: ..
Reward 0
About to find best action in Step: 11
Foind best action in Step: 11
Coolie

Action Type: 2

Presence: 0011110110100111101110100011111010011101
Invited Nodes: 2 3 
Actions left: 3
Session index: 6

Observation: ..
Reward 0
About to find best action in Step: 12
Foind best action in Step: 12
Coolie

Action Type: 2

Presence: 0000010000000000000010110000101001010011
Invited Nodes: 2 3 
Actions left: 3
Session index: 7

Observation: ..
Reward 14.701
Terminated
Discounted return = 14.701, average = 14.3798
Undiscounted return = 14.701, average = 14.3798
Starting run 20 with 1024 simulations... 

Presence: 0111111111111011010110111010100111011100
Invited Nodes: 
Actions left: 3
Session index: 1
About to find best action in Step: 0
Values: 2.3015(endSession) 6.12124(query) 7.94111(invite)
Foind best action in Step: 0
Coolie

Action Type: 1
Active Nodes: 1 6 

Presence: 0111111111111011010110111010100111011100
Invited Nodes: 1 6 
Actions left: 2
Session index: 1

Observation: ..11
Reward -0
About to find best action in Step: 1
Foind best action in Step: 1
Coolie

Action Type: 2

Presence: 1011001111011011110101111110110110110111
Invited Nodes: 1 6 
Actions left: 3
Session index: 2

Observation: ..
Reward 0
About to find best action in Step: 2
Foind best action in Step: 2
Coolie

Action Type: 2

Presence: 0100101100000100011010100010100000100100
Invited Nodes: 1 6 
Actions left: 3
Session index: 3

Observation: ..
Reward 0
About to find best action in Step: 3
Foind best action in Step: 3
Coolie

Action Type: 2

Presence: 0111101111111101111011011101111011110101
Invited Nodes: 1 6 
Actions left: 3
Session index: 4

Observation: ..
Reward 0
About to find best action in Step: 4
Foind best action in Step: 4
Coolie

Action Type: 2

Presence: 1111111111011011111111111111111111101011
Invited Nodes: 1 6 
Actions left: 3
Session index: 5

Observation: ..
Reward 0
About to find best action in Step: 5
Foind best action in Step: 5
Coolie

Action Type: 2

Presence: 0000000000010000101001101000011000010000
Invited Nodes: 1 6 
Actions left: 3
Session index: 6

Observation: ..
Reward 0
About to find best action in Step: 6
Foind best action in Step: 6
Coolie

Action Type: 2

Presence: 1111111111111111110010011101001101110111
Invited Nodes: 1 6 
Actions left: 3
Session index: 7

Observation: ..
Reward 14.05
Terminated
Discounted return = 14.05, average = 14.3633
Undiscounted return = 14.05, average = 14.3633
Simulations = 1024
Runs = 20
Undiscounted return = 14.3633 +- 0.296943
Discounted return = 14.3633 +- 0.296943
Time = 15.711
----------------------------------------
Begin PBS Epilogue Thu Aug 31 17:03:10 PDT 2017
Job ID:           24132697.hpc-pbs1.hpcc.usc.edu
Username:         amulyaya
Accountname:      default
Group:            csci-ar
Job Name:         3.pbs
Session:          21050
Limits:           neednodes=1:ppn=16:sl230s,nodes=1:ppn=16:sl230s,walltime=24:00:00
Resources:        cput=00:05:17,energy_used=0,mem=33536440kb,vmem=30402848kb,walltime=00:05:17
Queue:            tambe
Shared Access:    no
Has MIC:          no
Is hsda:          false
removed '/scratch'
End PBS Epilogue Thu Aug 31 17:03:11 PDT 2017
----------------------------------------
