1 4 0 0
1 5 0 0
1 6 0 0
1 7 0 0
1 8 0 0
1 9 0 0
1 11 0 0
1 12 0 0
1 13 0 0
1 14 0 0
1 17 0 0
1 28 0 0
1 30 0 0
2 16 0 0
2 4 0 0
2 13 0 0
2 6 0 0
2 8 0 0
3 20 0 0
3 4 0 0
3 5 0 0
4 5 0 0
4 6 0 0
4 7 0 0
4 8 0 0
4 14 0 0
4 24 0 0
5 36 0 0
5 37 0 0
5 7 0 0
5 10 0 0
5 12 0 0
5 16 0 0
5 20 0 0
5 21 0 0
5 30 0 0
5 31 0 0
6 35 0 0
6 9 0 0
6 11 0 0
6 12 0 0
6 13 0 0
6 15 0 0
6 20 0 0
6 27 0 0
7 10 0 0
7 16 0 0
7 17 0 0
7 18 0 0
7 22 0 0
7 24 0 0
8 37 0 0
8 34 0 0
8 33 0 0
8 9 0 0
8 10 0 0
8 11 0 0
8 14 0 0
8 15 0 0
8 18 0 0
8 19 0 0
8 26 0 0
8 27 0 0
8 38 0 0
9 28 0 0
9 21 0 0
10 32 0 0
10 30 0 0
11 15 0 0
11 26 0 0
11 27 0 0
11 29 0 0
12 34 0 0
12 18 0 0
12 24 0 0
12 25 0 0
12 37 0 0
12 38 0 0
14 35 0 0
14 23 0 0
14 25 0 0
14 32 0 0
15 39 0 0
16 40 0 0
16 17 0 0
16 19 0 0
16 22 0 0
17 19 0 0
17 21 0 0
17 22 0 0
17 29 0 0
18 39 0 0
18 23 0 0
18 25 0 0
19 23 0 0
21 36 0 0
21 31 0 0
22 28 0 0
23 32 0 0
24 38 0 0
24 26 0 0
24 31 0 0
26 33 0 0
27 29 0 0
28 33 0 0
29 36 0 0
30 34 0 0
31 35 0 0
37 40 0 0
38 40 0 0
38 39 0 0
