----------------------------------------
Begin PBS Prologue Thu Aug 31 12:09:49 PDT 2017
Job ID:            24128664.hpc-pbs1.hpcc.usc.edu
Username:          amulyaya
Accountname:       default
Group:             csci-ar
Project:           default
Name:              0.pbs
Queue:             tambe
Shared Access:     no
All Cores:         no
Has MIC:           no
Is hsda:           false
Nodes:             hpc3444 
TMPDIR:            /tmp/24128664.hpc-pbs1.hpcc.usc.edu
End PBS Prologue Thu Aug 31 12:09:50 PDT 2017
----------------------------------------
******************************************************************************
METIS 5.0 Copyright 1998-13, Regents of the University of Minnesota
 (HEAD: , Built on: Oct 20 2015, 01:33:37)
 size of idx_t: 64bits, real_t: 32bits, idx_t *: 64bits

Graph Information -----------------------------------------------------------
 Name: /home/rcf-proj/mj1/amulyaya/pomcp-ve/src/2ClSeIltVG.txt, #Vertices: 160, #Edges: 1593, #Parts: 16

Options ---------------------------------------------------------------------
 ptype=kway, objtype=cut, ctype=shem, rtype=greedy, iptype=metisrb
 dbglvl=0, ufactor=1.030, no2hop=NO, minconn=NO, contig=NO, nooutput=NO
 seed=-1, niter=10, ncuts=1

Direct k-way Partitioning ---------------------------------------------------
 - Edgecut: 1307, communication volume: 1622.

 - Balance:
     constraint #0:  1.000 out of 0.100

 - Most overweight partition:
     pid: 0, actual: 10, desired: 10, ratio: 1.00.

 - Subdomain connectivity: max: 15, min: 15, avg: 15.00

 - There are 3 non-contiguous partitions.
   Total components after removing the cut edges: 19,
   max components: 2 for pid: 3.

Timing Information ----------------------------------------------------------
  I/O:          		   0.002 sec
  Partitioning: 		   0.027 sec   (METIS time)
  Reporting:    		   0.000 sec

Memory Information ----------------------------------------------------------
  Max memory used:		   0.240 MB
******************************************************************************
Initialising fast UCB table... done
Main runs
Starting run 1 with 1024 simulations... 

Presence: 0000000000000000000000000000000000000000000000000000000000000000000000000000000000000000000000000000000000000000000000000000000000000000000000000000000000000000
Invited Nodes: 
Actions left: 3
Session index: 1
About to find best action in Step: 0
Values: 0(endSession) 25.6645(query) 25.3603(invite)
Foind best action in Step: 0
Coolie

Action Type: 0
Active Nodes: 88 125 

Presence: 0000000000000000000000000000000000000000000000000000000000000000000000000000000000000000000000000000000000000000000000000000000000000000000000000000000000000000
Invited Nodes: 
Actions left: 2
Session index: 1

Observation: ..
Reward -0
About to find best action in Step: 1
Values: 0(endSession) 25.0722(query) 25.5523(invite)
Foind best action in Step: 1
Coolie

Action Type: 1
Active Nodes: 78 137 

Presence: 0000000000000000000000000000000000000000000000000000000000000000000000000000000000000000000000000000000000000000000000000000000000000000000000000000000000000000
Invited Nodes: 
Actions left: 1
Session index: 1

Observation: ..
Reward -0
About to find best action in Step: 2
Values: 0(endSession) 25.436(query) 25.0575(invite)
Foind best action in Step: 2
Coolie

Action Type: 0
Active Nodes: 104 110 

Presence: 0000000000000000000000000000000000000000000000000000000000000000000000000000000000000000000000000000000000000000000000000000000000000000000000000000000000000000
Invited Nodes: 
Actions left: 0
Session index: 1

Observation: ..
Reward -0
About to find best action in Step: 3
Foind best action in Step: 3
Coolie

Action Type: 2

Presence: 1111111111111111111111111111111111111111111111111111111111111111111111111111111111111111111111111111111111111111111111111111111111111111111111111111111111111111
Invited Nodes: 
Actions left: 3
Session index: 2

Observation: ..
Reward 0
About to find best action in Step: 4
Values: 0(endSession) 25.2082(query) 25.1412(invite)
Foind best action in Step: 4
Coolie

Action Type: 0
Active Nodes: 95 115 

Presence: 1111111111111111111111111111111111111111111111111111111111111111111111111111111111111111111111111111111111111111111111111111111111111111111111111111111111111111
Invited Nodes: 
Actions left: 2
Session index: 2

Observation: ..11
Reward -0
About to find best action in Step: 5
Values: 0(endSession) 23.9172(query) 24.8272(invite)
Foind best action in Step: 5
Coolie

Action Type: 1
Active Nodes: 90 102 

Presence: 1111111111111111111111111111111111111111111111111111111111111111111111111111111111111111111111111111111111111111111111111111111111111111111111111111111111111111
Invited Nodes: 90 102 
Actions left: 1
Session index: 2

Observation: ..11
Reward -0
About to find best action in Step: 6
Foind best action in Step: 6
Coolie

Action Type: 2

Presence: 0000000000000000000000000000000000000000000000000000000000000000000000000000000000000000000000000000000000000000000000000000000000000000000000000000000000000000
Invited Nodes: 90 102 
Actions left: 3
Session index: 3

Observation: ..
Reward 0
About to find best action in Step: 7
Foind best action in Step: 7
Coolie

Action Type: 2

Presence: 1111111111111111111101111111111111111111111111111111111111111111111111111111111111111111111111111111101111111111111111111111111111111110111111111111111111111111
Invited Nodes: 90 102 
Actions left: 3
Session index: 4

Observation: ..
Reward 0
About to find best action in Step: 8
Foind best action in Step: 8
Coolie

Action Type: 2

Presence: 1111111111111111111111111111111111111111111111111111111111111111111111111111111111111111111111111111111111111111111111111111111111111111111111111111111111111111
Invited Nodes: 90 102 
Actions left: 3
Session index: 5

Observation: ..
Reward 0
About to find best action in Step: 9
Foind best action in Step: 9
Coolie

Action Type: 2

Presence: 0000000000000000000000000000000000000000000000000000000000000000000000000000000000000000000000000000000000000000000000000000001000000000000000000000000000000000
Invited Nodes: 90 102 
Actions left: 3
Session index: 6

Observation: ..
Reward 0
About to find best action in Step: 10
Foind best action in Step: 10
Coolie

Action Type: 2

Presence: 1111111111111111111111111111111111111111111111111111111111111111111111111111111111111111111111111111111111111111111111111111111111111111111111111111111111111111
Invited Nodes: 90 102 
Actions left: 3
Session index: 7

Observation: ..
Reward 20.894
Terminated
Discounted return = 20.894, average = 20.894
Undiscounted return = 20.894, average = 20.894
Starting run 2 with 1024 simulations... 

Presence: 1111111111111111111111111111111111111111111111111111111111111111111111111111111111111111111111111111111111111111111111111111111111111111111111111111111111111111
Invited Nodes: 
Actions left: 3
Session index: 1
About to find best action in Step: 0
Values: 0(endSession) 25.3604(query) 25.0751(invite)
Foind best action in Step: 0
Coolie

Action Type: 0
Active Nodes: 71 134 

Presence: 1111111111111111111111111111111111111111111111111111111111111111111111111111111111111111111111111111111111111111111111111111111111111111111111111111111111111111
Invited Nodes: 
Actions left: 2
Session index: 1

Observation: ..11
Reward -0
About to find best action in Step: 1
Values: 0(endSession) 25.3226(query) 25.4433(invite)
Foind best action in Step: 1
Coolie

Action Type: 1
Active Nodes: 133 141 

Presence: 1111111111111111111111111111111111111111111111111111111111111111111111111111111111111111111111111111111111111111111111111111111111111111111111111111111111111111
Invited Nodes: 133 141 
Actions left: 1
Session index: 1

Observation: ..11
Reward -0
About to find best action in Step: 2
Foind best action in Step: 2
Coolie

Action Type: 2

Presence: 1111111111111111111111111111111111111111111111111111111111111111111111111111111111111111111111111111111111111111111111111111111111111111111111111111111111111111
Invited Nodes: 133 141 
Actions left: 3
Session index: 2

Observation: ..
Reward 0
About to find best action in Step: 3
Foind best action in Step: 3
Coolie

Action Type: 2

Presence: 0000000000000000000000000000000000000000000000000000000000000000000000000000000000000000000000000000000000000000000000000000000000000000000000000000000000000000
Invited Nodes: 133 141 
Actions left: 3
Session index: 3

Observation: ..
Reward 0
About to find best action in Step: 4
Foind best action in Step: 4
Coolie

Action Type: 2

Presence: 1111111111111111111111111111111111111111111111111111111111111111111111111111111111111111111111111111111111111111111111111111111111111111111111111111111111111111
Invited Nodes: 133 141 
Actions left: 3
Session index: 4

Observation: ..
Reward 0
About to find best action in Step: 5
Foind best action in Step: 5
Coolie

Action Type: 2

Presence: 1111111111111111111111111111111111111111111111111111111111111111111111111111111111111111111111111111111111111111111111111111111111111111111111111111111111111111
Invited Nodes: 133 141 
Actions left: 3
Session index: 5

Observation: ..
Reward 0
About to find best action in Step: 6
Foind best action in Step: 6
Coolie

Action Type: 2

Presence: 0000000000000000000000000000000000000000000000000000000000000000000000000000000000000000000000000000000000000000000000000000000000000000000000000000000000000000
Invited Nodes: 133 141 
Actions left: 3
Session index: 6

Observation: ..
Reward 0
About to find best action in Step: 7
Foind best action in Step: 7
Coolie

Action Type: 2

Presence: 0000000000000000000000000000000000000000000000000000000000000000000000000000000000000000000000000000000000000000000000000000000000000000000000000000000000000000
Invited Nodes: 133 141 
Actions left: 3
Session index: 7

Observation: ..
Reward 18.578
Terminated
Discounted return = 18.578, average = 19.736
Undiscounted return = 18.578, average = 19.736
Starting run 3 with 1024 simulations... 

Presence: 0000000000000000000000000000000000000000000000000000000000000000000000000000000000000000000000000000000000000000000000000000000000000000000000000000000000000000
Invited Nodes: 
Actions left: 3
Session index: 1
About to find best action in Step: 0
Values: 0(endSession) 25.5511(query) 25.1761(invite)
Foind best action in Step: 0
Coolie

Action Type: 0
Active Nodes: 10 102 

Presence: 0000000000000000000000000000000000000000000000000000000000000000000000000000000000000000000000000000000000000000000000000000000000000000000000000000000000000000
Invited Nodes: 
Actions left: 2
Session index: 1

Observation: ..
Reward -0
About to find best action in Step: 1
Values: 0(endSession) 25.251(query) 25.1271(invite)
Foind best action in Step: 1
Coolie

Action Type: 0
Active Nodes: 41 111 

Presence: 0000000000000000000000000000000000000000000000000000000000000000000000000000000000000000000000000000000000000000000000000000000000000000000000000000000000000000
Invited Nodes: 
Actions left: 1
Session index: 1

Observation: ..
Reward -0
About to find best action in Step: 2
Values: 0(endSession) 25.1522(query) 25.3871(invite)
Foind best action in Step: 2
Coolie

Action Type: 1
Active Nodes: 37 137 

Presence: 0000000000000000000000000000000000000000000000000000000000000000000000000000000000000000000000000000000000000000000000000000000000000000000000000000000000000000
Invited Nodes: 
Actions left: 0
Session index: 1

Observation: ..
Reward -0
About to find best action in Step: 3
Foind best action in Step: 3
Coolie

Action Type: 2

Presence: 1111111111111111111011111111111111111111111111111111111111111111111111111111111111111111111111111111111111111111111111111111111111111011111111111111111111111111
Invited Nodes: 
Actions left: 3
Session index: 2

Observation: ..
Reward 0
About to find best action in Step: 4
Values: 0(endSession) 25.0504(query) 24.8333(invite)
Foind best action in Step: 4
Coolie

Action Type: 0
Active Nodes: 57 102 

Presence: 1111111111111111111011111111111111111111111111111111111111111111111111111111111111111111111111111111111111111111111111111111111111111011111111111111111111111111
Invited Nodes: 
Actions left: 2
Session index: 2

Observation: ..11
Reward -0
About to find best action in Step: 5
Values: 0(endSession) 24.5428(query) 24.5007(invite)
Foind best action in Step: 5
Coolie

Action Type: 0
Active Nodes: 50 74 

Presence: 1111111111111111111011111111111111111111111111111111111111111111111111111111111111111111111111111111111111111111111111111111111111111011111111111111111111111111
Invited Nodes: 
Actions left: 1
Session index: 2

Observation: ..11
Reward -0
About to find best action in Step: 6
Values: 0(endSession) 25.2204(query) 24.8015(invite)
Foind best action in Step: 6
Coolie

Action Type: 0
Active Nodes: 56 73 

Presence: 1111111111111111111011111111111111111111111111111111111111111111111111111111111111111111111111111111111111111111111111111111111111111011111111111111111111111111
Invited Nodes: 
Actions left: 0
Session index: 2

Observation: ..11
Reward -0
About to find best action in Step: 7
Foind best action in Step: 7
Coolie

Action Type: 2

Presence: 1111111111111111111111111111111111111111111111111111111111111111111111111111111111111111111111111111111111111111111111111111111101111111111111111111111111111111
Invited Nodes: 
Actions left: 3
Session index: 3

Observation: ..
Reward 0
About to find best action in Step: 8
Values: 0(endSession) 24.1266(query) 24.7274(invite)
Foind best action in Step: 8
Coolie

Action Type: 1
Active Nodes: 37 137 

Presence: 1111111111111111111111111111111111111111111111111111111111111111111111111111111111111111111111111111111111111111111111111111111101111111111111111111111111111111
Invited Nodes: 37 137 
Actions left: 2
Session index: 3

Observation: ..11
Reward -0
About to find best action in Step: 9
Foind best action in Step: 9
Coolie

Action Type: 2

Presence: 1111111111111111111111111111111111111111111111111111111111111111111111111111111111111111111111110111111111111111111111111111111111111111111111111111111111111111
Invited Nodes: 37 137 
Actions left: 3
Session index: 4

Observation: ..
Reward 0
About to find best action in Step: 10
Foind best action in Step: 10
Coolie

Action Type: 2

Presence: 1111111111111111111111111111111111111111111111111111111111111111111111111111111111111111111111111111111111111111111111111111111111111111111111111111111111111111
Invited Nodes: 37 137 
Actions left: 3
Session index: 5

Observation: ..
Reward 0
About to find best action in Step: 11
Foind best action in Step: 11
Coolie

Action Type: 2

Presence: 0000000000000000000000000000000000000000000000000000000000000000000000000000000000000000000000000000000000000000000000000000000000000000000000000000000000000000
Invited Nodes: 37 137 
Actions left: 3
Session index: 6

Observation: ..
Reward 0
About to find best action in Step: 12
Foind best action in Step: 12
Coolie

Action Type: 2

Presence: 1111111111111111111111111111111111111111111111111111111111111111111111111111111111111111111111111111111111111111111111111111111111111111111111111111111111111111
Invited Nodes: 37 137 
Actions left: 3
Session index: 7

Observation: ..
Reward 32.89
Terminated
Discounted return = 32.89, average = 24.1207
Undiscounted return = 32.89, average = 24.1207
Starting run 4 with 1024 simulations... 

Presence: 1111111111111111111111111111111111111111111111111111111111111111111111111111111111111111111111111111111111111111111111111111111111111111111111111011111111111111
Invited Nodes: 
Actions left: 3
Session index: 1
About to find best action in Step: 0
Values: 0(endSession) 25.4024(query) 25.4231(invite)
Foind best action in Step: 0
Coolie

Action Type: 1
Active Nodes: 37 137 

Presence: 1111111111111111111111111111111111111111111111111111111111111111111111111111111111111111111111111111111111111111111111111111111111111111111111111011111111111111
Invited Nodes: 37 137 
Actions left: 2
Session index: 1

Observation: ..11
Reward -0
About to find best action in Step: 1
Foind best action in Step: 1
Coolie

Action Type: 2

Presence: 0000000000000000000000000000000000000000000000000000000000000000000000000000000000000000000000000000000000000000000000000000000000000000000000000000000000000000
Invited Nodes: 37 137 
Actions left: 3
Session index: 2

Observation: ..
Reward 0
About to find best action in Step: 2
Foind best action in Step: 2
Coolie

Action Type: 2

Presence: 0000000000000000000000000000000000000000000000000000000000000000000000000000000000000000000000000000000000000000000000000000000000000000000000000000000000000000
Invited Nodes: 37 137 
Actions left: 3
Session index: 3

Observation: ..
Reward 0
About to find best action in Step: 3
Foind best action in Step: 3
Coolie

Action Type: 2

Presence: 1111111111111111111111111111111111111111111111111111111111111111111111111111111111111111111111111111111111111111111111111111111111111111111111111111111111111111
Invited Nodes: 37 137 
Actions left: 3
Session index: 4

Observation: ..
Reward 0
About to find best action in Step: 4
Foind best action in Step: 4
Coolie

Action Type: 2

Presence: 0000000000000000000000000000000000000000000000000000000000000000000000000000000000000000000000000000000000000000000000000000000000000000000000000000000000000000
Invited Nodes: 37 137 
Actions left: 3
Session index: 5

Observation: ..
Reward 0
About to find best action in Step: 5
Foind best action in Step: 5
Coolie

Action Type: 2

Presence: 0000000000000000000000000000100000000000000000000000000000000000000000000000000000000000000000000000000000000000000000000000000000000000000000000000000000000000
Invited Nodes: 37 137 
Actions left: 3
Session index: 6

Observation: ..
Reward 0
About to find best action in Step: 6
Foind best action in Step: 6
Coolie

Action Type: 2

Presence: 0000000000000000000000000000000000000000000000000000000000000001000000000000000000000000000000000000000000000000000000000000000000000000000000000000000000000000
Invited Nodes: 37 137 
Actions left: 3
Session index: 7

Observation: ..
Reward 32.747
Terminated
Discounted return = 32.747, average = 26.2772
Undiscounted return = 32.747, average = 26.2772
Starting run 5 with 1024 simulations... 

Presence: 1111111111111111111111111111111111111111111111111111111111111111111111111111111111111111111111111111111111111111111111111111111111111111111111111111111111111111
Invited Nodes: 
Actions left: 3
Session index: 1
About to find best action in Step: 0
Values: 0(endSession) 25.243(query) 24.9644(invite)
Foind best action in Step: 0
Coolie

Action Type: 0
Active Nodes: 0 136 

Presence: 1111111111111111111111111111111111111111111111111111111111111111111111111111111111111111111111111111111111111111111111111111111111111111111111111111111111111111
Invited Nodes: 
Actions left: 2
Session index: 1

Observation: ..11
Reward -0
About to find best action in Step: 1
Values: 0(endSession) 24.5533(query) 25.3297(invite)
Foind best action in Step: 1
Coolie

Action Type: 1
Active Nodes: 59 105 

Presence: 1111111111111111111111111111111111111111111111111111111111111111111111111111111111111111111111111111111111111111111111111111111111111111111111111111111111111111
Invited Nodes: 59 105 
Actions left: 1
Session index: 1

Observation: ..11
Reward -0
About to find best action in Step: 2
Foind best action in Step: 2
Coolie

Action Type: 2

Presence: 1111111110111111111111111111111111111111111111111111111111111111111111110111111111111111111111111111111111111111111111111111111111111111111001111110111111111111
Invited Nodes: 59 105 
Actions left: 3
Session index: 2

Observation: ..
Reward 0
About to find best action in Step: 3
Foind best action in Step: 3
Coolie

Action Type: 2

Presence: 0000000000000000000100000000000000000000000000000000001000000000000000000000000000000000000000000000000000000000000000000000000000000000000000000000000000000000
Invited Nodes: 59 105 
Actions left: 3
Session index: 3

Observation: ..
Reward 0
About to find best action in Step: 4
Foind best action in Step: 4
Coolie

Action Type: 2

Presence: 1111111111111111111111111111111111111111111111111111111111111111111111111111111111111111111111111111111111111111111111111111111111111111111111111111111111111111
Invited Nodes: 59 105 
Actions left: 3
Session index: 4

Observation: ..
Reward 0
About to find best action in Step: 5
Foind best action in Step: 5
Coolie

Action Type: 2

Presence: 0000000000000000000000000000000000000000000000000000000000000000000000000000000000000000000000000000000000000000000000000000000000000000000000000000000000000000
Invited Nodes: 59 105 
Actions left: 3
Session index: 5

Observation: ..
Reward 0
About to find best action in Step: 6
Foind best action in Step: 6
Coolie

Action Type: 2

Presence: 1111111111111111111111111111111111111111111111111111111111111111111111111111111111111111111111111111111111111111111111111111111111111111111111111111111111111111
Invited Nodes: 59 105 
Actions left: 3
Session index: 6

Observation: ..
Reward 0
About to find best action in Step: 7
Foind best action in Step: 7
Coolie

Action Type: 2

Presence: 1111111111111111111111111111111111111111111111111111111111111111111111111111111111111111111111111111111111111111111111111111111111111111111111111111111111111111
Invited Nodes: 59 105 
Actions left: 3
Session index: 7

Observation: ..
Reward 33.342
Terminated
Discounted return = 33.342, average = 27.6902
Undiscounted return = 33.342, average = 27.6902
Starting run 6 with 1024 simulations... 

Presence: 1111111111111111111111111111111111111111111111111111111111111111111111111111111111111111111111111111111111111111111111111111111111111111111111111111111111111111
Invited Nodes: 
Actions left: 3
Session index: 1
About to find best action in Step: 0
Values: 0(endSession) 25.3549(query) 25.3423(invite)
Foind best action in Step: 0
Coolie

Action Type: 0
Active Nodes: 39 128 

Presence: 1111111111111111111111111111111111111111111111111111111111111111111111111111111111111111111111111111111111111111111111111111111111111111111111111111111111111111
Invited Nodes: 
Actions left: 2
Session index: 1

Observation: ..11
Reward -0
About to find best action in Step: 1
Values: 0(endSession) 25.3564(query) 24.9882(invite)
Foind best action in Step: 1
Coolie

Action Type: 0
Active Nodes: 66 84 

Presence: 1111111111111111111111111111111111111111111111111111111111111111111111111111111111111111111111111111111111111111111111111111111111111111111111111111111111111111
Invited Nodes: 
Actions left: 1
Session index: 1

Observation: ..11
Reward -0
About to find best action in Step: 2
Values: 0(endSession) 25.0936(query) 25.2052(invite)
Foind best action in Step: 2
Coolie

Action Type: 1
Active Nodes: 3 17 

Presence: 1111111111111111111111111111111111111111111111111111111111111111111111111111111111111111111111111111111111111111111111111111111111111111111111111111111111111111
Invited Nodes: 3 17 
Actions left: 0
Session index: 1

Observation: ..11
Reward -0
About to find best action in Step: 3
Foind best action in Step: 3
Coolie

Action Type: 2

Presence: 0000000000000000000000000000000000000000000000000000000000000000000000000000000000000000000000000000000000000000000000000000000000000000000000000000000000000000
Invited Nodes: 3 17 
Actions left: 3
Session index: 2

Observation: ..
Reward 0
About to find best action in Step: 4
Foind best action in Step: 4
Coolie

Action Type: 2

Presence: 0000000000000000000000000000000000000000000000000000000000000000000000000000000000000000000000000000000000000000000000000000000000000000000000000000000000000000
Invited Nodes: 3 17 
Actions left: 3
Session index: 3

Observation: ..
Reward 0
About to find best action in Step: 5
Foind best action in Step: 5
Coolie

Action Type: 2

Presence: 0000000000000000000000000000000000000000000000000000000000000000000000000000000000000000000000000000000000000000000000000000000000000000000000000000000000000000
Invited Nodes: 3 17 
Actions left: 3
Session index: 4

Observation: ..
Reward 0
About to find best action in Step: 6
Foind best action in Step: 6
Coolie

Action Type: 2

Presence: 1111111111111111111111111111111111111111111111111111111111111111111111111111111111111111111111111111111111111111111111111111111111111111111111111111111111111111
Invited Nodes: 3 17 
Actions left: 3
Session index: 5

Observation: ..
Reward 0
About to find best action in Step: 7
Foind best action in Step: 7
Coolie

Action Type: 2

Presence: 1111111111111111111111111111111111111111111111111111111111111111111111111111111111111111111111111111111111111111111111111111111111111111111111111111111111111111
Invited Nodes: 3 17 
Actions left: 3
Session index: 6

Observation: ..
Reward 0
About to find best action in Step: 8
Foind best action in Step: 8
Coolie

Action Type: 2

Presence: 0000000000000000000000000000000000000000000000000000000000000000000000000000000000000000010000000000000000000000000000000000000000000000000000000000000000000000
Invited Nodes: 3 17 
Actions left: 3
Session index: 7

Observation: ..
Reward 17.838
Terminated
Discounted return = 17.838, average = 26.0482
Undiscounted return = 17.838, average = 26.0482
Starting run 7 with 1024 simulations... 

Presence: 0000000000000000000000000000000000000000000000000000000000000000000000000000000000000000000000000000000000000000000000000000000000000000000000000000000000000000
Invited Nodes: 
Actions left: 3
Session index: 1
About to find best action in Step: 0
Values: 0(endSession) 24.9724(query) 25.0443(invite)
Foind best action in Step: 0
Coolie

Action Type: 1
Active Nodes: 29 94 

Presence: 0000000000000000000000000000000000000000000000000000000000000000000000000000000000000000000000000000000000000000000000000000000000000000000000000000000000000000
Invited Nodes: 
Actions left: 2
Session index: 1

Observation: ..
Reward -0
About to find best action in Step: 1
Values: 0(endSession) 25.0297(query) 25.003(invite)
Foind best action in Step: 1
Coolie

Action Type: 0
Active Nodes: 102 115 

Presence: 0000000000000000000000000000000000000000000000000000000000000000000000000000000000000000000000000000000000000000000000000000000000000000000000000000000000000000
Invited Nodes: 
Actions left: 1
Session index: 1

Observation: ..
Reward -0
About to find best action in Step: 2
Values: 0(endSession) 25.5799(query) 25.213(invite)
Foind best action in Step: 2
Coolie

Action Type: 0
Active Nodes: 30 34 

Presence: 0000000000000000000000000000000000000000000000000000000000000000000000000000000000000000000000000000000000000000000000000000000000000000000000000000000000000000
Invited Nodes: 
Actions left: 0
Session index: 1

Observation: ..
Reward -0
About to find best action in Step: 3
Foind best action in Step: 3
Coolie

Action Type: 2

Presence: 1111111111111111111111111111111111111111111111111111111111111111111111111111111111111111111111111111111111111111111111111111111111111111111111111111111111111111
Invited Nodes: 
Actions left: 3
Session index: 2

Observation: ..
Reward 0
About to find best action in Step: 4
Values: 0(endSession) 25.5726(query) 24.579(invite)
Foind best action in Step: 4
Coolie

Action Type: 0
Active Nodes: 91 98 

Presence: 1111111111111111111111111111111111111111111111111111111111111111111111111111111111111111111111111111111111111111111111111111111111111111111111111111111111111111
Invited Nodes: 
Actions left: 2
Session index: 2

Observation: ..11
Reward -0
About to find best action in Step: 5
Values: 0(endSession) 24.0904(query) 24.7087(invite)
Foind best action in Step: 5
Coolie

Action Type: 1
Active Nodes: 22 99 

Presence: 1111111111111111111111111111111111111111111111111111111111111111111111111111111111111111111111111111111111111111111111111111111111111111111111111111111111111111
Invited Nodes: 22 99 
Actions left: 1
Session index: 2

Observation: ..11
Reward -0
About to find best action in Step: 6
Foind best action in Step: 6
Coolie

Action Type: 2

Presence: 0000000000000000000000000000000000000000000000000000000000000000000000000000000000000000000000000000000000000000000000000000000000000000000000000000000000000000
Invited Nodes: 22 99 
Actions left: 3
Session index: 3

Observation: ..
Reward 0
About to find best action in Step: 7
Foind best action in Step: 7
Coolie

Action Type: 2

Presence: 0000000000000000000000000000000000000000000000000000000000000000000000000000000000000000000000000000000000000000000000000000000000000000000000000000100000000000
Invited Nodes: 22 99 
Actions left: 3
Session index: 4

Observation: ..
Reward 0
About to find best action in Step: 8
Foind best action in Step: 8
Coolie

Action Type: 2

Presence: 1111111111111111111111111111111111111111111111111111111111111111111111111111111111111111111111111111111111111111111111111111111111111111111111111111111111111111
Invited Nodes: 22 99 
Actions left: 3
Session index: 5

Observation: ..
Reward 0
About to find best action in Step: 9
Foind best action in Step: 9
Coolie

Action Type: 2

Presence: 1111111111111111111111111111111111101111111111111111111111111111111111111111111111111111111111111111111111111111111111111111111111111111111111111111111111111111
Invited Nodes: 22 99 
Actions left: 3
Session index: 6

Observation: ..
Reward 0
About to find best action in Step: 10
Foind best action in Step: 10
Coolie

Action Type: 2

Presence: 1111111111111111111111111111111111111111111111111111111111111111111111111111111111111111111111111111111111111111111111111111111111111111111111111111111111111111
Invited Nodes: 22 99 
Actions left: 3
Session index: 7

Observation: ..
Reward 26.12
Terminated
Discounted return = 26.12, average = 26.0584
Undiscounted return = 26.12, average = 26.0584
Starting run 8 with 1024 simulations... 

Presence: 0000000000000000000000000000100000000000000000000000000000000000000000100000000000000000000000000000000000000000000000000000000000000000000000000000000000000000
Invited Nodes: 
Actions left: 3
Session index: 1
About to find best action in Step: 0
Values: 0(endSession) 25.6667(query) 24.8665(invite)
Foind best action in Step: 0
Coolie

Action Type: 0
Active Nodes: 18 53 

Presence: 0000000000000000000000000000100000000000000000000000000000000000000000100000000000000000000000000000000000000000000000000000000000000000000000000000000000000000
Invited Nodes: 
Actions left: 2
Session index: 1

Observation: ..
Reward -0
About to find best action in Step: 1
Values: 0(endSession) 24.976(query) 25.0746(invite)
Foind best action in Step: 1
Coolie

Action Type: 1
Active Nodes: 37 137 

Presence: 0000000000000000000000000000100000000000000000000000000000000000000000100000000000000000000000000000000000000000000000000000000000000000000000000000000000000000
Invited Nodes: 
Actions left: 1
Session index: 1

Observation: ..
Reward -0
About to find best action in Step: 2
Values: 0(endSession) 25.0956(query) 25.2004(invite)
Foind best action in Step: 2
Coolie

Action Type: 1
Active Nodes: 82 121 

Presence: 0000000000000000000000000000100000000000000000000000000000000000000000100000000000000000000000000000000000000000000000000000000000000000000000000000000000000000
Invited Nodes: 
Actions left: 0
Session index: 1

Observation: ..
Reward -0
About to find best action in Step: 3
Foind best action in Step: 3
Coolie

Action Type: 2

Presence: 0000000000000000000000000000000000000000000000000000000000000000000000000000000000000000000000000000000000000000000000000000000000000000000000000000000000000000
Invited Nodes: 
Actions left: 3
Session index: 2

Observation: ..
Reward 0
About to find best action in Step: 4
Values: 0(endSession) 25.4822(query) 24.8668(invite)
Foind best action in Step: 4
Coolie

Action Type: 0
Active Nodes: 22 130 

Presence: 0000000000000000000000000000000000000000000000000000000000000000000000000000000000000000000000000000000000000000000000000000000000000000000000000000000000000000
Invited Nodes: 
Actions left: 2
Session index: 2

Observation: ..
Reward -0
About to find best action in Step: 5
Values: 0(endSession) 24.1902(query) 24.5791(invite)
Foind best action in Step: 5
Coolie

Action Type: 1
Active Nodes: 71 151 

Presence: 0000000000000000000000000000000000000000000000000000000000000000000000000000000000000000000000000000000000000000000000000000000000000000000000000000000000000000
Invited Nodes: 
Actions left: 1
Session index: 2

Observation: ..
Reward -0
About to find best action in Step: 6
Values: 0(endSession) 25.0713(query) 25.1842(invite)
Foind best action in Step: 6
Coolie

Action Type: 1
Active Nodes: 78 137 

Presence: 0000000000000000000000000000000000000000000000000000000000000000000000000000000000000000000000000000000000000000000000000000000000000000000000000000000000000000
Invited Nodes: 
Actions left: 0
Session index: 2

Observation: ..
Reward -0
About to find best action in Step: 7
Foind best action in Step: 7
Coolie

Action Type: 2

Presence: 0000000000000000000000000000000000000000000000000000000000000000000000000000000000000000000000000000000000000000000000000000000000000000000000000000000000000000
Invited Nodes: 
Actions left: 3
Session index: 3

Observation: ..
Reward 0
About to find best action in Step: 8
Values: 0(endSession) 24.2698(query) 24.4106(invite)
Foind best action in Step: 8
Coolie

Action Type: 1
Active Nodes: 37 86 

Presence: 0000000000000000000000000000000000000000000000000000000000000000000000000000000000000000000000000000000000000000000000000000000000000000000000000000000000000000
Invited Nodes: 
Actions left: 2
Session index: 3

Observation: ..
Reward -0
About to find best action in Step: 9
Values: 0(endSession) 23.358(query) 24.6741(invite)
Foind best action in Step: 9
Coolie

Action Type: 1
Active Nodes: 59 91 

Presence: 0000000000000000000000000000000000000000000000000000000000000000000000000000000000000000000000000000000000000000000000000000000000000000000000000000000000000000
Invited Nodes: 
Actions left: 1
Session index: 3

Observation: ..
Reward -0
About to find best action in Step: 10
Values: 0(endSession) 23.1667(query) 23.4144(invite)
Foind best action in Step: 10
Coolie

Action Type: 1
Active Nodes: 13 74 

Presence: 0000000000000000000000000000000000000000000000000000000000000000000000000000000000000000000000000000000000000000000000000000000000000000000000000000000000000000
Invited Nodes: 
Actions left: 0
Session index: 3

Observation: ..
Reward -0
About to find best action in Step: 11
Foind best action in Step: 11
Coolie

Action Type: 2

Presence: 0000000000000000000000000000000000000000000000000000000000000000000000000000000000000000000000000000000000000000000000000000000000000000000000000000000000000000
Invited Nodes: 
Actions left: 3
Session index: 4

Observation: ..
Reward 0
About to find best action in Step: 12
Values: 0(endSession) 22.6909(query) 22.8904(invite)
Foind best action in Step: 12
Coolie

Action Type: 1
Active Nodes: 36 58 

Presence: 0000000000000000000000000000000000000000000000000000000000000000000000000000000000000000000000000000000000000000000000000000000000000000000000000000000000000000
Invited Nodes: 
Actions left: 2
Session index: 4

Observation: ..
Reward -0
About to find best action in Step: 13
Values: 0(endSession) 20.2052(query) 21.9773(invite)
Foind best action in Step: 13
Coolie

Action Type: 1
Active Nodes: 37 137 

Presence: 0000000000000000000000000000000000000000000000000000000000000000000000000000000000000000000000000000000000000000000000000000000000000000000000000000000000000000
Invited Nodes: 
Actions left: 1
Session index: 4

Observation: ..
Reward -0
About to find best action in Step: 14
Values: 0(endSession) 20.7447(query) 21.7686(invite)
Foind best action in Step: 14
Coolie

Action Type: 1
Active Nodes: 8 58 

Presence: 0000000000000000000000000000000000000000000000000000000000000000000000000000000000000000000000000000000000000000000000000000000000000000000000000000000000000000
Invited Nodes: 
Actions left: 0
Session index: 4

Observation: ..
Reward -0
About to find best action in Step: 15
Foind best action in Step: 15
Coolie

Action Type: 2

Presence: 1111111111111111111111111111111111111111111111111111111111111111111111111111111111111111111111111111111111111111111111111111111111111111111111111111111111111111
Invited Nodes: 
Actions left: 3
Session index: 5

Observation: ..
Reward 0
About to find best action in Step: 16
Values: 0(endSession) 20.4432(query) 19.5204(invite)
Foind best action in Step: 16
Coolie

Action Type: 0
Active Nodes: 72 88 

Presence: 1111111111111111111111111111111111111111111111111111111111111111111111111111111111111111111111111111111111111111111111111111111111111111111111111111111111111111
Invited Nodes: 
Actions left: 2
Session index: 5

Observation: ..11
Reward -0
About to find best action in Step: 17
Values: 0(endSession) 14.801(query) 20.9505(invite)
Foind best action in Step: 17
Coolie

Action Type: 1
Active Nodes: 14 83 

Presence: 1111111111111111111111111111111111111111111111111111111111111111111111111111111111111111111111111111111111111111111111111111111111111111111111111111111111111111
Invited Nodes: 14 83 
Actions left: 1
Session index: 5

Observation: ..11
Reward -0
About to find best action in Step: 18
Foind best action in Step: 18
Coolie

Action Type: 2

Presence: 0000000000000000000000000000000000000000000000000000000000000000000000000000000000000000000000000000000000000000000000000000000000000000000000000000000000000000
Invited Nodes: 14 83 
Actions left: 3
Session index: 6

Observation: ..
Reward 0
About to find best action in Step: 19
Foind best action in Step: 19
Coolie

Action Type: 2

Presence: 0000000000000000000000000000000000000000000000000000000000000000000001000000000000000000000000000000001000000000000000000000000001000000000000001000000000000000
Invited Nodes: 14 83 
Actions left: 3
Session index: 7

Observation: ..
Reward 27.714
Terminated
Discounted return = 27.714, average = 26.2654
Undiscounted return = 27.714, average = 26.2654
Starting run 9 with 1024 simulations... 

Presence: 1111111111111111111111111111111111111111111111111111111111111111111111111111111111111111111111111111111111111111111111111111111111111111111111111111111111111111
Invited Nodes: 
Actions left: 3
Session index: 1
About to find best action in Step: 0
Values: 0(endSession) 25.4702(query) 25.3119(invite)
Foind best action in Step: 0
Coolie

Action Type: 0
Active Nodes: 45 143 

Presence: 1111111111111111111111111111111111111111111111111111111111111111111111111111111111111111111111111111111111111111111111111111111111111111111111111111111111111111
Invited Nodes: 
Actions left: 2
Session index: 1

Observation: ..11
Reward -0
About to find best action in Step: 1
Values: 0(endSession) 25.4011(query) 25.1005(invite)
Foind best action in Step: 1
Coolie

Action Type: 0
Active Nodes: 29 86 

Presence: 1111111111111111111111111111111111111111111111111111111111111111111111111111111111111111111111111111111111111111111111111111111111111111111111111111111111111111
Invited Nodes: 
Actions left: 1
Session index: 1

Observation: ..11
Reward -0
About to find best action in Step: 2
Values: 0(endSession) 25.3417(query) 25.2504(invite)
Foind best action in Step: 2
Coolie

Action Type: 0
Active Nodes: 2 60 

Presence: 1111111111111111111111111111111111111111111111111111111111111111111111111111111111111111111111111111111111111111111111111111111111111111111111111111111111111111
Invited Nodes: 
Actions left: 0
Session index: 1

Observation: ..11
Reward -0
About to find best action in Step: 3
Foind best action in Step: 3
Coolie

Action Type: 2

Presence: 1111111111111111111111111111111111111111111111111111111111111111111111111111111111111111111111111111111111111111111111111111111111111111111111111111111111111111
Invited Nodes: 
Actions left: 3
Session index: 2

Observation: ..
Reward 0
About to find best action in Step: 4
Values: 0(endSession) 25.2195(query) 24.9565(invite)
Foind best action in Step: 4
Coolie

Action Type: 0
Active Nodes: 5 147 

Presence: 1111111111111111111111111111111111111111111111111111111111111111111111111111111111111111111111111111111111111111111111111111111111111111111111111111111111111111
Invited Nodes: 
Actions left: 2
Session index: 2

Observation: ..11
Reward -0
About to find best action in Step: 5
Values: 0(endSession) 24.9421(query) 24.5979(invite)
Foind best action in Step: 5
Coolie

Action Type: 0
Active Nodes: 61 106 

Presence: 1111111111111111111111111111111111111111111111111111111111111111111111111111111111111111111111111111111111111111111111111111111111111111111111111111111111111111
Invited Nodes: 
Actions left: 1
Session index: 2

Observation: ..11
Reward -0
About to find best action in Step: 6
Values: 0(endSession) 24.0823(query) 24.7852(invite)
Foind best action in Step: 6
Coolie

Action Type: 1
Active Nodes: 86 137 

Presence: 1111111111111111111111111111111111111111111111111111111111111111111111111111111111111111111111111111111111111111111111111111111111111111111111111111111111111111
Invited Nodes: 86 137 
Actions left: 0
Session index: 2

Observation: ..11
Reward -0
About to find best action in Step: 7
Foind best action in Step: 7
Coolie

Action Type: 2

Presence: 0000000000000000000000000000000000000000000000000000000000000000000000000000000000000000000000000000000000000000000000000000000000000000000000001000000000000000
Invited Nodes: 86 137 
Actions left: 3
Session index: 3

Observation: ..
Reward 0
About to find best action in Step: 8
Foind best action in Step: 8
Coolie

Action Type: 2

Presence: 0000000000000000000000000000000000000000000000000000000000000000000000010000000000000000000000000000000000000000000000000000000000000000000000000000000000000000
Invited Nodes: 86 137 
Actions left: 3
Session index: 4

Observation: ..
Reward 0
About to find best action in Step: 9
Foind best action in Step: 9
Coolie

Action Type: 2

Presence: 1111111111111111111111111111111111111111111111111111111111111111111111111111111111111111111111111111111111111111111111111111111111111111111111111111111111111111
Invited Nodes: 86 137 
Actions left: 3
Session index: 5

Observation: ..
Reward 0
About to find best action in Step: 10
Foind best action in Step: 10
Coolie

Action Type: 2

Presence: 1111111111111111111111111111111111111111111111111111111111011111111111111111111111111111111111111111111111111111111111111111111111111111111111111111111111111111
Invited Nodes: 86 137 
Actions left: 3
Session index: 6

Observation: ..
Reward 0
About to find best action in Step: 11
Foind best action in Step: 11
Coolie

Action Type: 2

Presence: 0000000000000000000000000000000000000000000000000000000000000000000000000000000000000000000000000000000000000000000000000000000000000000000000000000000000000000
Invited Nodes: 86 137 
Actions left: 3
Session index: 7

Observation: ..
Reward 30.417
Terminated
Discounted return = 30.417, average = 26.7267
Undiscounted return = 30.417, average = 26.7267
Starting run 10 with 1024 simulations... 

Presence: 0000000000000000000000000000000000000000000000000000000000000000000000000000000000000000000000000000000000000000000000000000000000000000000000000000000000000000
Invited Nodes: 
Actions left: 3
Session index: 1
About to find best action in Step: 0
Values: 0(endSession) 25.6659(query) 25.189(invite)
Foind best action in Step: 0
Coolie

Action Type: 0
Active Nodes: 78 128 

Presence: 0000000000000000000000000000000000000000000000000000000000000000000000000000000000000000000000000000000000000000000000000000000000000000000000000000000000000000
Invited Nodes: 
Actions left: 2
Session index: 1

Observation: ..
Reward -0
About to find best action in Step: 1
Values: 0(endSession) 25.162(query) 25.2972(invite)
Foind best action in Step: 1
Coolie

Action Type: 1
Active Nodes: 37 137 

Presence: 0000000000000000000000000000000000000000000000000000000000000000000000000000000000000000000000000000000000000000000000000000000000000000000000000000000000000000
Invited Nodes: 
Actions left: 1
Session index: 1

Observation: ..
Reward -0
About to find best action in Step: 2
Values: 0(endSession) 25.2172(query) 25.3093(invite)
Foind best action in Step: 2
Coolie

Action Type: 1
Active Nodes: 8 118 

Presence: 0000000000000000000000000000000000000000000000000000000000000000000000000000000000000000000000000000000000000000000000000000000000000000000000000000000000000000
Invited Nodes: 
Actions left: 0
Session index: 1

Observation: ..
Reward -0
About to find best action in Step: 3
Foind best action in Step: 3
Coolie

Action Type: 2

Presence: 0000000000000000000000000000000000000000000000000000000000000000000000000000000000000000000000000000000000001000000000000000000000000000000000000000000000000000
Invited Nodes: 
Actions left: 3
Session index: 2

Observation: ..
Reward 0
About to find best action in Step: 4
Values: 0(endSession) 25.0582(query) 24.8106(invite)
Foind best action in Step: 4
Coolie

Action Type: 0
Active Nodes: 7 132 

Presence: 0000000000000000000000000000000000000000000000000000000000000000000000000000000000000000000000000000000000001000000000000000000000000000000000000000000000000000
Invited Nodes: 
Actions left: 2
Session index: 2

Observation: ..
Reward -0
About to find best action in Step: 5
Values: 0(endSession) 23.9956(query) 24.7888(invite)
Foind best action in Step: 5
Coolie

Action Type: 1
Active Nodes: 46 93 

Presence: 0000000000000000000000000000000000000000000000000000000000000000000000000000000000000000000000000000000000001000000000000000000000000000000000000000000000000000
Invited Nodes: 
Actions left: 1
Session index: 2

Observation: ..
Reward -0
About to find best action in Step: 6
Values: 0(endSession) 24.1837(query) 24.5271(invite)
Foind best action in Step: 6
Coolie

Action Type: 1
Active Nodes: 1 147 

Presence: 0000000000000000000000000000000000000000000000000000000000000000000000000000000000000000000000000000000000001000000000000000000000000000000000000000000000000000
Invited Nodes: 
Actions left: 0
Session index: 2

Observation: ..
Reward -0
About to find best action in Step: 7
Foind best action in Step: 7
Coolie

Action Type: 2

Presence: 1111111111111111111111111111111111111111111111111111111111111111111111111111111111111111111111111111111111111111111111111111111111111111111111111111111111111111
Invited Nodes: 
Actions left: 3
Session index: 3

Observation: ..
Reward 0
About to find best action in Step: 8
Values: 0(endSession) 24.2258(query) 23.8276(invite)
Foind best action in Step: 8
Coolie

Action Type: 0
Active Nodes: 43 70 

Presence: 1111111111111111111111111111111111111111111111111111111111111111111111111111111111111111111111111111111111111111111111111111111111111111111111111111111111111111
Invited Nodes: 
Actions left: 2
Session index: 3

Observation: ..11
Reward -0
About to find best action in Step: 9
Values: 0(endSession) 21.7654(query) 24.0725(invite)
Foind best action in Step: 9
Coolie

Action Type: 1
Active Nodes: 6 117 

Presence: 1111111111111111111111111111111111111111111111111111111111111111111111111111111111111111111111111111111111111111111111111111111111111111111111111111111111111111
Invited Nodes: 6 117 
Actions left: 1
Session index: 3

Observation: ..11
Reward -0
About to find best action in Step: 10
Foind best action in Step: 10
Coolie

Action Type: 2

Presence: 0000000000000000000000000000000000000000000000000000000000000000000000000000000000000000000000000000000000000000000000000000000000000000000000000000000000000000
Invited Nodes: 6 117 
Actions left: 3
Session index: 4

Observation: ..
Reward 0
About to find best action in Step: 11
Foind best action in Step: 11
Coolie

Action Type: 2

Presence: 0000000000000000000000000000000000000000000000000000000000000000000000000000000000000000000000000000000000000000000000000000000000000000000000000000000000000000
Invited Nodes: 6 117 
Actions left: 3
Session index: 5

Observation: ..
Reward 0
About to find best action in Step: 12
Foind best action in Step: 12
Coolie

Action Type: 2

Presence: 0000000000000000000010000000000000000000000000000000000000000000000000000000000000000000000000000000000000000000000000000000000000000000000000001000000000000000
Invited Nodes: 6 117 
Actions left: 3
Session index: 6

Observation: ..
Reward 0
About to find best action in Step: 13
Foind best action in Step: 13
Coolie

Action Type: 2

Presence: 1111111111111111111111110111111111111111111111111111111111111111111111111111111111111111111111111111111111111111111111111111111111111111111111111111111111111111
Invited Nodes: 6 117 
Actions left: 3
Session index: 7

Observation: ..
Reward 26.021
Terminated
Discounted return = 26.021, average = 26.6561
Undiscounted return = 26.021, average = 26.6561
Starting run 11 with 1024 simulations... 

Presence: 1111111111111111111111111111111111111111111111111111111111111111111111111111111111111111111111111111111111111111111111111111111111111111111111111111111111111111
Invited Nodes: 
Actions left: 3
Session index: 1
About to find best action in Step: 0
Values: 0(endSession) 25.5336(query) 25.2907(invite)
Foind best action in Step: 0
Coolie

Action Type: 0
Active Nodes: 65 132 

Presence: 1111111111111111111111111111111111111111111111111111111111111111111111111111111111111111111111111111111111111111111111111111111111111111111111111111111111111111
Invited Nodes: 
Actions left: 2
Session index: 1

Observation: ..11
Reward -0
About to find best action in Step: 1
Values: 0(endSession) 25.3782(query) 25.0704(invite)
Foind best action in Step: 1
Coolie

Action Type: 0
Active Nodes: 31 42 

Presence: 1111111111111111111111111111111111111111111111111111111111111111111111111111111111111111111111111111111111111111111111111111111111111111111111111111111111111111
Invited Nodes: 
Actions left: 1
Session index: 1

Observation: ..11
Reward -0
About to find best action in Step: 2
Values: 0(endSession) 25.1208(query) 25.0135(invite)
Foind best action in Step: 2
Coolie

Action Type: 0
Active Nodes: 27 70 

Presence: 1111111111111111111111111111111111111111111111111111111111111111111111111111111111111111111111111111111111111111111111111111111111111111111111111111111111111111
Invited Nodes: 
Actions left: 0
Session index: 1

Observation: ..11
Reward -0
About to find best action in Step: 3
Foind best action in Step: 3
Coolie

Action Type: 2

Presence: 1111111111111111111111111111111111111111111111111111111111111111111111111111111111111111111111111111111111111111111111111111111111111111111111111111111111111111
Invited Nodes: 
Actions left: 3
Session index: 2

Observation: ..
Reward 0
About to find best action in Step: 4
Values: 0(endSession) 25.4719(query) 24.884(invite)
Foind best action in Step: 4
Coolie

Action Type: 0
Active Nodes: 36 58 

Presence: 1111111111111111111111111111111111111111111111111111111111111111111111111111111111111111111111111111111111111111111111111111111111111111111111111111111111111111
Invited Nodes: 
Actions left: 2
Session index: 2

Observation: ..11
Reward -0
About to find best action in Step: 5
Values: 0(endSession) 24.8049(query) 24.9667(invite)
Foind best action in Step: 5
Coolie

Action Type: 1
Active Nodes: 16 59 

Presence: 1111111111111111111111111111111111111111111111111111111111111111111111111111111111111111111111111111111111111111111111111111111111111111111111111111111111111111
Invited Nodes: 16 59 
Actions left: 1
Session index: 2

Observation: ..11
Reward -0
About to find best action in Step: 6
Foind best action in Step: 6
Coolie

Action Type: 2

Presence: 1111111110111111111111111111111111111111111111111111111111111111111111111111111111111111111111111111111111111111111111111111111111111111111111111111111111111111
Invited Nodes: 16 59 
Actions left: 3
Session index: 3

Observation: ..
Reward 0
About to find best action in Step: 7
Foind best action in Step: 7
Coolie

Action Type: 2

Presence: 0000000000000000000000000000000000000000000000000000000000000000000000000000000000000000000000000000000000000000000000000000000000000000000000000000000000000000
Invited Nodes: 16 59 
Actions left: 3
Session index: 4

Observation: ..
Reward 0
About to find best action in Step: 8
Foind best action in Step: 8
Coolie

Action Type: 2

Presence: 0000000000000000000000000000000000000000000000000000000000000000000000000000000000000000000000000000000000000100000000000000000000000000000000000000000000000000
Invited Nodes: 16 59 
Actions left: 3
Session index: 5

Observation: ..
Reward 0
About to find best action in Step: 9
Foind best action in Step: 9
Coolie

Action Type: 2

Presence: 0000000000000000000000000000000000000000000000000000000000000000000000000000000000000000000000000000000000000000000000000000000000000000000000000000000000000000
Invited Nodes: 16 59 
Actions left: 3
Session index: 6

Observation: ..
Reward 0
About to find best action in Step: 10
Foind best action in Step: 10
Coolie

Action Type: 2

Presence: 1111111111111111111111111111111111111111111111111111111111111111111111111111111111111111111111111111111111111111111111111111111111111111111111111111111111111111
Invited Nodes: 16 59 
Actions left: 3
Session index: 7

Observation: ..
Reward 31.865
Terminated
Discounted return = 31.865, average = 27.1296
Undiscounted return = 31.865, average = 27.1296
Starting run 12 with 1024 simulations... 

Presence: 1111111111111111111111111111111111111111111111111111111111111111111111111111111111111111111111111111111111111111111111111111111111111111111111111111111111111111
Invited Nodes: 
Actions left: 3
Session index: 1
About to find best action in Step: 0
Values: 0(endSession) 25.4702(query) 25.5465(invite)
Foind best action in Step: 0
Coolie

Action Type: 1
Active Nodes: 26 83 

Presence: 1111111111111111111111111111111111111111111111111111111111111111111111111111111111111111111111111111111111111111111111111111111111111111111111111111111111111111
Invited Nodes: 26 83 
Actions left: 2
Session index: 1

Observation: ..11
Reward -0
About to find best action in Step: 1
Foind best action in Step: 1
Coolie

Action Type: 2

Presence: 1111111111111111111111111111111111111111111111111111111111111111111111111111111111111111111111111111111111111111111111111111111111111111111111111111111111111111
Invited Nodes: 26 83 
Actions left: 3
Session index: 2

Observation: ..
Reward 0
About to find best action in Step: 2
Foind best action in Step: 2
Coolie

Action Type: 2

Presence: 0000000000000000000000000000000000000000000000000000000000000000000000000000000000000000000000000000000000000000000000000000000000000000000000000000000000000000
Invited Nodes: 26 83 
Actions left: 3
Session index: 3

Observation: ..
Reward 0
About to find best action in Step: 3
Foind best action in Step: 3
Coolie

Action Type: 2

Presence: 1111111111111111011111111111111101111111111111111111111111111111111111111111111111111111111111111111111111111111111111111111111111111111111111111111111111111111
Invited Nodes: 26 83 
Actions left: 3
Session index: 4

Observation: ..
Reward 0
About to find best action in Step: 4
Foind best action in Step: 4
Coolie

Action Type: 2

Presence: 1111111111111111111111111111111111111111111111111111111111111111111111111111111111111101111111111111111111111111111111111111111111111111111111111111111111111111
Invited Nodes: 26 83 
Actions left: 3
Session index: 5

Observation: ..
Reward 0
About to find best action in Step: 5
Foind best action in Step: 5
Coolie

Action Type: 2

Presence: 0000000000000000000000000000000000000000000000000000000000000000000000000000000000000000000000000000000000000000000000000000000000000000000000000000000000000000
Invited Nodes: 26 83 
Actions left: 3
Session index: 6

Observation: ..
Reward 0
About to find best action in Step: 6
Foind best action in Step: 6
Coolie

Action Type: 2

Presence: 0000000000000000000000000000000000000000000000000000000000000000000000000000000000000000000000000000000000000000000000000000000000000000000000000000000000000000
Invited Nodes: 26 83 
Actions left: 3
Session index: 7

Observation: ..
Reward 23.803
Terminated
Discounted return = 23.803, average = 26.8524
Undiscounted return = 23.803, average = 26.8524
Starting run 13 with 1024 simulations... 

Presence: 0000000000000000000000000000000000000000000000000000000000000010000000000000000000000000000000000000000000000000000000000000000000000000000000000000000000000000
Invited Nodes: 
Actions left: 3
Session index: 1
About to find best action in Step: 0
Values: 0(endSession) 25.3256(query) 25.4069(invite)
Foind best action in Step: 0
Coolie

Action Type: 1
Active Nodes: 37 137 

Presence: 0000000000000000000000000000000000000000000000000000000000000010000000000000000000000000000000000000000000000000000000000000000000000000000000000000000000000000
Invited Nodes: 
Actions left: 2
Session index: 1

Observation: ..
Reward -0
About to find best action in Step: 1
Values: 0(endSession) 24.7416(query) 24.9397(invite)
Foind best action in Step: 1
Coolie

Action Type: 1
Active Nodes: 46 93 

Presence: 0000000000000000000000000000000000000000000000000000000000000010000000000000000000000000000000000000000000000000000000000000000000000000000000000000000000000000
Invited Nodes: 
Actions left: 1
Session index: 1

Observation: ..
Reward -0
About to find best action in Step: 2
Values: 0(endSession) 25.2696(query) 24.8086(invite)
Foind best action in Step: 2
Coolie

Action Type: 0
Active Nodes: 107 150 

Presence: 0000000000000000000000000000000000000000000000000000000000000010000000000000000000000000000000000000000000000000000000000000000000000000000000000000000000000000
Invited Nodes: 
Actions left: 0
Session index: 1

Observation: ..
Reward -0
About to find best action in Step: 3
Foind best action in Step: 3
Coolie

Action Type: 2

Presence: 1111111111111111111111111111111111111111111111111111111111111111111111111111111111111111111111111111111111111111111111111111111111111111111111111111111111111111
Invited Nodes: 
Actions left: 3
Session index: 2

Observation: ..
Reward 0
About to find best action in Step: 4
Values: 0(endSession) 24.8182(query) 24.9903(invite)
Foind best action in Step: 4
Coolie

Action Type: 1
Active Nodes: 37 137 

Presence: 1111111111111111111111111111111111111111111111111111111111111111111111111111111111111111111111111111111111111111111111111111111111111111111111111111111111111111
Invited Nodes: 37 137 
Actions left: 2
Session index: 2

Observation: ..11
Reward -0
About to find best action in Step: 5
Foind best action in Step: 5
Coolie

Action Type: 2

Presence: 1111111111111111111111111111111111111111111111111111111111111111111111111111111111111111111111111111111111111111111111111111111111111111111111111111111111111111
Invited Nodes: 37 137 
Actions left: 3
Session index: 3

Observation: ..
Reward 0
About to find best action in Step: 6
Foind best action in Step: 6
Coolie

Action Type: 2

Presence: 0000000000000000000000000000000000000000000000000000000000000000000000000000000000000000000000000000000000000000000000000000000000000000000000000000000000000000
Invited Nodes: 37 137 
Actions left: 3
Session index: 4

Observation: ..
Reward 0
About to find best action in Step: 7
Foind best action in Step: 7
Coolie

Action Type: 2

Presence: 1111111111111111111111111111111111111111111111111111111111111111111111111111111111111111111111111111111111111111111111111111111111111111111111111111111111111111
Invited Nodes: 37 137 
Actions left: 3
Session index: 5

Observation: ..
Reward 0
About to find best action in Step: 8
Foind best action in Step: 8
Coolie

Action Type: 2

Presence: 1111111111111111111111111111111111111111111111111110111111111111111111111111111111111111111111111111111111111111111111111111111111111111111111111111111111111111
Invited Nodes: 37 137 
Actions left: 3
Session index: 6

Observation: ..
Reward 0
About to find best action in Step: 9
Foind best action in Step: 9
Coolie

Action Type: 2

Presence: 1111111111111111111111111111111111111111111111111111111111111111111111111111111111111111111111111111111111111101111111111111111111111111111111111111111111111111
Invited Nodes: 37 137 
Actions left: 3
Session index: 7

Observation: ..
Reward 32.705
Terminated
Discounted return = 32.705, average = 27.3026
Undiscounted return = 32.705, average = 27.3026
Starting run 14 with 1024 simulations... 

Presence: 1111111111111111111111111111111111111111111111111111111111111111111111111111111111111111111111111111111111111111111111111111111111111111111111111111111111111111
Invited Nodes: 
Actions left: 3
Session index: 1
About to find best action in Step: 0
Values: 0(endSession) 25.3985(query) 25.1569(invite)
Foind best action in Step: 0
Coolie

Action Type: 0
Active Nodes: 2 18 

Presence: 1111111111111111111111111111111111111111111111111111111111111111111111111111111111111111111111111111111111111111111111111111111111111111111111111111111111111111
Invited Nodes: 
Actions left: 2
Session index: 1

Observation: ..11
Reward -0
About to find best action in Step: 1
Values: 0(endSession) 24.2306(query) 25.3139(invite)
Foind best action in Step: 1
Coolie

Action Type: 1
Active Nodes: 29 137 

Presence: 1111111111111111111111111111111111111111111111111111111111111111111111111111111111111111111111111111111111111111111111111111111111111111111111111111111111111111
Invited Nodes: 29 137 
Actions left: 1
Session index: 1

Observation: ..11
Reward -0
About to find best action in Step: 2
Foind best action in Step: 2
Coolie

Action Type: 2

Presence: 1111111111111111111111111111111111111111111111111111111111111111111111111111111111111111111111111111111111111111111111111111111111111111111111111111111111111111
Invited Nodes: 29 137 
Actions left: 3
Session index: 2

Observation: ..
Reward 0
About to find best action in Step: 3
Foind best action in Step: 3
Coolie

Action Type: 2

Presence: 0000000000000000000000000000000000000000000000000000000000000000000000000000000000000000000000000000000000000000000000000000000000000000000000000000000000000000
Invited Nodes: 29 137 
Actions left: 3
Session index: 3

Observation: ..
Reward 0
About to find best action in Step: 4
Foind best action in Step: 4
Coolie

Action Type: 2

Presence: 0000000000000000000000000000000000000000000000000000000000000000000000000000000000000000000000000000000000000000000000000000000000000000000000000000000000000000
Invited Nodes: 29 137 
Actions left: 3
Session index: 4

Observation: ..
Reward 0
About to find best action in Step: 5
Foind best action in Step: 5
Coolie

Action Type: 2

Presence: 0000000000000000000000000000000000000000000000000000000000000000000000000000000000000000000000000000000000000000000000000000000000000000000000000000000000000000
Invited Nodes: 29 137 
Actions left: 3
Session index: 5

Observation: ..
Reward 0
About to find best action in Step: 6
Foind best action in Step: 6
Coolie

Action Type: 2

Presence: 1111111111111111111111111111111111111111111111111111111111111111111111111111111111111111111111111111111111111111111111111111111111111111111111111111111111111111
Invited Nodes: 29 137 
Actions left: 3
Session index: 6

Observation: ..
Reward 0
About to find best action in Step: 7
Foind best action in Step: 7
Coolie

Action Type: 2

Presence: 0000000000000000000000000000000000000000000000000000000000000000000000000000000000000000000000000000000000000000000000000000000000000000000000000000000000000000
Invited Nodes: 29 137 
Actions left: 3
Session index: 7

Observation: ..
Reward 34.066
Terminated
Discounted return = 34.066, average = 27.7857
Undiscounted return = 34.066, average = 27.7857
Starting run 15 with 1024 simulations... 

Presence: 1111111111111111111111111111111111111111111111111111111111111111111111111111111111111111111111111111111111111111111111111111111111111111111111111111111111111111
Invited Nodes: 
Actions left: 3
Session index: 1
About to find best action in Step: 0
Values: 0(endSession) 25.4858(query) 24.7934(invite)
Foind best action in Step: 0
Coolie

Action Type: 0
Active Nodes: 46 93 

Presence: 1111111111111111111111111111111111111111111111111111111111111111111111111111111111111111111111111111111111111111111111111111111111111111111111111111111111111111
Invited Nodes: 
Actions left: 2
Session index: 1

Observation: ..11
Reward -0
About to find best action in Step: 1
Values: 0(endSession) 25.1371(query) 25.2967(invite)
Foind best action in Step: 1
Coolie

Action Type: 1
Active Nodes: 21 46 

Presence: 1111111111111111111111111111111111111111111111111111111111111111111111111111111111111111111111111111111111111111111111111111111111111111111111111111111111111111
Invited Nodes: 21 46 
Actions left: 1
Session index: 1

Observation: ..11
Reward -0
About to find best action in Step: 2
Foind best action in Step: 2
Coolie

Action Type: 2

Presence: 1111111111111111111111110111111111111111111111111111111111111111111111111111111111111111111111111111111111101111111111111111111111111111111111111011111111111111
Invited Nodes: 21 46 
Actions left: 3
Session index: 2

Observation: ..
Reward 0
About to find best action in Step: 3
Foind best action in Step: 3
Coolie

Action Type: 2

Presence: 1111111111111111111111111111111111111111111111111111111111111111111111111111111111111111111111111111111111111111111111111111111111111111111111111111111111111111
Invited Nodes: 21 46 
Actions left: 3
Session index: 3

Observation: ..
Reward 0
About to find best action in Step: 4
Foind best action in Step: 4
Coolie

Action Type: 2

Presence: 0000000000000000000000000000000000000000000000000000000000000000000000000000000000000000000000000000000000000000000000000000000000000000000000000000000000000000
Invited Nodes: 21 46 
Actions left: 3
Session index: 4

Observation: ..
Reward 0
About to find best action in Step: 5
Foind best action in Step: 5
Coolie

Action Type: 2

Presence: 0000000000000000000000000000000000000000000000000000000000000000000000000000000000000000000000000000000000000000000000000000000000000000000000000000000000000000
Invited Nodes: 21 46 
Actions left: 3
Session index: 5

Observation: ..
Reward 0
About to find best action in Step: 6
Foind best action in Step: 6
Coolie

Action Type: 2

Presence: 1111111111111111111111111111111111111111111111111111111111111111111111111111111111111111111111111111111111111111111111111111111111111111111111111111111111111111
Invited Nodes: 21 46 
Actions left: 3
Session index: 6

Observation: ..
Reward 0
About to find best action in Step: 7
Foind best action in Step: 7
Coolie

Action Type: 2

Presence: 0000000000000000000000000000000000000000000000000000000000000000000000000000000000000000000000000000000000000000000000000000000000000000000000000000000000000000
Invited Nodes: 21 46 
Actions left: 3
Session index: 7

Observation: ..
Reward 26.964
Terminated
Discounted return = 26.964, average = 27.7309
Undiscounted return = 26.964, average = 27.7309
Starting run 16 with 1024 simulations... 

Presence: 0000000000000000000000000000000000000000000000000000000000000000000000000000000000000000000000000000000000000000000000000000000000000000000000000000000000000000
Invited Nodes: 
Actions left: 3
Session index: 1
About to find best action in Step: 0
Values: 0(endSession) 25.2313(query) 24.9197(invite)
Foind best action in Step: 0
Coolie

Action Type: 0
Active Nodes: 6 14 

Presence: 0000000000000000000000000000000000000000000000000000000000000000000000000000000000000000000000000000000000000000000000000000000000000000000000000000000000000000
Invited Nodes: 
Actions left: 2
Session index: 1

Observation: ..
Reward -0
About to find best action in Step: 1
Values: 0(endSession) 24.8614(query) 25.162(invite)
Foind best action in Step: 1
Coolie

Action Type: 1
Active Nodes: 29 117 

Presence: 0000000000000000000000000000000000000000000000000000000000000000000000000000000000000000000000000000000000000000000000000000000000000000000000000000000000000000
Invited Nodes: 
Actions left: 1
Session index: 1

Observation: ..
Reward -0
About to find best action in Step: 2
Values: 0(endSession) 25.3884(query) 24.5827(invite)
Foind best action in Step: 2
Coolie

Action Type: 0
Active Nodes: 55 108 

Presence: 0000000000000000000000000000000000000000000000000000000000000000000000000000000000000000000000000000000000000000000000000000000000000000000000000000000000000000
Invited Nodes: 
Actions left: 0
Session index: 1

Observation: ..
Reward -0
About to find best action in Step: 3
Foind best action in Step: 3
Coolie

Action Type: 2

Presence: 0000000000000000000000000000000000000000000000000000000000000000000000000000000000000000000000000000000000000000000000000000000000000000000000000000000000000000
Invited Nodes: 
Actions left: 3
Session index: 2

Observation: ..
Reward 0
About to find best action in Step: 4
Values: 0(endSession) 25.0934(query) 24.609(invite)
Foind best action in Step: 4
Coolie

Action Type: 0
Active Nodes: 75 146 

Presence: 0000000000000000000000000000000000000000000000000000000000000000000000000000000000000000000000000000000000000000000000000000000000000000000000000000000000000000
Invited Nodes: 
Actions left: 2
Session index: 2

Observation: ..
Reward -0
About to find best action in Step: 5
Values: 0(endSession) 24.5904(query) 24.7847(invite)
Foind best action in Step: 5
Coolie

Action Type: 1
Active Nodes: 52 89 

Presence: 0000000000000000000000000000000000000000000000000000000000000000000000000000000000000000000000000000000000000000000000000000000000000000000000000000000000000000
Invited Nodes: 
Actions left: 1
Session index: 2

Observation: ..
Reward -0
About to find best action in Step: 6
Values: 0(endSession) 24.4005(query) 25.0473(invite)
Foind best action in Step: 6
Coolie

Action Type: 1
Active Nodes: 59 105 

Presence: 0000000000000000000000000000000000000000000000000000000000000000000000000000000000000000000000000000000000000000000000000000000000000000000000000000000000000000
Invited Nodes: 
Actions left: 0
Session index: 2

Observation: ..
Reward -0
About to find best action in Step: 7
Foind best action in Step: 7
Coolie

Action Type: 2

Presence: 1111111111111111111111111111111111111111111111111111111111111111111111111111111111111111111111111111111111111111111111111111111111111111111111111111111111111111
Invited Nodes: 
Actions left: 3
Session index: 3

Observation: ..
Reward 0
About to find best action in Step: 8
Values: 0(endSession) 24.5065(query) 23.9504(invite)
Foind best action in Step: 8
Coolie

Action Type: 0
Active Nodes: 51 157 

Presence: 1111111111111111111111111111111111111111111111111111111111111111111111111111111111111111111111111111111111111111111111111111111111111111111111111111111111111111
Invited Nodes: 
Actions left: 2
Session index: 3

Observation: ..11
Reward -0
About to find best action in Step: 9
Values: 0(endSession) 23.6474(query) 24.3975(invite)
Foind best action in Step: 9
Coolie

Action Type: 1
Active Nodes: 25 144 

Presence: 1111111111111111111111111111111111111111111111111111111111111111111111111111111111111111111111111111111111111111111111111111111111111111111111111111111111111111
Invited Nodes: 25 144 
Actions left: 1
Session index: 3

Observation: ..11
Reward -0
About to find best action in Step: 10
Foind best action in Step: 10
Coolie

Action Type: 2

Presence: 0000000000000000000000000000000000000000000000000000000000000000000000000000000000000000000000000000000000000000000000000000000000000000000000000000000000000000
Invited Nodes: 25 144 
Actions left: 3
Session index: 4

Observation: ..
Reward 0
About to find best action in Step: 11
Foind best action in Step: 11
Coolie

Action Type: 2

Presence: 0000000000000000000000000000000000000000000000000000000000000000000000000000000000000000000000000000000000000000000000000000000000000000000000000000000000000000
Invited Nodes: 25 144 
Actions left: 3
Session index: 5

Observation: ..
Reward 0
About to find best action in Step: 12
Foind best action in Step: 12
Coolie

Action Type: 2

Presence: 1111111111111111111111111111111111111111111111101111111111111111111111111111111111111111111111111111111111111111111111111111111111111111111111111111111111111111
Invited Nodes: 25 144 
Actions left: 3
Session index: 6

Observation: ..
Reward 0
About to find best action in Step: 13
Foind best action in Step: 13
Coolie

Action Type: 2

Presence: 1111111111111111111111111111111111111111111111111111111111111111111111111111111111111111111011111111111111111111111111111111111111111111111111111111111111111111
Invited Nodes: 25 144 
Actions left: 3
Session index: 7

Observation: ..
Reward 24.326
Terminated
Discounted return = 24.326, average = 27.5181
Undiscounted return = 24.326, average = 27.5181
Starting run 17 with 1024 simulations... 

Presence: 0000000000000000000000000000000000000000000000000000000000000000000000000000000000000000000000000000000000000000000000000000000000000000000000000000000000000000
Invited Nodes: 
Actions left: 3
Session index: 1
About to find best action in Step: 0
Values: 0(endSession) 25.2809(query) 24.8055(invite)
Foind best action in Step: 0
Coolie

Action Type: 0
Active Nodes: 87 126 

Presence: 0000000000000000000000000000000000000000000000000000000000000000000000000000000000000000000000000000000000000000000000000000000000000000000000000000000000000000
Invited Nodes: 
Actions left: 2
Session index: 1

Observation: ..
Reward -0
About to find best action in Step: 1
Values: 0(endSession) 25.0035(query) 25.3886(invite)
Foind best action in Step: 1
Coolie

Action Type: 1
Active Nodes: 108 153 

Presence: 0000000000000000000000000000000000000000000000000000000000000000000000000000000000000000000000000000000000000000000000000000000000000000000000000000000000000000
Invited Nodes: 
Actions left: 1
Session index: 1

Observation: ..
Reward -0
About to find best action in Step: 2
Values: 0(endSession) 25.3472(query) 25.2321(invite)
Foind best action in Step: 2
Coolie

Action Type: 0
Active Nodes: 25 83 

Presence: 0000000000000000000000000000000000000000000000000000000000000000000000000000000000000000000000000000000000000000000000000000000000000000000000000000000000000000
Invited Nodes: 
Actions left: 0
Session index: 1

Observation: ..
Reward -0
About to find best action in Step: 3
Foind best action in Step: 3
Coolie

Action Type: 2

Presence: 0000000000000000000000000000000000000000000000000000000000000001000000000000000000000000000000000000000000000000000000000000000000000000000000000000000000000000
Invited Nodes: 
Actions left: 3
Session index: 2

Observation: ..
Reward 0
About to find best action in Step: 4
Values: 0(endSession) 25.1914(query) 25.207(invite)
Foind best action in Step: 4
Coolie

Action Type: 1
Active Nodes: 59 84 

Presence: 0000000000000000000000000000000000000000000000000000000000000001000000000000000000000000000000000000000000000000000000000000000000000000000000000000000000000000
Invited Nodes: 
Actions left: 2
Session index: 2

Observation: ..
Reward -0
About to find best action in Step: 5
Values: 0(endSession) 24.7592(query) 24.5597(invite)
Foind best action in Step: 5
Coolie

Action Type: 0
Active Nodes: 50 154 

Presence: 0000000000000000000000000000000000000000000000000000000000000001000000000000000000000000000000000000000000000000000000000000000000000000000000000000000000000000
Invited Nodes: 
Actions left: 1
Session index: 2

Observation: ..
Reward -0
About to find best action in Step: 6
Values: 0(endSession) 24.8245(query) 24.6415(invite)
Foind best action in Step: 6
Coolie

Action Type: 0
Active Nodes: 107 119 

Presence: 0000000000000000000000000000000000000000000000000000000000000001000000000000000000000000000000000000000000000000000000000000000000000000000000000000000000000000
Invited Nodes: 
Actions left: 0
Session index: 2

Observation: ..
Reward -0
About to find best action in Step: 7
Foind best action in Step: 7
Coolie

Action Type: 2

Presence: 1111111111111111111111111111111111111111111111111111111111111111111111111111111111111111111111111111111111111111111111111111111111111111111111111111111111111111
Invited Nodes: 
Actions left: 3
Session index: 3

Observation: ..
Reward 0
About to find best action in Step: 8
Values: 0(endSession) 24.3944(query) 23.8569(invite)
Foind best action in Step: 8
Coolie

Action Type: 0
Active Nodes: 92 145 

Presence: 1111111111111111111111111111111111111111111111111111111111111111111111111111111111111111111111111111111111111111111111111111111111111111111111111111111111111111
Invited Nodes: 
Actions left: 2
Session index: 3

Observation: ..11
Reward -0
About to find best action in Step: 9
Values: 0(endSession) 22.5691(query) 24.0049(invite)
Foind best action in Step: 9
Coolie

Action Type: 1
Active Nodes: 36 58 

Presence: 1111111111111111111111111111111111111111111111111111111111111111111111111111111111111111111111111111111111111111111111111111111111111111111111111111111111111111
Invited Nodes: 36 58 
Actions left: 1
Session index: 3

Observation: ..11
Reward -0
About to find best action in Step: 10
Foind best action in Step: 10
Coolie

Action Type: 2

Presence: 1111111111111111111111111111111111111111111111111111111111111111111111111111111111111111111111111111111111111111111111111111111111111111111111111111111111111111
Invited Nodes: 36 58 
Actions left: 3
Session index: 4

Observation: ..
Reward 0
About to find best action in Step: 11
Foind best action in Step: 11
Coolie

Action Type: 2

Presence: 1111111111111111111111111111111111111111111111111111111111111111111111111111111111111111111111111111111111111111111111111111111111111111111111111111111111111111
Invited Nodes: 36 58 
Actions left: 3
Session index: 5

Observation: ..
Reward 0
About to find best action in Step: 12
Foind best action in Step: 12
Coolie

Action Type: 2

Presence: 0000000000000000000000000000000000000000000000000000000000000000000000000000000000000000000000000000000000000000000000000000000000000000000000000000000000000000
Invited Nodes: 36 58 
Actions left: 3
Session index: 6

Observation: ..
Reward 0
About to find best action in Step: 13
Foind best action in Step: 13
Coolie

Action Type: 2

Presence: 0000000000000000000000000000000000000000000000000000000000000000000000000000000000000000000000000000000000000000000000000000000000000000000000000000000000000000
Invited Nodes: 36 58 
Actions left: 3
Session index: 7

Observation: ..
Reward 31.225
Terminated
Discounted return = 31.225, average = 27.7362
Undiscounted return = 31.225, average = 27.7362
Starting run 18 with 1024 simulations... 

Presence: 1111111111111111111111111111111111111111111111111111111111111111111111111111111111111111111111101111111111111111111111111111111111111111111111111111111111111111
Invited Nodes: 
Actions left: 3
Session index: 1
About to find best action in Step: 0
Values: 0(endSession) 25.285(query) 25.2978(invite)
Foind best action in Step: 0
Coolie

Action Type: 1
Active Nodes: 2 18 

Presence: 1111111111111111111111111111111111111111111111111111111111111111111111111111111111111111111111101111111111111111111111111111111111111111111111111111111111111111
Invited Nodes: 2 18 
Actions left: 2
Session index: 1

Observation: ..11
Reward -0
About to find best action in Step: 1
Foind best action in Step: 1
Coolie

Action Type: 2

Presence: 1111111111111111111111111111111111111111111011111111111111111111111111111111111111111111111111111111111111111111111111111111111111111111111111111111111111111111
Invited Nodes: 2 18 
Actions left: 3
Session index: 2

Observation: ..
Reward 0
About to find best action in Step: 2
Foind best action in Step: 2
Coolie

Action Type: 2

Presence: 1111111111111111111111111111111111111111111111111111111111111111111111111111111111111111111111111111111111111111111111111111111111111111111111111111111111111111
Invited Nodes: 2 18 
Actions left: 3
Session index: 3

Observation: ..
Reward 0
About to find best action in Step: 3
Foind best action in Step: 3
Coolie

Action Type: 2

Presence: 1111111111111111111111111111111111111111111111111111111111111111111111111111111111111111111111111111111111111111111111111111111111111111111111111111111111111111
Invited Nodes: 2 18 
Actions left: 3
Session index: 4

Observation: ..
Reward 0
About to find best action in Step: 4
Foind best action in Step: 4
Coolie

Action Type: 2

Presence: 1111111111111111111111111111111111111111111111111111111111111111111111111111111111111111111111111111111111111111111111111111111111111111111111111111111111111111
Invited Nodes: 2 18 
Actions left: 3
Session index: 5

Observation: ..
Reward 0
About to find best action in Step: 5
Foind best action in Step: 5
Coolie

Action Type: 2

Presence: 0000000000000000000000000000000000000000000000000000000000000000000000000000000000000000000000000000000000000000000000000000000000000000000000000000000000000010
Invited Nodes: 2 18 
Actions left: 3
Session index: 6

Observation: ..
Reward 0
About to find best action in Step: 6
Foind best action in Step: 6
Coolie

Action Type: 2

Presence: 1111111111111111111111111111111111111111111111111111111111111111111111111111111111111111111111111111111111111111111111111111111111111111111111111111111111111111
Invited Nodes: 2 18 
Actions left: 3
Session index: 7

Observation: ..
Reward 20.069
Terminated
Discounted return = 20.069, average = 27.3102
Undiscounted return = 20.069, average = 27.3102
Starting run 19 with 1024 simulations... 

Presence: 0000000000000000000000000000000000000000000000000000000000000000000000000000000000000000000000000000000000000000000000000000000000000000000000000000000000000000
Invited Nodes: 
Actions left: 3
Session index: 1
About to find best action in Step: 0
Values: 0(endSession) 25.4538(query) 24.9454(invite)
Foind best action in Step: 0
Coolie

Action Type: 0
Active Nodes: 4 28 

Presence: 0000000000000000000000000000000000000000000000000000000000000000000000000000000000000000000000000000000000000000000000000000000000000000000000000000000000000000
Invited Nodes: 
Actions left: 2
Session index: 1

Observation: ..
Reward -0
About to find best action in Step: 1
Values: 0(endSession) 25.0573(query) 25.3963(invite)
Foind best action in Step: 1
Coolie

Action Type: 1
Active Nodes: 45 137 

Presence: 0000000000000000000000000000000000000000000000000000000000000000000000000000000000000000000000000000000000000000000000000000000000000000000000000000000000000000
Invited Nodes: 
Actions left: 1
Session index: 1

Observation: ..
Reward -0
About to find best action in Step: 2
Values: 0(endSession) 25.5348(query) 25.0563(invite)
Foind best action in Step: 2
Coolie

Action Type: 0
Active Nodes: 61 150 

Presence: 0000000000000000000000000000000000000000000000000000000000000000000000000000000000000000000000000000000000000000000000000000000000000000000000000000000000000000
Invited Nodes: 
Actions left: 0
Session index: 1

Observation: ..
Reward -0
About to find best action in Step: 3
Foind best action in Step: 3
Coolie

Action Type: 2

Presence: 1111111111111111111111111111111111111111111111111111111111111111111111111111111111111111111111111111111111111111111111111111111111111111111111111111111111111111
Invited Nodes: 
Actions left: 3
Session index: 2

Observation: ..
Reward 0
About to find best action in Step: 4
Values: 0(endSession) 24.805(query) 24.7396(invite)
Foind best action in Step: 4
Coolie

Action Type: 0
Active Nodes: 78 106 

Presence: 1111111111111111111111111111111111111111111111111111111111111111111111111111111111111111111111111111111111111111111111111111111111111111111111111111111111111111
Invited Nodes: 
Actions left: 2
Session index: 2

Observation: ..11
Reward -0
About to find best action in Step: 5
Values: 0(endSession) 24.7309(query) 24.5178(invite)
Foind best action in Step: 5
Coolie

Action Type: 0
Active Nodes: 70 121 

Presence: 1111111111111111111111111111111111111111111111111111111111111111111111111111111111111111111111111111111111111111111111111111111111111111111111111111111111111111
Invited Nodes: 
Actions left: 1
Session index: 2

Observation: ..11
Reward -0
About to find best action in Step: 6
Values: 0(endSession) 24.373(query) 25.3091(invite)
Foind best action in Step: 6
Coolie

Action Type: 1
Active Nodes: 37 137 

Presence: 1111111111111111111111111111111111111111111111111111111111111111111111111111111111111111111111111111111111111111111111111111111111111111111111111111111111111111
Invited Nodes: 37 137 
Actions left: 0
Session index: 2

Observation: ..11
Reward -0
About to find best action in Step: 7
Foind best action in Step: 7
Coolie

Action Type: 2

Presence: 0000000000000000000000000000000000000000000000000000000000000000000000100000000000000000000000000000000000000000000000000000000000000000000000000000000000100000
Invited Nodes: 37 137 
Actions left: 3
Session index: 3

Observation: ..
Reward 0
About to find best action in Step: 8
Foind best action in Step: 8
Coolie

Action Type: 2

Presence: 1111111111111111111111111111111111111111111111111111111111111111111111111111111111111111111111111111111111111111111111111111111111111111111111111111111111111111
Invited Nodes: 37 137 
Actions left: 3
Session index: 4

Observation: ..
Reward 0
About to find best action in Step: 9
Foind best action in Step: 9
Coolie

Action Type: 2

Presence: 1111111111111111111111111111111111111111111111111111111111111111111111111111111111111111111111111111111111111111111111111111111111111111111111111111111111111111
Invited Nodes: 37 137 
Actions left: 3
Session index: 5

Observation: ..
Reward 0
About to find best action in Step: 10
Foind best action in Step: 10
Coolie

Action Type: 2

Presence: 0000000000000000000000000000000000000000000000000000000000000000000000000000000000000000000000000000000000000000000000000000000000000000000000000000000000000000
Invited Nodes: 37 137 
Actions left: 3
Session index: 6

Observation: ..
Reward 0
About to find best action in Step: 11
Foind best action in Step: 11
Coolie

Action Type: 2

Presence: 1111111111111111111111111111111111111111111111111111111111111111111111111111111111111111111111111111111111111111111111111111111111111111111111111111111111111111
Invited Nodes: 37 137 
Actions left: 3
Session index: 7

Observation: ..
Reward 32.799
Terminated
Discounted return = 32.799, average = 27.5991
Undiscounted return = 32.799, average = 27.5991
Starting run 20 with 1024 simulations... 

Presence: 0100000000000000000000000000000100001000000000000000000000000000000000000000000000000000000000000000000000000000000000000000000000000000000000000000000000000000
Invited Nodes: 
Actions left: 3
Session index: 1
About to find best action in Step: 0
Values: 0(endSession) 24.9945(query) 25.6148(invite)
Foind best action in Step: 0
Coolie

Action Type: 1
Active Nodes: 40 154 

Presence: 0100000000000000000000000000000100001000000000000000000000000000000000000000000000000000000000000000000000000000000000000000000000000000000000000000000000000000
Invited Nodes: 
Actions left: 2
Session index: 1

Observation: ..
Reward -0
About to find best action in Step: 1
Values: 0(endSession) 25.0023(query) 25.3917(invite)
Foind best action in Step: 1
Coolie

Action Type: 1
Active Nodes: 121 155 

Presence: 0100000000000000000000000000000100001000000000000000000000000000000000000000000000000000000000000000000000000000000000000000000000000000000000000000000000000000
Invited Nodes: 
Actions left: 1
Session index: 1

Observation: ..
Reward -0
About to find best action in Step: 2
Values: 0(endSession) 25.3832(query) 25.4691(invite)
Foind best action in Step: 2
Coolie

Action Type: 1
Active Nodes: 78 137 

Presence: 0100000000000000000000000000000100001000000000000000000000000000000000000000000000000000000000000000000000000000000000000000000000000000000000000000000000000000
Invited Nodes: 
Actions left: 0
Session index: 1

Observation: ..
Reward -0
About to find best action in Step: 3
Foind best action in Step: 3
Coolie

Action Type: 2

Presence: 1111111111111111111111111111111111111111111111111111111111111111111111111111111111111111111111111111111111111111111111111111111111111111111111111111111111111111
Invited Nodes: 
Actions left: 3
Session index: 2

Observation: ..
Reward 0
About to find best action in Step: 4
Values: 0(endSession) 25.0908(query) 24.6292(invite)
Foind best action in Step: 4
Coolie

Action Type: 0
Active Nodes: 44 68 

Presence: 1111111111111111111111111111111111111111111111111111111111111111111111111111111111111111111111111111111111111111111111111111111111111111111111111111111111111111
Invited Nodes: 
Actions left: 2
Session index: 2

Observation: ..11
Reward -0
About to find best action in Step: 5
Values: 0(endSession) 24.4567(query) 24.9534(invite)
Foind best action in Step: 5
Coolie

Action Type: 1
Active Nodes: 11 15 

Presence: 1111111111111111111111111111111111111111111111111111111111111111111111111111111111111111111111111111111111111111111111111111111111111111111111111111111111111111
Invited Nodes: 11 15 
Actions left: 1
Session index: 2

Observation: ..11
Reward -0
About to find best action in Step: 6
Foind best action in Step: 6
Coolie

Action Type: 2

Presence: 1111111111111111111111111111111111111111111111111111111111111111111111111111111101111111111111111111111111111111111111111111111111111111111111111111111111111111
Invited Nodes: 11 15 
Actions left: 3
Session index: 3

Observation: ..
Reward 0
About to find best action in Step: 7
Foind best action in Step: 7
Coolie

Action Type: 2

Presence: 0000000000000000000000000000000000000000000000000000000000000000000000000000000000000000000000000000000000000000000000000000000000000000000000000000000000000000
Invited Nodes: 11 15 
Actions left: 3
Session index: 4

Observation: ..
Reward 0
About to find best action in Step: 8
Foind best action in Step: 8
Coolie

Action Type: 2

Presence: 1111111111111111111111111111111111111111111111111111111111111111111111111111111111111111111111111111111111111111111111111111111111111111111111111111111111111111
Invited Nodes: 11 15 
Actions left: 3
Session index: 5

Observation: ..
Reward 0
About to find best action in Step: 9
Foind best action in Step: 9
Coolie

Action Type: 2

Presence: 0000000000000000000000000000000000000000000000000000000000000000000000000000000000000000000000000000000000000000000000000000000000000000000000000000000000000000
Invited Nodes: 11 15 
Actions left: 3
Session index: 6

Observation: ..
Reward 0
About to find best action in Step: 10
Foind best action in Step: 10
Coolie

Action Type: 2

Presence: 1111111111111111111111111111111111111111111111111111111111111111111111111111111111111111111111111111111111111111111111111111111111111111111111111111111111111111
Invited Nodes: 11 15 
Actions left: 3
Session index: 7

Observation: ..
Reward 20.75
Terminated
Discounted return = 20.75, average = 27.2567
Undiscounted return = 20.75, average = 27.2567
Simulations = 1024
Runs = 20
Undiscounted return = 27.2567 +- 1.19874
Discounted return = 27.2567 +- 1.19874
Time = 75.8285
----------------------------------------
Begin PBS Epilogue Thu Aug 31 12:35:18 PDT 2017
Job ID:           24128664.hpc-pbs1.hpcc.usc.edu
Username:         amulyaya
Accountname:      default
Group:            csci-ar
Job Name:         0.pbs
Session:          12316
Limits:           neednodes=1:ppn=16:sl230s,nodes=1:ppn=16:sl230s,walltime=24:00:00
Resources:        cput=00:25:26,energy_used=0,mem=121225760kb,vmem=119882040kb,walltime=00:25:28
Queue:            tambe
Shared Access:    no
Has MIC:          no
Is hsda:          false
removed '/scratch'
End PBS Epilogue Thu Aug 31 12:35:18 PDT 2017
----------------------------------------
