1 4 0 0
4 1 0 0
1 7 0 0
7 1 0 0
1 8 0 0
8 1 0 0
1 33 0 0
33 1 0 0
1 43 0 0
43 1 0 0
1 55 0 0
55 1 0 0
1 71 0 0
71 1 0 0
1 74 0 0
74 1 0 0
1 133 0 0
133 1 0 0
2 4 0 0
4 2 0 0
2 6 0 0
6 2 0 0
2 8 0 0
8 2 0 0
2 10 0 0
10 2 0 0
2 56 0 0
56 2 0 0
2 68 0 0
68 2 0 0
2 74 0 0
74 2 0 0
2 79 0 0
79 2 0 0
2 91 0 0
91 2 0 0
3 5 0 0
5 3 0 0
3 7 0 0
7 3 0 0
3 8 0 0
8 3 0 0
3 18 0 0
18 3 0 0
3 32 0 0
32 3 0 0
3 79 0 0
79 3 0 0
3 101 0 0
101 3 0 0
3 133 0 0
133 3 0 0
4 5 0 0
5 4 0 0
4 10 0 0
10 4 0 0
4 42 0 0
42 4 0 0
4 49 0 0
49 4 0 0
4 132 0 0
132 4 0 0
5 3 0 0
3 5 0 0
5 38 0 0
38 5 0 0
5 62 0 0
62 5 0 0
5 85 0 0
85 5 0 0
6 74 0 0
74 6 0 0
6 79 0 0
79 6 0 0
6 128 0 0
128 6 0 0
7 1 0 0
1 7 0 0
7 2 0 0
2 7 0 0
7 4 0 0
4 7 0 0
7 8 0 0
8 7 0 0
7 10 0 0
10 7 0 0
7 11 0 0
11 7 0 0
7 31 0 0
31 7 0 0
7 43 0 0
43 7 0 0
7 71 0 0
71 7 0 0
7 97 0 0
97 7 0 0
7 104 0 0
104 7 0 0
7 126 0 0
126 7 0 0
7 140 0 0
140 7 0 0
8 5 0 0
5 8 0 0
8 7 0 0
7 8 0 0
8 16 0 0
16 8 0 0
8 38 0 0
38 8 0 0
8 76 0 0
76 8 0 0
8 81 0 0
81 8 0 0
8 82 0 0
82 8 0 0
8 89 0 0
89 8 0 0
8 91 0 0
91 8 0 0
8 100 0 0
100 8 0 0
8 122 0 0
122 8 0 0
8 124 0 0
124 8 0 0
8 125 0 0
125 8 0 0
9 1 0 0
1 9 0 0
9 4 0 0
4 9 0 0
9 5 0 0
5 9 0 0
9 6 0 0
6 9 0 0
9 23 0 0
23 9 0 0
9 55 0 0
55 9 0 0
9 63 0 0
63 9 0 0
9 95 0 0
95 9 0 0
9 100 0 0
100 9 0 0
9 122 0 0
122 9 0 0
9 130 0 0
130 9 0 0
10 4 0 0
4 10 0 0
10 7 0 0
7 10 0 0
10 8 0 0
8 10 0 0
10 9 0 0
9 10 0 0
10 40 0 0
40 10 0 0
10 131 0 0
131 10 0 0
10 136 0 0
136 10 0 0
11 12 0 0
12 11 0 0
11 14 0 0
14 11 0 0
11 15 0 0
15 11 0 0
11 17 0 0
17 11 0 0
11 19 0 0
19 11 0 0
11 52 0 0
52 11 0 0
11 54 0 0
54 11 0 0
11 60 0 0
60 11 0 0
11 64 0 0
64 11 0 0
11 83 0 0
83 11 0 0
11 108 0 0
108 11 0 0
11 110 0 0
110 11 0 0
11 122 0 0
122 11 0 0
11 130 0 0
130 11 0 0
12 13 0 0
13 12 0 0
12 14 0 0
14 12 0 0
12 19 0 0
19 12 0 0
12 20 0 0
20 12 0 0
12 25 0 0
25 12 0 0
12 27 0 0
27 12 0 0
12 79 0 0
79 12 0 0
12 108 0 0
108 12 0 0
12 121 0 0
121 12 0 0
12 130 0 0
130 12 0 0
13 15 0 0
15 13 0 0
13 17 0 0
17 13 0 0
13 57 0 0
57 13 0 0
13 60 0 0
60 13 0 0
13 72 0 0
72 13 0 0
13 91 0 0
91 13 0 0
13 140 0 0
140 13 0 0
14 15 0 0
15 14 0 0
14 16 0 0
16 14 0 0
14 64 0 0
64 14 0 0
14 77 0 0
77 14 0 0
14 112 0 0
112 14 0 0
14 121 0 0
121 14 0 0
14 125 0 0
125 14 0 0
14 137 0 0
137 14 0 0
15 11 0 0
11 15 0 0
15 20 0 0
20 15 0 0
15 44 0 0
44 15 0 0
15 97 0 0
97 15 0 0
15 103 0 0
103 15 0 0
15 117 0 0
117 15 0 0
15 118 0 0
118 15 0 0
15 127 0 0
127 15 0 0
15 134 0 0
134 15 0 0
16 15 0 0
15 16 0 0
16 66 0 0
66 16 0 0
16 98 0 0
98 16 0 0
16 116 0 0
116 16 0 0
17 11 0 0
11 17 0 0
17 12 0 0
12 17 0 0
17 18 0 0
18 17 0 0
17 37 0 0
37 17 0 0
18 12 0 0
12 18 0 0
18 15 0 0
15 18 0 0
18 19 0 0
19 18 0 0
18 34 0 0
34 18 0 0
18 38 0 0
38 18 0 0
18 76 0 0
76 18 0 0
18 109 0 0
109 18 0 0
18 120 0 0
120 18 0 0
19 2 0 0
2 19 0 0
19 8 0 0
8 19 0 0
19 15 0 0
15 19 0 0
19 17 0 0
17 19 0 0
19 20 0 0
20 19 0 0
19 44 0 0
44 19 0 0
19 67 0 0
67 19 0 0
19 133 0 0
133 19 0 0
20 7 0 0
7 20 0 0
20 11 0 0
11 20 0 0
20 28 0 0
28 20 0 0
20 60 0 0
60 20 0 0
20 92 0 0
92 20 0 0
20 104 0 0
104 20 0 0
20 112 0 0
112 20 0 0
21 13 0 0
13 21 0 0
21 19 0 0
19 21 0 0
21 22 0 0
22 21 0 0
21 23 0 0
23 21 0 0
21 27 0 0
27 21 0 0
21 52 0 0
52 21 0 0
21 68 0 0
68 21 0 0
21 73 0 0
73 21 0 0
21 76 0 0
76 21 0 0
21 83 0 0
83 21 0 0
21 101 0 0
101 21 0 0
21 121 0 0
121 21 0 0
21 131 0 0
131 21 0 0
22 17 0 0
17 22 0 0
22 24 0 0
24 22 0 0
22 30 0 0
30 22 0 0
22 58 0 0
58 22 0 0
22 63 0 0
63 22 0 0
22 65 0 0
65 22 0 0
22 87 0 0
87 22 0 0
22 95 0 0
95 22 0 0
23 24 0 0
24 23 0 0
23 25 0 0
25 23 0 0
23 29 0 0
29 23 0 0
23 32 0 0
32 23 0 0
23 34 0 0
34 23 0 0
23 51 0 0
51 23 0 0
23 56 0 0
56 23 0 0
23 119 0 0
119 23 0 0
23 134 0 0
134 23 0 0
24 7 0 0
7 24 0 0
24 20 0 0
20 24 0 0
24 28 0 0
28 24 0 0
24 29 0 0
29 24 0 0
24 30 0 0
30 24 0 0
24 31 0 0
31 24 0 0
24 40 0 0
40 24 0 0
24 112 0 0
112 24 0 0
25 8 0 0
8 25 0 0
25 22 0 0
22 25 0 0
25 23 0 0
23 25 0 0
25 27 0 0
27 25 0 0
25 28 0 0
28 25 0 0
25 29 0 0
29 25 0 0
25 53 0 0
53 25 0 0
25 59 0 0
59 25 0 0
25 73 0 0
73 25 0 0
25 89 0 0
89 25 0 0
25 91 0 0
91 25 0 0
25 97 0 0
97 25 0 0
25 121 0 0
121 25 0 0
26 24 0 0
24 26 0 0
26 27 0 0
27 26 0 0
26 30 0 0
30 26 0 0
26 57 0 0
57 26 0 0
26 58 0 0
58 26 0 0
26 69 0 0
69 26 0 0
26 89 0 0
89 26 0 0
26 93 0 0
93 26 0 0
27 14 0 0
14 27 0 0
27 19 0 0
19 27 0 0
27 21 0 0
21 27 0 0
27 28 0 0
28 27 0 0
27 29 0 0
29 27 0 0
27 37 0 0
37 27 0 0
27 73 0 0
73 27 0 0
27 91 0 0
91 27 0 0
27 104 0 0
104 27 0 0
27 120 0 0
120 27 0 0
27 130 0 0
130 27 0 0
28 9 0 0
9 28 0 0
28 18 0 0
18 28 0 0
28 29 0 0
29 28 0 0
28 30 0 0
30 28 0 0
28 44 0 0
44 28 0 0
28 53 0 0
53 28 0 0
28 68 0 0
68 28 0 0
28 117 0 0
117 28 0 0
28 135 0 0
135 28 0 0
29 24 0 0
24 29 0 0
29 26 0 0
26 29 0 0
29 102 0 0
102 29 0 0
29 121 0 0
121 29 0 0
29 125 0 0
125 29 0 0
30 8 0 0
8 30 0 0
30 19 0 0
19 30 0 0
30 21 0 0
21 30 0 0
30 27 0 0
27 30 0 0
30 29 0 0
29 30 0 0
30 32 0 0
32 30 0 0
30 49 0 0
49 30 0 0
30 53 0 0
53 30 0 0
30 110 0 0
110 30 0 0
30 128 0 0
128 30 0 0
31 10 0 0
10 31 0 0
31 32 0 0
32 31 0 0
31 34 0 0
34 31 0 0
31 36 0 0
36 31 0 0
31 37 0 0
37 31 0 0
31 43 0 0
43 31 0 0
31 53 0 0
53 31 0 0
31 74 0 0
74 31 0 0
31 125 0 0
125 31 0 0
32 9 0 0
9 32 0 0
32 12 0 0
12 32 0 0
32 37 0 0
37 32 0 0
32 38 0 0
38 32 0 0
32 107 0 0
107 32 0 0
32 109 0 0
109 32 0 0
33 15 0 0
15 33 0 0
33 31 0 0
31 33 0 0
33 32 0 0
32 33 0 0
33 63 0 0
63 33 0 0
33 92 0 0
92 33 0 0
33 118 0 0
118 33 0 0
33 132 0 0
132 33 0 0
34 22 0 0
22 34 0 0
34 29 0 0
29 34 0 0
34 31 0 0
31 34 0 0
34 39 0 0
39 34 0 0
34 66 0 0
66 34 0 0
34 84 0 0
84 34 0 0
34 88 0 0
88 34 0 0
34 108 0 0
108 34 0 0
34 117 0 0
117 34 0 0
34 120 0 0
120 34 0 0
35 4 0 0
4 35 0 0
35 8 0 0
8 35 0 0
35 13 0 0
13 35 0 0
35 14 0 0
14 35 0 0
35 29 0 0
29 35 0 0
35 34 0 0
34 35 0 0
35 78 0 0
78 35 0 0
35 94 0 0
94 35 0 0
35 121 0 0
121 35 0 0
36 26 0 0
26 36 0 0
36 32 0 0
32 36 0 0
36 37 0 0
37 36 0 0
36 39 0 0
39 36 0 0
36 43 0 0
43 36 0 0
36 110 0 0
110 36 0 0
36 113 0 0
113 36 0 0
36 125 0 0
125 36 0 0
36 137 0 0
137 36 0 0
37 34 0 0
34 37 0 0
37 38 0 0
38 37 0 0
37 51 0 0
51 37 0 0
37 114 0 0
114 37 0 0
38 28 0 0
28 38 0 0
38 34 0 0
34 38 0 0
38 37 0 0
37 38 0 0
38 39 0 0
39 38 0 0
38 66 0 0
66 38 0 0
38 68 0 0
68 38 0 0
38 72 0 0
72 38 0 0
38 75 0 0
75 38 0 0
38 87 0 0
87 38 0 0
38 99 0 0
99 38 0 0
38 123 0 0
123 38 0 0
38 127 0 0
127 38 0 0
39 27 0 0
27 39 0 0
39 34 0 0
34 39 0 0
39 38 0 0
38 39 0 0
39 40 0 0
40 39 0 0
39 111 0 0
111 39 0 0
40 14 0 0
14 40 0 0
40 26 0 0
26 40 0 0
40 31 0 0
31 40 0 0
40 32 0 0
32 40 0 0
40 33 0 0
33 40 0 0
40 45 0 0
45 40 0 0
40 52 0 0
52 40 0 0
40 54 0 0
54 40 0 0
40 85 0 0
85 40 0 0
40 87 0 0
87 40 0 0
41 43 0 0
43 41 0 0
41 44 0 0
44 41 0 0
41 47 0 0
47 41 0 0
41 48 0 0
48 41 0 0
41 53 0 0
53 41 0 0
41 54 0 0
54 41 0 0
41 62 0 0
62 41 0 0
41 106 0 0
106 41 0 0
41 108 0 0
108 41 0 0
41 132 0 0
132 41 0 0
42 3 0 0
3 42 0 0
42 17 0 0
17 42 0 0
42 33 0 0
33 42 0 0
42 34 0 0
34 42 0 0
42 43 0 0
43 42 0 0
42 46 0 0
46 42 0 0
42 75 0 0
75 42 0 0
42 89 0 0
89 42 0 0
42 102 0 0
102 42 0 0
43 15 0 0
15 43 0 0
43 29 0 0
29 43 0 0
43 32 0 0
32 43 0 0
43 50 0 0
50 43 0 0
43 54 0 0
54 43 0 0
43 63 0 0
63 43 0 0
43 69 0 0
69 43 0 0
43 73 0 0
73 43 0 0
43 76 0 0
76 43 0 0
43 116 0 0
116 43 0 0
44 1 0 0
1 44 0 0
44 6 0 0
6 44 0 0
44 34 0 0
34 44 0 0
44 41 0 0
41 44 0 0
44 50 0 0
50 44 0 0
44 98 0 0
98 44 0 0
44 99 0 0
99 44 0 0
44 110 0 0
110 44 0 0
45 47 0 0
47 45 0 0
45 63 0 0
63 45 0 0
45 109 0 0
109 45 0 0
46 7 0 0
7 46 0 0
46 19 0 0
19 46 0 0
46 38 0 0
38 46 0 0
46 45 0 0
45 46 0 0
46 50 0 0
50 46 0 0
46 72 0 0
72 46 0 0
46 75 0 0
75 46 0 0
46 83 0 0
83 46 0 0
46 87 0 0
87 46 0 0
46 100 0 0
100 46 0 0
46 107 0 0
107 46 0 0
47 26 0 0
26 47 0 0
47 28 0 0
28 47 0 0
47 37 0 0
37 47 0 0
47 41 0 0
41 47 0 0
47 43 0 0
43 47 0 0
47 44 0 0
44 47 0 0
47 49 0 0
49 47 0 0
47 52 0 0
52 47 0 0
47 61 0 0
61 47 0 0
47 65 0 0
65 47 0 0
47 70 0 0
70 47 0 0
47 91 0 0
91 47 0 0
47 125 0 0
125 47 0 0
48 2 0 0
2 48 0 0
48 19 0 0
19 48 0 0
48 32 0 0
32 48 0 0
48 43 0 0
43 48 0 0
48 44 0 0
44 48 0 0
48 47 0 0
47 48 0 0
48 53 0 0
53 48 0 0
48 85 0 0
85 48 0 0
48 130 0 0
130 48 0 0
49 5 0 0
5 49 0 0
49 8 0 0
8 49 0 0
49 41 0 0
41 49 0 0
49 45 0 0
45 49 0 0
49 46 0 0
46 49 0 0
49 55 0 0
55 49 0 0
49 65 0 0
65 49 0 0
49 74 0 0
74 49 0 0
49 78 0 0
78 49 0 0
49 90 0 0
90 49 0 0
49 92 0 0
92 49 0 0
50 15 0 0
15 50 0 0
50 26 0 0
26 50 0 0
50 35 0 0
35 50 0 0
50 43 0 0
43 50 0 0
50 44 0 0
44 50 0 0
50 49 0 0
49 50 0 0
50 66 0 0
66 50 0 0
50 119 0 0
119 50 0 0
50 124 0 0
124 50 0 0
51 30 0 0
30 51 0 0
51 34 0 0
34 51 0 0
51 59 0 0
59 51 0 0
51 83 0 0
83 51 0 0
51 88 0 0
88 51 0 0
51 114 0 0
114 51 0 0
51 130 0 0
130 51 0 0
52 6 0 0
6 52 0 0
52 21 0 0
21 52 0 0
52 28 0 0
28 52 0 0
52 48 0 0
48 52 0 0
52 54 0 0
54 52 0 0
52 55 0 0
55 52 0 0
52 58 0 0
58 52 0 0
52 98 0 0
98 52 0 0
52 116 0 0
116 52 0 0
52 129 0 0
129 52 0 0
53 6 0 0
6 53 0 0
53 15 0 0
15 53 0 0
53 23 0 0
23 53 0 0
53 25 0 0
25 53 0 0
53 32 0 0
32 53 0 0
53 44 0 0
44 53 0 0
53 51 0 0
51 53 0 0
53 52 0 0
52 53 0 0
53 54 0 0
54 53 0 0
53 60 0 0
60 53 0 0
53 74 0 0
74 53 0 0
53 102 0 0
102 53 0 0
53 110 0 0
110 53 0 0
53 127 0 0
127 53 0 0
54 16 0 0
16 54 0 0
54 52 0 0
52 54 0 0
54 60 0 0
60 54 0 0
55 40 0 0
40 55 0 0
55 52 0 0
52 55 0 0
55 53 0 0
53 55 0 0
55 54 0 0
54 55 0 0
55 56 0 0
56 55 0 0
55 57 0 0
57 55 0 0
55 58 0 0
58 55 0 0
55 60 0 0
60 55 0 0
55 79 0 0
79 55 0 0
55 103 0 0
103 55 0 0
56 50 0 0
50 56 0 0
56 51 0 0
51 56 0 0
56 55 0 0
55 56 0 0
56 60 0 0
60 56 0 0
56 66 0 0
66 56 0 0
56 82 0 0
82 56 0 0
56 85 0 0
85 56 0 0
56 91 0 0
91 56 0 0
56 103 0 0
103 56 0 0
56 118 0 0
118 56 0 0
57 13 0 0
13 57 0 0
57 45 0 0
45 57 0 0
57 53 0 0
53 57 0 0
57 56 0 0
56 57 0 0
57 58 0 0
58 57 0 0
57 59 0 0
59 57 0 0
57 61 0 0
61 57 0 0
57 67 0 0
67 57 0 0
57 99 0 0
99 57 0 0
57 119 0 0
119 57 0 0
57 123 0 0
123 57 0 0
57 136 0 0
136 57 0 0
58 12 0 0
12 58 0 0
58 47 0 0
47 58 0 0
58 52 0 0
52 58 0 0
58 53 0 0
53 58 0 0
58 55 0 0
55 58 0 0
58 56 0 0
56 58 0 0
58 81 0 0
81 58 0 0
58 109 0 0
109 58 0 0
58 131 0 0
131 58 0 0
58 138 0 0
138 58 0 0
59 16 0 0
16 59 0 0
59 46 0 0
46 59 0 0
59 51 0 0
51 59 0 0
59 55 0 0
55 59 0 0
59 56 0 0
56 59 0 0
59 102 0 0
102 59 0 0
59 131 0 0
131 59 0 0
59 135 0 0
135 59 0 0
59 140 0 0
140 59 0 0
60 6 0 0
6 60 0 0
60 11 0 0
11 60 0 0
60 35 0 0
35 60 0 0
60 36 0 0
36 60 0 0
60 53 0 0
53 60 0 0
60 55 0 0
55 60 0 0
60 63 0 0
63 60 0 0
60 71 0 0
71 60 0 0
60 79 0 0
79 60 0 0
60 117 0 0
117 60 0 0
61 15 0 0
15 61 0 0
61 21 0 0
21 61 0 0
61 22 0 0
22 61 0 0
61 62 0 0
62 61 0 0
61 64 0 0
64 61 0 0
61 67 0 0
67 61 0 0
61 69 0 0
69 61 0 0
61 70 0 0
70 61 0 0
61 75 0 0
75 61 0 0
61 102 0 0
102 61 0 0
61 122 0 0
122 61 0 0
61 133 0 0
133 61 0 0
62 19 0 0
19 62 0 0
62 21 0 0
21 62 0 0
62 29 0 0
29 62 0 0
62 31 0 0
31 62 0 0
62 56 0 0
56 62 0 0
62 67 0 0
67 62 0 0
62 69 0 0
69 62 0 0
62 83 0 0
83 62 0 0
62 129 0 0
129 62 0 0
63 45 0 0
45 63 0 0
63 62 0 0
62 63 0 0
63 64 0 0
64 63 0 0
63 65 0 0
65 63 0 0
63 108 0 0
108 63 0 0
63 116 0 0
116 63 0 0
63 134 0 0
134 63 0 0
64 10 0 0
10 64 0 0
64 23 0 0
23 64 0 0
64 52 0 0
52 64 0 0
64 63 0 0
63 64 0 0
64 65 0 0
65 64 0 0
64 68 0 0
68 64 0 0
64 88 0 0
88 64 0 0
64 91 0 0
91 64 0 0
64 96 0 0
96 64 0 0
64 123 0 0
123 64 0 0
64 134 0 0
134 64 0 0
65 14 0 0
14 65 0 0
65 57 0 0
57 65 0 0
65 62 0 0
62 65 0 0
65 63 0 0
63 65 0 0
65 70 0 0
70 65 0 0
65 80 0 0
80 65 0 0
65 96 0 0
96 65 0 0
66 12 0 0
12 66 0 0
66 62 0 0
62 66 0 0
66 67 0 0
67 66 0 0
66 97 0 0
97 66 0 0
66 106 0 0
106 66 0 0
66 111 0 0
111 66 0 0
66 132 0 0
132 66 0 0
67 7 0 0
7 67 0 0
67 46 0 0
46 67 0 0
67 58 0 0
58 67 0 0
67 62 0 0
62 67 0 0
67 84 0 0
84 67 0 0
67 118 0 0
118 67 0 0
67 122 0 0
122 67 0 0
67 136 0 0
136 67 0 0
67 139 0 0
139 67 0 0
68 17 0 0
17 68 0 0
68 46 0 0
46 68 0 0
68 62 0 0
62 68 0 0
68 103 0 0
103 68 0 0
68 112 0 0
112 68 0 0
68 113 0 0
113 68 0 0
68 114 0 0
114 68 0 0
68 129 0 0
129 68 0 0
69 16 0 0
16 69 0 0
69 34 0 0
34 69 0 0
69 56 0 0
56 69 0 0
69 61 0 0
61 69 0 0
69 65 0 0
65 69 0 0
69 66 0 0
66 69 0 0
69 72 0 0
72 69 0 0
69 74 0 0
74 69 0 0
69 86 0 0
86 69 0 0
69 98 0 0
98 69 0 0
70 1 0 0
1 70 0 0
70 38 0 0
38 70 0 0
70 65 0 0
65 70 0 0
70 66 0 0
66 70 0 0
70 111 0 0
111 70 0 0
70 126 0 0
126 70 0 0
70 128 0 0
128 70 0 0
71 8 0 0
8 71 0 0
71 27 0 0
27 71 0 0
71 34 0 0
34 71 0 0
71 37 0 0
37 71 0 0
71 42 0 0
42 71 0 0
71 73 0 0
73 71 0 0
71 84 0 0
84 71 0 0
72 5 0 0
5 72 0 0
72 21 0 0
21 72 0 0
72 29 0 0
29 72 0 0
72 48 0 0
48 72 0 0
72 53 0 0
53 72 0 0
72 56 0 0
56 72 0 0
72 57 0 0
57 72 0 0
72 73 0 0
73 72 0 0
72 76 0 0
76 72 0 0
72 77 0 0
77 72 0 0
72 80 0 0
80 72 0 0
72 98 0 0
98 72 0 0
72 102 0 0
102 72 0 0
72 131 0 0
131 72 0 0
72 139 0 0
139 72 0 0
73 13 0 0
13 73 0 0
73 19 0 0
19 73 0 0
73 47 0 0
47 73 0 0
73 54 0 0
54 73 0 0
73 65 0 0
65 73 0 0
73 71 0 0
71 73 0 0
73 76 0 0
76 73 0 0
73 122 0 0
122 73 0 0
74 11 0 0
11 74 0 0
74 19 0 0
19 74 0 0
74 41 0 0
41 74 0 0
74 47 0 0
47 74 0 0
74 71 0 0
71 74 0 0
74 75 0 0
75 74 0 0
74 76 0 0
76 74 0 0
74 122 0 0
122 74 0 0
74 133 0 0
133 74 0 0
75 41 0 0
41 75 0 0
75 42 0 0
42 75 0 0
75 72 0 0
72 75 0 0
75 74 0 0
74 75 0 0
75 76 0 0
76 75 0 0
75 77 0 0
77 75 0 0
75 124 0 0
124 75 0 0
75 137 0 0
137 75 0 0
76 23 0 0
23 76 0 0
76 59 0 0
59 76 0 0
76 62 0 0
62 76 0 0
76 72 0 0
72 76 0 0
76 74 0 0
74 76 0 0
76 77 0 0
77 76 0 0
76 78 0 0
78 76 0 0
76 85 0 0
85 76 0 0
76 139 0 0
139 76 0 0
77 28 0 0
28 77 0 0
77 29 0 0
29 77 0 0
77 34 0 0
34 77 0 0
77 74 0 0
74 77 0 0
77 78 0 0
78 77 0 0
77 91 0 0
91 77 0 0
77 103 0 0
103 77 0 0
78 21 0 0
21 78 0 0
78 26 0 0
26 78 0 0
78 32 0 0
32 78 0 0
78 75 0 0
75 78 0 0
78 80 0 0
80 78 0 0
78 83 0 0
83 78 0 0
78 119 0 0
119 78 0 0
78 134 0 0
134 78 0 0
79 5 0 0
5 79 0 0
79 22 0 0
22 79 0 0
79 30 0 0
30 79 0 0
79 47 0 0
47 79 0 0
79 58 0 0
58 79 0 0
79 68 0 0
68 79 0 0
79 71 0 0
71 79 0 0
79 72 0 0
72 79 0 0
79 89 0 0
89 79 0 0
79 97 0 0
97 79 0 0
79 98 0 0
98 79 0 0
79 108 0 0
108 79 0 0
79 127 0 0
127 79 0 0
80 5 0 0
5 80 0 0
80 8 0 0
8 80 0 0
80 25 0 0
25 80 0 0
80 30 0 0
30 80 0 0
80 78 0 0
78 80 0 0
80 104 0 0
104 80 0 0
80 124 0 0
124 80 0 0
81 5 0 0
5 81 0 0
81 10 0 0
10 81 0 0
81 78 0 0
78 81 0 0
81 134 0 0
134 81 0 0
81 138 0 0
138 81 0 0
82 3 0 0
3 82 0 0
82 11 0 0
11 82 0 0
82 12 0 0
12 82 0 0
82 20 0 0
20 82 0 0
82 32 0 0
32 82 0 0
82 35 0 0
35 82 0 0
82 42 0 0
42 82 0 0
82 72 0 0
72 82 0 0
82 76 0 0
76 82 0 0
82 84 0 0
84 82 0 0
82 89 0 0
89 82 0 0
82 97 0 0
97 82 0 0
82 102 0 0
102 82 0 0
82 106 0 0
106 82 0 0
82 130 0 0
130 82 0 0
83 31 0 0
31 83 0 0
83 50 0 0
50 83 0 0
83 81 0 0
81 83 0 0
83 82 0 0
82 83 0 0
83 84 0 0
84 83 0 0
83 87 0 0
87 83 0 0
83 88 0 0
88 83 0 0
83 90 0 0
90 83 0 0
83 121 0 0
121 83 0 0
84 12 0 0
12 84 0 0
84 28 0 0
28 84 0 0
84 30 0 0
30 84 0 0
84 43 0 0
43 84 0 0
84 82 0 0
82 84 0 0
84 87 0 0
87 84 0 0
85 6 0 0
6 85 0 0
85 33 0 0
33 85 0 0
85 48 0 0
48 85 0 0
85 82 0 0
82 85 0 0
85 88 0 0
88 85 0 0
85 97 0 0
97 85 0 0
85 109 0 0
109 85 0 0
85 115 0 0
115 85 0 0
85 127 0 0
127 85 0 0
86 36 0 0
36 86 0 0
86 52 0 0
52 86 0 0
86 59 0 0
59 86 0 0
86 82 0 0
82 86 0 0
86 88 0 0
88 86 0 0
86 89 0 0
89 86 0 0
86 94 0 0
94 86 0 0
87 54 0 0
54 87 0 0
87 60 0 0
60 87 0 0
87 83 0 0
83 87 0 0
87 84 0 0
84 87 0 0
87 88 0 0
88 87 0 0
88 1 0 0
1 88 0 0
88 26 0 0
26 88 0 0
88 50 0 0
50 88 0 0
88 52 0 0
52 88 0 0
88 62 0 0
62 88 0 0
88 78 0 0
78 88 0 0
88 82 0 0
82 88 0 0
88 104 0 0
104 88 0 0
88 107 0 0
107 88 0 0
88 117 0 0
117 88 0 0
89 57 0 0
57 89 0 0
89 80 0 0
80 89 0 0
89 87 0 0
87 89 0 0
89 101 0 0
101 89 0 0
89 102 0 0
102 89 0 0
89 140 0 0
140 89 0 0
90 18 0 0
18 90 0 0
90 61 0 0
61 90 0 0
90 64 0 0
64 90 0 0
90 86 0 0
86 90 0 0
90 87 0 0
87 90 0 0
90 88 0 0
88 90 0 0
90 91 0 0
91 90 0 0
90 124 0 0
124 90 0 0
91 8 0 0
8 91 0 0
91 48 0 0
48 91 0 0
91 63 0 0
63 91 0 0
91 73 0 0
73 91 0 0
91 78 0 0
78 91 0 0
91 84 0 0
84 91 0 0
91 92 0 0
92 91 0 0
91 94 0 0
94 91 0 0
91 114 0 0
114 91 0 0
91 122 0 0
122 91 0 0
91 123 0 0
123 91 0 0
91 130 0 0
130 91 0 0
92 26 0 0
26 92 0 0
92 41 0 0
41 92 0 0
92 48 0 0
48 92 0 0
92 62 0 0
62 92 0 0
92 68 0 0
68 92 0 0
92 74 0 0
74 92 0 0
92 80 0 0
80 92 0 0
92 93 0 0
93 92 0 0
92 97 0 0
97 92 0 0
92 98 0 0
98 92 0 0
92 100 0 0
100 92 0 0
92 116 0 0
116 92 0 0
92 122 0 0
122 92 0 0
92 127 0 0
127 92 0 0
93 6 0 0
6 93 0 0
93 85 0 0
85 93 0 0
93 97 0 0
97 93 0 0
93 99 0 0
99 93 0 0
93 100 0 0
100 93 0 0
93 107 0 0
107 93 0 0
93 131 0 0
131 93 0 0
94 19 0 0
19 94 0 0
94 33 0 0
33 94 0 0
94 46 0 0
46 94 0 0
94 75 0 0
75 94 0 0
94 76 0 0
76 94 0 0
94 91 0 0
91 94 0 0
94 92 0 0
92 94 0 0
94 99 0 0
99 94 0 0
95 42 0 0
42 95 0 0
95 47 0 0
47 95 0 0
95 64 0 0
64 95 0 0
95 92 0 0
92 95 0 0
95 93 0 0
93 95 0 0
95 100 0 0
100 95 0 0
95 105 0 0
105 95 0 0
95 124 0 0
124 95 0 0
95 138 0 0
138 95 0 0
96 17 0 0
17 96 0 0
96 42 0 0
42 96 0 0
96 47 0 0
47 96 0 0
96 88 0 0
88 96 0 0
96 91 0 0
91 96 0 0
96 93 0 0
93 96 0 0
96 94 0 0
94 96 0 0
96 97 0 0
97 96 0 0
96 100 0 0
100 96 0 0
97 36 0 0
36 97 0 0
97 60 0 0
60 97 0 0
97 85 0 0
85 97 0 0
97 92 0 0
92 97 0 0
97 99 0 0
99 97 0 0
97 106 0 0
106 97 0 0
97 114 0 0
114 97 0 0
97 124 0 0
124 97 0 0
97 132 0 0
132 97 0 0
98 32 0 0
32 98 0 0
98 43 0 0
43 98 0 0
98 72 0 0
72 98 0 0
98 91 0 0
91 98 0 0
98 95 0 0
95 98 0 0
98 96 0 0
96 98 0 0
98 100 0 0
100 98 0 0
99 24 0 0
24 99 0 0
99 36 0 0
36 99 0 0
99 39 0 0
39 99 0 0
99 46 0 0
46 99 0 0
99 58 0 0
58 99 0 0
99 91 0 0
91 99 0 0
99 97 0 0
97 99 0 0
99 101 0 0
101 99 0 0
99 103 0 0
103 99 0 0
99 109 0 0
109 99 0 0
99 131 0 0
131 99 0 0
100 26 0 0
26 100 0 0
100 30 0 0
30 100 0 0
100 47 0 0
47 100 0 0
100 55 0 0
55 100 0 0
100 62 0 0
62 100 0 0
100 94 0 0
94 100 0 0
100 98 0 0
98 100 0 0
100 116 0 0
116 100 0 0
101 1 0 0
1 101 0 0
101 19 0 0
19 101 0 0
101 44 0 0
44 101 0 0
101 51 0 0
51 101 0 0
101 62 0 0
62 101 0 0
101 94 0 0
94 101 0 0
101 102 0 0
102 101 0 0
101 106 0 0
106 101 0 0
101 107 0 0
107 101 0 0
101 108 0 0
108 101 0 0
101 116 0 0
116 101 0 0
102 12 0 0
12 102 0 0
102 21 0 0
21 102 0 0
102 65 0 0
65 102 0 0
102 67 0 0
67 102 0 0
102 78 0 0
78 102 0 0
102 105 0 0
105 102 0 0
102 106 0 0
106 102 0 0
102 108 0 0
108 102 0 0
102 110 0 0
110 102 0 0
102 114 0 0
114 102 0 0
102 120 0 0
120 102 0 0
102 130 0 0
130 102 0 0
103 15 0 0
15 103 0 0
103 16 0 0
16 103 0 0
103 84 0 0
84 103 0 0
103 93 0 0
93 103 0 0
103 100 0 0
100 103 0 0
103 101 0 0
101 103 0 0
103 106 0 0
106 103 0 0
103 109 0 0
109 103 0 0
103 128 0 0
128 103 0 0
103 131 0 0
131 103 0 0
104 24 0 0
24 104 0 0
104 30 0 0
30 104 0 0
104 35 0 0
35 104 0 0
104 37 0 0
37 104 0 0
104 78 0 0
78 104 0 0
104 98 0 0
98 104 0 0
104 102 0 0
102 104 0 0
105 8 0 0
8 105 0 0
105 11 0 0
11 105 0 0
105 64 0 0
64 105 0 0
105 102 0 0
102 105 0 0
105 104 0 0
104 105 0 0
105 107 0 0
107 105 0 0
105 110 0 0
110 105 0 0
105 113 0 0
113 105 0 0
105 122 0 0
122 105 0 0
106 27 0 0
27 106 0 0
106 44 0 0
44 106 0 0
106 93 0 0
93 106 0 0
106 104 0 0
104 106 0 0
106 105 0 0
105 106 0 0
106 109 0 0
109 106 0 0
106 122 0 0
122 106 0 0
106 128 0 0
128 106 0 0
107 18 0 0
18 107 0 0
107 27 0 0
27 107 0 0
107 32 0 0
32 107 0 0
107 34 0 0
34 107 0 0
107 39 0 0
39 107 0 0
107 63 0 0
63 107 0 0
107 102 0 0
102 107 0 0
108 21 0 0
21 108 0 0
108 70 0 0
70 108 0 0
108 103 0 0
103 108 0 0
108 107 0 0
107 108 0 0
108 110 0 0
110 108 0 0
108 134 0 0
134 108 0 0
109 54 0 0
54 109 0 0
109 62 0 0
62 109 0 0
109 105 0 0
105 109 0 0
109 106 0 0
106 109 0 0
109 118 0 0
118 109 0 0
109 135 0 0
135 109 0 0
110 3 0 0
3 110 0 0
110 4 0 0
4 110 0 0
110 19 0 0
19 110 0 0
110 64 0 0
64 110 0 0
110 70 0 0
70 110 0 0
110 104 0 0
104 110 0 0
110 105 0 0
105 110 0 0
110 106 0 0
106 110 0 0
110 109 0 0
109 110 0 0
110 140 0 0
140 110 0 0
111 8 0 0
8 111 0 0
111 14 0 0
14 111 0 0
111 28 0 0
28 111 0 0
111 35 0 0
35 111 0 0
111 63 0 0
63 111 0 0
111 72 0 0
72 111 0 0
111 102 0 0
102 111 0 0
111 114 0 0
114 111 0 0
111 118 0 0
118 111 0 0
111 119 0 0
119 111 0 0
112 6 0 0
6 112 0 0
112 19 0 0
19 112 0 0
112 21 0 0
21 112 0 0
112 22 0 0
22 112 0 0
112 31 0 0
31 112 0 0
112 43 0 0
43 112 0 0
112 46 0 0
46 112 0 0
112 68 0 0
68 112 0 0
112 72 0 0
72 112 0 0
112 83 0 0
83 112 0 0
112 96 0 0
96 112 0 0
112 97 0 0
97 112 0 0
112 114 0 0
114 112 0 0
112 115 0 0
115 112 0 0
112 119 0 0
119 112 0 0
113 9 0 0
9 113 0 0
113 52 0 0
52 113 0 0
113 76 0 0
76 113 0 0
113 111 0 0
111 113 0 0
113 112 0 0
112 113 0 0
113 117 0 0
117 113 0 0
113 118 0 0
118 113 0 0
113 119 0 0
119 113 0 0
113 126 0 0
126 113 0 0
113 131 0 0
131 113 0 0
114 3 0 0
3 114 0 0
114 11 0 0
11 114 0 0
114 68 0 0
68 114 0 0
114 85 0 0
85 114 0 0
114 96 0 0
96 114 0 0
114 97 0 0
97 114 0 0
114 104 0 0
104 114 0 0
114 117 0 0
117 114 0 0
114 120 0 0
120 114 0 0
114 122 0 0
122 114 0 0
114 136 0 0
136 114 0 0
115 3 0 0
3 115 0 0
115 22 0 0
22 115 0 0
115 40 0 0
40 115 0 0
115 44 0 0
44 115 0 0
115 101 0 0
101 115 0 0
115 107 0 0
107 115 0 0
115 112 0 0
112 115 0 0
115 113 0 0
113 115 0 0
115 130 0 0
130 115 0 0
115 137 0 0
137 115 0 0
116 13 0 0
13 116 0 0
116 32 0 0
32 116 0 0
116 39 0 0
39 116 0 0
116 49 0 0
49 116 0 0
116 50 0 0
50 116 0 0
116 59 0 0
59 116 0 0
116 97 0 0
97 116 0 0
116 111 0 0
111 116 0 0
116 115 0 0
115 116 0 0
116 117 0 0
117 116 0 0
116 125 0 0
125 116 0 0
116 128 0 0
128 116 0 0
117 8 0 0
8 117 0 0
117 17 0 0
17 117 0 0
117 30 0 0
30 117 0 0
117 33 0 0
33 117 0 0
117 34 0 0
34 117 0 0
117 79 0 0
79 117 0 0
117 94 0 0
94 117 0 0
117 111 0 0
111 117 0 0
117 112 0 0
112 117 0 0
117 114 0 0
114 117 0 0
117 118 0 0
118 117 0 0
117 119 0 0
119 117 0 0
117 120 0 0
120 117 0 0
118 23 0 0
23 118 0 0
118 37 0 0
37 118 0 0
118 50 0 0
50 118 0 0
118 53 0 0
53 118 0 0
118 56 0 0
56 118 0 0
118 79 0 0
79 118 0 0
118 115 0 0
115 118 0 0
118 116 0 0
116 118 0 0
118 128 0 0
128 118 0 0
119 11 0 0
11 119 0 0
119 43 0 0
43 119 0 0
119 57 0 0
57 119 0 0
119 58 0 0
58 119 0 0
119 97 0 0
97 119 0 0
119 106 0 0
106 119 0 0
119 108 0 0
108 119 0 0
119 112 0 0
112 119 0 0
119 115 0 0
115 119 0 0
119 120 0 0
120 119 0 0
119 123 0 0
123 119 0 0
119 140 0 0
140 119 0 0
120 1 0 0
1 120 0 0
120 3 0 0
3 120 0 0
120 11 0 0
11 120 0 0
120 62 0 0
62 120 0 0
120 69 0 0
69 120 0 0
120 85 0 0
85 120 0 0
120 89 0 0
89 120 0 0
120 104 0 0
104 120 0 0
120 108 0 0
108 120 0 0
120 111 0 0
111 120 0 0
120 114 0 0
114 120 0 0
120 117 0 0
117 120 0 0
120 121 0 0
121 120 0 0
121 10 0 0
10 121 0 0
121 48 0 0
48 121 0 0
121 49 0 0
49 121 0 0
121 69 0 0
69 121 0 0
121 83 0 0
83 121 0 0
121 89 0 0
89 121 0 0
121 111 0 0
111 121 0 0
121 123 0 0
123 121 0 0
121 124 0 0
124 121 0 0
121 126 0 0
126 121 0 0
121 127 0 0
127 121 0 0
121 132 0 0
132 121 0 0
121 139 0 0
139 121 0 0
122 11 0 0
11 122 0 0
122 24 0 0
24 122 0 0
122 45 0 0
45 122 0 0
122 64 0 0
64 122 0 0
122 87 0 0
87 122 0 0
122 101 0 0
101 122 0 0
122 123 0 0
123 122 0 0
122 124 0 0
124 122 0 0
122 125 0 0
125 122 0 0
122 130 0 0
130 122 0 0
123 31 0 0
31 123 0 0
123 33 0 0
33 123 0 0
123 45 0 0
45 123 0 0
123 55 0 0
55 123 0 0
123 56 0 0
56 123 0 0
123 57 0 0
57 123 0 0
123 62 0 0
62 123 0 0
123 70 0 0
70 123 0 0
123 72 0 0
72 123 0 0
123 80 0 0
80 123 0 0
123 83 0 0
83 123 0 0
123 86 0 0
86 123 0 0
123 121 0 0
121 123 0 0
123 125 0 0
125 123 0 0
124 1 0 0
1 124 0 0
124 11 0 0
11 124 0 0
124 49 0 0
49 124 0 0
124 90 0 0
90 124 0 0
124 129 0 0
129 124 0 0
125 8 0 0
8 125 0 0
125 22 0 0
22 125 0 0
125 30 0 0
30 125 0 0
125 43 0 0
43 125 0 0
125 51 0 0
51 125 0 0
125 104 0 0
104 125 0 0
125 122 0 0
122 125 0 0
125 129 0 0
129 125 0 0
125 130 0 0
130 125 0 0
125 133 0 0
133 125 0 0
126 73 0 0
73 126 0 0
126 83 0 0
83 126 0 0
126 92 0 0
92 126 0 0
126 97 0 0
97 126 0 0
126 101 0 0
101 126 0 0
126 120 0 0
120 126 0 0
126 123 0 0
123 126 0 0
126 138 0 0
138 126 0 0
127 6 0 0
6 127 0 0
127 47 0 0
47 127 0 0
127 104 0 0
104 127 0 0
127 105 0 0
105 127 0 0
127 121 0 0
121 127 0 0
127 126 0 0
126 127 0 0
127 136 0 0
136 127 0 0
128 4 0 0
4 128 0 0
128 10 0 0
10 128 0 0
128 33 0 0
33 128 0 0
128 38 0 0
38 128 0 0
128 78 0 0
78 128 0 0
128 89 0 0
89 128 0 0
128 108 0 0
108 128 0 0
128 125 0 0
125 128 0 0
128 126 0 0
126 128 0 0
128 127 0 0
127 128 0 0
128 130 0 0
130 128 0 0
129 9 0 0
9 129 0 0
129 29 0 0
29 129 0 0
129 53 0 0
53 129 0 0
129 68 0 0
68 129 0 0
129 72 0 0
72 129 0 0
129 91 0 0
91 129 0 0
129 105 0 0
105 129 0 0
129 121 0 0
121 129 0 0
129 122 0 0
122 129 0 0
129 123 0 0
123 129 0 0
129 125 0 0
125 129 0 0
129 126 0 0
126 129 0 0
130 25 0 0
25 130 0 0
130 28 0 0
28 130 0 0
130 29 0 0
29 130 0 0
130 72 0 0
72 130 0 0
130 92 0 0
92 130 0 0
130 94 0 0
94 130 0 0
130 109 0 0
109 130 0 0
130 113 0 0
113 130 0 0
130 126 0 0
126 130 0 0
130 129 0 0
129 130 0 0
131 24 0 0
24 131 0 0
131 26 0 0
26 131 0 0
131 41 0 0
41 131 0 0
131 60 0 0
60 131 0 0
131 77 0 0
77 131 0 0
131 134 0 0
134 131 0 0
131 140 0 0
140 131 0 0
132 37 0 0
37 132 0 0
132 39 0 0
39 132 0 0
132 105 0 0
105 132 0 0
132 109 0 0
109 132 0 0
132 124 0 0
124 132 0 0
132 131 0 0
131 132 0 0
132 136 0 0
136 132 0 0
132 140 0 0
140 132 0 0
133 38 0 0
38 133 0 0
133 43 0 0
43 133 0 0
133 65 0 0
65 133 0 0
133 80 0 0
80 133 0 0
133 105 0 0
105 133 0 0
133 117 0 0
117 133 0 0
133 135 0 0
135 133 0 0
133 137 0 0
137 133 0 0
134 10 0 0
10 134 0 0
134 29 0 0
29 134 0 0
134 47 0 0
47 134 0 0
134 56 0 0
56 134 0 0
134 59 0 0
59 134 0 0
134 63 0 0
63 134 0 0
134 88 0 0
88 134 0 0
134 110 0 0
110 134 0 0
134 127 0 0
127 134 0 0
134 128 0 0
128 134 0 0
134 138 0 0
138 134 0 0
135 52 0 0
52 135 0 0
135 65 0 0
65 135 0 0
135 79 0 0
79 135 0 0
135 136 0 0
136 135 0 0
135 139 0 0
139 135 0 0
136 16 0 0
16 136 0 0
136 28 0 0
28 136 0 0
136 46 0 0
46 136 0 0
136 82 0 0
82 136 0 0
136 89 0 0
89 136 0 0
136 93 0 0
93 136 0 0
136 131 0 0
131 136 0 0
136 139 0 0
139 136 0 0
136 140 0 0
140 136 0 0
137 9 0 0
9 137 0 0
137 93 0 0
93 137 0 0
137 130 0 0
130 137 0 0
137 132 0 0
132 137 0 0
137 140 0 0
140 137 0 0
138 30 0 0
30 138 0 0
138 33 0 0
33 138 0 0
138 38 0 0
38 138 0 0
138 58 0 0
58 138 0 0
138 81 0 0
81 138 0 0
138 100 0 0
100 138 0 0
138 106 0 0
106 138 0 0
138 132 0 0
132 138 0 0
138 133 0 0
133 138 0 0
138 136 0 0
136 138 0 0
139 28 0 0
28 139 0 0
139 35 0 0
35 139 0 0
139 131 0 0
131 139 0 0
139 135 0 0
135 139 0 0
140 21 0 0
21 140 0 0
140 22 0 0
22 140 0 0
140 39 0 0
39 140 0 0
140 40 0 0
40 140 0 0
140 56 0 0
56 140 0 0
140 83 0 0
83 140 0 0
140 85 0 0
85 140 0 0
140 97 0 0
97 140 0 0
140 116 0 0
116 140 0 0
140 131 0 0
131 140 0 0
140 135 0 0
135 140 0 0
140 136 0 0
136 140 0 0
