140 2612
2
0 1
3 2 2 3
2
1 0
3 2 2 3
2
0 5
3 2 2 3
2
5 0
3 2 2 3
2
0 9
3 2 2 3
2
9 0
3 2 2 3
2
0 12
3 2 2 3
2
12 0
3 2 2 3
2
0 36
3 2 2 3
2
36 0
3 2 2 3
2
0 107
3 2 2 3
2
107 0
3 2 2 3
2
0 119
3 2 2 3
2
119 0
3 2 2 3
2
1 0
3 2 2 3
2
0 1
3 2 2 3
2
1 4
3 2 2 3
2
4 1
3 2 2 3
2
1 7
3 2 2 3
2
7 1
3 2 2 3
2
1 36
3 2 2 3
2
36 1
3 2 2 3
2
1 40
3 2 2 3
2
40 1
3 2 2 3
2
1 54
3 2 2 3
2
54 1
3 2 2 3
2
1 92
3 2 2 3
2
92 1
3 2 2 3
2
1 94
3 2 2 3
2
94 1
3 2 2 3
2
1 96
3 2 2 3
2
96 1
3 2 2 3
2
1 110
3 2 2 3
2
110 1
3 2 2 3
2
1 133
3 2 2 3
2
133 1
3 2 2 3
2
2 9
3 2 2 3
2
9 2
3 2 2 3
2
2 38
3 2 2 3
2
38 2
3 2 2 3
2
2 42
3 2 2 3
2
42 2
3 2 2 3
2
2 50
3 2 2 3
2
50 2
3 2 2 3
2
2 86
3 2 2 3
2
86 2
3 2 2 3
2
2 90
3 2 2 3
2
90 2
3 2 2 3
2
2 95
3 2 2 3
2
95 2
3 2 2 3
2
2 122
3 2 2 3
2
122 2
3 2 2 3
2
3 0
3 2 2 3
2
0 3
3 2 2 3
2
3 1
3 2 2 3
2
1 3
3 2 2 3
2
3 6
3 2 2 3
2
6 3
3 2 2 3
2
3 11
3 2 2 3
2
11 3
3 2 2 3
2
3 15
3 2 2 3
2
15 3
3 2 2 3
2
3 41
3 2 2 3
2
41 3
3 2 2 3
2
3 57
3 2 2 3
2
57 3
3 2 2 3
2
4 0
3 2 2 3
2
0 4
3 2 2 3
2
4 2
3 2 2 3
2
2 4
3 2 2 3
2
4 5
3 2 2 3
2
5 4
3 2 2 3
2
4 9
3 2 2 3
2
9 4
3 2 2 3
2
4 16
3 2 2 3
2
16 4
3 2 2 3
2
4 33
3 2 2 3
2
33 4
3 2 2 3
2
4 74
3 2 2 3
2
74 4
3 2 2 3
2
4 81
3 2 2 3
2
81 4
3 2 2 3
2
4 102
3 2 2 3
2
102 4
3 2 2 3
2
4 111
3 2 2 3
2
111 4
3 2 2 3
2
4 130
3 2 2 3
2
130 4
3 2 2 3
2
4 138
3 2 2 3
2
138 4
3 2 2 3
2
5 0
3 2 2 3
2
0 5
3 2 2 3
2
5 2
3 2 2 3
2
2 5
3 2 2 3
2
5 6
3 2 2 3
2
6 5
3 2 2 3
2
5 16
3 2 2 3
2
16 5
3 2 2 3
2
5 24
3 2 2 3
2
24 5
3 2 2 3
2
5 33
3 2 2 3
2
33 5
3 2 2 3
2
5 41
3 2 2 3
2
41 5
3 2 2 3
2
5 90
3 2 2 3
2
90 5
3 2 2 3
2
5 93
3 2 2 3
2
93 5
3 2 2 3
2
5 122
3 2 2 3
2
122 5
3 2 2 3
2
5 134
3 2 2 3
2
134 5
3 2 2 3
2
6 2
3 2 2 3
2
2 6
3 2 2 3
2
6 3
3 2 2 3
2
3 6
3 2 2 3
2
6 4
3 2 2 3
2
4 6
3 2 2 3
2
6 5
3 2 2 3
2
5 6
3 2 2 3
2
6 8
3 2 2 3
2
8 6
3 2 2 3
2
6 50
3 2 2 3
2
50 6
3 2 2 3
2
6 58
3 2 2 3
2
58 6
3 2 2 3
2
6 87
3 2 2 3
2
87 6
3 2 2 3
2
6 118
3 2 2 3
2
118 6
3 2 2 3
2
6 121
3 2 2 3
2
121 6
3 2 2 3
2
6 138
3 2 2 3
2
138 6
3 2 2 3
2
7 0
3 2 2 3
2
0 7
3 2 2 3
2
7 1
3 2 2 3
2
1 7
3 2 2 3
2
7 2
3 2 2 3
2
2 7
3 2 2 3
2
7 9
3 2 2 3
2
9 7
3 2 2 3
2
7 16
3 2 2 3
2
16 7
3 2 2 3
2
7 18
3 2 2 3
2
18 7
3 2 2 3
2
7 31
3 2 2 3
2
31 7
3 2 2 3
2
7 79
3 2 2 3
2
79 7
3 2 2 3
2
7 89
3 2 2 3
2
89 7
3 2 2 3
2
7 103
3 2 2 3
2
103 7
3 2 2 3
2
8 4
3 2 2 3
2
4 8
3 2 2 3
2
8 46
3 2 2 3
2
46 8
3 2 2 3
2
8 65
3 2 2 3
2
65 8
3 2 2 3
2
8 67
3 2 2 3
2
67 8
3 2 2 3
2
8 89
3 2 2 3
2
89 8
3 2 2 3
2
8 91
3 2 2 3
2
91 8
3 2 2 3
2
8 111
3 2 2 3
2
111 8
3 2 2 3
2
8 126
3 2 2 3
2
126 8
3 2 2 3
2
8 138
3 2 2 3
2
138 8
3 2 2 3
2
9 0
3 2 2 3
2
0 9
3 2 2 3
2
9 3
3 2 2 3
2
3 9
3 2 2 3
2
9 5
3 2 2 3
2
5 9
3 2 2 3
2
9 8
3 2 2 3
2
8 9
3 2 2 3
2
9 25
3 2 2 3
2
25 9
3 2 2 3
2
9 37
3 2 2 3
2
37 9
3 2 2 3
2
9 47
3 2 2 3
2
47 9
3 2 2 3
2
9 78
3 2 2 3
2
78 9
3 2 2 3
2
9 102
3 2 2 3
2
102 9
3 2 2 3
2
10 2
3 2 2 3
2
2 10
3 2 2 3
2
10 7
3 2 2 3
2
7 10
3 2 2 3
2
10 11
3 2 2 3
2
11 10
3 2 2 3
2
10 12
3 2 2 3
2
12 10
3 2 2 3
2
10 13
3 2 2 3
2
13 10
3 2 2 3
2
10 17
3 2 2 3
2
17 10
3 2 2 3
2
10 27
3 2 2 3
2
27 10
3 2 2 3
2
10 28
3 2 2 3
2
28 10
3 2 2 3
2
10 33
3 2 2 3
2
33 10
3 2 2 3
2
10 107
3 2 2 3
2
107 10
3 2 2 3
2
10 110
3 2 2 3
2
110 10
3 2 2 3
2
10 116
3 2 2 3
2
116 10
3 2 2 3
2
10 124
3 2 2 3
2
124 10
3 2 2 3
2
10 126
3 2 2 3
2
126 10
3 2 2 3
2
11 13
3 2 2 3
2
13 11
3 2 2 3
2
11 14
3 2 2 3
2
14 11
3 2 2 3
2
11 15
3 2 2 3
2
15 11
3 2 2 3
2
11 16
3 2 2 3
2
16 11
3 2 2 3
2
11 18
3 2 2 3
2
18 11
3 2 2 3
2
11 24
3 2 2 3
2
24 11
3 2 2 3
2
11 34
3 2 2 3
2
34 11
3 2 2 3
2
11 38
3 2 2 3
2
38 11
3 2 2 3
2
11 73
3 2 2 3
2
73 11
3 2 2 3
2
11 99
3 2 2 3
2
99 11
3 2 2 3
2
11 107
3 2 2 3
2
107 11
3 2 2 3
2
12 10
3 2 2 3
2
10 12
3 2 2 3
2
12 13
3 2 2 3
2
13 12
3 2 2 3
2
12 14
3 2 2 3
2
14 12
3 2 2 3
2
12 19
3 2 2 3
2
19 12
3 2 2 3
2
12 28
3 2 2 3
2
28 12
3 2 2 3
2
12 47
3 2 2 3
2
47 12
3 2 2 3
2
12 62
3 2 2 3
2
62 12
3 2 2 3
2
12 87
3 2 2 3
2
87 12
3 2 2 3
2
12 117
3 2 2 3
2
117 12
3 2 2 3
2
13 11
3 2 2 3
2
11 13
3 2 2 3
2
13 52
3 2 2 3
2
52 13
3 2 2 3
2
13 61
3 2 2 3
2
61 13
3 2 2 3
2
13 71
3 2 2 3
2
71 13
3 2 2 3
2
13 76
3 2 2 3
2
76 13
3 2 2 3
2
13 127
3 2 2 3
2
127 13
3 2 2 3
2
14 11
3 2 2 3
2
11 14
3 2 2 3
2
14 12
3 2 2 3
2
12 14
3 2 2 3
2
14 15
3 2 2 3
2
15 14
3 2 2 3
2
14 17
3 2 2 3
2
17 14
3 2 2 3
2
14 57
3 2 2 3
2
57 14
3 2 2 3
2
14 63
3 2 2 3
2
63 14
3 2 2 3
2
14 78
3 2 2 3
2
78 14
3 2 2 3
2
15 16
3 2 2 3
2
16 15
3 2 2 3
2
15 115
3 2 2 3
2
115 15
3 2 2 3
2
15 138
3 2 2 3
2
138 15
3 2 2 3
2
16 0
3 2 2 3
2
0 16
3 2 2 3
2
16 60
3 2 2 3
2
60 16
3 2 2 3
2
16 80
3 2 2 3
2
80 16
3 2 2 3
2
16 95
3 2 2 3
2
95 16
3 2 2 3
2
16 111
3 2 2 3
2
111 16
3 2 2 3
2
16 123
3 2 2 3
2
123 16
3 2 2 3
2
16 126
3 2 2 3
2
126 16
3 2 2 3
2
16 136
3 2 2 3
2
136 16
3 2 2 3
2
17 15
3 2 2 3
2
15 17
3 2 2 3
2
17 18
3 2 2 3
2
18 17
3 2 2 3
2
17 19
3 2 2 3
2
19 17
3 2 2 3
2
17 34
3 2 2 3
2
34 17
3 2 2 3
2
17 41
3 2 2 3
2
41 17
3 2 2 3
2
17 44
3 2 2 3
2
44 17
3 2 2 3
2
17 62
3 2 2 3
2
62 17
3 2 2 3
2
17 63
3 2 2 3
2
63 17
3 2 2 3
2
17 76
3 2 2 3
2
76 17
3 2 2 3
2
17 77
3 2 2 3
2
77 17
3 2 2 3
2
17 108
3 2 2 3
2
108 17
3 2 2 3
2
17 122
3 2 2 3
2
122 17
3 2 2 3
2
17 131
3 2 2 3
2
131 17
3 2 2 3
2
18 12
3 2 2 3
2
12 18
3 2 2 3
2
18 13
3 2 2 3
2
13 18
3 2 2 3
2
18 15
3 2 2 3
2
15 18
3 2 2 3
2
18 16
3 2 2 3
2
16 18
3 2 2 3
2
18 19
3 2 2 3
2
19 18
3 2 2 3
2
18 29
3 2 2 3
2
29 18
3 2 2 3
2
18 36
3 2 2 3
2
36 18
3 2 2 3
2
18 41
3 2 2 3
2
41 18
3 2 2 3
2
18 44
3 2 2 3
2
44 18
3 2 2 3
2
18 74
3 2 2 3
2
74 18
3 2 2 3
2
18 78
3 2 2 3
2
78 18
3 2 2 3
2
18 79
3 2 2 3
2
79 18
3 2 2 3
2
18 105
3 2 2 3
2
105 18
3 2 2 3
2
18 108
3 2 2 3
2
108 18
3 2 2 3
2
18 109
3 2 2 3
2
109 18
3 2 2 3
2
18 113
3 2 2 3
2
113 18
3 2 2 3
2
18 129
3 2 2 3
2
129 18
3 2 2 3
2
19 10
3 2 2 3
2
10 19
3 2 2 3
2
19 13
3 2 2 3
2
13 19
3 2 2 3
2
19 15
3 2 2 3
2
15 19
3 2 2 3
2
19 18
3 2 2 3
2
18 19
3 2 2 3
2
19 24
3 2 2 3
2
24 19
3 2 2 3
2
19 33
3 2 2 3
2
33 19
3 2 2 3
2
19 35
3 2 2 3
2
35 19
3 2 2 3
2
19 72
3 2 2 3
2
72 19
3 2 2 3
2
19 107
3 2 2 3
2
107 19
3 2 2 3
2
20 23
3 2 2 3
2
23 20
3 2 2 3
2
20 25
3 2 2 3
2
25 20
3 2 2 3
2
20 27
3 2 2 3
2
27 20
3 2 2 3
2
20 29
3 2 2 3
2
29 20
3 2 2 3
2
20 53
3 2 2 3
2
53 20
3 2 2 3
2
20 72
3 2 2 3
2
72 20
3 2 2 3
2
20 113
3 2 2 3
2
113 20
3 2 2 3
2
21 4
3 2 2 3
2
4 21
3 2 2 3
2
21 20
3 2 2 3
2
20 21
3 2 2 3
2
21 24
3 2 2 3
2
24 21
3 2 2 3
2
21 27
3 2 2 3
2
27 21
3 2 2 3
2
21 54
3 2 2 3
2
54 21
3 2 2 3
2
21 86
3 2 2 3
2
86 21
3 2 2 3
2
21 87
3 2 2 3
2
87 21
3 2 2 3
2
21 109
3 2 2 3
2
109 21
3 2 2 3
2
21 111
3 2 2 3
2
111 21
3 2 2 3
2
21 116
3 2 2 3
2
116 21
3 2 2 3
2
22 20
3 2 2 3
2
20 22
3 2 2 3
2
22 29
3 2 2 3
2
29 22
3 2 2 3
2
22 114
3 2 2 3
2
114 22
3 2 2 3
2
22 123
3 2 2 3
2
123 22
3 2 2 3
2
22 128
3 2 2 3
2
128 22
3 2 2 3
2
22 136
3 2 2 3
2
136 22
3 2 2 3
2
23 1
3 2 2 3
2
1 23
3 2 2 3
2
23 20
3 2 2 3
2
20 23
3 2 2 3
2
23 21
3 2 2 3
2
21 23
3 2 2 3
2
23 29
3 2 2 3
2
29 23
3 2 2 3
2
23 39
3 2 2 3
2
39 23
3 2 2 3
2
23 45
3 2 2 3
2
45 23
3 2 2 3
2
23 137
3 2 2 3
2
137 23
3 2 2 3
2
24 0
3 2 2 3
2
0 24
3 2 2 3
2
24 4
3 2 2 3
2
4 24
3 2 2 3
2
24 20
3 2 2 3
2
20 24
3 2 2 3
2
24 22
3 2 2 3
2
22 24
3 2 2 3
2
24 25
3 2 2 3
2
25 24
3 2 2 3
2
24 28
3 2 2 3
2
28 24
3 2 2 3
2
24 32
3 2 2 3
2
32 24
3 2 2 3
2
24 41
3 2 2 3
2
41 24
3 2 2 3
2
24 65
3 2 2 3
2
65 24
3 2 2 3
2
24 77
3 2 2 3
2
77 24
3 2 2 3
2
24 79
3 2 2 3
2
79 24
3 2 2 3
2
24 90
3 2 2 3
2
90 24
3 2 2 3
2
24 96
3 2 2 3
2
96 24
3 2 2 3
2
25 17
3 2 2 3
2
17 25
3 2 2 3
2
25 21
3 2 2 3
2
21 25
3 2 2 3
2
25 24
3 2 2 3
2
24 25
3 2 2 3
2
25 90
3 2 2 3
2
90 25
3 2 2 3
2
25 106
3 2 2 3
2
106 25
3 2 2 3
2
25 115
3 2 2 3
2
115 25
3 2 2 3
2
26 6
3 2 2 3
2
6 26
3 2 2 3
2
26 20
3 2 2 3
2
20 26
3 2 2 3
2
26 25
3 2 2 3
2
25 26
3 2 2 3
2
26 27
3 2 2 3
2
27 26
3 2 2 3
2
26 47
3 2 2 3
2
47 26
3 2 2 3
2
26 50
3 2 2 3
2
50 26
3 2 2 3
2
26 84
3 2 2 3
2
84 26
3 2 2 3
2
26 95
3 2 2 3
2
95 26
3 2 2 3
2
26 103
3 2 2 3
2
103 26
3 2 2 3
2
26 105
3 2 2 3
2
105 26
3 2 2 3
2
27 2
3 2 2 3
2
2 27
3 2 2 3
2
27 11
3 2 2 3
2
11 27
3 2 2 3
2
27 16
3 2 2 3
2
16 27
3 2 2 3
2
27 20
3 2 2 3
2
20 27
3 2 2 3
2
27 22
3 2 2 3
2
22 27
3 2 2 3
2
27 26
3 2 2 3
2
26 27
3 2 2 3
2
27 41
3 2 2 3
2
41 27
3 2 2 3
2
27 50
3 2 2 3
2
50 27
3 2 2 3
2
27 76
3 2 2 3
2
76 27
3 2 2 3
2
27 78
3 2 2 3
2
78 27
3 2 2 3
2
27 82
3 2 2 3
2
82 27
3 2 2 3
2
28 20
3 2 2 3
2
20 28
3 2 2 3
2
28 22
3 2 2 3
2
22 28
3 2 2 3
2
28 24
3 2 2 3
2
24 28
3 2 2 3
2
28 26
3 2 2 3
2
26 28
3 2 2 3
2
28 27
3 2 2 3
2
27 28
3 2 2 3
2
28 32
3 2 2 3
2
32 28
3 2 2 3
2
28 68
3 2 2 3
2
68 28
3 2 2 3
2
28 71
3 2 2 3
2
71 28
3 2 2 3
2
28 135
3 2 2 3
2
135 28
3 2 2 3
2
29 20
3 2 2 3
2
20 29
3 2 2 3
2
29 25
3 2 2 3
2
25 29
3 2 2 3
2
29 33
3 2 2 3
2
33 29
3 2 2 3
2
29 53
3 2 2 3
2
53 29
3 2 2 3
2
29 73
3 2 2 3
2
73 29
3 2 2 3
2
29 113
3 2 2 3
2
113 29
3 2 2 3
2
29 116
3 2 2 3
2
116 29
3 2 2 3
2
29 124
3 2 2 3
2
124 29
3 2 2 3
2
30 29
3 2 2 3
2
29 30
3 2 2 3
2
30 33
3 2 2 3
2
33 30
3 2 2 3
2
30 34
3 2 2 3
2
34 30
3 2 2 3
2
30 37
3 2 2 3
2
37 30
3 2 2 3
2
30 38
3 2 2 3
2
38 30
3 2 2 3
2
30 41
3 2 2 3
2
41 30
3 2 2 3
2
30 56
3 2 2 3
2
56 30
3 2 2 3
2
30 66
3 2 2 3
2
66 30
3 2 2 3
2
30 97
3 2 2 3
2
97 30
3 2 2 3
2
30 104
3 2 2 3
2
104 30
3 2 2 3
2
30 109
3 2 2 3
2
109 30
3 2 2 3
2
31 0
3 2 2 3
2
0 31
3 2 2 3
2
31 8
3 2 2 3
2
8 31
3 2 2 3
2
31 21
3 2 2 3
2
21 31
3 2 2 3
2
31 30
3 2 2 3
2
30 31
3 2 2 3
2
31 32
3 2 2 3
2
32 31
3 2 2 3
2
31 34
3 2 2 3
2
34 31
3 2 2 3
2
31 35
3 2 2 3
2
35 31
3 2 2 3
2
31 37
3 2 2 3
2
37 31
3 2 2 3
2
31 69
3 2 2 3
2
69 31
3 2 2 3
2
31 114
3 2 2 3
2
114 31
3 2 2 3
2
31 115
3 2 2 3
2
115 31
3 2 2 3
2
31 120
3 2 2 3
2
120 31
3 2 2 3
2
31 137
3 2 2 3
2
137 31
3 2 2 3
2
32 33
3 2 2 3
2
33 32
3 2 2 3
2
32 38
3 2 2 3
2
38 32
3 2 2 3
2
32 40
3 2 2 3
2
40 32
3 2 2 3
2
32 89
3 2 2 3
2
89 32
3 2 2 3
2
33 15
3 2 2 3
2
15 33
3 2 2 3
2
33 30
3 2 2 3
2
30 33
3 2 2 3
2
33 31
3 2 2 3
2
31 33
3 2 2 3
2
33 35
3 2 2 3
2
35 33
3 2 2 3
2
33 39
3 2 2 3
2
39 33
3 2 2 3
2
33 64
3 2 2 3
2
64 33
3 2 2 3
2
33 73
3 2 2 3
2
73 33
3 2 2 3
2
33 93
3 2 2 3
2
93 33
3 2 2 3
2
33 118
3 2 2 3
2
118 33
3 2 2 3
2
33 123
3 2 2 3
2
123 33
3 2 2 3
2
34 14
3 2 2 3
2
14 34
3 2 2 3
2
34 20
3 2 2 3
2
20 34
3 2 2 3
2
34 29
3 2 2 3
2
29 34
3 2 2 3
2
34 30
3 2 2 3
2
30 34
3 2 2 3
2
34 33
3 2 2 3
2
33 34
3 2 2 3
2
34 45
3 2 2 3
2
45 34
3 2 2 3
2
34 59
3 2 2 3
2
59 34
3 2 2 3
2
34 79
3 2 2 3
2
79 34
3 2 2 3
2
34 90
3 2 2 3
2
90 34
3 2 2 3
2
34 92
3 2 2 3
2
92 34
3 2 2 3
2
34 110
3 2 2 3
2
110 34
3 2 2 3
2
34 115
3 2 2 3
2
115 34
3 2 2 3
2
34 117
3 2 2 3
2
117 34
3 2 2 3
2
34 131
3 2 2 3
2
131 34
3 2 2 3
2
35 1
3 2 2 3
2
1 35
3 2 2 3
2
35 31
3 2 2 3
2
31 35
3 2 2 3
2
35 33
3 2 2 3
2
33 35
3 2 2 3
2
35 36
3 2 2 3
2
36 35
3 2 2 3
2
35 39
3 2 2 3
2
39 35
3 2 2 3
2
35 51
3 2 2 3
2
51 35
3 2 2 3
2
35 63
3 2 2 3
2
63 35
3 2 2 3
2
35 77
3 2 2 3
2
77 35
3 2 2 3
2
35 78
3 2 2 3
2
78 35
3 2 2 3
2
35 87
3 2 2 3
2
87 35
3 2 2 3
2
35 91
3 2 2 3
2
91 35
3 2 2 3
2
35 103
3 2 2 3
2
103 35
3 2 2 3
2
35 114
3 2 2 3
2
114 35
3 2 2 3
2
35 139
3 2 2 3
2
139 35
3 2 2 3
2
36 0
3 2 2 3
2
0 36
3 2 2 3
2
36 5
3 2 2 3
2
5 36
3 2 2 3
2
36 11
3 2 2 3
2
11 36
3 2 2 3
2
36 12
3 2 2 3
2
12 36
3 2 2 3
2
36 21
3 2 2 3
2
21 36
3 2 2 3
2
36 25
3 2 2 3
2
25 36
3 2 2 3
2
36 30
3 2 2 3
2
30 36
3 2 2 3
2
36 33
3 2 2 3
2
33 36
3 2 2 3
2
36 55
3 2 2 3
2
55 36
3 2 2 3
2
36 74
3 2 2 3
2
74 36
3 2 2 3
2
36 95
3 2 2 3
2
95 36
3 2 2 3
2
36 118
3 2 2 3
2
118 36
3 2 2 3
2
37 20
3 2 2 3
2
20 37
3 2 2 3
2
37 21
3 2 2 3
2
21 37
3 2 2 3
2
37 31
3 2 2 3
2
31 37
3 2 2 3
2
37 35
3 2 2 3
2
35 37
3 2 2 3
2
37 38
3 2 2 3
2
38 37
3 2 2 3
2
37 43
3 2 2 3
2
43 37
3 2 2 3
2
37 67
3 2 2 3
2
67 37
3 2 2 3
2
37 118
3 2 2 3
2
118 37
3 2 2 3
2
37 132
3 2 2 3
2
132 37
3 2 2 3
2
38 1
3 2 2 3
2
1 38
3 2 2 3
2
38 33
3 2 2 3
2
33 38
3 2 2 3
2
38 34
3 2 2 3
2
34 38
3 2 2 3
2
38 36
3 2 2 3
2
36 38
3 2 2 3
2
38 49
3 2 2 3
2
49 38
3 2 2 3
2
38 54
3 2 2 3
2
54 38
3 2 2 3
2
38 58
3 2 2 3
2
58 38
3 2 2 3
2
38 84
3 2 2 3
2
84 38
3 2 2 3
2
38 87
3 2 2 3
2
87 38
3 2 2 3
2
38 103
3 2 2 3
2
103 38
3 2 2 3
2
38 105
3 2 2 3
2
105 38
3 2 2 3
2
38 137
3 2 2 3
2
137 38
3 2 2 3
2
39 3
3 2 2 3
2
3 39
3 2 2 3
2
39 16
3 2 2 3
2
16 39
3 2 2 3
2
39 20
3 2 2 3
2
20 39
3 2 2 3
2
39 25
3 2 2 3
2
25 39
3 2 2 3
2
39 33
3 2 2 3
2
33 39
3 2 2 3
2
39 35
3 2 2 3
2
35 39
3 2 2 3
2
39 37
3 2 2 3
2
37 39
3 2 2 3
2
39 103
3 2 2 3
2
103 39
3 2 2 3
2
39 116
3 2 2 3
2
116 39
3 2 2 3
2
39 136
3 2 2 3
2
136 39
3 2 2 3
2
39 137
3 2 2 3
2
137 39
3 2 2 3
2
39 138
3 2 2 3
2
138 39
3 2 2 3
2
40 26
3 2 2 3
2
26 40
3 2 2 3
2
40 41
3 2 2 3
2
41 40
3 2 2 3
2
40 44
3 2 2 3
2
44 40
3 2 2 3
2
40 46
3 2 2 3
2
46 40
3 2 2 3
2
40 47
3 2 2 3
2
47 40
3 2 2 3
2
40 56
3 2 2 3
2
56 40
3 2 2 3
2
40 133
3 2 2 3
2
133 40
3 2 2 3
2
40 134
3 2 2 3
2
134 40
3 2 2 3
2
41 11
3 2 2 3
2
11 41
3 2 2 3
2
41 40
3 2 2 3
2
40 41
3 2 2 3
2
41 42
3 2 2 3
2
42 41
3 2 2 3
2
41 58
3 2 2 3
2
58 41
3 2 2 3
2
41 99
3 2 2 3
2
99 41
3 2 2 3
2
41 118
3 2 2 3
2
118 41
3 2 2 3
2
41 131
3 2 2 3
2
131 41
3 2 2 3
2
41 137
3 2 2 3
2
137 41
3 2 2 3
2
42 10
3 2 2 3
2
10 42
3 2 2 3
2
42 12
3 2 2 3
2
12 42
3 2 2 3
2
42 30
3 2 2 3
2
30 42
3 2 2 3
2
42 43
3 2 2 3
2
43 42
3 2 2 3
2
42 45
3 2 2 3
2
45 42
3 2 2 3
2
42 47
3 2 2 3
2
47 42
3 2 2 3
2
42 48
3 2 2 3
2
48 42
3 2 2 3
2
42 49
3 2 2 3
2
49 42
3 2 2 3
2
42 60
3 2 2 3
2
60 42
3 2 2 3
2
42 91
3 2 2 3
2
91 42
3 2 2 3
2
42 97
3 2 2 3
2
97 42
3 2 2 3
2
42 106
3 2 2 3
2
106 42
3 2 2 3
2
42 127
3 2 2 3
2
127 42
3 2 2 3
2
43 32
3 2 2 3
2
32 43
3 2 2 3
2
43 42
3 2 2 3
2
42 43
3 2 2 3
2
43 47
3 2 2 3
2
47 43
3 2 2 3
2
43 49
3 2 2 3
2
49 43
3 2 2 3
2
43 68
3 2 2 3
2
68 43
3 2 2 3
2
43 105
3 2 2 3
2
105 43
3 2 2 3
2
43 110
3 2 2 3
2
110 43
3 2 2 3
2
43 125
3 2 2 3
2
125 43
3 2 2 3
2
44 27
3 2 2 3
2
27 44
3 2 2 3
2
44 43
3 2 2 3
2
43 44
3 2 2 3
2
44 45
3 2 2 3
2
45 44
3 2 2 3
2
44 69
3 2 2 3
2
69 44
3 2 2 3
2
44 76
3 2 2 3
2
76 44
3 2 2 3
2
44 110
3 2 2 3
2
110 44
3 2 2 3
2
45 3
3 2 2 3
2
3 45
3 2 2 3
2
45 36
3 2 2 3
2
36 45
3 2 2 3
2
45 40
3 2 2 3
2
40 45
3 2 2 3
2
45 48
3 2 2 3
2
48 45
3 2 2 3
2
45 52
3 2 2 3
2
52 45
3 2 2 3
2
46 42
3 2 2 3
2
42 46
3 2 2 3
2
46 75
3 2 2 3
2
75 46
3 2 2 3
2
46 85
3 2 2 3
2
85 46
3 2 2 3
2
46 96
3 2 2 3
2
96 46
3 2 2 3
2
46 102
3 2 2 3
2
102 46
3 2 2 3
2
46 112
3 2 2 3
2
112 46
3 2 2 3
2
46 117
3 2 2 3
2
117 46
3 2 2 3
2
47 12
3 2 2 3
2
12 47
3 2 2 3
2
47 57
3 2 2 3
2
57 47
3 2 2 3
2
47 69
3 2 2 3
2
69 47
3 2 2 3
2
47 77
3 2 2 3
2
77 47
3 2 2 3
2
47 93
3 2 2 3
2
93 47
3 2 2 3
2
47 100
3 2 2 3
2
100 47
3 2 2 3
2
47 135
3 2 2 3
2
135 47
3 2 2 3
2
48 27
3 2 2 3
2
27 48
3 2 2 3
2
48 40
3 2 2 3
2
40 48
3 2 2 3
2
48 41
3 2 2 3
2
41 48
3 2 2 3
2
48 42
3 2 2 3
2
42 48
3 2 2 3
2
48 49
3 2 2 3
2
49 48
3 2 2 3
2
48 52
3 2 2 3
2
52 48
3 2 2 3
2
48 71
3 2 2 3
2
71 48
3 2 2 3
2
48 110
3 2 2 3
2
110 48
3 2 2 3
2
49 2
3 2 2 3
2
2 49
3 2 2 3
2
49 12
3 2 2 3
2
12 49
3 2 2 3
2
49 34
3 2 2 3
2
34 49
3 2 2 3
2
49 42
3 2 2 3
2
42 49
3 2 2 3
2
49 43
3 2 2 3
2
43 49
3 2 2 3
2
49 60
3 2 2 3
2
60 49
3 2 2 3
2
49 62
3 2 2 3
2
62 49
3 2 2 3
2
49 70
3 2 2 3
2
70 49
3 2 2 3
2
49 106
3 2 2 3
2
106 49
3 2 2 3
2
50 24
3 2 2 3
2
24 50
3 2 2 3
2
50 43
3 2 2 3
2
43 50
3 2 2 3
2
50 55
3 2 2 3
2
55 50
3 2 2 3
2
50 56
3 2 2 3
2
56 50
3 2 2 3
2
50 61
3 2 2 3
2
61 50
3 2 2 3
2
50 72
3 2 2 3
2
72 50
3 2 2 3
2
51 1
3 2 2 3
2
1 51
3 2 2 3
2
51 19
3 2 2 3
2
19 51
3 2 2 3
2
51 23
3 2 2 3
2
23 51
3 2 2 3
2
51 26
3 2 2 3
2
26 51
3 2 2 3
2
51 55
3 2 2 3
2
55 51
3 2 2 3
2
51 56
3 2 2 3
2
56 51
3 2 2 3
2
51 57
3 2 2 3
2
57 51
3 2 2 3
2
51 62
3 2 2 3
2
62 51
3 2 2 3
2
51 92
3 2 2 3
2
92 51
3 2 2 3
2
51 111
3 2 2 3
2
111 51
3 2 2 3
2
52 8
3 2 2 3
2
8 52
3 2 2 3
2
52 9
3 2 2 3
2
9 52
3 2 2 3
2
52 10
3 2 2 3
2
10 52
3 2 2 3
2
52 17
3 2 2 3
2
17 52
3 2 2 3
2
52 28
3 2 2 3
2
28 52
3 2 2 3
2
52 32
3 2 2 3
2
32 52
3 2 2 3
2
52 51
3 2 2 3
2
51 52
3 2 2 3
2
52 53
3 2 2 3
2
53 52
3 2 2 3
2
52 54
3 2 2 3
2
54 52
3 2 2 3
2
52 55
3 2 2 3
2
55 52
3 2 2 3
2
52 60
3 2 2 3
2
60 52
3 2 2 3
2
52 87
3 2 2 3
2
87 52
3 2 2 3
2
52 110
3 2 2 3
2
110 52
3 2 2 3
2
52 121
3 2 2 3
2
121 52
3 2 2 3
2
52 125
3 2 2 3
2
125 52
3 2 2 3
2
52 130
3 2 2 3
2
130 52
3 2 2 3
2
53 32
3 2 2 3
2
32 53
3 2 2 3
2
53 50
3 2 2 3
2
50 53
3 2 2 3
2
53 52
3 2 2 3
2
52 53
3 2 2 3
2
53 58
3 2 2 3
2
58 53
3 2 2 3
2
53 115
3 2 2 3
2
115 53
3 2 2 3
2
53 124
3 2 2 3
2
124 53
3 2 2 3
2
54 27
3 2 2 3
2
27 54
3 2 2 3
2
54 35
3 2 2 3
2
35 54
3 2 2 3
2
54 53
3 2 2 3
2
53 54
3 2 2 3
2
54 71
3 2 2 3
2
71 54
3 2 2 3
2
54 130
3 2 2 3
2
130 54
3 2 2 3
2
55 18
3 2 2 3
2
18 55
3 2 2 3
2
55 37
3 2 2 3
2
37 55
3 2 2 3
2
55 53
3 2 2 3
2
53 55
3 2 2 3
2
55 60
3 2 2 3
2
60 55
3 2 2 3
2
55 134
3 2 2 3
2
134 55
3 2 2 3
2
56 13
3 2 2 3
2
13 56
3 2 2 3
2
56 39
3 2 2 3
2
39 56
3 2 2 3
2
56 46
3 2 2 3
2
46 56
3 2 2 3
2
56 51
3 2 2 3
2
51 56
3 2 2 3
2
56 53
3 2 2 3
2
53 56
3 2 2 3
2
56 57
3 2 2 3
2
57 56
3 2 2 3
2
56 131
3 2 2 3
2
131 56
3 2 2 3
2
56 133
3 2 2 3
2
133 56
3 2 2 3
2
57 47
3 2 2 3
2
47 57
3 2 2 3
2
57 50
3 2 2 3
2
50 57
3 2 2 3
2
57 52
3 2 2 3
2
52 57
3 2 2 3
2
57 53
3 2 2 3
2
53 57
3 2 2 3
2
57 56
3 2 2 3
2
56 57
3 2 2 3
2
57 58
3 2 2 3
2
58 57
3 2 2 3
2
57 65
3 2 2 3
2
65 57
3 2 2 3
2
57 84
3 2 2 3
2
84 57
3 2 2 3
2
57 88
3 2 2 3
2
88 57
3 2 2 3
2
57 123
3 2 2 3
2
123 57
3 2 2 3
2
57 130
3 2 2 3
2
130 57
3 2 2 3
2
58 3
3 2 2 3
2
3 58
3 2 2 3
2
58 19
3 2 2 3
2
19 58
3 2 2 3
2
58 53
3 2 2 3
2
53 58
3 2 2 3
2
58 54
3 2 2 3
2
54 58
3 2 2 3
2
58 56
3 2 2 3
2
56 58
3 2 2 3
2
58 57
3 2 2 3
2
57 58
3 2 2 3
2
58 93
3 2 2 3
2
93 58
3 2 2 3
2
58 114
3 2 2 3
2
114 58
3 2 2 3
2
58 117
3 2 2 3
2
117 58
3 2 2 3
2
58 131
3 2 2 3
2
131 58
3 2 2 3
2
59 8
3 2 2 3
2
8 59
3 2 2 3
2
59 18
3 2 2 3
2
18 59
3 2 2 3
2
59 20
3 2 2 3
2
20 59
3 2 2 3
2
59 34
3 2 2 3
2
34 59
3 2 2 3
2
59 40
3 2 2 3
2
40 59
3 2 2 3
2
59 51
3 2 2 3
2
51 59
3 2 2 3
2
59 52
3 2 2 3
2
52 59
3 2 2 3
2
59 55
3 2 2 3
2
55 59
3 2 2 3
2
59 58
3 2 2 3
2
58 59
3 2 2 3
2
59 63
3 2 2 3
2
63 59
3 2 2 3
2
59 94
3 2 2 3
2
94 59
3 2 2 3
2
59 125
3 2 2 3
2
125 59
3 2 2 3
2
60 3
3 2 2 3
2
3 60
3 2 2 3
2
60 35
3 2 2 3
2
35 60
3 2 2 3
2
60 64
3 2 2 3
2
64 60
3 2 2 3
2
60 65
3 2 2 3
2
65 60
3 2 2 3
2
60 67
3 2 2 3
2
67 60
3 2 2 3
2
60 68
3 2 2 3
2
68 60
3 2 2 3
2
60 69
3 2 2 3
2
69 60
3 2 2 3
2
60 70
3 2 2 3
2
70 60
3 2 2 3
2
60 88
3 2 2 3
2
88 60
3 2 2 3
2
60 97
3 2 2 3
2
97 60
3 2 2 3
2
60 128
3 2 2 3
2
128 60
3 2 2 3
2
60 132
3 2 2 3
2
132 60
3 2 2 3
2
61 48
3 2 2 3
2
48 61
3 2 2 3
2
61 63
3 2 2 3
2
63 61
3 2 2 3
2
61 88
3 2 2 3
2
88 61
3 2 2 3
2
61 117
3 2 2 3
2
117 61
3 2 2 3
2
61 132
3 2 2 3
2
132 61
3 2 2 3
2
62 23
3 2 2 3
2
23 62
3 2 2 3
2
62 61
3 2 2 3
2
61 62
3 2 2 3
2
62 69
3 2 2 3
2
69 62
3 2 2 3
2
62 70
3 2 2 3
2
70 62
3 2 2 3
2
62 95
3 2 2 3
2
95 62
3 2 2 3
2
62 98
3 2 2 3
2
98 62
3 2 2 3
2
62 109
3 2 2 3
2
109 62
3 2 2 3
2
62 118
3 2 2 3
2
118 62
3 2 2 3
2
63 3
3 2 2 3
2
3 63
3 2 2 3
2
63 9
3 2 2 3
2
9 63
3 2 2 3
2
63 13
3 2 2 3
2
13 63
3 2 2 3
2
63 31
3 2 2 3
2
31 63
3 2 2 3
2
63 39
3 2 2 3
2
39 63
3 2 2 3
2
63 61
3 2 2 3
2
61 63
3 2 2 3
2
63 62
3 2 2 3
2
62 63
3 2 2 3
2
63 64
3 2 2 3
2
64 63
3 2 2 3
2
63 68
3 2 2 3
2
68 63
3 2 2 3
2
63 84
3 2 2 3
2
84 63
3 2 2 3
2
63 95
3 2 2 3
2
95 63
3 2 2 3
2
63 117
3 2 2 3
2
117 63
3 2 2 3
2
63 118
3 2 2 3
2
118 63
3 2 2 3
2
63 134
3 2 2 3
2
134 63
3 2 2 3
2
64 0
3 2 2 3
2
0 64
3 2 2 3
2
64 30
3 2 2 3
2
30 64
3 2 2 3
2
64 60
3 2 2 3
2
60 64
3 2 2 3
2
64 62
3 2 2 3
2
62 64
3 2 2 3
2
64 67
3 2 2 3
2
67 64
3 2 2 3
2
64 68
3 2 2 3
2
68 64
3 2 2 3
2
64 79
3 2 2 3
2
79 64
3 2 2 3
2
64 85
3 2 2 3
2
85 64
3 2 2 3
2
64 101
3 2 2 3
2
101 64
3 2 2 3
2
64 122
3 2 2 3
2
122 64
3 2 2 3
2
65 15
3 2 2 3
2
15 65
3 2 2 3
2
65 34
3 2 2 3
2
34 65
3 2 2 3
2
65 42
3 2 2 3
2
42 65
3 2 2 3
2
65 64
3 2 2 3
2
64 65
3 2 2 3
2
65 66
3 2 2 3
2
66 65
3 2 2 3
2
65 77
3 2 2 3
2
77 65
3 2 2 3
2
65 89
3 2 2 3
2
89 65
3 2 2 3
2
65 96
3 2 2 3
2
96 65
3 2 2 3
2
65 99
3 2 2 3
2
99 65
3 2 2 3
2
65 101
3 2 2 3
2
101 65
3 2 2 3
2
65 111
3 2 2 3
2
111 65
3 2 2 3
2
65 118
3 2 2 3
2
118 65
3 2 2 3
2
66 2
3 2 2 3
2
2 66
3 2 2 3
2
66 17
3 2 2 3
2
17 66
3 2 2 3
2
66 34
3 2 2 3
2
34 66
3 2 2 3
2
66 53
3 2 2 3
2
53 66
3 2 2 3
2
66 55
3 2 2 3
2
55 66
3 2 2 3
2
66 75
3 2 2 3
2
75 66
3 2 2 3
2
67 20
3 2 2 3
2
20 67
3 2 2 3
2
67 25
3 2 2 3
2
25 67
3 2 2 3
2
67 31
3 2 2 3
2
31 67
3 2 2 3
2
67 54
3 2 2 3
2
54 67
3 2 2 3
2
67 62
3 2 2 3
2
62 67
3 2 2 3
2
67 63
3 2 2 3
2
63 67
3 2 2 3
2
67 65
3 2 2 3
2
65 67
3 2 2 3
2
67 66
3 2 2 3
2
66 67
3 2 2 3
2
67 70
3 2 2 3
2
70 67
3 2 2 3
2
67 87
3 2 2 3
2
87 67
3 2 2 3
2
67 89
3 2 2 3
2
89 67
3 2 2 3
2
67 120
3 2 2 3
2
120 67
3 2 2 3
2
67 132
3 2 2 3
2
132 67
3 2 2 3
2
68 12
3 2 2 3
2
12 68
3 2 2 3
2
68 34
3 2 2 3
2
34 68
3 2 2 3
2
68 35
3 2 2 3
2
35 68
3 2 2 3
2
68 39
3 2 2 3
2
39 68
3 2 2 3
2
68 60
3 2 2 3
2
60 68
3 2 2 3
2
68 89
3 2 2 3
2
89 68
3 2 2 3
2
68 116
3 2 2 3
2
116 68
3 2 2 3
2
68 127
3 2 2 3
2
127 68
3 2 2 3
2
68 130
3 2 2 3
2
130 68
3 2 2 3
2
69 5
3 2 2 3
2
5 69
3 2 2 3
2
69 50
3 2 2 3
2
50 69
3 2 2 3
2
69 60
3 2 2 3
2
60 69
3 2 2 3
2
69 91
3 2 2 3
2
91 69
3 2 2 3
2
69 109
3 2 2 3
2
109 69
3 2 2 3
2
70 0
3 2 2 3
2
0 70
3 2 2 3
2
70 8
3 2 2 3
2
8 70
3 2 2 3
2
70 13
3 2 2 3
2
13 70
3 2 2 3
2
70 37
3 2 2 3
2
37 70
3 2 2 3
2
70 40
3 2 2 3
2
40 70
3 2 2 3
2
70 66
3 2 2 3
2
66 70
3 2 2 3
2
70 67
3 2 2 3
2
67 70
3 2 2 3
2
70 77
3 2 2 3
2
77 70
3 2 2 3
2
70 99
3 2 2 3
2
99 70
3 2 2 3
2
70 125
3 2 2 3
2
125 70
3 2 2 3
2
70 139
3 2 2 3
2
139 70
3 2 2 3
2
71 46
3 2 2 3
2
46 71
3 2 2 3
2
71 53
3 2 2 3
2
53 71
3 2 2 3
2
71 56
3 2 2 3
2
56 71
3 2 2 3
2
71 78
3 2 2 3
2
78 71
3 2 2 3
2
71 79
3 2 2 3
2
79 71
3 2 2 3
2
71 126
3 2 2 3
2
126 71
3 2 2 3
2
72 0
3 2 2 3
2
0 72
3 2 2 3
2
72 18
3 2 2 3
2
18 72
3 2 2 3
2
72 30
3 2 2 3
2
30 72
3 2 2 3
2
72 37
3 2 2 3
2
37 72
3 2 2 3
2
72 42
3 2 2 3
2
42 72
3 2 2 3
2
72 50
3 2 2 3
2
50 72
3 2 2 3
2
72 68
3 2 2 3
2
68 72
3 2 2 3
2
72 74
3 2 2 3
2
74 72
3 2 2 3
2
72 75
3 2 2 3
2
75 72
3 2 2 3
2
72 79
3 2 2 3
2
79 72
3 2 2 3
2
72 82
3 2 2 3
2
82 72
3 2 2 3
2
72 84
3 2 2 3
2
84 72
3 2 2 3
2
72 94
3 2 2 3
2
94 72
3 2 2 3
2
72 126
3 2 2 3
2
126 72
3 2 2 3
2
72 138
3 2 2 3
2
138 72
3 2 2 3
2
73 12
3 2 2 3
2
12 73
3 2 2 3
2
73 15
3 2 2 3
2
15 73
3 2 2 3
2
73 26
3 2 2 3
2
26 73
3 2 2 3
2
73 54
3 2 2 3
2
54 73
3 2 2 3
2
73 64
3 2 2 3
2
64 73
3 2 2 3
2
73 65
3 2 2 3
2
65 73
3 2 2 3
2
73 74
3 2 2 3
2
74 73
3 2 2 3
2
73 76
3 2 2 3
2
76 73
3 2 2 3
2
73 82
3 2 2 3
2
82 73
3 2 2 3
2
73 89
3 2 2 3
2
89 73
3 2 2 3
2
74 22
3 2 2 3
2
22 74
3 2 2 3
2
74 44
3 2 2 3
2
44 74
3 2 2 3
2
74 72
3 2 2 3
2
72 74
3 2 2 3
2
74 76
3 2 2 3
2
76 74
3 2 2 3
2
74 77
3 2 2 3
2
77 74
3 2 2 3
2
74 78
3 2 2 3
2
78 74
3 2 2 3
2
74 80
3 2 2 3
2
80 74
3 2 2 3
2
74 100
3 2 2 3
2
100 74
3 2 2 3
2
74 101
3 2 2 3
2
101 74
3 2 2 3
2
74 136
3 2 2 3
2
136 74
3 2 2 3
2
75 23
3 2 2 3
2
23 75
3 2 2 3
2
75 33
3 2 2 3
2
33 75
3 2 2 3
2
75 39
3 2 2 3
2
39 75
3 2 2 3
2
75 53
3 2 2 3
2
53 75
3 2 2 3
2
75 59
3 2 2 3
2
59 75
3 2 2 3
2
75 70
3 2 2 3
2
70 75
3 2 2 3
2
75 74
3 2 2 3
2
74 75
3 2 2 3
2
75 78
3 2 2 3
2
78 75
3 2 2 3
2
75 83
3 2 2 3
2
83 75
3 2 2 3
2
75 109
3 2 2 3
2
109 75
3 2 2 3
2
75 121
3 2 2 3
2
121 75
3 2 2 3
2
75 128
3 2 2 3
2
128 75
3 2 2 3
2
75 138
3 2 2 3
2
138 75
3 2 2 3
2
76 15
3 2 2 3
2
15 76
3 2 2 3
2
76 37
3 2 2 3
2
37 76
3 2 2 3
2
76 42
3 2 2 3
2
42 76
3 2 2 3
2
76 47
3 2 2 3
2
47 76
3 2 2 3
2
76 51
3 2 2 3
2
51 76
3 2 2 3
2
76 54
3 2 2 3
2
54 76
3 2 2 3
2
76 69
3 2 2 3
2
69 76
3 2 2 3
2
76 70
3 2 2 3
2
70 76
3 2 2 3
2
76 75
3 2 2 3
2
75 76
3 2 2 3
2
76 78
3 2 2 3
2
78 76
3 2 2 3
2
76 106
3 2 2 3
2
106 76
3 2 2 3
2
76 110
3 2 2 3
2
110 76
3 2 2 3
2
76 114
3 2 2 3
2
114 76
3 2 2 3
2
76 116
3 2 2 3
2
116 76
3 2 2 3
2
77 78
3 2 2 3
2
78 77
3 2 2 3
2
77 98
3 2 2 3
2
98 77
3 2 2 3
2
77 122
3 2 2 3
2
122 77
3 2 2 3
2
77 139
3 2 2 3
2
139 77
3 2 2 3
2
78 38
3 2 2 3
2
38 78
3 2 2 3
2
78 54
3 2 2 3
2
54 78
3 2 2 3
2
78 61
3 2 2 3
2
61 78
3 2 2 3
2
78 76
3 2 2 3
2
76 78
3 2 2 3
2
78 77
3 2 2 3
2
77 78
3 2 2 3
2
78 79
3 2 2 3
2
79 78
3 2 2 3
2
78 89
3 2 2 3
2
89 78
3 2 2 3
2
78 113
3 2 2 3
2
113 78
3 2 2 3
2
78 126
3 2 2 3
2
126 78
3 2 2 3
2
79 3
3 2 2 3
2
3 79
3 2 2 3
2
79 20
3 2 2 3
2
20 79
3 2 2 3
2
79 23
3 2 2 3
2
23 79
3 2 2 3
2
79 27
3 2 2 3
2
27 79
3 2 2 3
2
79 39
3 2 2 3
2
39 79
3 2 2 3
2
79 53
3 2 2 3
2
53 79
3 2 2 3
2
79 72
3 2 2 3
2
72 79
3 2 2 3
2
79 73
3 2 2 3
2
73 79
3 2 2 3
2
79 101
3 2 2 3
2
101 79
3 2 2 3
2
80 3
3 2 2 3
2
3 80
3 2 2 3
2
80 9
3 2 2 3
2
9 80
3 2 2 3
2
80 29
3 2 2 3
2
29 80
3 2 2 3
2
80 47
3 2 2 3
2
47 80
3 2 2 3
2
80 53
3 2 2 3
2
53 80
3 2 2 3
2
80 55
3 2 2 3
2
55 80
3 2 2 3
2
80 67
3 2 2 3
2
67 80
3 2 2 3
2
80 83
3 2 2 3
2
83 80
3 2 2 3
2
80 89
3 2 2 3
2
89 80
3 2 2 3
2
80 101
3 2 2 3
2
101 80
3 2 2 3
2
80 113
3 2 2 3
2
113 80
3 2 2 3
2
80 137
3 2 2 3
2
137 80
3 2 2 3
2
81 18
3 2 2 3
2
18 81
3 2 2 3
2
81 43
3 2 2 3
2
43 81
3 2 2 3
2
81 63
3 2 2 3
2
63 81
3 2 2 3
2
81 69
3 2 2 3
2
69 81
3 2 2 3
2
81 80
3 2 2 3
2
80 81
3 2 2 3
2
81 87
3 2 2 3
2
87 81
3 2 2 3
2
81 118
3 2 2 3
2
118 81
3 2 2 3
2
82 13
3 2 2 3
2
13 82
3 2 2 3
2
82 44
3 2 2 3
2
44 82
3 2 2 3
2
82 51
3 2 2 3
2
51 82
3 2 2 3
2
82 61
3 2 2 3
2
61 82
3 2 2 3
2
82 80
3 2 2 3
2
80 82
3 2 2 3
2
82 83
3 2 2 3
2
83 82
3 2 2 3
2
82 86
3 2 2 3
2
86 82
3 2 2 3
2
82 87
3 2 2 3
2
87 82
3 2 2 3
2
82 88
3 2 2 3
2
88 82
3 2 2 3
2
82 89
3 2 2 3
2
89 82
3 2 2 3
2
82 102
3 2 2 3
2
102 82
3 2 2 3
2
82 108
3 2 2 3
2
108 82
3 2 2 3
2
82 124
3 2 2 3
2
124 82
3 2 2 3
2
82 137
3 2 2 3
2
137 82
3 2 2 3
2
83 7
3 2 2 3
2
7 83
3 2 2 3
2
83 36
3 2 2 3
2
36 83
3 2 2 3
2
83 40
3 2 2 3
2
40 83
3 2 2 3
2
83 82
3 2 2 3
2
82 83
3 2 2 3
2
83 94
3 2 2 3
2
94 83
3 2 2 3
2
83 122
3 2 2 3
2
122 83
3 2 2 3
2
83 123
3 2 2 3
2
123 83
3 2 2 3
2
83 137
3 2 2 3
2
137 83
3 2 2 3
2
84 80
3 2 2 3
2
80 84
3 2 2 3
2
84 82
3 2 2 3
2
82 84
3 2 2 3
2
84 85
3 2 2 3
2
85 84
3 2 2 3
2
84 86
3 2 2 3
2
86 84
3 2 2 3
2
84 116
3 2 2 3
2
116 84
3 2 2 3
2
84 120
3 2 2 3
2
120 84
3 2 2 3
2
85 15
3 2 2 3
2
15 85
3 2 2 3
2
85 24
3 2 2 3
2
24 85
3 2 2 3
2
85 27
3 2 2 3
2
27 85
3 2 2 3
2
85 41
3 2 2 3
2
41 85
3 2 2 3
2
85 50
3 2 2 3
2
50 85
3 2 2 3
2
85 67
3 2 2 3
2
67 85
3 2 2 3
2
85 73
3 2 2 3
2
73 85
3 2 2 3
2
85 80
3 2 2 3
2
80 85
3 2 2 3
2
85 81
3 2 2 3
2
81 85
3 2 2 3
2
85 93
3 2 2 3
2
93 85
3 2 2 3
2
85 101
3 2 2 3
2
101 85
3 2 2 3
2
86 18
3 2 2 3
2
18 86
3 2 2 3
2
86 51
3 2 2 3
2
51 86
3 2 2 3
2
86 65
3 2 2 3
2
65 86
3 2 2 3
2
86 87
3 2 2 3
2
87 86
3 2 2 3
2
87 15
3 2 2 3
2
15 87
3 2 2 3
2
87 35
3 2 2 3
2
35 87
3 2 2 3
2
87 41
3 2 2 3
2
41 87
3 2 2 3
2
87 51
3 2 2 3
2
51 87
3 2 2 3
2
87 65
3 2 2 3
2
65 87
3 2 2 3
2
87 73
3 2 2 3
2
73 87
3 2 2 3
2
87 82
3 2 2 3
2
82 87
3 2 2 3
2
87 84
3 2 2 3
2
84 87
3 2 2 3
2
87 93
3 2 2 3
2
93 87
3 2 2 3
2
87 105
3 2 2 3
2
105 87
3 2 2 3
2
87 134
3 2 2 3
2
134 87
3 2 2 3
2
88 24
3 2 2 3
2
24 88
3 2 2 3
2
88 44
3 2 2 3
2
44 88
3 2 2 3
2
88 68
3 2 2 3
2
68 88
3 2 2 3
2
88 80
3 2 2 3
2
80 88
3 2 2 3
2
88 81
3 2 2 3
2
81 88
3 2 2 3
2
88 84
3 2 2 3
2
84 88
3 2 2 3
2
88 86
3 2 2 3
2
86 88
3 2 2 3
2
88 89
3 2 2 3
2
89 88
3 2 2 3
2
88 139
3 2 2 3
2
139 88
3 2 2 3
2
89 1
3 2 2 3
2
1 89
3 2 2 3
2
89 5
3 2 2 3
2
5 89
3 2 2 3
2
89 35
3 2 2 3
2
35 89
3 2 2 3
2
89 46
3 2 2 3
2
46 89
3 2 2 3
2
89 79
3 2 2 3
2
79 89
3 2 2 3
2
89 80
3 2 2 3
2
80 89
3 2 2 3
2
89 81
3 2 2 3
2
81 89
3 2 2 3
2
89 83
3 2 2 3
2
83 89
3 2 2 3
2
89 86
3 2 2 3
2
86 89
3 2 2 3
2
89 106
3 2 2 3
2
106 89
3 2 2 3
2
89 109
3 2 2 3
2
109 89
3 2 2 3
2
89 117
3 2 2 3
2
117 89
3 2 2 3
2
89 118
3 2 2 3
2
118 89
3 2 2 3
2
90 2
3 2 2 3
2
2 90
3 2 2 3
2
90 9
3 2 2 3
2
9 90
3 2 2 3
2
90 21
3 2 2 3
2
21 90
3 2 2 3
2
90 31
3 2 2 3
2
31 90
3 2 2 3
2
90 59
3 2 2 3
2
59 90
3 2 2 3
2
90 79
3 2 2 3
2
79 90
3 2 2 3
2
90 93
3 2 2 3
2
93 90
3 2 2 3
2
90 116
3 2 2 3
2
116 90
3 2 2 3
2
90 119
3 2 2 3
2
119 90
3 2 2 3
2
90 136
3 2 2 3
2
136 90
3 2 2 3
2
91 4
3 2 2 3
2
4 91
3 2 2 3
2
91 90
3 2 2 3
2
90 91
3 2 2 3
2
91 92
3 2 2 3
2
92 91
3 2 2 3
2
91 95
3 2 2 3
2
95 91
3 2 2 3
2
91 97
3 2 2 3
2
97 91
3 2 2 3
2
91 99
3 2 2 3
2
99 91
3 2 2 3
2
91 115
3 2 2 3
2
115 91
3 2 2 3
2
91 127
3 2 2 3
2
127 91
3 2 2 3
2
92 0
3 2 2 3
2
0 92
3 2 2 3
2
92 2
3 2 2 3
2
2 92
3 2 2 3
2
92 13
3 2 2 3
2
13 92
3 2 2 3
2
92 50
3 2 2 3
2
50 92
3 2 2 3
2
92 52
3 2 2 3
2
52 92
3 2 2 3
2
92 81
3 2 2 3
2
81 92
3 2 2 3
2
92 90
3 2 2 3
2
90 92
3 2 2 3
2
92 93
3 2 2 3
2
93 92
3 2 2 3
2
92 94
3 2 2 3
2
94 92
3 2 2 3
2
92 95
3 2 2 3
2
95 92
3 2 2 3
2
92 98
3 2 2 3
2
98 92
3 2 2 3
2
92 99
3 2 2 3
2
99 92
3 2 2 3
2
92 117
3 2 2 3
2
117 92
3 2 2 3
2
92 120
3 2 2 3
2
120 92
3 2 2 3
2
92 122
3 2 2 3
2
122 92
3 2 2 3
2
92 124
3 2 2 3
2
124 92
3 2 2 3
2
93 5
3 2 2 3
2
5 93
3 2 2 3
2
93 6
3 2 2 3
2
6 93
3 2 2 3
2
93 12
3 2 2 3
2
12 93
3 2 2 3
2
93 14
3 2 2 3
2
14 93
3 2 2 3
2
93 47
3 2 2 3
2
47 93
3 2 2 3
2
93 60
3 2 2 3
2
60 93
3 2 2 3
2
93 88
3 2 2 3
2
88 93
3 2 2 3
2
93 99
3 2 2 3
2
99 93
3 2 2 3
2
93 106
3 2 2 3
2
106 93
3 2 2 3
2
93 117
3 2 2 3
2
117 93
3 2 2 3
2
93 121
3 2 2 3
2
121 93
3 2 2 3
2
94 12
3 2 2 3
2
12 94
3 2 2 3
2
94 48
3 2 2 3
2
48 94
3 2 2 3
2
94 78
3 2 2 3
2
78 94
3 2 2 3
2
94 92
3 2 2 3
2
92 94
3 2 2 3
2
94 95
3 2 2 3
2
95 94
3 2 2 3
2
94 112
3 2 2 3
2
112 94
3 2 2 3
2
94 119
3 2 2 3
2
119 94
3 2 2 3
2
94 128
3 2 2 3
2
128 94
3 2 2 3
2
94 133
3 2 2 3
2
133 94
3 2 2 3
2
95 12
3 2 2 3
2
12 95
3 2 2 3
2
95 23
3 2 2 3
2
23 95
3 2 2 3
2
95 37
3 2 2 3
2
37 95
3 2 2 3
2
95 51
3 2 2 3
2
51 95
3 2 2 3
2
95 64
3 2 2 3
2
64 95
3 2 2 3
2
95 90
3 2 2 3
2
90 95
3 2 2 3
2
95 92
3 2 2 3
2
92 95
3 2 2 3
2
95 100
3 2 2 3
2
100 95
3 2 2 3
2
95 128
3 2 2 3
2
128 95
3 2 2 3
2
95 129
3 2 2 3
2
129 95
3 2 2 3
2
96 7
3 2 2 3
2
7 96
3 2 2 3
2
96 59
3 2 2 3
2
59 96
3 2 2 3
2
96 90
3 2 2 3
2
90 96
3 2 2 3
2
96 92
3 2 2 3
2
92 96
3 2 2 3
2
96 93
3 2 2 3
2
93 96
3 2 2 3
2
96 95
3 2 2 3
2
95 96
3 2 2 3
2
96 98
3 2 2 3
2
98 96
3 2 2 3
2
96 99
3 2 2 3
2
99 96
3 2 2 3
2
96 100
3 2 2 3
2
100 96
3 2 2 3
2
96 103
3 2 2 3
2
103 96
3 2 2 3
2
96 132
3 2 2 3
2
132 96
3 2 2 3
2
97 28
3 2 2 3
2
28 97
3 2 2 3
2
97 49
3 2 2 3
2
49 97
3 2 2 3
2
97 57
3 2 2 3
2
57 97
3 2 2 3
2
97 66
3 2 2 3
2
66 97
3 2 2 3
2
97 99
3 2 2 3
2
99 97
3 2 2 3
2
97 102
3 2 2 3
2
102 97
3 2 2 3
2
97 109
3 2 2 3
2
109 97
3 2 2 3
2
98 2
3 2 2 3
2
2 98
3 2 2 3
2
98 50
3 2 2 3
2
50 98
3 2 2 3
2
98 90
3 2 2 3
2
90 98
3 2 2 3
2
98 94
3 2 2 3
2
94 98
3 2 2 3
2
98 96
3 2 2 3
2
96 98
3 2 2 3
2
98 99
3 2 2 3
2
99 98
3 2 2 3
2
98 106
3 2 2 3
2
106 98
3 2 2 3
2
98 129
3 2 2 3
2
129 98
3 2 2 3
2
98 131
3 2 2 3
2
131 98
3 2 2 3
2
99 5
3 2 2 3
2
5 99
3 2 2 3
2
99 27
3 2 2 3
2
27 99
3 2 2 3
2
99 33
3 2 2 3
2
33 99
3 2 2 3
2
99 39
3 2 2 3
2
39 99
3 2 2 3
2
99 84
3 2 2 3
2
84 99
3 2 2 3
2
99 90
3 2 2 3
2
90 99
3 2 2 3
2
99 128
3 2 2 3
2
128 99
3 2 2 3
2
99 137
3 2 2 3
2
137 99
3 2 2 3
2
100 32
3 2 2 3
2
32 100
3 2 2 3
2
100 70
3 2 2 3
2
70 100
3 2 2 3
2
100 73
3 2 2 3
2
73 100
3 2 2 3
2
100 89
3 2 2 3
2
89 100
3 2 2 3
2
100 102
3 2 2 3
2
102 100
3 2 2 3
2
100 116
3 2 2 3
2
116 100
3 2 2 3
2
100 118
3 2 2 3
2
118 100
3 2 2 3
2
100 125
3 2 2 3
2
125 100
3 2 2 3
2
101 36
3 2 2 3
2
36 101
3 2 2 3
2
101 42
3 2 2 3
2
42 101
3 2 2 3
2
101 100
3 2 2 3
2
100 101
3 2 2 3
2
101 102
3 2 2 3
2
102 101
3 2 2 3
2
101 107
3 2 2 3
2
107 101
3 2 2 3
2
101 108
3 2 2 3
2
108 101
3 2 2 3
2
101 112
3 2 2 3
2
112 101
3 2 2 3
2
101 115
3 2 2 3
2
115 101
3 2 2 3
2
102 19
3 2 2 3
2
19 102
3 2 2 3
2
102 53
3 2 2 3
2
53 102
3 2 2 3
2
102 54
3 2 2 3
2
54 102
3 2 2 3
2
102 62
3 2 2 3
2
62 102
3 2 2 3
2
102 68
3 2 2 3
2
68 102
3 2 2 3
2
102 69
3 2 2 3
2
69 102
3 2 2 3
2
102 71
3 2 2 3
2
71 102
3 2 2 3
2
102 92
3 2 2 3
2
92 102
3 2 2 3
2
102 101
3 2 2 3
2
101 102
3 2 2 3
2
102 104
3 2 2 3
2
104 102
3 2 2 3
2
102 109
3 2 2 3
2
109 102
3 2 2 3
2
102 120
3 2 2 3
2
120 102
3 2 2 3
2
102 124
3 2 2 3
2
124 102
3 2 2 3
2
103 16
3 2 2 3
2
16 103
3 2 2 3
2
103 17
3 2 2 3
2
17 103
3 2 2 3
2
103 30
3 2 2 3
2
30 103
3 2 2 3
2
103 33
3 2 2 3
2
33 103
3 2 2 3
2
103 80
3 2 2 3
2
80 103
3 2 2 3
2
103 86
3 2 2 3
2
86 103
3 2 2 3
2
103 105
3 2 2 3
2
105 103
3 2 2 3
2
103 107
3 2 2 3
2
107 103
3 2 2 3
2
103 108
3 2 2 3
2
108 103
3 2 2 3
2
104 34
3 2 2 3
2
34 104
3 2 2 3
2
104 46
3 2 2 3
2
46 104
3 2 2 3
2
104 74
3 2 2 3
2
74 104
3 2 2 3
2
104 76
3 2 2 3
2
76 104
3 2 2 3
2
104 80
3 2 2 3
2
80 104
3 2 2 3
2
104 94
3 2 2 3
2
94 104
3 2 2 3
2
104 108
3 2 2 3
2
108 104
3 2 2 3
2
105 9
3 2 2 3
2
9 105
3 2 2 3
2
105 74
3 2 2 3
2
74 105
3 2 2 3
2
105 92
3 2 2 3
2
92 105
3 2 2 3
2
105 97
3 2 2 3
2
97 105
3 2 2 3
2
105 101
3 2 2 3
2
101 105
3 2 2 3
2
105 106
3 2 2 3
2
106 105
3 2 2 3
2
105 107
3 2 2 3
2
107 105
3 2 2 3
2
105 109
3 2 2 3
2
109 105
3 2 2 3
2
105 112
3 2 2 3
2
112 105
3 2 2 3
2
106 8
3 2 2 3
2
8 106
3 2 2 3
2
106 11
3 2 2 3
2
11 106
3 2 2 3
2
106 47
3 2 2 3
2
47 106
3 2 2 3
2
106 50
3 2 2 3
2
50 106
3 2 2 3
2
106 51
3 2 2 3
2
51 106
3 2 2 3
2
106 70
3 2 2 3
2
70 106
3 2 2 3
2
106 100
3 2 2 3
2
100 106
3 2 2 3
2
106 102
3 2 2 3
2
102 106
3 2 2 3
2
106 104
3 2 2 3
2
104 106
3 2 2 3
2
106 108
3 2 2 3
2
108 106
3 2 2 3
2
106 109
3 2 2 3
2
109 106
3 2 2 3
2
106 120
3 2 2 3
2
120 106
3 2 2 3
2
106 126
3 2 2 3
2
126 106
3 2 2 3
2
106 129
3 2 2 3
2
129 106
3 2 2 3
2
106 137
3 2 2 3
2
137 106
3 2 2 3
2
107 4
3 2 2 3
2
4 107
3 2 2 3
2
107 76
3 2 2 3
2
76 107
3 2 2 3
2
107 105
3 2 2 3
2
105 107
3 2 2 3
2
108 5
3 2 2 3
2
5 108
3 2 2 3
2
108 34
3 2 2 3
2
34 108
3 2 2 3
2
108 36
3 2 2 3
2
36 108
3 2 2 3
2
108 52
3 2 2 3
2
52 108
3 2 2 3
2
108 73
3 2 2 3
2
73 108
3 2 2 3
2
108 79
3 2 2 3
2
79 108
3 2 2 3
2
108 90
3 2 2 3
2
90 108
3 2 2 3
2
108 94
3 2 2 3
2
94 108
3 2 2 3
2
108 102
3 2 2 3
2
102 108
3 2 2 3
2
108 103
3 2 2 3
2
103 108
3 2 2 3
2
108 107
3 2 2 3
2
107 108
3 2 2 3
2
108 117
3 2 2 3
2
117 108
3 2 2 3
2
109 4
3 2 2 3
2
4 109
3 2 2 3
2
109 24
3 2 2 3
2
24 109
3 2 2 3
2
109 31
3 2 2 3
2
31 109
3 2 2 3
2
109 33
3 2 2 3
2
33 109
3 2 2 3
2
109 51
3 2 2 3
2
51 109
3 2 2 3
2
109 91
3 2 2 3
2
91 109
3 2 2 3
2
109 97
3 2 2 3
2
97 109
3 2 2 3
2
109 100
3 2 2 3
2
100 109
3 2 2 3
2
109 105
3 2 2 3
2
105 109
3 2 2 3
2
109 108
3 2 2 3
2
108 109
3 2 2 3
2
109 124
3 2 2 3
2
124 109
3 2 2 3
2
110 38
3 2 2 3
2
38 110
3 2 2 3
2
110 51
3 2 2 3
2
51 110
3 2 2 3
2
110 53
3 2 2 3
2
53 110
3 2 2 3
2
110 65
3 2 2 3
2
65 110
3 2 2 3
2
110 85
3 2 2 3
2
85 110
3 2 2 3
2
110 92
3 2 2 3
2
92 110
3 2 2 3
2
110 114
3 2 2 3
2
114 110
3 2 2 3
2
110 117
3 2 2 3
2
117 110
3 2 2 3
2
110 118
3 2 2 3
2
118 110
3 2 2 3
2
110 119
3 2 2 3
2
119 110
3 2 2 3
2
110 129
3 2 2 3
2
129 110
3 2 2 3
2
110 139
3 2 2 3
2
139 110
3 2 2 3
2
111 2
3 2 2 3
2
2 111
3 2 2 3
2
111 12
3 2 2 3
2
12 111
3 2 2 3
2
111 21
3 2 2 3
2
21 111
3 2 2 3
2
111 26
3 2 2 3
2
26 111
3 2 2 3
2
111 54
3 2 2 3
2
54 111
3 2 2 3
2
111 115
3 2 2 3
2
115 111
3 2 2 3
2
111 116
3 2 2 3
2
116 111
3 2 2 3
2
111 124
3 2 2 3
2
124 111
3 2 2 3
2
111 133
3 2 2 3
2
133 111
3 2 2 3
2
112 69
3 2 2 3
2
69 112
3 2 2 3
2
112 73
3 2 2 3
2
73 112
3 2 2 3
2
112 111
3 2 2 3
2
111 112
3 2 2 3
2
112 118
3 2 2 3
2
118 112
3 2 2 3
2
112 119
3 2 2 3
2
119 112
3 2 2 3
2
113 28
3 2 2 3
2
28 113
3 2 2 3
2
113 37
3 2 2 3
2
37 113
3 2 2 3
2
113 39
3 2 2 3
2
39 113
3 2 2 3
2
113 56
3 2 2 3
2
56 113
3 2 2 3
2
113 71
3 2 2 3
2
71 113
3 2 2 3
2
113 75
3 2 2 3
2
75 113
3 2 2 3
2
113 97
3 2 2 3
2
97 113
3 2 2 3
2
113 111
3 2 2 3
2
111 113
3 2 2 3
2
113 117
3 2 2 3
2
117 113
3 2 2 3
2
113 118
3 2 2 3
2
118 113
3 2 2 3
2
113 119
3 2 2 3
2
119 113
3 2 2 3
2
114 62
3 2 2 3
2
62 114
3 2 2 3
2
114 70
3 2 2 3
2
70 114
3 2 2 3
2
114 110
3 2 2 3
2
110 114
3 2 2 3
2
115 39
3 2 2 3
2
39 115
3 2 2 3
2
115 47
3 2 2 3
2
47 115
3 2 2 3
2
115 70
3 2 2 3
2
70 115
3 2 2 3
2
115 90
3 2 2 3
2
90 115
3 2 2 3
2
115 110
3 2 2 3
2
110 115
3 2 2 3
2
115 112
3 2 2 3
2
112 115
3 2 2 3
2
115 116
3 2 2 3
2
116 115
3 2 2 3
2
115 118
3 2 2 3
2
118 115
3 2 2 3
2
116 0
3 2 2 3
2
0 116
3 2 2 3
2
116 4
3 2 2 3
2
4 116
3 2 2 3
2
116 30
3 2 2 3
2
30 116
3 2 2 3
2
116 35
3 2 2 3
2
35 116
3 2 2 3
2
116 39
3 2 2 3
2
39 116
3 2 2 3
2
116 47
3 2 2 3
2
47 116
3 2 2 3
2
116 80
3 2 2 3
2
80 116
3 2 2 3
2
116 92
3 2 2 3
2
92 116
3 2 2 3
2
116 107
3 2 2 3
2
107 116
3 2 2 3
2
116 110
3 2 2 3
2
110 116
3 2 2 3
2
116 115
3 2 2 3
2
115 116
3 2 2 3
2
116 119
3 2 2 3
2
119 116
3 2 2 3
2
117 5
3 2 2 3
2
5 117
3 2 2 3
2
117 10
3 2 2 3
2
10 117
3 2 2 3
2
117 17
3 2 2 3
2
17 117
3 2 2 3
2
117 53
3 2 2 3
2
53 117
3 2 2 3
2
117 59
3 2 2 3
2
59 117
3 2 2 3
2
117 101
3 2 2 3
2
101 117
3 2 2 3
2
117 136
3 2 2 3
2
136 117
3 2 2 3
2
118 38
3 2 2 3
2
38 118
3 2 2 3
2
118 41
3 2 2 3
2
41 118
3 2 2 3
2
118 42
3 2 2 3
2
42 118
3 2 2 3
2
118 56
3 2 2 3
2
56 118
3 2 2 3
2
118 62
3 2 2 3
2
62 118
3 2 2 3
2
118 63
3 2 2 3
2
63 118
3 2 2 3
2
118 110
3 2 2 3
2
110 118
3 2 2 3
2
118 113
3 2 2 3
2
113 118
3 2 2 3
2
118 116
3 2 2 3
2
116 118
3 2 2 3
2
118 133
3 2 2 3
2
133 118
3 2 2 3
2
119 6
3 2 2 3
2
6 119
3 2 2 3
2
119 7
3 2 2 3
2
7 119
3 2 2 3
2
119 20
3 2 2 3
2
20 119
3 2 2 3
2
119 38
3 2 2 3
2
38 119
3 2 2 3
2
119 51
3 2 2 3
2
51 119
3 2 2 3
2
119 56
3 2 2 3
2
56 119
3 2 2 3
2
119 64
3 2 2 3
2
64 119
3 2 2 3
2
119 103
3 2 2 3
2
103 119
3 2 2 3
2
119 111
3 2 2 3
2
111 119
3 2 2 3
2
120 87
3 2 2 3
2
87 120
3 2 2 3
2
120 103
3 2 2 3
2
103 120
3 2 2 3
2
120 123
3 2 2 3
2
123 120
3 2 2 3
2
120 126
3 2 2 3
2
126 120
3 2 2 3
2
120 131
3 2 2 3
2
131 120
3 2 2 3
2
120 138
3 2 2 3
2
138 120
3 2 2 3
2
121 2
3 2 2 3
2
2 121
3 2 2 3
2
121 12
3 2 2 3
2
12 121
3 2 2 3
2
121 28
3 2 2 3
2
28 121
3 2 2 3
2
121 83
3 2 2 3
2
83 121
3 2 2 3
2
121 111
3 2 2 3
2
111 121
3 2 2 3
2
121 124
3 2 2 3
2
124 121
3 2 2 3
2
121 125
3 2 2 3
2
125 121
3 2 2 3
2
121 129
3 2 2 3
2
129 121
3 2 2 3
2
121 133
3 2 2 3
2
133 121
3 2 2 3
2
121 135
3 2 2 3
2
135 121
3 2 2 3
2
122 26
3 2 2 3
2
26 122
3 2 2 3
2
122 109
3 2 2 3
2
109 122
3 2 2 3
2
122 116
3 2 2 3
2
116 122
3 2 2 3
2
122 124
3 2 2 3
2
124 122
3 2 2 3
2
122 127
3 2 2 3
2
127 122
3 2 2 3
2
122 129
3 2 2 3
2
129 122
3 2 2 3
2
123 1
3 2 2 3
2
1 123
3 2 2 3
2
123 2
3 2 2 3
2
2 123
3 2 2 3
2
123 34
3 2 2 3
2
34 123
3 2 2 3
2
123 69
3 2 2 3
2
69 123
3 2 2 3
2
123 78
3 2 2 3
2
78 123
3 2 2 3
2
123 99
3 2 2 3
2
99 123
3 2 2 3
2
123 101
3 2 2 3
2
101 123
3 2 2 3
2
123 124
3 2 2 3
2
124 123
3 2 2 3
2
123 130
3 2 2 3
2
130 123
3 2 2 3
2
124 1
3 2 2 3
2
1 124
3 2 2 3
2
124 17
3 2 2 3
2
17 124
3 2 2 3
2
124 26
3 2 2 3
2
26 124
3 2 2 3
2
124 47
3 2 2 3
2
47 124
3 2 2 3
2
124 61
3 2 2 3
2
61 124
3 2 2 3
2
124 67
3 2 2 3
2
67 124
3 2 2 3
2
124 78
3 2 2 3
2
78 124
3 2 2 3
2
124 101
3 2 2 3
2
101 124
3 2 2 3
2
124 120
3 2 2 3
2
120 124
3 2 2 3
2
124 121
3 2 2 3
2
121 124
3 2 2 3
2
124 123
3 2 2 3
2
123 124
3 2 2 3
2
124 128
3 2 2 3
2
128 124
3 2 2 3
2
124 129
3 2 2 3
2
129 124
3 2 2 3
2
124 135
3 2 2 3
2
135 124
3 2 2 3
2
125 29
3 2 2 3
2
29 125
3 2 2 3
2
125 65
3 2 2 3
2
65 125
3 2 2 3
2
125 78
3 2 2 3
2
78 125
3 2 2 3
2
125 100
3 2 2 3
2
100 125
3 2 2 3
2
125 121
3 2 2 3
2
121 125
3 2 2 3
2
125 124
3 2 2 3
2
124 125
3 2 2 3
2
125 129
3 2 2 3
2
129 125
3 2 2 3
2
126 15
3 2 2 3
2
15 126
3 2 2 3
2
126 30
3 2 2 3
2
30 126
3 2 2 3
2
126 32
3 2 2 3
2
32 126
3 2 2 3
2
126 35
3 2 2 3
2
35 126
3 2 2 3
2
126 45
3 2 2 3
2
45 126
3 2 2 3
2
126 87
3 2 2 3
2
87 126
3 2 2 3
2
126 108
3 2 2 3
2
108 126
3 2 2 3
2
126 122
3 2 2 3
2
122 126
3 2 2 3
2
126 124
3 2 2 3
2
124 126
3 2 2 3
2
126 125
3 2 2 3
2
125 126
3 2 2 3
2
126 128
3 2 2 3
2
128 126
3 2 2 3
2
126 129
3 2 2 3
2
129 126
3 2 2 3
2
127 0
3 2 2 3
2
0 127
3 2 2 3
2
127 8
3 2 2 3
2
8 127
3 2 2 3
2
127 11
3 2 2 3
2
11 127
3 2 2 3
2
127 20
3 2 2 3
2
20 127
3 2 2 3
2
127 46
3 2 2 3
2
46 127
3 2 2 3
2
127 57
3 2 2 3
2
57 127
3 2 2 3
2
127 58
3 2 2 3
2
58 127
3 2 2 3
2
127 61
3 2 2 3
2
61 127
3 2 2 3
2
127 65
3 2 2 3
2
65 127
3 2 2 3
2
127 71
3 2 2 3
2
71 127
3 2 2 3
2
127 73
3 2 2 3
2
73 127
3 2 2 3
2
127 81
3 2 2 3
2
81 127
3 2 2 3
2
127 111
3 2 2 3
2
111 127
3 2 2 3
2
127 114
3 2 2 3
2
114 127
3 2 2 3
2
127 126
3 2 2 3
2
126 127
3 2 2 3
2
127 129
3 2 2 3
2
129 127
3 2 2 3
2
128 25
3 2 2 3
2
25 128
3 2 2 3
2
128 36
3 2 2 3
2
36 128
3 2 2 3
2
128 47
3 2 2 3
2
47 128
3 2 2 3
2
128 64
3 2 2 3
2
64 128
3 2 2 3
2
128 90
3 2 2 3
2
90 128
3 2 2 3
2
128 121
3 2 2 3
2
121 128
3 2 2 3
2
128 124
3 2 2 3
2
124 128
3 2 2 3
2
128 125
3 2 2 3
2
125 128
3 2 2 3
2
129 40
3 2 2 3
2
40 129
3 2 2 3
2
129 64
3 2 2 3
2
64 129
3 2 2 3
2
129 76
3 2 2 3
2
76 129
3 2 2 3
2
129 86
3 2 2 3
2
86 129
3 2 2 3
2
129 123
3 2 2 3
2
123 129
3 2 2 3
2
129 126
3 2 2 3
2
126 129
3 2 2 3
2
129 128
3 2 2 3
2
128 129
3 2 2 3
2
130 2
3 2 2 3
2
2 130
3 2 2 3
2
130 41
3 2 2 3
2
41 130
3 2 2 3
2
130 76
3 2 2 3
2
76 130
3 2 2 3
2
130 97
3 2 2 3
2
97 130
3 2 2 3
2
130 98
3 2 2 3
2
98 130
3 2 2 3
2
130 132
3 2 2 3
2
132 130
3 2 2 3
2
130 139
3 2 2 3
2
139 130
3 2 2 3
2
131 7
3 2 2 3
2
7 131
3 2 2 3
2
131 48
3 2 2 3
2
48 131
3 2 2 3
2
131 61
3 2 2 3
2
61 131
3 2 2 3
2
131 87
3 2 2 3
2
87 131
3 2 2 3
2
131 105
3 2 2 3
2
105 131
3 2 2 3
2
131 115
3 2 2 3
2
115 131
3 2 2 3
2
131 116
3 2 2 3
2
116 131
3 2 2 3
2
131 124
3 2 2 3
2
124 131
3 2 2 3
2
131 136
3 2 2 3
2
136 131
3 2 2 3
2
131 139
3 2 2 3
2
139 131
3 2 2 3
2
132 1
3 2 2 3
2
1 132
3 2 2 3
2
132 14
3 2 2 3
2
14 132
3 2 2 3
2
132 69
3 2 2 3
2
69 132
3 2 2 3
2
132 77
3 2 2 3
2
77 132
3 2 2 3
2
132 83
3 2 2 3
2
83 132
3 2 2 3
2
132 94
3 2 2 3
2
94 132
3 2 2 3
2
132 114
3 2 2 3
2
114 132
3 2 2 3
2
132 130
3 2 2 3
2
130 132
3 2 2 3
2
132 134
3 2 2 3
2
134 132
3 2 2 3
2
133 22
3 2 2 3
2
22 133
3 2 2 3
2
133 38
3 2 2 3
2
38 133
3 2 2 3
2
133 130
3 2 2 3
2
130 133
3 2 2 3
2
133 132
3 2 2 3
2
132 133
3 2 2 3
2
133 139
3 2 2 3
2
139 133
3 2 2 3
2
134 10
3 2 2 3
2
10 134
3 2 2 3
2
134 100
3 2 2 3
2
100 134
3 2 2 3
2
134 126
3 2 2 3
2
126 134
3 2 2 3
2
134 128
3 2 2 3
2
128 134
3 2 2 3
2
134 131
3 2 2 3
2
131 134
3 2 2 3
2
134 133
3 2 2 3
2
133 134
3 2 2 3
2
135 22
3 2 2 3
2
22 135
3 2 2 3
2
135 32
3 2 2 3
2
32 135
3 2 2 3
2
135 45
3 2 2 3
2
45 135
3 2 2 3
2
135 58
3 2 2 3
2
58 135
3 2 2 3
2
135 65
3 2 2 3
2
65 135
3 2 2 3
2
135 105
3 2 2 3
2
105 135
3 2 2 3
2
135 108
3 2 2 3
2
108 135
3 2 2 3
2
135 139
3 2 2 3
2
139 135
3 2 2 3
2
136 48
3 2 2 3
2
48 136
3 2 2 3
2
136 51
3 2 2 3
2
51 136
3 2 2 3
2
136 82
3 2 2 3
2
82 136
3 2 2 3
2
136 87
3 2 2 3
2
87 136
3 2 2 3
2
136 104
3 2 2 3
2
104 136
3 2 2 3
2
136 113
3 2 2 3
2
113 136
3 2 2 3
2
136 131
3 2 2 3
2
131 136
3 2 2 3
2
136 132
3 2 2 3
2
132 136
3 2 2 3
2
137 29
3 2 2 3
2
29 137
3 2 2 3
2
137 33
3 2 2 3
2
33 137
3 2 2 3
2
137 42
3 2 2 3
2
42 137
3 2 2 3
2
137 44
3 2 2 3
2
44 137
3 2 2 3
2
137 51
3 2 2 3
2
51 137
3 2 2 3
2
137 81
3 2 2 3
2
81 137
3 2 2 3
2
137 93
3 2 2 3
2
93 137
3 2 2 3
2
137 96
3 2 2 3
2
96 137
3 2 2 3
2
137 132
3 2 2 3
2
132 137
3 2 2 3
2
137 138
3 2 2 3
2
138 137
3 2 2 3
2
137 139
3 2 2 3
2
139 137
3 2 2 3
2
138 43
3 2 2 3
2
43 138
3 2 2 3
2
138 48
3 2 2 3
2
48 138
3 2 2 3
2
138 54
3 2 2 3
2
54 138
3 2 2 3
2
138 58
3 2 2 3
2
58 138
3 2 2 3
2
138 74
3 2 2 3
2
74 138
3 2 2 3
2
138 105
3 2 2 3
2
105 138
3 2 2 3
2
138 124
3 2 2 3
2
124 138
3 2 2 3
2
138 134
3 2 2 3
2
134 138
3 2 2 3
2
138 135
3 2 2 3
2
135 138
3 2 2 3
2
138 136
3 2 2 3
2
136 138
3 2 2 3
2
138 139
3 2 2 3
2
139 138
3 2 2 3
2
139 1
3 2 2 3
2
1 139
3 2 2 3
2
139 2
3 2 2 3
2
2 139
3 2 2 3
2
139 89
3 2 2 3
2
89 139
3 2 2 3
2
139 92
3 2 2 3
2
92 139
3 2 2 3
2
139 122
3 2 2 3
2
122 139
3 2 2 3
2
139 130
3 2 2 3
2
130 139
3 2 2 3
2
139 133
3 2 2 3
2
133 139
3 2 2 3
2
139 134
3 2 2 3
2
134 139
3 2 2 3
