140 2516
2
0 3
3 2 2 3
2
3 0
3 2 2 3
2
0 54
3 2 2 3
2
54 0
3 2 2 3
2
0 64
3 2 2 3
2
64 0
3 2 2 3
2
0 70
3 2 2 3
2
70 0
3 2 2 3
2
0 75
3 2 2 3
2
75 0
3 2 2 3
2
0 84
3 2 2 3
2
84 0
3 2 2 3
2
0 89
3 2 2 3
2
89 0
3 2 2 3
2
0 107
3 2 2 3
2
107 0
3 2 2 3
2
0 108
3 2 2 3
2
108 0
3 2 2 3
2
1 0
3 2 2 3
2
0 1
3 2 2 3
2
1 3
3 2 2 3
2
3 1
3 2 2 3
2
1 4
3 2 2 3
2
4 1
3 2 2 3
2
1 6
3 2 2 3
2
6 1
3 2 2 3
2
1 51
3 2 2 3
2
51 1
3 2 2 3
2
1 52
3 2 2 3
2
52 1
3 2 2 3
2
1 65
3 2 2 3
2
65 1
3 2 2 3
2
1 66
3 2 2 3
2
66 1
3 2 2 3
2
1 67
3 2 2 3
2
67 1
3 2 2 3
2
1 80
3 2 2 3
2
80 1
3 2 2 3
2
1 105
3 2 2 3
2
105 1
3 2 2 3
2
1 111
3 2 2 3
2
111 1
3 2 2 3
2
1 116
3 2 2 3
2
116 1
3 2 2 3
2
1 131
3 2 2 3
2
131 1
3 2 2 3
2
2 1
3 2 2 3
2
1 2
3 2 2 3
2
2 4
3 2 2 3
2
4 2
3 2 2 3
2
2 6
3 2 2 3
2
6 2
3 2 2 3
2
2 24
3 2 2 3
2
24 2
3 2 2 3
2
2 65
3 2 2 3
2
65 2
3 2 2 3
2
2 68
3 2 2 3
2
68 2
3 2 2 3
2
2 75
3 2 2 3
2
75 2
3 2 2 3
2
2 122
3 2 2 3
2
122 2
3 2 2 3
2
2 138
3 2 2 3
2
138 2
3 2 2 3
2
2 139
3 2 2 3
2
139 2
3 2 2 3
2
3 5
3 2 2 3
2
5 3
3 2 2 3
2
3 36
3 2 2 3
2
36 3
3 2 2 3
2
3 44
3 2 2 3
2
44 3
3 2 2 3
2
3 87
3 2 2 3
2
87 3
3 2 2 3
2
3 102
3 2 2 3
2
102 3
3 2 2 3
2
3 122
3 2 2 3
2
122 3
3 2 2 3
2
3 127
3 2 2 3
2
127 3
3 2 2 3
2
3 134
3 2 2 3
2
134 3
3 2 2 3
2
3 137
3 2 2 3
2
137 3
3 2 2 3
2
4 3
3 2 2 3
2
3 4
3 2 2 3
2
4 5
3 2 2 3
2
5 4
3 2 2 3
2
4 7
3 2 2 3
2
7 4
3 2 2 3
2
4 8
3 2 2 3
2
8 4
3 2 2 3
2
4 70
3 2 2 3
2
70 4
3 2 2 3
2
4 83
3 2 2 3
2
83 4
3 2 2 3
2
4 91
3 2 2 3
2
91 4
3 2 2 3
2
4 120
3 2 2 3
2
120 4
3 2 2 3
2
5 1
3 2 2 3
2
1 5
3 2 2 3
2
5 2
3 2 2 3
2
2 5
3 2 2 3
2
5 4
3 2 2 3
2
4 5
3 2 2 3
2
5 6
3 2 2 3
2
6 5
3 2 2 3
2
5 24
3 2 2 3
2
24 5
3 2 2 3
2
5 51
3 2 2 3
2
51 5
3 2 2 3
2
5 62
3 2 2 3
2
62 5
3 2 2 3
2
5 76
3 2 2 3
2
76 5
3 2 2 3
2
5 84
3 2 2 3
2
84 5
3 2 2 3
2
5 88
3 2 2 3
2
88 5
3 2 2 3
2
6 5
3 2 2 3
2
5 6
3 2 2 3
2
6 7
3 2 2 3
2
7 6
3 2 2 3
2
6 9
3 2 2 3
2
9 6
3 2 2 3
2
6 12
3 2 2 3
2
12 6
3 2 2 3
2
6 30
3 2 2 3
2
30 6
3 2 2 3
2
6 46
3 2 2 3
2
46 6
3 2 2 3
2
6 54
3 2 2 3
2
54 6
3 2 2 3
2
6 67
3 2 2 3
2
67 6
3 2 2 3
2
6 75
3 2 2 3
2
75 6
3 2 2 3
2
6 93
3 2 2 3
2
93 6
3 2 2 3
2
6 95
3 2 2 3
2
95 6
3 2 2 3
2
6 128
3 2 2 3
2
128 6
3 2 2 3
2
7 1
3 2 2 3
2
1 7
3 2 2 3
2
7 2
3 2 2 3
2
2 7
3 2 2 3
2
7 9
3 2 2 3
2
9 7
3 2 2 3
2
7 60
3 2 2 3
2
60 7
3 2 2 3
2
8 42
3 2 2 3
2
42 8
3 2 2 3
2
8 117
3 2 2 3
2
117 8
3 2 2 3
2
8 118
3 2 2 3
2
118 8
3 2 2 3
2
8 132
3 2 2 3
2
132 8
3 2 2 3
2
9 4
3 2 2 3
2
4 9
3 2 2 3
2
9 5
3 2 2 3
2
5 9
3 2 2 3
2
9 12
3 2 2 3
2
12 9
3 2 2 3
2
9 36
3 2 2 3
2
36 9
3 2 2 3
2
9 49
3 2 2 3
2
49 9
3 2 2 3
2
9 58
3 2 2 3
2
58 9
3 2 2 3
2
9 70
3 2 2 3
2
70 9
3 2 2 3
2
9 88
3 2 2 3
2
88 9
3 2 2 3
2
9 104
3 2 2 3
2
104 9
3 2 2 3
2
9 115
3 2 2 3
2
115 9
3 2 2 3
2
10 6
3 2 2 3
2
6 10
3 2 2 3
2
10 41
3 2 2 3
2
41 10
3 2 2 3
2
10 43
3 2 2 3
2
43 10
3 2 2 3
2
10 52
3 2 2 3
2
52 10
3 2 2 3
2
10 61
3 2 2 3
2
61 10
3 2 2 3
2
11 1
3 2 2 3
2
1 11
3 2 2 3
2
11 3
3 2 2 3
2
3 11
3 2 2 3
2
11 9
3 2 2 3
2
9 11
3 2 2 3
2
11 10
3 2 2 3
2
10 11
3 2 2 3
2
11 14
3 2 2 3
2
14 11
3 2 2 3
2
11 43
3 2 2 3
2
43 11
3 2 2 3
2
11 80
3 2 2 3
2
80 11
3 2 2 3
2
11 90
3 2 2 3
2
90 11
3 2 2 3
2
11 102
3 2 2 3
2
102 11
3 2 2 3
2
11 116
3 2 2 3
2
116 11
3 2 2 3
2
11 121
3 2 2 3
2
121 11
3 2 2 3
2
11 126
3 2 2 3
2
126 11
3 2 2 3
2
12 19
3 2 2 3
2
19 12
3 2 2 3
2
12 33
3 2 2 3
2
33 12
3 2 2 3
2
12 96
3 2 2 3
2
96 12
3 2 2 3
2
12 111
3 2 2 3
2
111 12
3 2 2 3
2
12 125
3 2 2 3
2
125 12
3 2 2 3
2
12 133
3 2 2 3
2
133 12
3 2 2 3
2
13 0
3 2 2 3
2
0 13
3 2 2 3
2
13 15
3 2 2 3
2
15 13
3 2 2 3
2
13 18
3 2 2 3
2
18 13
3 2 2 3
2
13 21
3 2 2 3
2
21 13
3 2 2 3
2
13 28
3 2 2 3
2
28 13
3 2 2 3
2
13 30
3 2 2 3
2
30 13
3 2 2 3
2
13 50
3 2 2 3
2
50 13
3 2 2 3
2
13 54
3 2 2 3
2
54 13
3 2 2 3
2
13 74
3 2 2 3
2
74 13
3 2 2 3
2
13 75
3 2 2 3
2
75 13
3 2 2 3
2
13 95
3 2 2 3
2
95 13
3 2 2 3
2
13 117
3 2 2 3
2
117 13
3 2 2 3
2
13 126
3 2 2 3
2
126 13
3 2 2 3
2
14 11
3 2 2 3
2
11 14
3 2 2 3
2
14 13
3 2 2 3
2
13 14
3 2 2 3
2
14 43
3 2 2 3
2
43 14
3 2 2 3
2
14 44
3 2 2 3
2
44 14
3 2 2 3
2
14 64
3 2 2 3
2
64 14
3 2 2 3
2
14 77
3 2 2 3
2
77 14
3 2 2 3
2
14 98
3 2 2 3
2
98 14
3 2 2 3
2
14 100
3 2 2 3
2
100 14
3 2 2 3
2
14 101
3 2 2 3
2
101 14
3 2 2 3
2
14 108
3 2 2 3
2
108 14
3 2 2 3
2
14 118
3 2 2 3
2
118 14
3 2 2 3
2
15 16
3 2 2 3
2
16 15
3 2 2 3
2
15 17
3 2 2 3
2
17 15
3 2 2 3
2
15 19
3 2 2 3
2
19 15
3 2 2 3
2
15 57
3 2 2 3
2
57 15
3 2 2 3
2
15 65
3 2 2 3
2
65 15
3 2 2 3
2
15 79
3 2 2 3
2
79 15
3 2 2 3
2
15 97
3 2 2 3
2
97 15
3 2 2 3
2
15 104
3 2 2 3
2
104 15
3 2 2 3
2
15 120
3 2 2 3
2
120 15
3 2 2 3
2
15 139
3 2 2 3
2
139 15
3 2 2 3
2
16 12
3 2 2 3
2
12 16
3 2 2 3
2
16 19
3 2 2 3
2
19 16
3 2 2 3
2
16 28
3 2 2 3
2
28 16
3 2 2 3
2
16 36
3 2 2 3
2
36 16
3 2 2 3
2
16 46
3 2 2 3
2
46 16
3 2 2 3
2
16 62
3 2 2 3
2
62 16
3 2 2 3
2
16 77
3 2 2 3
2
77 16
3 2 2 3
2
16 95
3 2 2 3
2
95 16
3 2 2 3
2
16 118
3 2 2 3
2
118 16
3 2 2 3
2
16 124
3 2 2 3
2
124 16
3 2 2 3
2
17 10
3 2 2 3
2
10 17
3 2 2 3
2
17 13
3 2 2 3
2
13 17
3 2 2 3
2
17 19
3 2 2 3
2
19 17
3 2 2 3
2
17 31
3 2 2 3
2
31 17
3 2 2 3
2
17 59
3 2 2 3
2
59 17
3 2 2 3
2
17 102
3 2 2 3
2
102 17
3 2 2 3
2
18 12
3 2 2 3
2
12 18
3 2 2 3
2
18 13
3 2 2 3
2
13 18
3 2 2 3
2
18 15
3 2 2 3
2
15 18
3 2 2 3
2
18 16
3 2 2 3
2
16 18
3 2 2 3
2
18 23
3 2 2 3
2
23 18
3 2 2 3
2
18 46
3 2 2 3
2
46 18
3 2 2 3
2
18 48
3 2 2 3
2
48 18
3 2 2 3
2
18 80
3 2 2 3
2
80 18
3 2 2 3
2
18 108
3 2 2 3
2
108 18
3 2 2 3
2
18 110
3 2 2 3
2
110 18
3 2 2 3
2
18 113
3 2 2 3
2
113 18
3 2 2 3
2
18 123
3 2 2 3
2
123 18
3 2 2 3
2
18 125
3 2 2 3
2
125 18
3 2 2 3
2
19 14
3 2 2 3
2
14 19
3 2 2 3
2
19 15
3 2 2 3
2
15 19
3 2 2 3
2
19 20
3 2 2 3
2
20 19
3 2 2 3
2
19 58
3 2 2 3
2
58 19
3 2 2 3
2
19 67
3 2 2 3
2
67 19
3 2 2 3
2
20 5
3 2 2 3
2
5 20
3 2 2 3
2
20 32
3 2 2 3
2
32 20
3 2 2 3
2
20 53
3 2 2 3
2
53 20
3 2 2 3
2
20 55
3 2 2 3
2
55 20
3 2 2 3
2
20 78
3 2 2 3
2
78 20
3 2 2 3
2
20 80
3 2 2 3
2
80 20
3 2 2 3
2
20 121
3 2 2 3
2
121 20
3 2 2 3
2
20 123
3 2 2 3
2
123 20
3 2 2 3
2
20 129
3 2 2 3
2
129 20
3 2 2 3
2
21 27
3 2 2 3
2
27 21
3 2 2 3
2
21 29
3 2 2 3
2
29 21
3 2 2 3
2
21 31
3 2 2 3
2
31 21
3 2 2 3
2
21 60
3 2 2 3
2
60 21
3 2 2 3
2
21 93
3 2 2 3
2
93 21
3 2 2 3
2
22 24
3 2 2 3
2
24 22
3 2 2 3
2
22 25
3 2 2 3
2
25 22
3 2 2 3
2
22 27
3 2 2 3
2
27 22
3 2 2 3
2
22 29
3 2 2 3
2
29 22
3 2 2 3
2
22 35
3 2 2 3
2
35 22
3 2 2 3
2
22 73
3 2 2 3
2
73 22
3 2 2 3
2
22 78
3 2 2 3
2
78 22
3 2 2 3
2
22 96
3 2 2 3
2
96 22
3 2 2 3
2
22 98
3 2 2 3
2
98 22
3 2 2 3
2
22 122
3 2 2 3
2
122 22
3 2 2 3
2
22 136
3 2 2 3
2
136 22
3 2 2 3
2
23 5
3 2 2 3
2
5 23
3 2 2 3
2
23 11
3 2 2 3
2
11 23
3 2 2 3
2
23 20
3 2 2 3
2
20 23
3 2 2 3
2
23 24
3 2 2 3
2
24 23
3 2 2 3
2
23 25
3 2 2 3
2
25 23
3 2 2 3
2
23 27
3 2 2 3
2
27 23
3 2 2 3
2
23 62
3 2 2 3
2
62 23
3 2 2 3
2
23 86
3 2 2 3
2
86 23
3 2 2 3
2
23 117
3 2 2 3
2
117 23
3 2 2 3
2
23 133
3 2 2 3
2
133 23
3 2 2 3
2
24 5
3 2 2 3
2
5 24
3 2 2 3
2
24 21
3 2 2 3
2
21 24
3 2 2 3
2
24 22
3 2 2 3
2
22 24
3 2 2 3
2
24 49
3 2 2 3
2
49 24
3 2 2 3
2
24 58
3 2 2 3
2
58 24
3 2 2 3
2
24 89
3 2 2 3
2
89 24
3 2 2 3
2
24 109
3 2 2 3
2
109 24
3 2 2 3
2
24 128
3 2 2 3
2
128 24
3 2 2 3
2
25 21
3 2 2 3
2
21 25
3 2 2 3
2
25 22
3 2 2 3
2
22 25
3 2 2 3
2
25 23
3 2 2 3
2
23 25
3 2 2 3
2
25 24
3 2 2 3
2
24 25
3 2 2 3
2
25 27
3 2 2 3
2
27 25
3 2 2 3
2
25 28
3 2 2 3
2
28 25
3 2 2 3
2
25 45
3 2 2 3
2
45 25
3 2 2 3
2
25 75
3 2 2 3
2
75 25
3 2 2 3
2
25 93
3 2 2 3
2
93 25
3 2 2 3
2
25 95
3 2 2 3
2
95 25
3 2 2 3
2
25 107
3 2 2 3
2
107 25
3 2 2 3
2
25 118
3 2 2 3
2
118 25
3 2 2 3
2
25 128
3 2 2 3
2
128 25
3 2 2 3
2
26 22
3 2 2 3
2
22 26
3 2 2 3
2
26 23
3 2 2 3
2
23 26
3 2 2 3
2
26 27
3 2 2 3
2
27 26
3 2 2 3
2
26 59
3 2 2 3
2
59 26
3 2 2 3
2
26 61
3 2 2 3
2
61 26
3 2 2 3
2
26 82
3 2 2 3
2
82 26
3 2 2 3
2
26 97
3 2 2 3
2
97 26
3 2 2 3
2
26 104
3 2 2 3
2
104 26
3 2 2 3
2
27 22
3 2 2 3
2
22 27
3 2 2 3
2
27 24
3 2 2 3
2
24 27
3 2 2 3
2
27 29
3 2 2 3
2
29 27
3 2 2 3
2
27 31
3 2 2 3
2
31 27
3 2 2 3
2
27 44
3 2 2 3
2
44 27
3 2 2 3
2
27 60
3 2 2 3
2
60 27
3 2 2 3
2
27 62
3 2 2 3
2
62 27
3 2 2 3
2
27 111
3 2 2 3
2
111 27
3 2 2 3
2
27 115
3 2 2 3
2
115 27
3 2 2 3
2
27 122
3 2 2 3
2
122 27
3 2 2 3
2
28 22
3 2 2 3
2
22 28
3 2 2 3
2
28 24
3 2 2 3
2
24 28
3 2 2 3
2
28 26
3 2 2 3
2
26 28
3 2 2 3
2
28 27
3 2 2 3
2
27 28
3 2 2 3
2
28 37
3 2 2 3
2
37 28
3 2 2 3
2
28 73
3 2 2 3
2
73 28
3 2 2 3
2
28 104
3 2 2 3
2
104 28
3 2 2 3
2
28 107
3 2 2 3
2
107 28
3 2 2 3
2
28 112
3 2 2 3
2
112 28
3 2 2 3
2
28 122
3 2 2 3
2
122 28
3 2 2 3
2
29 16
3 2 2 3
2
16 29
3 2 2 3
2
29 21
3 2 2 3
2
21 29
3 2 2 3
2
29 26
3 2 2 3
2
26 29
3 2 2 3
2
29 64
3 2 2 3
2
64 29
3 2 2 3
2
29 105
3 2 2 3
2
105 29
3 2 2 3
2
29 123
3 2 2 3
2
123 29
3 2 2 3
2
29 126
3 2 2 3
2
126 29
3 2 2 3
2
30 1
3 2 2 3
2
1 30
3 2 2 3
2
30 2
3 2 2 3
2
2 30
3 2 2 3
2
30 33
3 2 2 3
2
33 30
3 2 2 3
2
30 37
3 2 2 3
2
37 30
3 2 2 3
2
30 39
3 2 2 3
2
39 30
3 2 2 3
2
30 45
3 2 2 3
2
45 30
3 2 2 3
2
30 54
3 2 2 3
2
54 30
3 2 2 3
2
30 65
3 2 2 3
2
65 30
3 2 2 3
2
30 119
3 2 2 3
2
119 30
3 2 2 3
2
30 127
3 2 2 3
2
127 30
3 2 2 3
2
31 20
3 2 2 3
2
20 31
3 2 2 3
2
31 30
3 2 2 3
2
30 31
3 2 2 3
2
31 33
3 2 2 3
2
33 31
3 2 2 3
2
31 37
3 2 2 3
2
37 31
3 2 2 3
2
31 38
3 2 2 3
2
38 31
3 2 2 3
2
31 39
3 2 2 3
2
39 31
3 2 2 3
2
31 40
3 2 2 3
2
40 31
3 2 2 3
2
31 83
3 2 2 3
2
83 31
3 2 2 3
2
31 84
3 2 2 3
2
84 31
3 2 2 3
2
31 105
3 2 2 3
2
105 31
3 2 2 3
2
31 108
3 2 2 3
2
108 31
3 2 2 3
2
31 114
3 2 2 3
2
114 31
3 2 2 3
2
31 118
3 2 2 3
2
118 31
3 2 2 3
2
31 123
3 2 2 3
2
123 31
3 2 2 3
2
32 13
3 2 2 3
2
13 32
3 2 2 3
2
32 27
3 2 2 3
2
27 32
3 2 2 3
2
32 31
3 2 2 3
2
31 32
3 2 2 3
2
32 33
3 2 2 3
2
33 32
3 2 2 3
2
32 35
3 2 2 3
2
35 32
3 2 2 3
2
32 37
3 2 2 3
2
37 32
3 2 2 3
2
32 38
3 2 2 3
2
38 32
3 2 2 3
2
32 39
3 2 2 3
2
39 32
3 2 2 3
2
32 42
3 2 2 3
2
42 32
3 2 2 3
2
32 44
3 2 2 3
2
44 32
3 2 2 3
2
32 118
3 2 2 3
2
118 32
3 2 2 3
2
32 133
3 2 2 3
2
133 32
3 2 2 3
2
33 10
3 2 2 3
2
10 33
3 2 2 3
2
33 27
3 2 2 3
2
27 33
3 2 2 3
2
33 32
3 2 2 3
2
32 33
3 2 2 3
2
33 34
3 2 2 3
2
34 33
3 2 2 3
2
33 35
3 2 2 3
2
35 33
3 2 2 3
2
33 37
3 2 2 3
2
37 33
3 2 2 3
2
33 59
3 2 2 3
2
59 33
3 2 2 3
2
33 83
3 2 2 3
2
83 33
3 2 2 3
2
33 89
3 2 2 3
2
89 33
3 2 2 3
2
33 130
3 2 2 3
2
130 33
3 2 2 3
2
34 20
3 2 2 3
2
20 34
3 2 2 3
2
34 36
3 2 2 3
2
36 34
3 2 2 3
2
34 37
3 2 2 3
2
37 34
3 2 2 3
2
34 39
3 2 2 3
2
39 34
3 2 2 3
2
34 46
3 2 2 3
2
46 34
3 2 2 3
2
34 66
3 2 2 3
2
66 34
3 2 2 3
2
34 99
3 2 2 3
2
99 34
3 2 2 3
2
34 138
3 2 2 3
2
138 34
3 2 2 3
2
35 17
3 2 2 3
2
17 35
3 2 2 3
2
35 23
3 2 2 3
2
23 35
3 2 2 3
2
35 29
3 2 2 3
2
29 35
3 2 2 3
2
35 30
3 2 2 3
2
30 35
3 2 2 3
2
35 32
3 2 2 3
2
32 35
3 2 2 3
2
35 37
3 2 2 3
2
37 35
3 2 2 3
2
35 39
3 2 2 3
2
39 35
3 2 2 3
2
35 40
3 2 2 3
2
40 35
3 2 2 3
2
35 98
3 2 2 3
2
98 35
3 2 2 3
2
35 105
3 2 2 3
2
105 35
3 2 2 3
2
35 136
3 2 2 3
2
136 35
3 2 2 3
2
36 1
3 2 2 3
2
1 36
3 2 2 3
2
36 4
3 2 2 3
2
4 36
3 2 2 3
2
36 5
3 2 2 3
2
5 36
3 2 2 3
2
36 7
3 2 2 3
2
7 36
3 2 2 3
2
36 24
3 2 2 3
2
24 36
3 2 2 3
2
36 34
3 2 2 3
2
34 36
3 2 2 3
2
36 35
3 2 2 3
2
35 36
3 2 2 3
2
36 37
3 2 2 3
2
37 36
3 2 2 3
2
36 54
3 2 2 3
2
54 36
3 2 2 3
2
36 60
3 2 2 3
2
60 36
3 2 2 3
2
36 66
3 2 2 3
2
66 36
3 2 2 3
2
36 76
3 2 2 3
2
76 36
3 2 2 3
2
36 87
3 2 2 3
2
87 36
3 2 2 3
2
36 93
3 2 2 3
2
93 36
3 2 2 3
2
36 94
3 2 2 3
2
94 36
3 2 2 3
2
36 99
3 2 2 3
2
99 36
3 2 2 3
2
36 111
3 2 2 3
2
111 36
3 2 2 3
2
36 114
3 2 2 3
2
114 36
3 2 2 3
2
36 116
3 2 2 3
2
116 36
3 2 2 3
2
37 35
3 2 2 3
2
35 37
3 2 2 3
2
37 82
3 2 2 3
2
82 37
3 2 2 3
2
37 103
3 2 2 3
2
103 37
3 2 2 3
2
37 128
3 2 2 3
2
128 37
3 2 2 3
2
38 9
3 2 2 3
2
9 38
3 2 2 3
2
38 29
3 2 2 3
2
29 38
3 2 2 3
2
38 32
3 2 2 3
2
32 38
3 2 2 3
2
38 33
3 2 2 3
2
33 38
3 2 2 3
2
38 34
3 2 2 3
2
34 38
3 2 2 3
2
38 49
3 2 2 3
2
49 38
3 2 2 3
2
38 108
3 2 2 3
2
108 38
3 2 2 3
2
39 3
3 2 2 3
2
3 39
3 2 2 3
2
39 30
3 2 2 3
2
30 39
3 2 2 3
2
39 32
3 2 2 3
2
32 39
3 2 2 3
2
39 38
3 2 2 3
2
38 39
3 2 2 3
2
39 101
3 2 2 3
2
101 39
3 2 2 3
2
39 115
3 2 2 3
2
115 39
3 2 2 3
2
40 13
3 2 2 3
2
13 40
3 2 2 3
2
40 27
3 2 2 3
2
27 40
3 2 2 3
2
40 32
3 2 2 3
2
32 40
3 2 2 3
2
40 43
3 2 2 3
2
43 40
3 2 2 3
2
40 47
3 2 2 3
2
47 40
3 2 2 3
2
40 48
3 2 2 3
2
48 40
3 2 2 3
2
40 66
3 2 2 3
2
66 40
3 2 2 3
2
40 67
3 2 2 3
2
67 40
3 2 2 3
2
40 108
3 2 2 3
2
108 40
3 2 2 3
2
40 128
3 2 2 3
2
128 40
3 2 2 3
2
41 1
3 2 2 3
2
1 41
3 2 2 3
2
41 17
3 2 2 3
2
17 41
3 2 2 3
2
41 22
3 2 2 3
2
22 41
3 2 2 3
2
41 42
3 2 2 3
2
42 41
3 2 2 3
2
41 46
3 2 2 3
2
46 41
3 2 2 3
2
41 47
3 2 2 3
2
47 41
3 2 2 3
2
41 49
3 2 2 3
2
49 41
3 2 2 3
2
41 55
3 2 2 3
2
55 41
3 2 2 3
2
42 0
3 2 2 3
2
0 42
3 2 2 3
2
42 9
3 2 2 3
2
9 42
3 2 2 3
2
42 15
3 2 2 3
2
15 42
3 2 2 3
2
42 18
3 2 2 3
2
18 42
3 2 2 3
2
42 23
3 2 2 3
2
23 42
3 2 2 3
2
42 40
3 2 2 3
2
40 42
3 2 2 3
2
42 41
3 2 2 3
2
41 42
3 2 2 3
2
42 47
3 2 2 3
2
47 42
3 2 2 3
2
42 59
3 2 2 3
2
59 42
3 2 2 3
2
42 61
3 2 2 3
2
61 42
3 2 2 3
2
42 62
3 2 2 3
2
62 42
3 2 2 3
2
42 92
3 2 2 3
2
92 42
3 2 2 3
2
43 5
3 2 2 3
2
5 43
3 2 2 3
2
43 25
3 2 2 3
2
25 43
3 2 2 3
2
43 29
3 2 2 3
2
29 43
3 2 2 3
2
43 33
3 2 2 3
2
33 43
3 2 2 3
2
43 34
3 2 2 3
2
34 43
3 2 2 3
2
43 40
3 2 2 3
2
40 43
3 2 2 3
2
43 41
3 2 2 3
2
41 43
3 2 2 3
2
43 52
3 2 2 3
2
52 43
3 2 2 3
2
43 123
3 2 2 3
2
123 43
3 2 2 3
2
43 130
3 2 2 3
2
130 43
3 2 2 3
2
44 28
3 2 2 3
2
28 44
3 2 2 3
2
44 43
3 2 2 3
2
43 44
3 2 2 3
2
44 46
3 2 2 3
2
46 44
3 2 2 3
2
44 57
3 2 2 3
2
57 44
3 2 2 3
2
44 58
3 2 2 3
2
58 44
3 2 2 3
2
44 79
3 2 2 3
2
79 44
3 2 2 3
2
44 95
3 2 2 3
2
95 44
3 2 2 3
2
44 110
3 2 2 3
2
110 44
3 2 2 3
2
44 121
3 2 2 3
2
121 44
3 2 2 3
2
44 126
3 2 2 3
2
126 44
3 2 2 3
2
45 28
3 2 2 3
2
28 45
3 2 2 3
2
45 41
3 2 2 3
2
41 45
3 2 2 3
2
45 49
3 2 2 3
2
49 45
3 2 2 3
2
45 88
3 2 2 3
2
88 45
3 2 2 3
2
45 100
3 2 2 3
2
100 45
3 2 2 3
2
45 107
3 2 2 3
2
107 45
3 2 2 3
2
45 130
3 2 2 3
2
130 45
3 2 2 3
2
46 2
3 2 2 3
2
2 46
3 2 2 3
2
46 43
3 2 2 3
2
43 46
3 2 2 3
2
46 45
3 2 2 3
2
45 46
3 2 2 3
2
46 48
3 2 2 3
2
48 46
3 2 2 3
2
46 68
3 2 2 3
2
68 46
3 2 2 3
2
46 91
3 2 2 3
2
91 46
3 2 2 3
2
46 117
3 2 2 3
2
117 46
3 2 2 3
2
46 124
3 2 2 3
2
124 46
3 2 2 3
2
46 137
3 2 2 3
2
137 46
3 2 2 3
2
47 8
3 2 2 3
2
8 47
3 2 2 3
2
47 15
3 2 2 3
2
15 47
3 2 2 3
2
47 41
3 2 2 3
2
41 47
3 2 2 3
2
47 44
3 2 2 3
2
44 47
3 2 2 3
2
47 49
3 2 2 3
2
49 47
3 2 2 3
2
47 60
3 2 2 3
2
60 47
3 2 2 3
2
47 62
3 2 2 3
2
62 47
3 2 2 3
2
47 107
3 2 2 3
2
107 47
3 2 2 3
2
47 112
3 2 2 3
2
112 47
3 2 2 3
2
47 113
3 2 2 3
2
113 47
3 2 2 3
2
48 25
3 2 2 3
2
25 48
3 2 2 3
2
48 41
3 2 2 3
2
41 48
3 2 2 3
2
48 43
3 2 2 3
2
43 48
3 2 2 3
2
48 44
3 2 2 3
2
44 48
3 2 2 3
2
48 46
3 2 2 3
2
46 48
3 2 2 3
2
48 49
3 2 2 3
2
49 48
3 2 2 3
2
48 56
3 2 2 3
2
56 48
3 2 2 3
2
48 78
3 2 2 3
2
78 48
3 2 2 3
2
48 88
3 2 2 3
2
88 48
3 2 2 3
2
48 90
3 2 2 3
2
90 48
3 2 2 3
2
48 99
3 2 2 3
2
99 48
3 2 2 3
2
48 109
3 2 2 3
2
109 48
3 2 2 3
2
49 17
3 2 2 3
2
17 49
3 2 2 3
2
49 26
3 2 2 3
2
26 49
3 2 2 3
2
49 42
3 2 2 3
2
42 49
3 2 2 3
2
49 47
3 2 2 3
2
47 49
3 2 2 3
2
49 82
3 2 2 3
2
82 49
3 2 2 3
2
50 15
3 2 2 3
2
15 50
3 2 2 3
2
50 53
3 2 2 3
2
53 50
3 2 2 3
2
50 54
3 2 2 3
2
54 50
3 2 2 3
2
50 57
3 2 2 3
2
57 50
3 2 2 3
2
50 59
3 2 2 3
2
59 50
3 2 2 3
2
50 63
3 2 2 3
2
63 50
3 2 2 3
2
50 75
3 2 2 3
2
75 50
3 2 2 3
2
50 120
3 2 2 3
2
120 50
3 2 2 3
2
51 13
3 2 2 3
2
13 51
3 2 2 3
2
51 32
3 2 2 3
2
32 51
3 2 2 3
2
51 52
3 2 2 3
2
52 51
3 2 2 3
2
51 55
3 2 2 3
2
55 51
3 2 2 3
2
51 59
3 2 2 3
2
59 51
3 2 2 3
2
51 60
3 2 2 3
2
60 51
3 2 2 3
2
51 77
3 2 2 3
2
77 51
3 2 2 3
2
51 105
3 2 2 3
2
105 51
3 2 2 3
2
51 130
3 2 2 3
2
130 51
3 2 2 3
2
51 137
3 2 2 3
2
137 51
3 2 2 3
2
52 20
3 2 2 3
2
20 52
3 2 2 3
2
52 22
3 2 2 3
2
22 52
3 2 2 3
2
52 50
3 2 2 3
2
50 52
3 2 2 3
2
52 57
3 2 2 3
2
57 52
3 2 2 3
2
52 127
3 2 2 3
2
127 52
3 2 2 3
2
53 9
3 2 2 3
2
9 53
3 2 2 3
2
53 22
3 2 2 3
2
22 53
3 2 2 3
2
53 37
3 2 2 3
2
37 53
3 2 2 3
2
53 48
3 2 2 3
2
48 53
3 2 2 3
2
53 54
3 2 2 3
2
54 53
3 2 2 3
2
53 80
3 2 2 3
2
80 53
3 2 2 3
2
53 87
3 2 2 3
2
87 53
3 2 2 3
2
53 89
3 2 2 3
2
89 53
3 2 2 3
2
53 105
3 2 2 3
2
105 53
3 2 2 3
2
53 111
3 2 2 3
2
111 53
3 2 2 3
2
54 1
3 2 2 3
2
1 54
3 2 2 3
2
54 17
3 2 2 3
2
17 54
3 2 2 3
2
54 48
3 2 2 3
2
48 54
3 2 2 3
2
54 55
3 2 2 3
2
55 54
3 2 2 3
2
54 72
3 2 2 3
2
72 54
3 2 2 3
2
54 78
3 2 2 3
2
78 54
3 2 2 3
2
54 133
3 2 2 3
2
133 54
3 2 2 3
2
55 19
3 2 2 3
2
19 55
3 2 2 3
2
55 39
3 2 2 3
2
39 55
3 2 2 3
2
55 46
3 2 2 3
2
46 55
3 2 2 3
2
55 47
3 2 2 3
2
47 55
3 2 2 3
2
55 56
3 2 2 3
2
56 55
3 2 2 3
2
55 58
3 2 2 3
2
58 55
3 2 2 3
2
55 62
3 2 2 3
2
62 55
3 2 2 3
2
55 72
3 2 2 3
2
72 55
3 2 2 3
2
55 90
3 2 2 3
2
90 55
3 2 2 3
2
55 115
3 2 2 3
2
115 55
3 2 2 3
2
55 119
3 2 2 3
2
119 55
3 2 2 3
2
56 11
3 2 2 3
2
11 56
3 2 2 3
2
56 35
3 2 2 3
2
35 56
3 2 2 3
2
56 54
3 2 2 3
2
54 56
3 2 2 3
2
56 55
3 2 2 3
2
55 56
3 2 2 3
2
56 70
3 2 2 3
2
70 56
3 2 2 3
2
57 12
3 2 2 3
2
12 57
3 2 2 3
2
57 13
3 2 2 3
2
13 57
3 2 2 3
2
57 21
3 2 2 3
2
21 57
3 2 2 3
2
57 25
3 2 2 3
2
25 57
3 2 2 3
2
57 37
3 2 2 3
2
37 57
3 2 2 3
2
57 54
3 2 2 3
2
54 57
3 2 2 3
2
57 70
3 2 2 3
2
70 57
3 2 2 3
2
57 85
3 2 2 3
2
85 57
3 2 2 3
2
57 112
3 2 2 3
2
112 57
3 2 2 3
2
57 114
3 2 2 3
2
114 57
3 2 2 3
2
58 4
3 2 2 3
2
4 58
3 2 2 3
2
58 15
3 2 2 3
2
15 58
3 2 2 3
2
58 27
3 2 2 3
2
27 58
3 2 2 3
2
58 28
3 2 2 3
2
28 58
3 2 2 3
2
58 31
3 2 2 3
2
31 58
3 2 2 3
2
58 47
3 2 2 3
2
47 58
3 2 2 3
2
58 50
3 2 2 3
2
50 58
3 2 2 3
2
58 51
3 2 2 3
2
51 58
3 2 2 3
2
58 59
3 2 2 3
2
59 58
3 2 2 3
2
58 66
3 2 2 3
2
66 58
3 2 2 3
2
58 83
3 2 2 3
2
83 58
3 2 2 3
2
58 104
3 2 2 3
2
104 58
3 2 2 3
2
58 109
3 2 2 3
2
109 58
3 2 2 3
2
58 115
3 2 2 3
2
115 58
3 2 2 3
2
58 117
3 2 2 3
2
117 58
3 2 2 3
2
58 122
3 2 2 3
2
122 58
3 2 2 3
2
59 52
3 2 2 3
2
52 59
3 2 2 3
2
59 61
3 2 2 3
2
61 59
3 2 2 3
2
59 74
3 2 2 3
2
74 59
3 2 2 3
2
59 93
3 2 2 3
2
93 59
3 2 2 3
2
60 2
3 2 2 3
2
2 60
3 2 2 3
2
60 19
3 2 2 3
2
19 60
3 2 2 3
2
60 37
3 2 2 3
2
37 60
3 2 2 3
2
60 54
3 2 2 3
2
54 60
3 2 2 3
2
60 61
3 2 2 3
2
61 60
3 2 2 3
2
60 63
3 2 2 3
2
63 60
3 2 2 3
2
60 65
3 2 2 3
2
65 60
3 2 2 3
2
60 67
3 2 2 3
2
67 60
3 2 2 3
2
60 69
3 2 2 3
2
69 60
3 2 2 3
2
60 94
3 2 2 3
2
94 60
3 2 2 3
2
60 119
3 2 2 3
2
119 60
3 2 2 3
2
60 124
3 2 2 3
2
124 60
3 2 2 3
2
60 137
3 2 2 3
2
137 60
3 2 2 3
2
61 15
3 2 2 3
2
15 61
3 2 2 3
2
61 21
3 2 2 3
2
21 61
3 2 2 3
2
61 44
3 2 2 3
2
44 61
3 2 2 3
2
61 71
3 2 2 3
2
71 61
3 2 2 3
2
61 103
3 2 2 3
2
103 61
3 2 2 3
2
61 132
3 2 2 3
2
132 61
3 2 2 3
2
61 137
3 2 2 3
2
137 61
3 2 2 3
2
62 19
3 2 2 3
2
19 62
3 2 2 3
2
62 67
3 2 2 3
2
67 62
3 2 2 3
2
62 68
3 2 2 3
2
68 62
3 2 2 3
2
62 85
3 2 2 3
2
85 62
3 2 2 3
2
63 19
3 2 2 3
2
19 63
3 2 2 3
2
63 49
3 2 2 3
2
49 63
3 2 2 3
2
63 52
3 2 2 3
2
52 63
3 2 2 3
2
63 66
3 2 2 3
2
66 63
3 2 2 3
2
63 68
3 2 2 3
2
68 63
3 2 2 3
2
63 69
3 2 2 3
2
69 63
3 2 2 3
2
63 70
3 2 2 3
2
70 63
3 2 2 3
2
63 78
3 2 2 3
2
78 63
3 2 2 3
2
63 103
3 2 2 3
2
103 63
3 2 2 3
2
63 119
3 2 2 3
2
119 63
3 2 2 3
2
64 16
3 2 2 3
2
16 64
3 2 2 3
2
64 21
3 2 2 3
2
21 64
3 2 2 3
2
64 28
3 2 2 3
2
28 64
3 2 2 3
2
64 62
3 2 2 3
2
62 64
3 2 2 3
2
64 66
3 2 2 3
2
66 64
3 2 2 3
2
64 104
3 2 2 3
2
104 64
3 2 2 3
2
65 60
3 2 2 3
2
60 65
3 2 2 3
2
65 66
3 2 2 3
2
66 65
3 2 2 3
2
65 92
3 2 2 3
2
92 65
3 2 2 3
2
65 135
3 2 2 3
2
135 65
3 2 2 3
2
66 2
3 2 2 3
2
2 66
3 2 2 3
2
66 28
3 2 2 3
2
28 66
3 2 2 3
2
66 41
3 2 2 3
2
41 66
3 2 2 3
2
66 64
3 2 2 3
2
64 66
3 2 2 3
2
66 65
3 2 2 3
2
65 66
3 2 2 3
2
66 67
3 2 2 3
2
67 66
3 2 2 3
2
66 85
3 2 2 3
2
85 66
3 2 2 3
2
66 101
3 2 2 3
2
101 66
3 2 2 3
2
66 102
3 2 2 3
2
102 66
3 2 2 3
2
66 119
3 2 2 3
2
119 66
3 2 2 3
2
67 7
3 2 2 3
2
7 67
3 2 2 3
2
67 63
3 2 2 3
2
63 67
3 2 2 3
2
67 65
3 2 2 3
2
65 67
3 2 2 3
2
67 98
3 2 2 3
2
98 67
3 2 2 3
2
68 60
3 2 2 3
2
60 68
3 2 2 3
2
68 62
3 2 2 3
2
62 68
3 2 2 3
2
68 63
3 2 2 3
2
63 68
3 2 2 3
2
68 64
3 2 2 3
2
64 68
3 2 2 3
2
68 66
3 2 2 3
2
66 68
3 2 2 3
2
68 69
3 2 2 3
2
69 68
3 2 2 3
2
68 92
3 2 2 3
2
92 68
3 2 2 3
2
68 128
3 2 2 3
2
128 68
3 2 2 3
2
69 5
3 2 2 3
2
5 69
3 2 2 3
2
69 10
3 2 2 3
2
10 69
3 2 2 3
2
69 55
3 2 2 3
2
55 69
3 2 2 3
2
69 61
3 2 2 3
2
61 69
3 2 2 3
2
69 63
3 2 2 3
2
63 69
3 2 2 3
2
69 66
3 2 2 3
2
66 69
3 2 2 3
2
69 67
3 2 2 3
2
67 69
3 2 2 3
2
69 68
3 2 2 3
2
68 69
3 2 2 3
2
69 83
3 2 2 3
2
83 69
3 2 2 3
2
69 108
3 2 2 3
2
108 69
3 2 2 3
2
70 50
3 2 2 3
2
50 70
3 2 2 3
2
70 53
3 2 2 3
2
53 70
3 2 2 3
2
70 71
3 2 2 3
2
71 70
3 2 2 3
2
70 102
3 2 2 3
2
102 70
3 2 2 3
2
70 104
3 2 2 3
2
104 70
3 2 2 3
2
70 133
3 2 2 3
2
133 70
3 2 2 3
2
71 4
3 2 2 3
2
4 71
3 2 2 3
2
71 23
3 2 2 3
2
23 71
3 2 2 3
2
71 75
3 2 2 3
2
75 71
3 2 2 3
2
71 77
3 2 2 3
2
77 71
3 2 2 3
2
71 79
3 2 2 3
2
79 71
3 2 2 3
2
71 87
3 2 2 3
2
87 71
3 2 2 3
2
71 90
3 2 2 3
2
90 71
3 2 2 3
2
71 111
3 2 2 3
2
111 71
3 2 2 3
2
71 116
3 2 2 3
2
116 71
3 2 2 3
2
72 3
3 2 2 3
2
3 72
3 2 2 3
2
72 33
3 2 2 3
2
33 72
3 2 2 3
2
72 71
3 2 2 3
2
71 72
3 2 2 3
2
72 74
3 2 2 3
2
74 72
3 2 2 3
2
72 76
3 2 2 3
2
76 72
3 2 2 3
2
72 77
3 2 2 3
2
77 72
3 2 2 3
2
72 78
3 2 2 3
2
78 72
3 2 2 3
2
72 80
3 2 2 3
2
80 72
3 2 2 3
2
72 88
3 2 2 3
2
88 72
3 2 2 3
2
72 112
3 2 2 3
2
112 72
3 2 2 3
2
73 44
3 2 2 3
2
44 73
3 2 2 3
2
73 72
3 2 2 3
2
72 73
3 2 2 3
2
73 75
3 2 2 3
2
75 73
3 2 2 3
2
73 95
3 2 2 3
2
95 73
3 2 2 3
2
73 99
3 2 2 3
2
99 73
3 2 2 3
2
73 110
3 2 2 3
2
110 73
3 2 2 3
2
73 116
3 2 2 3
2
116 73
3 2 2 3
2
74 40
3 2 2 3
2
40 74
3 2 2 3
2
74 42
3 2 2 3
2
42 74
3 2 2 3
2
74 75
3 2 2 3
2
75 74
3 2 2 3
2
74 76
3 2 2 3
2
76 74
3 2 2 3
2
74 77
3 2 2 3
2
77 74
3 2 2 3
2
74 78
3 2 2 3
2
78 74
3 2 2 3
2
74 79
3 2 2 3
2
79 74
3 2 2 3
2
74 80
3 2 2 3
2
80 74
3 2 2 3
2
74 92
3 2 2 3
2
92 74
3 2 2 3
2
74 98
3 2 2 3
2
98 74
3 2 2 3
2
75 6
3 2 2 3
2
6 75
3 2 2 3
2
75 30
3 2 2 3
2
30 75
3 2 2 3
2
75 39
3 2 2 3
2
39 75
3 2 2 3
2
75 60
3 2 2 3
2
60 75
3 2 2 3
2
75 64
3 2 2 3
2
64 75
3 2 2 3
2
75 65
3 2 2 3
2
65 75
3 2 2 3
2
75 72
3 2 2 3
2
72 75
3 2 2 3
2
75 73
3 2 2 3
2
73 75
3 2 2 3
2
75 77
3 2 2 3
2
77 75
3 2 2 3
2
75 79
3 2 2 3
2
79 75
3 2 2 3
2
75 98
3 2 2 3
2
98 75
3 2 2 3
2
75 111
3 2 2 3
2
111 75
3 2 2 3
2
75 137
3 2 2 3
2
137 75
3 2 2 3
2
76 15
3 2 2 3
2
15 76
3 2 2 3
2
76 17
3 2 2 3
2
17 76
3 2 2 3
2
76 37
3 2 2 3
2
37 76
3 2 2 3
2
76 49
3 2 2 3
2
49 76
3 2 2 3
2
76 57
3 2 2 3
2
57 76
3 2 2 3
2
76 61
3 2 2 3
2
61 76
3 2 2 3
2
76 73
3 2 2 3
2
73 76
3 2 2 3
2
76 78
3 2 2 3
2
78 76
3 2 2 3
2
76 104
3 2 2 3
2
104 76
3 2 2 3
2
77 6
3 2 2 3
2
6 77
3 2 2 3
2
77 17
3 2 2 3
2
17 77
3 2 2 3
2
77 35
3 2 2 3
2
35 77
3 2 2 3
2
77 69
3 2 2 3
2
69 77
3 2 2 3
2
77 71
3 2 2 3
2
71 77
3 2 2 3
2
77 110
3 2 2 3
2
110 77
3 2 2 3
2
77 120
3 2 2 3
2
120 77
3 2 2 3
2
78 19
3 2 2 3
2
19 78
3 2 2 3
2
78 43
3 2 2 3
2
43 78
3 2 2 3
2
78 55
3 2 2 3
2
55 78
3 2 2 3
2
78 69
3 2 2 3
2
69 78
3 2 2 3
2
78 70
3 2 2 3
2
70 78
3 2 2 3
2
78 74
3 2 2 3
2
74 78
3 2 2 3
2
78 75
3 2 2 3
2
75 78
3 2 2 3
2
78 95
3 2 2 3
2
95 78
3 2 2 3
2
78 98
3 2 2 3
2
98 78
3 2 2 3
2
78 105
3 2 2 3
2
105 78
3 2 2 3
2
78 134
3 2 2 3
2
134 78
3 2 2 3
2
78 139
3 2 2 3
2
139 78
3 2 2 3
2
79 15
3 2 2 3
2
15 79
3 2 2 3
2
79 28
3 2 2 3
2
28 79
3 2 2 3
2
79 41
3 2 2 3
2
41 79
3 2 2 3
2
79 55
3 2 2 3
2
55 79
3 2 2 3
2
79 61
3 2 2 3
2
61 79
3 2 2 3
2
79 68
3 2 2 3
2
68 79
3 2 2 3
2
79 72
3 2 2 3
2
72 79
3 2 2 3
2
79 74
3 2 2 3
2
74 79
3 2 2 3
2
79 75
3 2 2 3
2
75 79
3 2 2 3
2
79 77
3 2 2 3
2
77 79
3 2 2 3
2
79 78
3 2 2 3
2
78 79
3 2 2 3
2
79 82
3 2 2 3
2
82 79
3 2 2 3
2
80 48
3 2 2 3
2
48 80
3 2 2 3
2
80 56
3 2 2 3
2
56 80
3 2 2 3
2
80 63
3 2 2 3
2
63 80
3 2 2 3
2
80 69
3 2 2 3
2
69 80
3 2 2 3
2
80 83
3 2 2 3
2
83 80
3 2 2 3
2
80 84
3 2 2 3
2
84 80
3 2 2 3
2
80 85
3 2 2 3
2
85 80
3 2 2 3
2
80 90
3 2 2 3
2
90 80
3 2 2 3
2
81 7
3 2 2 3
2
7 81
3 2 2 3
2
81 12
3 2 2 3
2
12 81
3 2 2 3
2
81 14
3 2 2 3
2
14 81
3 2 2 3
2
81 44
3 2 2 3
2
44 81
3 2 2 3
2
81 78
3 2 2 3
2
78 81
3 2 2 3
2
81 84
3 2 2 3
2
84 81
3 2 2 3
2
81 101
3 2 2 3
2
101 81
3 2 2 3
2
82 26
3 2 2 3
2
26 82
3 2 2 3
2
82 31
3 2 2 3
2
31 82
3 2 2 3
2
82 71
3 2 2 3
2
71 82
3 2 2 3
2
82 79
3 2 2 3
2
79 82
3 2 2 3
2
82 81
3 2 2 3
2
81 82
3 2 2 3
2
82 85
3 2 2 3
2
85 82
3 2 2 3
2
82 87
3 2 2 3
2
87 82
3 2 2 3
2
82 113
3 2 2 3
2
113 82
3 2 2 3
2
82 116
3 2 2 3
2
116 82
3 2 2 3
2
82 117
3 2 2 3
2
117 82
3 2 2 3
2
82 125
3 2 2 3
2
125 82
3 2 2 3
2
83 19
3 2 2 3
2
19 83
3 2 2 3
2
83 22
3 2 2 3
2
22 83
3 2 2 3
2
83 29
3 2 2 3
2
29 83
3 2 2 3
2
83 31
3 2 2 3
2
31 83
3 2 2 3
2
83 74
3 2 2 3
2
74 83
3 2 2 3
2
83 76
3 2 2 3
2
76 83
3 2 2 3
2
83 118
3 2 2 3
2
118 83
3 2 2 3
2
83 120
3 2 2 3
2
120 83
3 2 2 3
2
84 0
3 2 2 3
2
0 84
3 2 2 3
2
84 5
3 2 2 3
2
5 84
3 2 2 3
2
84 20
3 2 2 3
2
20 84
3 2 2 3
2
84 57
3 2 2 3
2
57 84
3 2 2 3
2
84 77
3 2 2 3
2
77 84
3 2 2 3
2
84 83
3 2 2 3
2
83 84
3 2 2 3
2
84 85
3 2 2 3
2
85 84
3 2 2 3
2
84 87
3 2 2 3
2
87 84
3 2 2 3
2
84 88
3 2 2 3
2
88 84
3 2 2 3
2
84 102
3 2 2 3
2
102 84
3 2 2 3
2
84 122
3 2 2 3
2
122 84
3 2 2 3
2
84 125
3 2 2 3
2
125 84
3 2 2 3
2
85 4
3 2 2 3
2
4 85
3 2 2 3
2
85 41
3 2 2 3
2
41 85
3 2 2 3
2
85 42
3 2 2 3
2
42 85
3 2 2 3
2
85 53
3 2 2 3
2
53 85
3 2 2 3
2
85 56
3 2 2 3
2
56 85
3 2 2 3
2
85 59
3 2 2 3
2
59 85
3 2 2 3
2
85 80
3 2 2 3
2
80 85
3 2 2 3
2
85 86
3 2 2 3
2
86 85
3 2 2 3
2
85 87
3 2 2 3
2
87 85
3 2 2 3
2
85 88
3 2 2 3
2
88 85
3 2 2 3
2
85 94
3 2 2 3
2
94 85
3 2 2 3
2
85 112
3 2 2 3
2
112 85
3 2 2 3
2
85 114
3 2 2 3
2
114 85
3 2 2 3
2
86 17
3 2 2 3
2
17 86
3 2 2 3
2
86 44
3 2 2 3
2
44 86
3 2 2 3
2
86 56
3 2 2 3
2
56 86
3 2 2 3
2
86 68
3 2 2 3
2
68 86
3 2 2 3
2
86 82
3 2 2 3
2
82 86
3 2 2 3
2
86 87
3 2 2 3
2
87 86
3 2 2 3
2
86 88
3 2 2 3
2
88 86
3 2 2 3
2
86 98
3 2 2 3
2
98 86
3 2 2 3
2
86 116
3 2 2 3
2
116 86
3 2 2 3
2
86 127
3 2 2 3
2
127 86
3 2 2 3
2
86 131
3 2 2 3
2
131 86
3 2 2 3
2
87 33
3 2 2 3
2
33 87
3 2 2 3
2
87 73
3 2 2 3
2
73 87
3 2 2 3
2
87 76
3 2 2 3
2
76 87
3 2 2 3
2
87 79
3 2 2 3
2
79 87
3 2 2 3
2
87 85
3 2 2 3
2
85 87
3 2 2 3
2
87 88
3 2 2 3
2
88 87
3 2 2 3
2
87 100
3 2 2 3
2
100 87
3 2 2 3
2
87 103
3 2 2 3
2
103 87
3 2 2 3
2
87 106
3 2 2 3
2
106 87
3 2 2 3
2
88 10
3 2 2 3
2
10 88
3 2 2 3
2
88 40
3 2 2 3
2
40 88
3 2 2 3
2
88 51
3 2 2 3
2
51 88
3 2 2 3
2
88 82
3 2 2 3
2
82 88
3 2 2 3
2
88 83
3 2 2 3
2
83 88
3 2 2 3
2
88 101
3 2 2 3
2
101 88
3 2 2 3
2
88 108
3 2 2 3
2
108 88
3 2 2 3
2
88 109
3 2 2 3
2
109 88
3 2 2 3
2
88 111
3 2 2 3
2
111 88
3 2 2 3
2
88 119
3 2 2 3
2
119 88
3 2 2 3
2
88 128
3 2 2 3
2
128 88
3 2 2 3
2
88 132
3 2 2 3
2
132 88
3 2 2 3
2
88 137
3 2 2 3
2
137 88
3 2 2 3
2
89 15
3 2 2 3
2
15 89
3 2 2 3
2
89 23
3 2 2 3
2
23 89
3 2 2 3
2
89 47
3 2 2 3
2
47 89
3 2 2 3
2
89 79
3 2 2 3
2
79 89
3 2 2 3
2
89 82
3 2 2 3
2
82 89
3 2 2 3
2
90 20
3 2 2 3
2
20 90
3 2 2 3
2
90 22
3 2 2 3
2
22 90
3 2 2 3
2
90 39
3 2 2 3
2
39 90
3 2 2 3
2
90 46
3 2 2 3
2
46 90
3 2 2 3
2
90 94
3 2 2 3
2
94 90
3 2 2 3
2
90 95
3 2 2 3
2
95 90
3 2 2 3
2
90 102
3 2 2 3
2
102 90
3 2 2 3
2
90 103
3 2 2 3
2
103 90
3 2 2 3
2
90 116
3 2 2 3
2
116 90
3 2 2 3
2
91 16
3 2 2 3
2
16 91
3 2 2 3
2
91 61
3 2 2 3
2
61 91
3 2 2 3
2
91 90
3 2 2 3
2
90 91
3 2 2 3
2
91 99
3 2 2 3
2
99 91
3 2 2 3
2
92 30
3 2 2 3
2
30 92
3 2 2 3
2
92 46
3 2 2 3
2
46 92
3 2 2 3
2
92 69
3 2 2 3
2
69 92
3 2 2 3
2
92 90
3 2 2 3
2
90 92
3 2 2 3
2
92 94
3 2 2 3
2
94 92
3 2 2 3
2
92 96
3 2 2 3
2
96 92
3 2 2 3
2
92 115
3 2 2 3
2
115 92
3 2 2 3
2
93 4
3 2 2 3
2
4 93
3 2 2 3
2
93 34
3 2 2 3
2
34 93
3 2 2 3
2
93 74
3 2 2 3
2
74 93
3 2 2 3
2
93 90
3 2 2 3
2
90 93
3 2 2 3
2
93 92
3 2 2 3
2
92 93
3 2 2 3
2
93 119
3 2 2 3
2
119 93
3 2 2 3
2
93 126
3 2 2 3
2
126 93
3 2 2 3
2
93 137
3 2 2 3
2
137 93
3 2 2 3
2
94 10
3 2 2 3
2
10 94
3 2 2 3
2
94 16
3 2 2 3
2
16 94
3 2 2 3
2
94 22
3 2 2 3
2
22 94
3 2 2 3
2
94 27
3 2 2 3
2
27 94
3 2 2 3
2
94 28
3 2 2 3
2
28 94
3 2 2 3
2
94 70
3 2 2 3
2
70 94
3 2 2 3
2
94 97
3 2 2 3
2
97 94
3 2 2 3
2
94 124
3 2 2 3
2
124 94
3 2 2 3
2
94 126
3 2 2 3
2
126 94
3 2 2 3
2
94 129
3 2 2 3
2
129 94
3 2 2 3
2
94 132
3 2 2 3
2
132 94
3 2 2 3
2
94 134
3 2 2 3
2
134 94
3 2 2 3
2
95 10
3 2 2 3
2
10 95
3 2 2 3
2
95 17
3 2 2 3
2
17 95
3 2 2 3
2
95 46
3 2 2 3
2
46 95
3 2 2 3
2
95 65
3 2 2 3
2
65 95
3 2 2 3
2
95 93
3 2 2 3
2
93 95
3 2 2 3
2
95 94
3 2 2 3
2
94 95
3 2 2 3
2
95 123
3 2 2 3
2
123 95
3 2 2 3
2
96 11
3 2 2 3
2
11 96
3 2 2 3
2
96 44
3 2 2 3
2
44 96
3 2 2 3
2
96 82
3 2 2 3
2
82 96
3 2 2 3
2
96 92
3 2 2 3
2
92 96
3 2 2 3
2
96 95
3 2 2 3
2
95 96
3 2 2 3
2
96 99
3 2 2 3
2
99 96
3 2 2 3
2
97 36
3 2 2 3
2
36 97
3 2 2 3
2
97 38
3 2 2 3
2
38 97
3 2 2 3
2
97 44
3 2 2 3
2
44 97
3 2 2 3
2
97 50
3 2 2 3
2
50 97
3 2 2 3
2
97 90
3 2 2 3
2
90 97
3 2 2 3
2
97 91
3 2 2 3
2
91 97
3 2 2 3
2
97 94
3 2 2 3
2
94 97
3 2 2 3
2
97 95
3 2 2 3
2
95 97
3 2 2 3
2
97 117
3 2 2 3
2
117 97
3 2 2 3
2
98 1
3 2 2 3
2
1 98
3 2 2 3
2
98 35
3 2 2 3
2
35 98
3 2 2 3
2
98 42
3 2 2 3
2
42 98
3 2 2 3
2
98 93
3 2 2 3
2
93 98
3 2 2 3
2
98 115
3 2 2 3
2
115 98
3 2 2 3
2
99 24
3 2 2 3
2
24 99
3 2 2 3
2
99 34
3 2 2 3
2
34 99
3 2 2 3
2
99 79
3 2 2 3
2
79 99
3 2 2 3
2
99 90
3 2 2 3
2
90 99
3 2 2 3
2
99 95
3 2 2 3
2
95 99
3 2 2 3
2
99 96
3 2 2 3
2
96 99
3 2 2 3
2
99 109
3 2 2 3
2
109 99
3 2 2 3
2
100 1
3 2 2 3
2
1 100
3 2 2 3
2
100 19
3 2 2 3
2
19 100
3 2 2 3
2
100 23
3 2 2 3
2
23 100
3 2 2 3
2
100 92
3 2 2 3
2
92 100
3 2 2 3
2
100 102
3 2 2 3
2
102 100
3 2 2 3
2
100 104
3 2 2 3
2
104 100
3 2 2 3
2
100 107
3 2 2 3
2
107 100
3 2 2 3
2
100 110
3 2 2 3
2
110 100
3 2 2 3
2
100 116
3 2 2 3
2
116 100
3 2 2 3
2
100 118
3 2 2 3
2
118 100
3 2 2 3
2
100 119
3 2 2 3
2
119 100
3 2 2 3
2
100 136
3 2 2 3
2
136 100
3 2 2 3
2
101 0
3 2 2 3
2
0 101
3 2 2 3
2
101 24
3 2 2 3
2
24 101
3 2 2 3
2
101 51
3 2 2 3
2
51 101
3 2 2 3
2
101 69
3 2 2 3
2
69 101
3 2 2 3
2
101 103
3 2 2 3
2
103 101
3 2 2 3
2
101 106
3 2 2 3
2
106 101
3 2 2 3
2
101 108
3 2 2 3
2
108 101
3 2 2 3
2
101 109
3 2 2 3
2
109 101
3 2 2 3
2
102 21
3 2 2 3
2
21 102
3 2 2 3
2
102 61
3 2 2 3
2
61 102
3 2 2 3
2
102 131
3 2 2 3
2
131 102
3 2 2 3
2
102 132
3 2 2 3
2
132 102
3 2 2 3
2
102 136
3 2 2 3
2
136 102
3 2 2 3
2
103 18
3 2 2 3
2
18 103
3 2 2 3
2
103 119
3 2 2 3
2
119 103
3 2 2 3
2
104 6
3 2 2 3
2
6 104
3 2 2 3
2
104 7
3 2 2 3
2
7 104
3 2 2 3
2
104 15
3 2 2 3
2
15 104
3 2 2 3
2
104 39
3 2 2 3
2
39 104
3 2 2 3
2
104 45
3 2 2 3
2
45 104
3 2 2 3
2
104 55
3 2 2 3
2
55 104
3 2 2 3
2
104 102
3 2 2 3
2
102 104
3 2 2 3
2
104 118
3 2 2 3
2
118 104
3 2 2 3
2
105 23
3 2 2 3
2
23 105
3 2 2 3
2
105 28
3 2 2 3
2
28 105
3 2 2 3
2
105 33
3 2 2 3
2
33 105
3 2 2 3
2
105 46
3 2 2 3
2
46 105
3 2 2 3
2
105 69
3 2 2 3
2
69 105
3 2 2 3
2
105 74
3 2 2 3
2
74 105
3 2 2 3
2
105 92
3 2 2 3
2
92 105
3 2 2 3
2
105 93
3 2 2 3
2
93 105
3 2 2 3
2
105 102
3 2 2 3
2
102 105
3 2 2 3
2
105 103
3 2 2 3
2
103 105
3 2 2 3
2
105 107
3 2 2 3
2
107 105
3 2 2 3
2
105 121
3 2 2 3
2
121 105
3 2 2 3
2
106 2
3 2 2 3
2
2 106
3 2 2 3
2
106 15
3 2 2 3
2
15 106
3 2 2 3
2
106 27
3 2 2 3
2
27 106
3 2 2 3
2
106 72
3 2 2 3
2
72 106
3 2 2 3
2
106 75
3 2 2 3
2
75 106
3 2 2 3
2
106 77
3 2 2 3
2
77 106
3 2 2 3
2
106 87
3 2 2 3
2
87 106
3 2 2 3
2
106 100
3 2 2 3
2
100 106
3 2 2 3
2
106 101
3 2 2 3
2
101 106
3 2 2 3
2
106 102
3 2 2 3
2
102 106
3 2 2 3
2
106 103
3 2 2 3
2
103 106
3 2 2 3
2
106 114
3 2 2 3
2
114 106
3 2 2 3
2
106 116
3 2 2 3
2
116 106
3 2 2 3
2
106 138
3 2 2 3
2
138 106
3 2 2 3
2
107 42
3 2 2 3
2
42 107
3 2 2 3
2
107 46
3 2 2 3
2
46 107
3 2 2 3
2
107 62
3 2 2 3
2
62 107
3 2 2 3
2
107 64
3 2 2 3
2
64 107
3 2 2 3
2
107 104
3 2 2 3
2
104 107
3 2 2 3
2
107 105
3 2 2 3
2
105 107
3 2 2 3
2
107 106
3 2 2 3
2
106 107
3 2 2 3
2
107 108
3 2 2 3
2
108 107
3 2 2 3
2
108 8
3 2 2 3
2
8 108
3 2 2 3
2
108 18
3 2 2 3
2
18 108
3 2 2 3
2
108 36
3 2 2 3
2
36 108
3 2 2 3
2
108 42
3 2 2 3
2
42 108
3 2 2 3
2
108 103
3 2 2 3
2
103 108
3 2 2 3
2
108 104
3 2 2 3
2
104 108
3 2 2 3
2
108 105
3 2 2 3
2
105 108
3 2 2 3
2
108 132
3 2 2 3
2
132 108
3 2 2 3
2
109 15
3 2 2 3
2
15 109
3 2 2 3
2
109 23
3 2 2 3
2
23 109
3 2 2 3
2
109 41
3 2 2 3
2
41 109
3 2 2 3
2
109 58
3 2 2 3
2
58 109
3 2 2 3
2
109 87
3 2 2 3
2
87 109
3 2 2 3
2
109 90
3 2 2 3
2
90 109
3 2 2 3
2
109 92
3 2 2 3
2
92 109
3 2 2 3
2
109 100
3 2 2 3
2
100 109
3 2 2 3
2
109 104
3 2 2 3
2
104 109
3 2 2 3
2
109 106
3 2 2 3
2
106 109
3 2 2 3
2
109 107
3 2 2 3
2
107 109
3 2 2 3
2
109 108
3 2 2 3
2
108 109
3 2 2 3
2
109 111
3 2 2 3
2
111 109
3 2 2 3
2
109 116
3 2 2 3
2
116 109
3 2 2 3
2
109 139
3 2 2 3
2
139 109
3 2 2 3
2
110 14
3 2 2 3
2
14 110
3 2 2 3
2
110 19
3 2 2 3
2
19 110
3 2 2 3
2
110 20
3 2 2 3
2
20 110
3 2 2 3
2
110 21
3 2 2 3
2
21 110
3 2 2 3
2
110 39
3 2 2 3
2
39 110
3 2 2 3
2
110 56
3 2 2 3
2
56 110
3 2 2 3
2
110 97
3 2 2 3
2
97 110
3 2 2 3
2
110 109
3 2 2 3
2
109 110
3 2 2 3
2
110 115
3 2 2 3
2
115 110
3 2 2 3
2
110 127
3 2 2 3
2
127 110
3 2 2 3
2
111 17
3 2 2 3
2
17 111
3 2 2 3
2
111 23
3 2 2 3
2
23 111
3 2 2 3
2
111 27
3 2 2 3
2
27 111
3 2 2 3
2
111 62
3 2 2 3
2
62 111
3 2 2 3
2
111 69
3 2 2 3
2
69 111
3 2 2 3
2
111 89
3 2 2 3
2
89 111
3 2 2 3
2
111 107
3 2 2 3
2
107 111
3 2 2 3
2
111 113
3 2 2 3
2
113 111
3 2 2 3
2
111 118
3 2 2 3
2
118 111
3 2 2 3
2
111 119
3 2 2 3
2
119 111
3 2 2 3
2
112 38
3 2 2 3
2
38 112
3 2 2 3
2
112 40
3 2 2 3
2
40 112
3 2 2 3
2
112 62
3 2 2 3
2
62 112
3 2 2 3
2
112 66
3 2 2 3
2
66 112
3 2 2 3
2
112 81
3 2 2 3
2
81 112
3 2 2 3
2
112 82
3 2 2 3
2
82 112
3 2 2 3
2
112 113
3 2 2 3
2
113 112
3 2 2 3
2
112 115
3 2 2 3
2
115 112
3 2 2 3
2
112 117
3 2 2 3
2
117 112
3 2 2 3
2
113 18
3 2 2 3
2
18 113
3 2 2 3
2
113 19
3 2 2 3
2
19 113
3 2 2 3
2
113 46
3 2 2 3
2
46 113
3 2 2 3
2
113 54
3 2 2 3
2
54 113
3 2 2 3
2
113 60
3 2 2 3
2
60 113
3 2 2 3
2
113 61
3 2 2 3
2
61 113
3 2 2 3
2
113 68
3 2 2 3
2
68 113
3 2 2 3
2
113 106
3 2 2 3
2
106 113
3 2 2 3
2
113 117
3 2 2 3
2
117 113
3 2 2 3
2
113 136
3 2 2 3
2
136 113
3 2 2 3
2
114 0
3 2 2 3
2
0 114
3 2 2 3
2
114 54
3 2 2 3
2
54 114
3 2 2 3
2
114 68
3 2 2 3
2
68 114
3 2 2 3
2
114 71
3 2 2 3
2
71 114
3 2 2 3
2
114 92
3 2 2 3
2
92 114
3 2 2 3
2
114 118
3 2 2 3
2
118 114
3 2 2 3
2
114 127
3 2 2 3
2
127 114
3 2 2 3
2
114 131
3 2 2 3
2
131 114
3 2 2 3
2
114 133
3 2 2 3
2
133 114
3 2 2 3
2
115 1
3 2 2 3
2
1 115
3 2 2 3
2
115 69
3 2 2 3
2
69 115
3 2 2 3
2
115 75
3 2 2 3
2
75 115
3 2 2 3
2
115 91
3 2 2 3
2
91 115
3 2 2 3
2
115 116
3 2 2 3
2
116 115
3 2 2 3
2
115 117
3 2 2 3
2
117 115
3 2 2 3
2
115 118
3 2 2 3
2
118 115
3 2 2 3
2
115 119
3 2 2 3
2
119 115
3 2 2 3
2
115 131
3 2 2 3
2
131 115
3 2 2 3
2
115 134
3 2 2 3
2
134 115
3 2 2 3
2
116 12
3 2 2 3
2
12 116
3 2 2 3
2
116 16
3 2 2 3
2
16 116
3 2 2 3
2
116 49
3 2 2 3
2
49 116
3 2 2 3
2
116 106
3 2 2 3
2
106 116
3 2 2 3
2
116 111
3 2 2 3
2
111 116
3 2 2 3
2
116 114
3 2 2 3
2
114 116
3 2 2 3
2
116 118
3 2 2 3
2
118 116
3 2 2 3
2
116 125
3 2 2 3
2
125 116
3 2 2 3
2
117 8
3 2 2 3
2
8 117
3 2 2 3
2
117 22
3 2 2 3
2
22 117
3 2 2 3
2
117 27
3 2 2 3
2
27 117
3 2 2 3
2
117 38
3 2 2 3
2
38 117
3 2 2 3
2
117 40
3 2 2 3
2
40 117
3 2 2 3
2
117 58
3 2 2 3
2
58 117
3 2 2 3
2
117 67
3 2 2 3
2
67 117
3 2 2 3
2
117 77
3 2 2 3
2
77 117
3 2 2 3
2
117 85
3 2 2 3
2
85 117
3 2 2 3
2
117 119
3 2 2 3
2
119 117
3 2 2 3
2
117 133
3 2 2 3
2
133 117
3 2 2 3
2
118 1
3 2 2 3
2
1 118
3 2 2 3
2
118 4
3 2 2 3
2
4 118
3 2 2 3
2
118 43
3 2 2 3
2
43 118
3 2 2 3
2
118 54
3 2 2 3
2
54 118
3 2 2 3
2
118 94
3 2 2 3
2
94 118
3 2 2 3
2
118 104
3 2 2 3
2
104 118
3 2 2 3
2
118 112
3 2 2 3
2
112 118
3 2 2 3
2
118 117
3 2 2 3
2
117 118
3 2 2 3
2
118 120
3 2 2 3
2
120 118
3 2 2 3
2
119 16
3 2 2 3
2
16 119
3 2 2 3
2
119 28
3 2 2 3
2
28 119
3 2 2 3
2
119 33
3 2 2 3
2
33 119
3 2 2 3
2
119 73
3 2 2 3
2
73 119
3 2 2 3
2
119 78
3 2 2 3
2
78 119
3 2 2 3
2
119 88
3 2 2 3
2
88 119
3 2 2 3
2
119 104
3 2 2 3
2
104 119
3 2 2 3
2
119 115
3 2 2 3
2
115 119
3 2 2 3
2
119 116
3 2 2 3
2
116 119
3 2 2 3
2
119 130
3 2 2 3
2
130 119
3 2 2 3
2
119 133
3 2 2 3
2
133 119
3 2 2 3
2
120 90
3 2 2 3
2
90 120
3 2 2 3
2
120 97
3 2 2 3
2
97 120
3 2 2 3
2
120 121
3 2 2 3
2
121 120
3 2 2 3
2
120 128
3 2 2 3
2
128 120
3 2 2 3
2
120 129
3 2 2 3
2
129 120
3 2 2 3
2
120 131
3 2 2 3
2
131 120
3 2 2 3
2
120 136
3 2 2 3
2
136 120
3 2 2 3
2
121 49
3 2 2 3
2
49 121
3 2 2 3
2
121 72
3 2 2 3
2
72 121
3 2 2 3
2
121 89
3 2 2 3
2
89 121
3 2 2 3
2
121 112
3 2 2 3
2
112 121
3 2 2 3
2
121 113
3 2 2 3
2
113 121
3 2 2 3
2
121 119
3 2 2 3
2
119 121
3 2 2 3
2
121 126
3 2 2 3
2
126 121
3 2 2 3
2
122 41
3 2 2 3
2
41 122
3 2 2 3
2
122 46
3 2 2 3
2
46 122
3 2 2 3
2
122 96
3 2 2 3
2
96 122
3 2 2 3
2
122 113
3 2 2 3
2
113 122
3 2 2 3
2
122 119
3 2 2 3
2
119 122
3 2 2 3
2
122 127
3 2 2 3
2
127 122
3 2 2 3
2
122 128
3 2 2 3
2
128 122
3 2 2 3
2
123 10
3 2 2 3
2
10 123
3 2 2 3
2
123 43
3 2 2 3
2
43 123
3 2 2 3
2
123 67
3 2 2 3
2
67 123
3 2 2 3
2
123 74
3 2 2 3
2
74 123
3 2 2 3
2
123 106
3 2 2 3
2
106 123
3 2 2 3
2
123 117
3 2 2 3
2
117 123
3 2 2 3
2
123 120
3 2 2 3
2
120 123
3 2 2 3
2
123 121
3 2 2 3
2
121 123
3 2 2 3
2
123 128
3 2 2 3
2
128 123
3 2 2 3
2
123 138
3 2 2 3
2
138 123
3 2 2 3
2
124 5
3 2 2 3
2
5 124
3 2 2 3
2
124 12
3 2 2 3
2
12 124
3 2 2 3
2
124 19
3 2 2 3
2
19 124
3 2 2 3
2
124 27
3 2 2 3
2
27 124
3 2 2 3
2
124 65
3 2 2 3
2
65 124
3 2 2 3
2
124 70
3 2 2 3
2
70 124
3 2 2 3
2
124 97
3 2 2 3
2
97 124
3 2 2 3
2
124 105
3 2 2 3
2
105 124
3 2 2 3
2
124 106
3 2 2 3
2
106 124
3 2 2 3
2
124 118
3 2 2 3
2
118 124
3 2 2 3
2
124 120
3 2 2 3
2
120 124
3 2 2 3
2
124 122
3 2 2 3
2
122 124
3 2 2 3
2
124 123
3 2 2 3
2
123 124
3 2 2 3
2
124 125
3 2 2 3
2
125 124
3 2 2 3
2
124 128
3 2 2 3
2
128 124
3 2 2 3
2
125 7
3 2 2 3
2
7 125
3 2 2 3
2
125 15
3 2 2 3
2
15 125
3 2 2 3
2
125 68
3 2 2 3
2
68 125
3 2 2 3
2
125 126
3 2 2 3
2
126 125
3 2 2 3
2
125 128
3 2 2 3
2
128 125
3 2 2 3
2
125 137
3 2 2 3
2
137 125
3 2 2 3
2
126 9
3 2 2 3
2
9 126
3 2 2 3
2
126 12
3 2 2 3
2
12 126
3 2 2 3
2
126 53
3 2 2 3
2
53 126
3 2 2 3
2
126 66
3 2 2 3
2
66 126
3 2 2 3
2
126 71
3 2 2 3
2
71 126
3 2 2 3
2
126 74
3 2 2 3
2
74 126
3 2 2 3
2
126 78
3 2 2 3
2
78 126
3 2 2 3
2
126 102
3 2 2 3
2
102 126
3 2 2 3
2
126 117
3 2 2 3
2
117 126
3 2 2 3
2
126 119
3 2 2 3
2
119 126
3 2 2 3
2
126 122
3 2 2 3
2
122 126
3 2 2 3
2
126 128
3 2 2 3
2
128 126
3 2 2 3
2
127 123
3 2 2 3
2
123 127
3 2 2 3
2
127 135
3 2 2 3
2
135 127
3 2 2 3
2
128 9
3 2 2 3
2
9 128
3 2 2 3
2
128 50
3 2 2 3
2
50 128
3 2 2 3
2
128 75
3 2 2 3
2
75 128
3 2 2 3
2
128 80
3 2 2 3
2
80 128
3 2 2 3
2
128 84
3 2 2 3
2
84 128
3 2 2 3
2
128 98
3 2 2 3
2
98 128
3 2 2 3
2
128 107
3 2 2 3
2
107 128
3 2 2 3
2
128 123
3 2 2 3
2
123 128
3 2 2 3
2
128 125
3 2 2 3
2
125 128
3 2 2 3
2
128 138
3 2 2 3
2
138 128
3 2 2 3
2
129 12
3 2 2 3
2
12 129
3 2 2 3
2
129 71
3 2 2 3
2
71 129
3 2 2 3
2
129 92
3 2 2 3
2
92 129
3 2 2 3
2
129 99
3 2 2 3
2
99 129
3 2 2 3
2
129 108
3 2 2 3
2
108 129
3 2 2 3
2
129 115
3 2 2 3
2
115 129
3 2 2 3
2
129 118
3 2 2 3
2
118 129
3 2 2 3
2
129 121
3 2 2 3
2
121 129
3 2 2 3
2
130 40
3 2 2 3
2
40 130
3 2 2 3
2
130 61
3 2 2 3
2
61 130
3 2 2 3
2
130 76
3 2 2 3
2
76 130
3 2 2 3
2
130 79
3 2 2 3
2
79 130
3 2 2 3
2
130 116
3 2 2 3
2
116 130
3 2 2 3
2
130 127
3 2 2 3
2
127 130
3 2 2 3
2
130 133
3 2 2 3
2
133 130
3 2 2 3
2
131 5
3 2 2 3
2
5 131
3 2 2 3
2
131 6
3 2 2 3
2
6 131
3 2 2 3
2
131 42
3 2 2 3
2
42 131
3 2 2 3
2
131 79
3 2 2 3
2
79 131
3 2 2 3
2
131 104
3 2 2 3
2
104 131
3 2 2 3
2
131 130
3 2 2 3
2
130 131
3 2 2 3
2
131 134
3 2 2 3
2
134 131
3 2 2 3
2
131 138
3 2 2 3
2
138 131
3 2 2 3
2
132 3
3 2 2 3
2
3 132
3 2 2 3
2
132 5
3 2 2 3
2
5 132
3 2 2 3
2
132 18
3 2 2 3
2
18 132
3 2 2 3
2
132 21
3 2 2 3
2
21 132
3 2 2 3
2
132 42
3 2 2 3
2
42 132
3 2 2 3
2
132 68
3 2 2 3
2
68 132
3 2 2 3
2
132 89
3 2 2 3
2
89 132
3 2 2 3
2
132 101
3 2 2 3
2
101 132
3 2 2 3
2
132 129
3 2 2 3
2
129 132
3 2 2 3
2
132 134
3 2 2 3
2
134 132
3 2 2 3
2
132 135
3 2 2 3
2
135 132
3 2 2 3
2
132 139
3 2 2 3
2
139 132
3 2 2 3
2
133 23
3 2 2 3
2
23 133
3 2 2 3
2
133 29
3 2 2 3
2
29 133
3 2 2 3
2
133 30
3 2 2 3
2
30 133
3 2 2 3
2
133 32
3 2 2 3
2
32 133
3 2 2 3
2
133 72
3 2 2 3
2
72 133
3 2 2 3
2
133 74
3 2 2 3
2
74 133
3 2 2 3
2
133 111
3 2 2 3
2
111 133
3 2 2 3
2
133 116
3 2 2 3
2
116 133
3 2 2 3
2
133 135
3 2 2 3
2
135 133
3 2 2 3
2
133 138
3 2 2 3
2
138 133
3 2 2 3
2
134 29
3 2 2 3
2
29 134
3 2 2 3
2
134 30
3 2 2 3
2
30 134
3 2 2 3
2
134 37
3 2 2 3
2
37 134
3 2 2 3
2
134 38
3 2 2 3
2
38 134
3 2 2 3
2
134 73
3 2 2 3
2
73 134
3 2 2 3
2
134 74
3 2 2 3
2
74 134
3 2 2 3
2
134 78
3 2 2 3
2
78 134
3 2 2 3
2
134 84
3 2 2 3
2
84 134
3 2 2 3
2
134 133
3 2 2 3
2
133 134
3 2 2 3
2
135 4
3 2 2 3
2
4 135
3 2 2 3
2
135 33
3 2 2 3
2
33 135
3 2 2 3
2
135 77
3 2 2 3
2
77 135
3 2 2 3
2
135 101
3 2 2 3
2
101 135
3 2 2 3
2
135 102
3 2 2 3
2
102 135
3 2 2 3
2
135 117
3 2 2 3
2
117 135
3 2 2 3
2
135 130
3 2 2 3
2
130 135
3 2 2 3
2
135 136
3 2 2 3
2
136 135
3 2 2 3
2
135 137
3 2 2 3
2
137 135
3 2 2 3
2
135 138
3 2 2 3
2
138 135
3 2 2 3
2
136 9
3 2 2 3
2
9 136
3 2 2 3
2
136 23
3 2 2 3
2
23 136
3 2 2 3
2
136 44
3 2 2 3
2
44 136
3 2 2 3
2
136 116
3 2 2 3
2
116 136
3 2 2 3
2
136 123
3 2 2 3
2
123 136
3 2 2 3
2
136 132
3 2 2 3
2
132 136
3 2 2 3
2
137 1
3 2 2 3
2
1 137
3 2 2 3
2
137 14
3 2 2 3
2
14 137
3 2 2 3
2
137 59
3 2 2 3
2
59 137
3 2 2 3
2
137 82
3 2 2 3
2
82 137
3 2 2 3
2
137 125
3 2 2 3
2
125 137
3 2 2 3
2
137 131
3 2 2 3
2
131 137
3 2 2 3
2
137 133
3 2 2 3
2
133 137
3 2 2 3
2
137 135
3 2 2 3
2
135 137
3 2 2 3
2
137 136
3 2 2 3
2
136 137
3 2 2 3
2
137 138
3 2 2 3
2
138 137
3 2 2 3
2
137 139
3 2 2 3
2
139 137
3 2 2 3
2
138 4
3 2 2 3
2
4 138
3 2 2 3
2
138 29
3 2 2 3
2
29 138
3 2 2 3
2
138 37
3 2 2 3
2
37 138
3 2 2 3
2
138 39
3 2 2 3
2
39 138
3 2 2 3
2
138 74
3 2 2 3
2
74 138
3 2 2 3
2
138 83
3 2 2 3
2
83 138
3 2 2 3
2
138 97
3 2 2 3
2
97 138
3 2 2 3
2
138 123
3 2 2 3
2
123 138
3 2 2 3
2
138 133
3 2 2 3
2
133 138
3 2 2 3
2
139 24
3 2 2 3
2
24 139
3 2 2 3
2
139 64
3 2 2 3
2
64 139
3 2 2 3
2
139 131
3 2 2 3
2
131 139
3 2 2 3
2
139 132
3 2 2 3
2
132 139
3 2 2 3
2
139 133
3 2 2 3
2
133 139
3 2 2 3
2
139 134
3 2 2 3
2
134 139
3 2 2 3
2
139 135
3 2 2 3
2
135 139
3 2 2 3
2
139 136
3 2 2 3
2
136 139
3 2 2 3
2
139 138
3 2 2 3
2
138 139
3 2 2 3
