100 1474
2
0 1
3 2 2 3
2
1 0
3 2 2 3
2
0 2
3 2 2 3
2
2 0
3 2 2 3
2
0 4
3 2 2 3
2
4 0
3 2 2 3
2
0 10
3 2 2 3
2
10 0
3 2 2 3
2
0 29
3 2 2 3
2
29 0
3 2 2 3
2
0 36
3 2 2 3
2
36 0
3 2 2 3
2
0 49
3 2 2 3
2
49 0
3 2 2 3
2
0 74
3 2 2 3
2
74 0
3 2 2 3
2
0 80
3 2 2 3
2
80 0
3 2 2 3
2
0 98
3 2 2 3
2
98 0
3 2 2 3
2
1 4
3 2 2 3
2
4 1
3 2 2 3
2
1 6
3 2 2 3
2
6 1
3 2 2 3
2
1 7
3 2 2 3
2
7 1
3 2 2 3
2
1 12
3 2 2 3
2
12 1
3 2 2 3
2
1 27
3 2 2 3
2
27 1
3 2 2 3
2
1 41
3 2 2 3
2
41 1
3 2 2 3
2
1 59
3 2 2 3
2
59 1
3 2 2 3
2
1 61
3 2 2 3
2
61 1
3 2 2 3
2
1 73
3 2 2 3
2
73 1
3 2 2 3
2
1 90
3 2 2 3
2
90 1
3 2 2 3
2
1 97
3 2 2 3
2
97 1
3 2 2 3
2
2 1
3 2 2 3
2
1 2
3 2 2 3
2
2 4
3 2 2 3
2
4 2
3 2 2 3
2
2 7
3 2 2 3
2
7 2
3 2 2 3
2
2 8
3 2 2 3
2
8 2
3 2 2 3
2
2 29
3 2 2 3
2
29 2
3 2 2 3
2
2 53
3 2 2 3
2
53 2
3 2 2 3
2
2 55
3 2 2 3
2
55 2
3 2 2 3
2
2 78
3 2 2 3
2
78 2
3 2 2 3
2
2 93
3 2 2 3
2
93 2
3 2 2 3
2
3 1
3 2 2 3
2
1 3
3 2 2 3
2
3 4
3 2 2 3
2
4 3
3 2 2 3
2
3 9
3 2 2 3
2
9 3
3 2 2 3
2
3 14
3 2 2 3
2
14 3
3 2 2 3
2
3 26
3 2 2 3
2
26 3
3 2 2 3
2
3 50
3 2 2 3
2
50 3
3 2 2 3
2
3 70
3 2 2 3
2
70 3
3 2 2 3
2
3 72
3 2 2 3
2
72 3
3 2 2 3
2
3 77
3 2 2 3
2
77 3
3 2 2 3
2
3 84
3 2 2 3
2
84 3
3 2 2 3
2
3 90
3 2 2 3
2
90 3
3 2 2 3
2
3 97
3 2 2 3
2
97 3
3 2 2 3
2
4 0
3 2 2 3
2
0 4
3 2 2 3
2
4 3
3 2 2 3
2
3 4
3 2 2 3
2
4 7
3 2 2 3
2
7 4
3 2 2 3
2
4 35
3 2 2 3
2
35 4
3 2 2 3
2
4 49
3 2 2 3
2
49 4
3 2 2 3
2
4 50
3 2 2 3
2
50 4
3 2 2 3
2
4 62
3 2 2 3
2
62 4
3 2 2 3
2
4 85
3 2 2 3
2
85 4
3 2 2 3
2
5 6
3 2 2 3
2
6 5
3 2 2 3
2
5 7
3 2 2 3
2
7 5
3 2 2 3
2
5 8
3 2 2 3
2
8 5
3 2 2 3
2
5 15
3 2 2 3
2
15 5
3 2 2 3
2
5 54
3 2 2 3
2
54 5
3 2 2 3
2
6 0
3 2 2 3
2
0 6
3 2 2 3
2
6 3
3 2 2 3
2
3 6
3 2 2 3
2
6 13
3 2 2 3
2
13 6
3 2 2 3
2
6 31
3 2 2 3
2
31 6
3 2 2 3
2
6 47
3 2 2 3
2
47 6
3 2 2 3
2
6 73
3 2 2 3
2
73 6
3 2 2 3
2
7 3
3 2 2 3
2
3 7
3 2 2 3
2
7 4
3 2 2 3
2
4 7
3 2 2 3
2
7 5
3 2 2 3
2
5 7
3 2 2 3
2
7 9
3 2 2 3
2
9 7
3 2 2 3
2
7 23
3 2 2 3
2
23 7
3 2 2 3
2
7 25
3 2 2 3
2
25 7
3 2 2 3
2
7 39
3 2 2 3
2
39 7
3 2 2 3
2
7 43
3 2 2 3
2
43 7
3 2 2 3
2
7 58
3 2 2 3
2
58 7
3 2 2 3
2
7 69
3 2 2 3
2
69 7
3 2 2 3
2
7 71
3 2 2 3
2
71 7
3 2 2 3
2
7 89
3 2 2 3
2
89 7
3 2 2 3
2
7 97
3 2 2 3
2
97 7
3 2 2 3
2
8 1
3 2 2 3
2
1 8
3 2 2 3
2
8 6
3 2 2 3
2
6 8
3 2 2 3
2
8 7
3 2 2 3
2
7 8
3 2 2 3
2
8 9
3 2 2 3
2
9 8
3 2 2 3
2
8 13
3 2 2 3
2
13 8
3 2 2 3
2
8 20
3 2 2 3
2
20 8
3 2 2 3
2
8 35
3 2 2 3
2
35 8
3 2 2 3
2
8 42
3 2 2 3
2
42 8
3 2 2 3
2
8 48
3 2 2 3
2
48 8
3 2 2 3
2
8 88
3 2 2 3
2
88 8
3 2 2 3
2
8 98
3 2 2 3
2
98 8
3 2 2 3
2
9 6
3 2 2 3
2
6 9
3 2 2 3
2
9 8
3 2 2 3
2
8 9
3 2 2 3
2
9 35
3 2 2 3
2
35 9
3 2 2 3
2
9 69
3 2 2 3
2
69 9
3 2 2 3
2
9 71
3 2 2 3
2
71 9
3 2 2 3
2
9 96
3 2 2 3
2
96 9
3 2 2 3
2
10 12
3 2 2 3
2
12 10
3 2 2 3
2
10 14
3 2 2 3
2
14 10
3 2 2 3
2
10 29
3 2 2 3
2
29 10
3 2 2 3
2
10 41
3 2 2 3
2
41 10
3 2 2 3
2
10 55
3 2 2 3
2
55 10
3 2 2 3
2
10 68
3 2 2 3
2
68 10
3 2 2 3
2
10 70
3 2 2 3
2
70 10
3 2 2 3
2
10 76
3 2 2 3
2
76 10
3 2 2 3
2
10 80
3 2 2 3
2
80 10
3 2 2 3
2
10 90
3 2 2 3
2
90 10
3 2 2 3
2
11 14
3 2 2 3
2
14 11
3 2 2 3
2
11 16
3 2 2 3
2
16 11
3 2 2 3
2
11 20
3 2 2 3
2
20 11
3 2 2 3
2
11 36
3 2 2 3
2
36 11
3 2 2 3
2
11 80
3 2 2 3
2
80 11
3 2 2 3
2
12 10
3 2 2 3
2
10 12
3 2 2 3
2
12 11
3 2 2 3
2
11 12
3 2 2 3
2
12 13
3 2 2 3
2
13 12
3 2 2 3
2
12 16
3 2 2 3
2
16 12
3 2 2 3
2
12 19
3 2 2 3
2
19 12
3 2 2 3
2
12 20
3 2 2 3
2
20 12
3 2 2 3
2
12 31
3 2 2 3
2
31 12
3 2 2 3
2
12 32
3 2 2 3
2
32 12
3 2 2 3
2
12 52
3 2 2 3
2
52 12
3 2 2 3
2
12 58
3 2 2 3
2
58 12
3 2 2 3
2
12 93
3 2 2 3
2
93 12
3 2 2 3
2
13 10
3 2 2 3
2
10 13
3 2 2 3
2
13 66
3 2 2 3
2
66 13
3 2 2 3
2
14 3
3 2 2 3
2
3 14
3 2 2 3
2
14 11
3 2 2 3
2
11 14
3 2 2 3
2
14 13
3 2 2 3
2
13 14
3 2 2 3
2
14 17
3 2 2 3
2
17 14
3 2 2 3
2
14 25
3 2 2 3
2
25 14
3 2 2 3
2
14 58
3 2 2 3
2
58 14
3 2 2 3
2
14 72
3 2 2 3
2
72 14
3 2 2 3
2
14 73
3 2 2 3
2
73 14
3 2 2 3
2
14 85
3 2 2 3
2
85 14
3 2 2 3
2
14 97
3 2 2 3
2
97 14
3 2 2 3
2
15 5
3 2 2 3
2
5 15
3 2 2 3
2
15 7
3 2 2 3
2
7 15
3 2 2 3
2
15 11
3 2 2 3
2
11 15
3 2 2 3
2
15 14
3 2 2 3
2
14 15
3 2 2 3
2
15 17
3 2 2 3
2
17 15
3 2 2 3
2
15 27
3 2 2 3
2
27 15
3 2 2 3
2
15 35
3 2 2 3
2
35 15
3 2 2 3
2
15 72
3 2 2 3
2
72 15
3 2 2 3
2
15 84
3 2 2 3
2
84 15
3 2 2 3
2
15 88
3 2 2 3
2
88 15
3 2 2 3
2
15 98
3 2 2 3
2
98 15
3 2 2 3
2
16 0
3 2 2 3
2
0 16
3 2 2 3
2
16 7
3 2 2 3
2
7 16
3 2 2 3
2
16 10
3 2 2 3
2
10 16
3 2 2 3
2
16 11
3 2 2 3
2
11 16
3 2 2 3
2
16 14
3 2 2 3
2
14 16
3 2 2 3
2
16 17
3 2 2 3
2
17 16
3 2 2 3
2
16 64
3 2 2 3
2
64 16
3 2 2 3
2
17 13
3 2 2 3
2
13 17
3 2 2 3
2
17 15
3 2 2 3
2
15 17
3 2 2 3
2
17 19
3 2 2 3
2
19 17
3 2 2 3
2
18 11
3 2 2 3
2
11 18
3 2 2 3
2
18 12
3 2 2 3
2
12 18
3 2 2 3
2
18 14
3 2 2 3
2
14 18
3 2 2 3
2
18 17
3 2 2 3
2
17 18
3 2 2 3
2
18 19
3 2 2 3
2
19 18
3 2 2 3
2
18 20
3 2 2 3
2
20 18
3 2 2 3
2
18 29
3 2 2 3
2
29 18
3 2 2 3
2
18 44
3 2 2 3
2
44 18
3 2 2 3
2
18 72
3 2 2 3
2
72 18
3 2 2 3
2
18 80
3 2 2 3
2
80 18
3 2 2 3
2
19 15
3 2 2 3
2
15 19
3 2 2 3
2
19 22
3 2 2 3
2
22 19
3 2 2 3
2
19 77
3 2 2 3
2
77 19
3 2 2 3
2
20 4
3 2 2 3
2
4 20
3 2 2 3
2
20 25
3 2 2 3
2
25 20
3 2 2 3
2
20 36
3 2 2 3
2
36 20
3 2 2 3
2
20 62
3 2 2 3
2
62 20
3 2 2 3
2
20 87
3 2 2 3
2
87 20
3 2 2 3
2
20 94
3 2 2 3
2
94 20
3 2 2 3
2
20 98
3 2 2 3
2
98 20
3 2 2 3
2
21 20
3 2 2 3
2
20 21
3 2 2 3
2
21 22
3 2 2 3
2
22 21
3 2 2 3
2
21 25
3 2 2 3
2
25 21
3 2 2 3
2
21 29
3 2 2 3
2
29 21
3 2 2 3
2
21 60
3 2 2 3
2
60 21
3 2 2 3
2
21 74
3 2 2 3
2
74 21
3 2 2 3
2
21 75
3 2 2 3
2
75 21
3 2 2 3
2
21 82
3 2 2 3
2
82 21
3 2 2 3
2
22 23
3 2 2 3
2
23 22
3 2 2 3
2
23 5
3 2 2 3
2
5 23
3 2 2 3
2
23 21
3 2 2 3
2
21 23
3 2 2 3
2
23 24
3 2 2 3
2
24 23
3 2 2 3
2
23 54
3 2 2 3
2
54 23
3 2 2 3
2
23 94
3 2 2 3
2
94 23
3 2 2 3
2
24 0
3 2 2 3
2
0 24
3 2 2 3
2
24 14
3 2 2 3
2
14 24
3 2 2 3
2
24 20
3 2 2 3
2
20 24
3 2 2 3
2
24 25
3 2 2 3
2
25 24
3 2 2 3
2
24 28
3 2 2 3
2
28 24
3 2 2 3
2
24 66
3 2 2 3
2
66 24
3 2 2 3
2
25 6
3 2 2 3
2
6 25
3 2 2 3
2
25 13
3 2 2 3
2
13 25
3 2 2 3
2
25 21
3 2 2 3
2
21 25
3 2 2 3
2
25 26
3 2 2 3
2
26 25
3 2 2 3
2
25 28
3 2 2 3
2
28 25
3 2 2 3
2
25 29
3 2 2 3
2
29 25
3 2 2 3
2
25 48
3 2 2 3
2
48 25
3 2 2 3
2
25 54
3 2 2 3
2
54 25
3 2 2 3
2
25 57
3 2 2 3
2
57 25
3 2 2 3
2
25 86
3 2 2 3
2
86 25
3 2 2 3
2
25 88
3 2 2 3
2
88 25
3 2 2 3
2
26 7
3 2 2 3
2
7 26
3 2 2 3
2
26 16
3 2 2 3
2
16 26
3 2 2 3
2
26 21
3 2 2 3
2
21 26
3 2 2 3
2
26 24
3 2 2 3
2
24 26
3 2 2 3
2
26 25
3 2 2 3
2
25 26
3 2 2 3
2
26 27
3 2 2 3
2
27 26
3 2 2 3
2
26 57
3 2 2 3
2
57 26
3 2 2 3
2
26 70
3 2 2 3
2
70 26
3 2 2 3
2
26 90
3 2 2 3
2
90 26
3 2 2 3
2
27 14
3 2 2 3
2
14 27
3 2 2 3
2
27 25
3 2 2 3
2
25 27
3 2 2 3
2
27 26
3 2 2 3
2
26 27
3 2 2 3
2
27 45
3 2 2 3
2
45 27
3 2 2 3
2
27 62
3 2 2 3
2
62 27
3 2 2 3
2
28 0
3 2 2 3
2
0 28
3 2 2 3
2
28 21
3 2 2 3
2
21 28
3 2 2 3
2
28 22
3 2 2 3
2
22 28
3 2 2 3
2
28 24
3 2 2 3
2
24 28
3 2 2 3
2
28 27
3 2 2 3
2
27 28
3 2 2 3
2
28 34
3 2 2 3
2
34 28
3 2 2 3
2
28 41
3 2 2 3
2
41 28
3 2 2 3
2
28 76
3 2 2 3
2
76 28
3 2 2 3
2
29 13
3 2 2 3
2
13 29
3 2 2 3
2
29 21
3 2 2 3
2
21 29
3 2 2 3
2
29 24
3 2 2 3
2
24 29
3 2 2 3
2
29 27
3 2 2 3
2
27 29
3 2 2 3
2
29 51
3 2 2 3
2
51 29
3 2 2 3
2
29 56
3 2 2 3
2
56 29
3 2 2 3
2
30 18
3 2 2 3
2
18 30
3 2 2 3
2
30 31
3 2 2 3
2
31 30
3 2 2 3
2
30 32
3 2 2 3
2
32 30
3 2 2 3
2
30 34
3 2 2 3
2
34 30
3 2 2 3
2
30 36
3 2 2 3
2
36 30
3 2 2 3
2
30 37
3 2 2 3
2
37 30
3 2 2 3
2
30 59
3 2 2 3
2
59 30
3 2 2 3
2
30 64
3 2 2 3
2
64 30
3 2 2 3
2
30 73
3 2 2 3
2
73 30
3 2 2 3
2
30 76
3 2 2 3
2
76 30
3 2 2 3
2
30 95
3 2 2 3
2
95 30
3 2 2 3
2
31 8
3 2 2 3
2
8 31
3 2 2 3
2
31 13
3 2 2 3
2
13 31
3 2 2 3
2
31 30
3 2 2 3
2
30 31
3 2 2 3
2
31 35
3 2 2 3
2
35 31
3 2 2 3
2
31 85
3 2 2 3
2
85 31
3 2 2 3
2
32 12
3 2 2 3
2
12 32
3 2 2 3
2
32 22
3 2 2 3
2
22 32
3 2 2 3
2
32 27
3 2 2 3
2
27 32
3 2 2 3
2
32 38
3 2 2 3
2
38 32
3 2 2 3
2
32 41
3 2 2 3
2
41 32
3 2 2 3
2
32 42
3 2 2 3
2
42 32
3 2 2 3
2
32 46
3 2 2 3
2
46 32
3 2 2 3
2
33 12
3 2 2 3
2
12 33
3 2 2 3
2
33 30
3 2 2 3
2
30 33
3 2 2 3
2
33 34
3 2 2 3
2
34 33
3 2 2 3
2
33 35
3 2 2 3
2
35 33
3 2 2 3
2
33 36
3 2 2 3
2
36 33
3 2 2 3
2
33 43
3 2 2 3
2
43 33
3 2 2 3
2
33 53
3 2 2 3
2
53 33
3 2 2 3
2
33 59
3 2 2 3
2
59 33
3 2 2 3
2
33 60
3 2 2 3
2
60 33
3 2 2 3
2
33 76
3 2 2 3
2
76 33
3 2 2 3
2
34 8
3 2 2 3
2
8 34
3 2 2 3
2
34 12
3 2 2 3
2
12 34
3 2 2 3
2
34 18
3 2 2 3
2
18 34
3 2 2 3
2
34 22
3 2 2 3
2
22 34
3 2 2 3
2
34 35
3 2 2 3
2
35 34
3 2 2 3
2
34 38
3 2 2 3
2
38 34
3 2 2 3
2
34 39
3 2 2 3
2
39 34
3 2 2 3
2
34 44
3 2 2 3
2
44 34
3 2 2 3
2
34 49
3 2 2 3
2
49 34
3 2 2 3
2
34 72
3 2 2 3
2
72 34
3 2 2 3
2
34 73
3 2 2 3
2
73 34
3 2 2 3
2
34 90
3 2 2 3
2
90 34
3 2 2 3
2
34 91
3 2 2 3
2
91 34
3 2 2 3
2
35 7
3 2 2 3
2
7 35
3 2 2 3
2
35 21
3 2 2 3
2
21 35
3 2 2 3
2
35 23
3 2 2 3
2
23 35
3 2 2 3
2
35 26
3 2 2 3
2
26 35
3 2 2 3
2
35 31
3 2 2 3
2
31 35
3 2 2 3
2
35 34
3 2 2 3
2
34 35
3 2 2 3
2
35 36
3 2 2 3
2
36 35
3 2 2 3
2
35 69
3 2 2 3
2
69 35
3 2 2 3
2
35 80
3 2 2 3
2
80 35
3 2 2 3
2
35 90
3 2 2 3
2
90 35
3 2 2 3
2
36 24
3 2 2 3
2
24 36
3 2 2 3
2
36 30
3 2 2 3
2
30 36
3 2 2 3
2
36 31
3 2 2 3
2
31 36
3 2 2 3
2
36 37
3 2 2 3
2
37 36
3 2 2 3
2
36 70
3 2 2 3
2
70 36
3 2 2 3
2
37 3
3 2 2 3
2
3 37
3 2 2 3
2
37 10
3 2 2 3
2
10 37
3 2 2 3
2
37 16
3 2 2 3
2
16 37
3 2 2 3
2
37 26
3 2 2 3
2
26 37
3 2 2 3
2
37 30
3 2 2 3
2
30 37
3 2 2 3
2
37 32
3 2 2 3
2
32 37
3 2 2 3
2
37 33
3 2 2 3
2
33 37
3 2 2 3
2
37 98
3 2 2 3
2
98 37
3 2 2 3
2
38 1
3 2 2 3
2
1 38
3 2 2 3
2
38 5
3 2 2 3
2
5 38
3 2 2 3
2
38 11
3 2 2 3
2
11 38
3 2 2 3
2
38 30
3 2 2 3
2
30 38
3 2 2 3
2
38 33
3 2 2 3
2
33 38
3 2 2 3
2
38 36
3 2 2 3
2
36 38
3 2 2 3
2
38 46
3 2 2 3
2
46 38
3 2 2 3
2
38 63
3 2 2 3
2
63 38
3 2 2 3
2
39 23
3 2 2 3
2
23 39
3 2 2 3
2
39 30
3 2 2 3
2
30 39
3 2 2 3
2
39 37
3 2 2 3
2
37 39
3 2 2 3
2
39 38
3 2 2 3
2
38 39
3 2 2 3
2
39 63
3 2 2 3
2
63 39
3 2 2 3
2
39 75
3 2 2 3
2
75 39
3 2 2 3
2
40 37
3 2 2 3
2
37 40
3 2 2 3
2
40 45
3 2 2 3
2
45 40
3 2 2 3
2
40 46
3 2 2 3
2
46 40
3 2 2 3
2
40 52
3 2 2 3
2
52 40
3 2 2 3
2
40 68
3 2 2 3
2
68 40
3 2 2 3
2
40 76
3 2 2 3
2
76 40
3 2 2 3
2
41 46
3 2 2 3
2
46 41
3 2 2 3
2
41 56
3 2 2 3
2
56 41
3 2 2 3
2
42 18
3 2 2 3
2
18 42
3 2 2 3
2
42 21
3 2 2 3
2
21 42
3 2 2 3
2
42 29
3 2 2 3
2
29 42
3 2 2 3
2
42 43
3 2 2 3
2
43 42
3 2 2 3
2
42 49
3 2 2 3
2
49 42
3 2 2 3
2
42 67
3 2 2 3
2
67 42
3 2 2 3
2
42 95
3 2 2 3
2
95 42
3 2 2 3
2
43 42
3 2 2 3
2
42 43
3 2 2 3
2
43 60
3 2 2 3
2
60 43
3 2 2 3
2
43 66
3 2 2 3
2
66 43
3 2 2 3
2
43 76
3 2 2 3
2
76 43
3 2 2 3
2
43 81
3 2 2 3
2
81 43
3 2 2 3
2
43 95
3 2 2 3
2
95 43
3 2 2 3
2
44 2
3 2 2 3
2
2 44
3 2 2 3
2
44 36
3 2 2 3
2
36 44
3 2 2 3
2
44 42
3 2 2 3
2
42 44
3 2 2 3
2
44 43
3 2 2 3
2
43 44
3 2 2 3
2
44 46
3 2 2 3
2
46 44
3 2 2 3
2
44 56
3 2 2 3
2
56 44
3 2 2 3
2
44 62
3 2 2 3
2
62 44
3 2 2 3
2
44 64
3 2 2 3
2
64 44
3 2 2 3
2
44 75
3 2 2 3
2
75 44
3 2 2 3
2
44 78
3 2 2 3
2
78 44
3 2 2 3
2
44 85
3 2 2 3
2
85 44
3 2 2 3
2
45 22
3 2 2 3
2
22 45
3 2 2 3
2
45 42
3 2 2 3
2
42 45
3 2 2 3
2
45 44
3 2 2 3
2
44 45
3 2 2 3
2
45 66
3 2 2 3
2
66 45
3 2 2 3
2
45 94
3 2 2 3
2
94 45
3 2 2 3
2
46 0
3 2 2 3
2
0 46
3 2 2 3
2
46 42
3 2 2 3
2
42 46
3 2 2 3
2
46 44
3 2 2 3
2
44 46
3 2 2 3
2
46 45
3 2 2 3
2
45 46
3 2 2 3
2
46 47
3 2 2 3
2
47 46
3 2 2 3
2
46 56
3 2 2 3
2
56 46
3 2 2 3
2
47 16
3 2 2 3
2
16 47
3 2 2 3
2
47 23
3 2 2 3
2
23 47
3 2 2 3
2
47 24
3 2 2 3
2
24 47
3 2 2 3
2
47 43
3 2 2 3
2
43 47
3 2 2 3
2
47 44
3 2 2 3
2
44 47
3 2 2 3
2
47 57
3 2 2 3
2
57 47
3 2 2 3
2
47 66
3 2 2 3
2
66 47
3 2 2 3
2
47 76
3 2 2 3
2
76 47
3 2 2 3
2
48 29
3 2 2 3
2
29 48
3 2 2 3
2
48 42
3 2 2 3
2
42 48
3 2 2 3
2
48 45
3 2 2 3
2
45 48
3 2 2 3
2
48 47
3 2 2 3
2
47 48
3 2 2 3
2
48 64
3 2 2 3
2
64 48
3 2 2 3
2
48 67
3 2 2 3
2
67 48
3 2 2 3
2
48 69
3 2 2 3
2
69 48
3 2 2 3
2
48 90
3 2 2 3
2
90 48
3 2 2 3
2
49 0
3 2 2 3
2
0 49
3 2 2 3
2
49 19
3 2 2 3
2
19 49
3 2 2 3
2
49 24
3 2 2 3
2
24 49
3 2 2 3
2
49 27
3 2 2 3
2
27 49
3 2 2 3
2
49 29
3 2 2 3
2
29 49
3 2 2 3
2
49 40
3 2 2 3
2
40 49
3 2 2 3
2
49 41
3 2 2 3
2
41 49
3 2 2 3
2
49 42
3 2 2 3
2
42 49
3 2 2 3
2
49 44
3 2 2 3
2
44 49
3 2 2 3
2
49 45
3 2 2 3
2
45 49
3 2 2 3
2
49 48
3 2 2 3
2
48 49
3 2 2 3
2
49 68
3 2 2 3
2
68 49
3 2 2 3
2
49 92
3 2 2 3
2
92 49
3 2 2 3
2
49 95
3 2 2 3
2
95 49
3 2 2 3
2
50 10
3 2 2 3
2
10 50
3 2 2 3
2
50 15
3 2 2 3
2
15 50
3 2 2 3
2
50 39
3 2 2 3
2
39 50
3 2 2 3
2
50 51
3 2 2 3
2
51 50
3 2 2 3
2
50 53
3 2 2 3
2
53 50
3 2 2 3
2
50 57
3 2 2 3
2
57 50
3 2 2 3
2
50 59
3 2 2 3
2
59 50
3 2 2 3
2
50 78
3 2 2 3
2
78 50
3 2 2 3
2
50 80
3 2 2 3
2
80 50
3 2 2 3
2
51 17
3 2 2 3
2
17 51
3 2 2 3
2
51 42
3 2 2 3
2
42 51
3 2 2 3
2
51 54
3 2 2 3
2
54 51
3 2 2 3
2
51 56
3 2 2 3
2
56 51
3 2 2 3
2
51 67
3 2 2 3
2
67 51
3 2 2 3
2
51 74
3 2 2 3
2
74 51
3 2 2 3
2
51 78
3 2 2 3
2
78 51
3 2 2 3
2
51 84
3 2 2 3
2
84 51
3 2 2 3
2
51 94
3 2 2 3
2
94 51
3 2 2 3
2
52 13
3 2 2 3
2
13 52
3 2 2 3
2
52 14
3 2 2 3
2
14 52
3 2 2 3
2
52 51
3 2 2 3
2
51 52
3 2 2 3
2
52 55
3 2 2 3
2
55 52
3 2 2 3
2
52 57
3 2 2 3
2
57 52
3 2 2 3
2
52 67
3 2 2 3
2
67 52
3 2 2 3
2
52 70
3 2 2 3
2
70 52
3 2 2 3
2
52 83
3 2 2 3
2
83 52
3 2 2 3
2
52 87
3 2 2 3
2
87 52
3 2 2 3
2
52 91
3 2 2 3
2
91 52
3 2 2 3
2
53 6
3 2 2 3
2
6 53
3 2 2 3
2
53 14
3 2 2 3
2
14 53
3 2 2 3
2
53 31
3 2 2 3
2
31 53
3 2 2 3
2
53 47
3 2 2 3
2
47 53
3 2 2 3
2
53 52
3 2 2 3
2
52 53
3 2 2 3
2
54 3
3 2 2 3
2
3 54
3 2 2 3
2
54 37
3 2 2 3
2
37 54
3 2 2 3
2
54 47
3 2 2 3
2
47 54
3 2 2 3
2
54 50
3 2 2 3
2
50 54
3 2 2 3
2
54 97
3 2 2 3
2
97 54
3 2 2 3
2
55 25
3 2 2 3
2
25 55
3 2 2 3
2
55 31
3 2 2 3
2
31 55
3 2 2 3
2
55 75
3 2 2 3
2
75 55
3 2 2 3
2
55 85
3 2 2 3
2
85 55
3 2 2 3
2
56 27
3 2 2 3
2
27 56
3 2 2 3
2
56 51
3 2 2 3
2
51 56
3 2 2 3
2
56 54
3 2 2 3
2
54 56
3 2 2 3
2
56 57
3 2 2 3
2
57 56
3 2 2 3
2
56 58
3 2 2 3
2
58 56
3 2 2 3
2
56 72
3 2 2 3
2
72 56
3 2 2 3
2
56 85
3 2 2 3
2
85 56
3 2 2 3
2
57 51
3 2 2 3
2
51 57
3 2 2 3
2
57 76
3 2 2 3
2
76 57
3 2 2 3
2
57 93
3 2 2 3
2
93 57
3 2 2 3
2
58 1
3 2 2 3
2
1 58
3 2 2 3
2
58 24
3 2 2 3
2
24 58
3 2 2 3
2
58 28
3 2 2 3
2
28 58
3 2 2 3
2
58 31
3 2 2 3
2
31 58
3 2 2 3
2
58 41
3 2 2 3
2
41 58
3 2 2 3
2
58 44
3 2 2 3
2
44 58
3 2 2 3
2
58 52
3 2 2 3
2
52 58
3 2 2 3
2
58 57
3 2 2 3
2
57 58
3 2 2 3
2
58 68
3 2 2 3
2
68 58
3 2 2 3
2
58 84
3 2 2 3
2
84 58
3 2 2 3
2
58 89
3 2 2 3
2
89 58
3 2 2 3
2
58 96
3 2 2 3
2
96 58
3 2 2 3
2
59 38
3 2 2 3
2
38 59
3 2 2 3
2
59 51
3 2 2 3
2
51 59
3 2 2 3
2
59 53
3 2 2 3
2
53 59
3 2 2 3
2
59 56
3 2 2 3
2
56 59
3 2 2 3
2
60 15
3 2 2 3
2
15 60
3 2 2 3
2
60 33
3 2 2 3
2
33 60
3 2 2 3
2
60 65
3 2 2 3
2
65 60
3 2 2 3
2
60 67
3 2 2 3
2
67 60
3 2 2 3
2
60 68
3 2 2 3
2
68 60
3 2 2 3
2
60 69
3 2 2 3
2
69 60
3 2 2 3
2
60 94
3 2 2 3
2
94 60
3 2 2 3
2
61 31
3 2 2 3
2
31 61
3 2 2 3
2
61 42
3 2 2 3
2
42 61
3 2 2 3
2
61 56
3 2 2 3
2
56 61
3 2 2 3
2
61 60
3 2 2 3
2
60 61
3 2 2 3
2
61 65
3 2 2 3
2
65 61
3 2 2 3
2
61 66
3 2 2 3
2
66 61
3 2 2 3
2
61 67
3 2 2 3
2
67 61
3 2 2 3
2
61 68
3 2 2 3
2
68 61
3 2 2 3
2
61 80
3 2 2 3
2
80 61
3 2 2 3
2
61 88
3 2 2 3
2
88 61
3 2 2 3
2
61 97
3 2 2 3
2
97 61
3 2 2 3
2
61 99
3 2 2 3
2
99 61
3 2 2 3
2
62 27
3 2 2 3
2
27 62
3 2 2 3
2
62 65
3 2 2 3
2
65 62
3 2 2 3
2
62 66
3 2 2 3
2
66 62
3 2 2 3
2
62 67
3 2 2 3
2
67 62
3 2 2 3
2
62 69
3 2 2 3
2
69 62
3 2 2 3
2
63 11
3 2 2 3
2
11 63
3 2 2 3
2
63 18
3 2 2 3
2
18 63
3 2 2 3
2
63 37
3 2 2 3
2
37 63
3 2 2 3
2
63 67
3 2 2 3
2
67 63
3 2 2 3
2
63 83
3 2 2 3
2
83 63
3 2 2 3
2
64 27
3 2 2 3
2
27 64
3 2 2 3
2
64 62
3 2 2 3
2
62 64
3 2 2 3
2
64 66
3 2 2 3
2
66 64
3 2 2 3
2
64 93
3 2 2 3
2
93 64
3 2 2 3
2
64 96
3 2 2 3
2
96 64
3 2 2 3
2
65 60
3 2 2 3
2
60 65
3 2 2 3
2
65 61
3 2 2 3
2
61 65
3 2 2 3
2
65 62
3 2 2 3
2
62 65
3 2 2 3
2
65 63
3 2 2 3
2
63 65
3 2 2 3
2
65 74
3 2 2 3
2
74 65
3 2 2 3
2
66 3
3 2 2 3
2
3 66
3 2 2 3
2
66 55
3 2 2 3
2
55 66
3 2 2 3
2
66 67
3 2 2 3
2
67 66
3 2 2 3
2
66 78
3 2 2 3
2
78 66
3 2 2 3
2
66 85
3 2 2 3
2
85 66
3 2 2 3
2
66 87
3 2 2 3
2
87 66
3 2 2 3
2
66 90
3 2 2 3
2
90 66
3 2 2 3
2
67 33
3 2 2 3
2
33 67
3 2 2 3
2
67 54
3 2 2 3
2
54 67
3 2 2 3
2
67 60
3 2 2 3
2
60 67
3 2 2 3
2
67 63
3 2 2 3
2
63 67
3 2 2 3
2
67 65
3 2 2 3
2
65 67
3 2 2 3
2
67 66
3 2 2 3
2
66 67
3 2 2 3
2
67 76
3 2 2 3
2
76 67
3 2 2 3
2
67 90
3 2 2 3
2
90 67
3 2 2 3
2
68 25
3 2 2 3
2
25 68
3 2 2 3
2
68 63
3 2 2 3
2
63 68
3 2 2 3
2
68 67
3 2 2 3
2
67 68
3 2 2 3
2
68 92
3 2 2 3
2
92 68
3 2 2 3
2
69 7
3 2 2 3
2
7 69
3 2 2 3
2
69 64
3 2 2 3
2
64 69
3 2 2 3
2
69 65
3 2 2 3
2
65 69
3 2 2 3
2
69 67
3 2 2 3
2
67 69
3 2 2 3
2
69 93
3 2 2 3
2
93 69
3 2 2 3
2
69 99
3 2 2 3
2
99 69
3 2 2 3
2
70 10
3 2 2 3
2
10 70
3 2 2 3
2
70 14
3 2 2 3
2
14 70
3 2 2 3
2
70 39
3 2 2 3
2
39 70
3 2 2 3
2
70 78
3 2 2 3
2
78 70
3 2 2 3
2
70 81
3 2 2 3
2
81 70
3 2 2 3
2
70 98
3 2 2 3
2
98 70
3 2 2 3
2
70 99
3 2 2 3
2
99 70
3 2 2 3
2
71 3
3 2 2 3
2
3 71
3 2 2 3
2
71 8
3 2 2 3
2
8 71
3 2 2 3
2
71 23
3 2 2 3
2
23 71
3 2 2 3
2
71 41
3 2 2 3
2
41 71
3 2 2 3
2
71 44
3 2 2 3
2
44 71
3 2 2 3
2
71 45
3 2 2 3
2
45 71
3 2 2 3
2
71 72
3 2 2 3
2
72 71
3 2 2 3
2
71 73
3 2 2 3
2
73 71
3 2 2 3
2
71 78
3 2 2 3
2
78 71
3 2 2 3
2
71 79
3 2 2 3
2
79 71
3 2 2 3
2
72 12
3 2 2 3
2
12 72
3 2 2 3
2
72 31
3 2 2 3
2
31 72
3 2 2 3
2
72 41
3 2 2 3
2
41 72
3 2 2 3
2
72 54
3 2 2 3
2
54 72
3 2 2 3
2
72 74
3 2 2 3
2
74 72
3 2 2 3
2
72 76
3 2 2 3
2
76 72
3 2 2 3
2
72 77
3 2 2 3
2
77 72
3 2 2 3
2
73 5
3 2 2 3
2
5 73
3 2 2 3
2
73 7
3 2 2 3
2
7 73
3 2 2 3
2
73 9
3 2 2 3
2
9 73
3 2 2 3
2
73 15
3 2 2 3
2
15 73
3 2 2 3
2
73 34
3 2 2 3
2
34 73
3 2 2 3
2
73 47
3 2 2 3
2
47 73
3 2 2 3
2
73 62
3 2 2 3
2
62 73
3 2 2 3
2
73 74
3 2 2 3
2
74 73
3 2 2 3
2
73 76
3 2 2 3
2
76 73
3 2 2 3
2
73 78
3 2 2 3
2
78 73
3 2 2 3
2
74 49
3 2 2 3
2
49 74
3 2 2 3
2
74 53
3 2 2 3
2
53 74
3 2 2 3
2
74 56
3 2 2 3
2
56 74
3 2 2 3
2
74 64
3 2 2 3
2
64 74
3 2 2 3
2
74 72
3 2 2 3
2
72 74
3 2 2 3
2
74 77
3 2 2 3
2
77 74
3 2 2 3
2
74 86
3 2 2 3
2
86 74
3 2 2 3
2
75 6
3 2 2 3
2
6 75
3 2 2 3
2
75 24
3 2 2 3
2
24 75
3 2 2 3
2
75 39
3 2 2 3
2
39 75
3 2 2 3
2
75 44
3 2 2 3
2
44 75
3 2 2 3
2
75 49
3 2 2 3
2
49 75
3 2 2 3
2
75 71
3 2 2 3
2
71 75
3 2 2 3
2
75 72
3 2 2 3
2
72 75
3 2 2 3
2
75 73
3 2 2 3
2
73 75
3 2 2 3
2
76 20
3 2 2 3
2
20 76
3 2 2 3
2
76 78
3 2 2 3
2
78 76
3 2 2 3
2
76 91
3 2 2 3
2
91 76
3 2 2 3
2
77 19
3 2 2 3
2
19 77
3 2 2 3
2
77 38
3 2 2 3
2
38 77
3 2 2 3
2
77 39
3 2 2 3
2
39 77
3 2 2 3
2
77 60
3 2 2 3
2
60 77
3 2 2 3
2
77 70
3 2 2 3
2
70 77
3 2 2 3
2
77 71
3 2 2 3
2
71 77
3 2 2 3
2
77 72
3 2 2 3
2
72 77
3 2 2 3
2
77 74
3 2 2 3
2
74 77
3 2 2 3
2
77 98
3 2 2 3
2
98 77
3 2 2 3
2
78 23
3 2 2 3
2
23 78
3 2 2 3
2
78 25
3 2 2 3
2
25 78
3 2 2 3
2
78 72
3 2 2 3
2
72 78
3 2 2 3
2
78 74
3 2 2 3
2
74 78
3 2 2 3
2
78 75
3 2 2 3
2
75 78
3 2 2 3
2
78 79
3 2 2 3
2
79 78
3 2 2 3
2
78 90
3 2 2 3
2
90 78
3 2 2 3
2
79 5
3 2 2 3
2
5 79
3 2 2 3
2
79 27
3 2 2 3
2
27 79
3 2 2 3
2
79 38
3 2 2 3
2
38 79
3 2 2 3
2
79 56
3 2 2 3
2
56 79
3 2 2 3
2
79 73
3 2 2 3
2
73 79
3 2 2 3
2
79 76
3 2 2 3
2
76 79
3 2 2 3
2
79 84
3 2 2 3
2
84 79
3 2 2 3
2
79 85
3 2 2 3
2
85 79
3 2 2 3
2
80 0
3 2 2 3
2
0 80
3 2 2 3
2
80 23
3 2 2 3
2
23 80
3 2 2 3
2
80 32
3 2 2 3
2
32 80
3 2 2 3
2
80 70
3 2 2 3
2
70 80
3 2 2 3
2
80 71
3 2 2 3
2
71 80
3 2 2 3
2
80 84
3 2 2 3
2
84 80
3 2 2 3
2
80 89
3 2 2 3
2
89 80
3 2 2 3
2
81 29
3 2 2 3
2
29 81
3 2 2 3
2
81 77
3 2 2 3
2
77 81
3 2 2 3
2
81 80
3 2 2 3
2
80 81
3 2 2 3
2
81 83
3 2 2 3
2
83 81
3 2 2 3
2
81 85
3 2 2 3
2
85 81
3 2 2 3
2
82 22
3 2 2 3
2
22 82
3 2 2 3
2
82 30
3 2 2 3
2
30 82
3 2 2 3
2
82 40
3 2 2 3
2
40 82
3 2 2 3
2
82 44
3 2 2 3
2
44 82
3 2 2 3
2
82 54
3 2 2 3
2
54 82
3 2 2 3
2
82 64
3 2 2 3
2
64 82
3 2 2 3
2
82 74
3 2 2 3
2
74 82
3 2 2 3
2
82 85
3 2 2 3
2
85 82
3 2 2 3
2
82 86
3 2 2 3
2
86 82
3 2 2 3
2
83 4
3 2 2 3
2
4 83
3 2 2 3
2
83 8
3 2 2 3
2
8 83
3 2 2 3
2
83 14
3 2 2 3
2
14 83
3 2 2 3
2
83 40
3 2 2 3
2
40 83
3 2 2 3
2
83 42
3 2 2 3
2
42 83
3 2 2 3
2
84 25
3 2 2 3
2
25 84
3 2 2 3
2
84 26
3 2 2 3
2
26 84
3 2 2 3
2
84 28
3 2 2 3
2
28 84
3 2 2 3
2
84 34
3 2 2 3
2
34 84
3 2 2 3
2
84 45
3 2 2 3
2
45 84
3 2 2 3
2
84 62
3 2 2 3
2
62 84
3 2 2 3
2
84 68
3 2 2 3
2
68 84
3 2 2 3
2
84 70
3 2 2 3
2
70 84
3 2 2 3
2
84 72
3 2 2 3
2
72 84
3 2 2 3
2
84 82
3 2 2 3
2
82 84
3 2 2 3
2
84 88
3 2 2 3
2
88 84
3 2 2 3
2
84 90
3 2 2 3
2
90 84
3 2 2 3
2
85 6
3 2 2 3
2
6 85
3 2 2 3
2
85 8
3 2 2 3
2
8 85
3 2 2 3
2
85 15
3 2 2 3
2
15 85
3 2 2 3
2
85 30
3 2 2 3
2
30 85
3 2 2 3
2
85 75
3 2 2 3
2
75 85
3 2 2 3
2
85 82
3 2 2 3
2
82 85
3 2 2 3
2
85 83
3 2 2 3
2
83 85
3 2 2 3
2
86 6
3 2 2 3
2
6 86
3 2 2 3
2
86 39
3 2 2 3
2
39 86
3 2 2 3
2
86 49
3 2 2 3
2
49 86
3 2 2 3
2
86 67
3 2 2 3
2
67 86
3 2 2 3
2
86 83
3 2 2 3
2
83 86
3 2 2 3
2
86 88
3 2 2 3
2
88 86
3 2 2 3
2
87 0
3 2 2 3
2
0 87
3 2 2 3
2
87 37
3 2 2 3
2
37 87
3 2 2 3
2
87 71
3 2 2 3
2
71 87
3 2 2 3
2
87 78
3 2 2 3
2
78 87
3 2 2 3
2
87 81
3 2 2 3
2
81 87
3 2 2 3
2
88 23
3 2 2 3
2
23 88
3 2 2 3
2
88 25
3 2 2 3
2
25 88
3 2 2 3
2
88 34
3 2 2 3
2
34 88
3 2 2 3
2
88 73
3 2 2 3
2
73 88
3 2 2 3
2
88 79
3 2 2 3
2
79 88
3 2 2 3
2
88 81
3 2 2 3
2
81 88
3 2 2 3
2
88 82
3 2 2 3
2
82 88
3 2 2 3
2
88 87
3 2 2 3
2
87 88
3 2 2 3
2
89 11
3 2 2 3
2
11 89
3 2 2 3
2
89 38
3 2 2 3
2
38 89
3 2 2 3
2
89 55
3 2 2 3
2
55 89
3 2 2 3
2
89 73
3 2 2 3
2
73 89
3 2 2 3
2
89 96
3 2 2 3
2
96 89
3 2 2 3
2
90 17
3 2 2 3
2
17 90
3 2 2 3
2
90 42
3 2 2 3
2
42 90
3 2 2 3
2
90 54
3 2 2 3
2
54 90
3 2 2 3
2
90 60
3 2 2 3
2
60 90
3 2 2 3
2
90 61
3 2 2 3
2
61 90
3 2 2 3
2
90 67
3 2 2 3
2
67 90
3 2 2 3
2
90 87
3 2 2 3
2
87 90
3 2 2 3
2
90 91
3 2 2 3
2
91 90
3 2 2 3
2
90 92
3 2 2 3
2
92 90
3 2 2 3
2
90 95
3 2 2 3
2
95 90
3 2 2 3
2
90 97
3 2 2 3
2
97 90
3 2 2 3
2
90 99
3 2 2 3
2
99 90
3 2 2 3
2
91 5
3 2 2 3
2
5 91
3 2 2 3
2
91 30
3 2 2 3
2
30 91
3 2 2 3
2
91 37
3 2 2 3
2
37 91
3 2 2 3
2
91 67
3 2 2 3
2
67 91
3 2 2 3
2
91 81
3 2 2 3
2
81 91
3 2 2 3
2
91 88
3 2 2 3
2
88 91
3 2 2 3
2
91 92
3 2 2 3
2
92 91
3 2 2 3
2
91 99
3 2 2 3
2
99 91
3 2 2 3
2
92 3
3 2 2 3
2
3 92
3 2 2 3
2
92 23
3 2 2 3
2
23 92
3 2 2 3
2
92 64
3 2 2 3
2
64 92
3 2 2 3
2
92 68
3 2 2 3
2
68 92
3 2 2 3
2
92 96
3 2 2 3
2
96 92
3 2 2 3
2
93 7
3 2 2 3
2
7 93
3 2 2 3
2
93 41
3 2 2 3
2
41 93
3 2 2 3
2
93 68
3 2 2 3
2
68 93
3 2 2 3
2
93 90
3 2 2 3
2
90 93
3 2 2 3
2
93 94
3 2 2 3
2
94 93
3 2 2 3
2
93 95
3 2 2 3
2
95 93
3 2 2 3
2
94 3
3 2 2 3
2
3 94
3 2 2 3
2
94 4
3 2 2 3
2
4 94
3 2 2 3
2
94 22
3 2 2 3
2
22 94
3 2 2 3
2
94 32
3 2 2 3
2
32 94
3 2 2 3
2
94 69
3 2 2 3
2
69 94
3 2 2 3
2
94 92
3 2 2 3
2
92 94
3 2 2 3
2
94 93
3 2 2 3
2
93 94
3 2 2 3
2
94 99
3 2 2 3
2
99 94
3 2 2 3
2
95 1
3 2 2 3
2
1 95
3 2 2 3
2
95 20
3 2 2 3
2
20 95
3 2 2 3
2
95 33
3 2 2 3
2
33 95
3 2 2 3
2
95 57
3 2 2 3
2
57 95
3 2 2 3
2
95 70
3 2 2 3
2
70 95
3 2 2 3
2
95 85
3 2 2 3
2
85 95
3 2 2 3
2
95 89
3 2 2 3
2
89 95
3 2 2 3
2
95 93
3 2 2 3
2
93 95
3 2 2 3
2
95 97
3 2 2 3
2
97 95
3 2 2 3
2
96 4
3 2 2 3
2
4 96
3 2 2 3
2
96 21
3 2 2 3
2
21 96
3 2 2 3
2
96 50
3 2 2 3
2
50 96
3 2 2 3
2
96 60
3 2 2 3
2
60 96
3 2 2 3
2
96 66
3 2 2 3
2
66 96
3 2 2 3
2
96 67
3 2 2 3
2
67 96
3 2 2 3
2
96 98
3 2 2 3
2
98 96
3 2 2 3
2
97 27
3 2 2 3
2
27 97
3 2 2 3
2
97 37
3 2 2 3
2
37 97
3 2 2 3
2
97 39
3 2 2 3
2
39 97
3 2 2 3
2
97 99
3 2 2 3
2
99 97
3 2 2 3
2
98 1
3 2 2 3
2
1 98
3 2 2 3
2
98 46
3 2 2 3
2
46 98
3 2 2 3
2
98 60
3 2 2 3
2
60 98
3 2 2 3
2
98 64
3 2 2 3
2
64 98
3 2 2 3
2
98 72
3 2 2 3
2
72 98
3 2 2 3
2
98 73
3 2 2 3
2
73 98
3 2 2 3
2
98 74
3 2 2 3
2
74 98
3 2 2 3
2
98 85
3 2 2 3
2
85 98
3 2 2 3
2
98 90
3 2 2 3
2
90 98
3 2 2 3
2
98 95
3 2 2 3
2
95 98
3 2 2 3
2
98 99
3 2 2 3
2
99 98
3 2 2 3
2
99 15
3 2 2 3
2
15 99
3 2 2 3
2
99 18
3 2 2 3
2
18 99
3 2 2 3
2
99 50
3 2 2 3
2
50 99
3 2 2 3
2
99 93
3 2 2 3
2
93 99
3 2 2 3
2
99 94
3 2 2 3
2
94 99
3 2 2 3
