100 1462
2
0 1
3 2 2 3
2
1 0
3 2 2 3
2
0 3
3 2 2 3
2
3 0
3 2 2 3
2
0 6
3 2 2 3
2
6 0
3 2 2 3
2
0 9
3 2 2 3
2
9 0
3 2 2 3
2
0 43
3 2 2 3
2
43 0
3 2 2 3
2
0 60
3 2 2 3
2
60 0
3 2 2 3
2
1 8
3 2 2 3
2
8 1
3 2 2 3
2
1 50
3 2 2 3
2
50 1
3 2 2 3
2
1 88
3 2 2 3
2
88 1
3 2 2 3
2
1 89
3 2 2 3
2
89 1
3 2 2 3
2
2 0
3 2 2 3
2
0 2
3 2 2 3
2
2 3
3 2 2 3
2
3 2
3 2 2 3
2
2 5
3 2 2 3
2
5 2
3 2 2 3
2
2 6
3 2 2 3
2
6 2
3 2 2 3
2
2 22
3 2 2 3
2
22 2
3 2 2 3
2
3 22
3 2 2 3
2
22 3
3 2 2 3
2
3 26
3 2 2 3
2
26 3
3 2 2 3
2
3 47
3 2 2 3
2
47 3
3 2 2 3
2
3 48
3 2 2 3
2
48 3
3 2 2 3
2
3 76
3 2 2 3
2
76 3
3 2 2 3
2
3 81
3 2 2 3
2
81 3
3 2 2 3
2
4 3
3 2 2 3
2
3 4
3 2 2 3
2
4 6
3 2 2 3
2
6 4
3 2 2 3
2
4 7
3 2 2 3
2
7 4
3 2 2 3
2
4 14
3 2 2 3
2
14 4
3 2 2 3
2
5 0
3 2 2 3
2
0 5
3 2 2 3
2
5 2
3 2 2 3
2
2 5
3 2 2 3
2
5 3
3 2 2 3
2
3 5
3 2 2 3
2
5 7
3 2 2 3
2
7 5
3 2 2 3
2
5 8
3 2 2 3
2
8 5
3 2 2 3
2
5 12
3 2 2 3
2
12 5
3 2 2 3
2
5 22
3 2 2 3
2
22 5
3 2 2 3
2
5 44
3 2 2 3
2
44 5
3 2 2 3
2
6 2
3 2 2 3
2
2 6
3 2 2 3
2
6 5
3 2 2 3
2
5 6
3 2 2 3
2
6 46
3 2 2 3
2
46 6
3 2 2 3
2
6 48
3 2 2 3
2
48 6
3 2 2 3
2
6 54
3 2 2 3
2
54 6
3 2 2 3
2
6 62
3 2 2 3
2
62 6
3 2 2 3
2
6 68
3 2 2 3
2
68 6
3 2 2 3
2
6 91
3 2 2 3
2
91 6
3 2 2 3
2
6 98
3 2 2 3
2
98 6
3 2 2 3
2
7 3
3 2 2 3
2
3 7
3 2 2 3
2
7 5
3 2 2 3
2
5 7
3 2 2 3
2
7 17
3 2 2 3
2
17 7
3 2 2 3
2
7 23
3 2 2 3
2
23 7
3 2 2 3
2
7 45
3 2 2 3
2
45 7
3 2 2 3
2
7 85
3 2 2 3
2
85 7
3 2 2 3
2
7 95
3 2 2 3
2
95 7
3 2 2 3
2
8 2
3 2 2 3
2
2 8
3 2 2 3
2
8 3
3 2 2 3
2
3 8
3 2 2 3
2
8 6
3 2 2 3
2
6 8
3 2 2 3
2
8 7
3 2 2 3
2
7 8
3 2 2 3
2
8 23
3 2 2 3
2
23 8
3 2 2 3
2
8 24
3 2 2 3
2
24 8
3 2 2 3
2
8 64
3 2 2 3
2
64 8
3 2 2 3
2
8 96
3 2 2 3
2
96 8
3 2 2 3
2
9 3
3 2 2 3
2
3 9
3 2 2 3
2
9 5
3 2 2 3
2
5 9
3 2 2 3
2
9 6
3 2 2 3
2
6 9
3 2 2 3
2
9 8
3 2 2 3
2
8 9
3 2 2 3
2
9 31
3 2 2 3
2
31 9
3 2 2 3
2
9 33
3 2 2 3
2
33 9
3 2 2 3
2
9 61
3 2 2 3
2
61 9
3 2 2 3
2
9 67
3 2 2 3
2
67 9
3 2 2 3
2
9 78
3 2 2 3
2
78 9
3 2 2 3
2
9 90
3 2 2 3
2
90 9
3 2 2 3
2
10 12
3 2 2 3
2
12 10
3 2 2 3
2
10 16
3 2 2 3
2
16 10
3 2 2 3
2
10 18
3 2 2 3
2
18 10
3 2 2 3
2
10 40
3 2 2 3
2
40 10
3 2 2 3
2
10 43
3 2 2 3
2
43 10
3 2 2 3
2
10 45
3 2 2 3
2
45 10
3 2 2 3
2
10 72
3 2 2 3
2
72 10
3 2 2 3
2
10 83
3 2 2 3
2
83 10
3 2 2 3
2
10 96
3 2 2 3
2
96 10
3 2 2 3
2
11 12
3 2 2 3
2
12 11
3 2 2 3
2
11 18
3 2 2 3
2
18 11
3 2 2 3
2
11 19
3 2 2 3
2
19 11
3 2 2 3
2
11 27
3 2 2 3
2
27 11
3 2 2 3
2
11 38
3 2 2 3
2
38 11
3 2 2 3
2
11 49
3 2 2 3
2
49 11
3 2 2 3
2
11 69
3 2 2 3
2
69 11
3 2 2 3
2
11 76
3 2 2 3
2
76 11
3 2 2 3
2
11 87
3 2 2 3
2
87 11
3 2 2 3
2
12 6
3 2 2 3
2
6 12
3 2 2 3
2
12 10
3 2 2 3
2
10 12
3 2 2 3
2
12 11
3 2 2 3
2
11 12
3 2 2 3
2
12 17
3 2 2 3
2
17 12
3 2 2 3
2
12 19
3 2 2 3
2
19 12
3 2 2 3
2
12 25
3 2 2 3
2
25 12
3 2 2 3
2
12 29
3 2 2 3
2
29 12
3 2 2 3
2
12 35
3 2 2 3
2
35 12
3 2 2 3
2
12 45
3 2 2 3
2
45 12
3 2 2 3
2
13 2
3 2 2 3
2
2 13
3 2 2 3
2
13 10
3 2 2 3
2
10 13
3 2 2 3
2
13 12
3 2 2 3
2
12 13
3 2 2 3
2
13 14
3 2 2 3
2
14 13
3 2 2 3
2
13 31
3 2 2 3
2
31 13
3 2 2 3
2
13 74
3 2 2 3
2
74 13
3 2 2 3
2
13 94
3 2 2 3
2
94 13
3 2 2 3
2
14 4
3 2 2 3
2
4 14
3 2 2 3
2
14 10
3 2 2 3
2
10 14
3 2 2 3
2
14 11
3 2 2 3
2
11 14
3 2 2 3
2
14 18
3 2 2 3
2
18 14
3 2 2 3
2
14 56
3 2 2 3
2
56 14
3 2 2 3
2
14 75
3 2 2 3
2
75 14
3 2 2 3
2
15 10
3 2 2 3
2
10 15
3 2 2 3
2
15 11
3 2 2 3
2
11 15
3 2 2 3
2
15 12
3 2 2 3
2
12 15
3 2 2 3
2
15 13
3 2 2 3
2
13 15
3 2 2 3
2
15 14
3 2 2 3
2
14 15
3 2 2 3
2
15 17
3 2 2 3
2
17 15
3 2 2 3
2
15 25
3 2 2 3
2
25 15
3 2 2 3
2
15 52
3 2 2 3
2
52 15
3 2 2 3
2
15 84
3 2 2 3
2
84 15
3 2 2 3
2
15 89
3 2 2 3
2
89 15
3 2 2 3
2
15 93
3 2 2 3
2
93 15
3 2 2 3
2
16 18
3 2 2 3
2
18 16
3 2 2 3
2
16 20
3 2 2 3
2
20 16
3 2 2 3
2
16 41
3 2 2 3
2
41 16
3 2 2 3
2
16 66
3 2 2 3
2
66 16
3 2 2 3
2
16 73
3 2 2 3
2
73 16
3 2 2 3
2
16 91
3 2 2 3
2
91 16
3 2 2 3
2
17 5
3 2 2 3
2
5 17
3 2 2 3
2
17 34
3 2 2 3
2
34 17
3 2 2 3
2
17 60
3 2 2 3
2
60 17
3 2 2 3
2
17 62
3 2 2 3
2
62 17
3 2 2 3
2
17 69
3 2 2 3
2
69 17
3 2 2 3
2
17 76
3 2 2 3
2
76 17
3 2 2 3
2
18 40
3 2 2 3
2
40 18
3 2 2 3
2
18 68
3 2 2 3
2
68 18
3 2 2 3
2
18 84
3 2 2 3
2
84 18
3 2 2 3
2
18 87
3 2 2 3
2
87 18
3 2 2 3
2
19 3
3 2 2 3
2
3 19
3 2 2 3
2
19 15
3 2 2 3
2
15 19
3 2 2 3
2
19 30
3 2 2 3
2
30 19
3 2 2 3
2
19 32
3 2 2 3
2
32 19
3 2 2 3
2
19 54
3 2 2 3
2
54 19
3 2 2 3
2
19 96
3 2 2 3
2
96 19
3 2 2 3
2
20 23
3 2 2 3
2
23 20
3 2 2 3
2
20 24
3 2 2 3
2
24 20
3 2 2 3
2
20 29
3 2 2 3
2
29 20
3 2 2 3
2
20 48
3 2 2 3
2
48 20
3 2 2 3
2
20 89
3 2 2 3
2
89 20
3 2 2 3
2
21 20
3 2 2 3
2
20 21
3 2 2 3
2
21 28
3 2 2 3
2
28 21
3 2 2 3
2
21 29
3 2 2 3
2
29 21
3 2 2 3
2
21 67
3 2 2 3
2
67 21
3 2 2 3
2
21 96
3 2 2 3
2
96 21
3 2 2 3
2
21 97
3 2 2 3
2
97 21
3 2 2 3
2
22 23
3 2 2 3
2
23 22
3 2 2 3
2
22 27
3 2 2 3
2
27 22
3 2 2 3
2
22 49
3 2 2 3
2
49 22
3 2 2 3
2
22 53
3 2 2 3
2
53 22
3 2 2 3
2
22 63
3 2 2 3
2
63 22
3 2 2 3
2
22 66
3 2 2 3
2
66 22
3 2 2 3
2
22 75
3 2 2 3
2
75 22
3 2 2 3
2
22 78
3 2 2 3
2
78 22
3 2 2 3
2
22 88
3 2 2 3
2
88 22
3 2 2 3
2
23 12
3 2 2 3
2
12 23
3 2 2 3
2
23 26
3 2 2 3
2
26 23
3 2 2 3
2
24 15
3 2 2 3
2
15 24
3 2 2 3
2
24 20
3 2 2 3
2
20 24
3 2 2 3
2
24 21
3 2 2 3
2
21 24
3 2 2 3
2
24 23
3 2 2 3
2
23 24
3 2 2 3
2
24 25
3 2 2 3
2
25 24
3 2 2 3
2
24 26
3 2 2 3
2
26 24
3 2 2 3
2
24 34
3 2 2 3
2
34 24
3 2 2 3
2
24 91
3 2 2 3
2
91 24
3 2 2 3
2
24 95
3 2 2 3
2
95 24
3 2 2 3
2
25 22
3 2 2 3
2
22 25
3 2 2 3
2
25 24
3 2 2 3
2
24 25
3 2 2 3
2
25 27
3 2 2 3
2
27 25
3 2 2 3
2
25 28
3 2 2 3
2
28 25
3 2 2 3
2
25 29
3 2 2 3
2
29 25
3 2 2 3
2
25 35
3 2 2 3
2
35 25
3 2 2 3
2
25 57
3 2 2 3
2
57 25
3 2 2 3
2
25 59
3 2 2 3
2
59 25
3 2 2 3
2
25 79
3 2 2 3
2
79 25
3 2 2 3
2
25 90
3 2 2 3
2
90 25
3 2 2 3
2
25 98
3 2 2 3
2
98 25
3 2 2 3
2
25 99
3 2 2 3
2
99 25
3 2 2 3
2
26 5
3 2 2 3
2
5 26
3 2 2 3
2
26 22
3 2 2 3
2
22 26
3 2 2 3
2
26 27
3 2 2 3
2
27 26
3 2 2 3
2
26 28
3 2 2 3
2
28 26
3 2 2 3
2
26 29
3 2 2 3
2
29 26
3 2 2 3
2
27 10
3 2 2 3
2
10 27
3 2 2 3
2
27 15
3 2 2 3
2
15 27
3 2 2 3
2
27 20
3 2 2 3
2
20 27
3 2 2 3
2
27 21
3 2 2 3
2
21 27
3 2 2 3
2
27 24
3 2 2 3
2
24 27
3 2 2 3
2
27 26
3 2 2 3
2
26 27
3 2 2 3
2
27 69
3 2 2 3
2
69 27
3 2 2 3
2
27 86
3 2 2 3
2
86 27
3 2 2 3
2
27 93
3 2 2 3
2
93 27
3 2 2 3
2
27 94
3 2 2 3
2
94 27
3 2 2 3
2
28 1
3 2 2 3
2
1 28
3 2 2 3
2
28 2
3 2 2 3
2
2 28
3 2 2 3
2
28 20
3 2 2 3
2
20 28
3 2 2 3
2
28 24
3 2 2 3
2
24 28
3 2 2 3
2
28 26
3 2 2 3
2
26 28
3 2 2 3
2
28 45
3 2 2 3
2
45 28
3 2 2 3
2
28 61
3 2 2 3
2
61 28
3 2 2 3
2
28 78
3 2 2 3
2
78 28
3 2 2 3
2
28 84
3 2 2 3
2
84 28
3 2 2 3
2
28 88
3 2 2 3
2
88 28
3 2 2 3
2
28 98
3 2 2 3
2
98 28
3 2 2 3
2
29 21
3 2 2 3
2
21 29
3 2 2 3
2
29 25
3 2 2 3
2
25 29
3 2 2 3
2
29 27
3 2 2 3
2
27 29
3 2 2 3
2
29 65
3 2 2 3
2
65 29
3 2 2 3
2
29 72
3 2 2 3
2
72 29
3 2 2 3
2
30 1
3 2 2 3
2
1 30
3 2 2 3
2
30 31
3 2 2 3
2
31 30
3 2 2 3
2
30 32
3 2 2 3
2
32 30
3 2 2 3
2
30 34
3 2 2 3
2
34 30
3 2 2 3
2
30 36
3 2 2 3
2
36 30
3 2 2 3
2
30 37
3 2 2 3
2
37 30
3 2 2 3
2
30 38
3 2 2 3
2
38 30
3 2 2 3
2
30 39
3 2 2 3
2
39 30
3 2 2 3
2
30 59
3 2 2 3
2
59 30
3 2 2 3
2
30 68
3 2 2 3
2
68 30
3 2 2 3
2
30 86
3 2 2 3
2
86 30
3 2 2 3
2
30 88
3 2 2 3
2
88 30
3 2 2 3
2
30 90
3 2 2 3
2
90 30
3 2 2 3
2
31 32
3 2 2 3
2
32 31
3 2 2 3
2
31 36
3 2 2 3
2
36 31
3 2 2 3
2
31 52
3 2 2 3
2
52 31
3 2 2 3
2
31 56
3 2 2 3
2
56 31
3 2 2 3
2
31 80
3 2 2 3
2
80 31
3 2 2 3
2
32 17
3 2 2 3
2
17 32
3 2 2 3
2
32 24
3 2 2 3
2
24 32
3 2 2 3
2
32 30
3 2 2 3
2
30 32
3 2 2 3
2
32 79
3 2 2 3
2
79 32
3 2 2 3
2
32 85
3 2 2 3
2
85 32
3 2 2 3
2
32 89
3 2 2 3
2
89 32
3 2 2 3
2
33 18
3 2 2 3
2
18 33
3 2 2 3
2
33 36
3 2 2 3
2
36 33
3 2 2 3
2
33 37
3 2 2 3
2
37 33
3 2 2 3
2
33 44
3 2 2 3
2
44 33
3 2 2 3
2
33 45
3 2 2 3
2
45 33
3 2 2 3
2
33 47
3 2 2 3
2
47 33
3 2 2 3
2
34 5
3 2 2 3
2
5 34
3 2 2 3
2
34 7
3 2 2 3
2
7 34
3 2 2 3
2
34 19
3 2 2 3
2
19 34
3 2 2 3
2
34 30
3 2 2 3
2
30 34
3 2 2 3
2
34 37
3 2 2 3
2
37 34
3 2 2 3
2
34 53
3 2 2 3
2
53 34
3 2 2 3
2
34 59
3 2 2 3
2
59 34
3 2 2 3
2
34 66
3 2 2 3
2
66 34
3 2 2 3
2
34 69
3 2 2 3
2
69 34
3 2 2 3
2
34 72
3 2 2 3
2
72 34
3 2 2 3
2
35 3
3 2 2 3
2
3 35
3 2 2 3
2
35 24
3 2 2 3
2
24 35
3 2 2 3
2
35 26
3 2 2 3
2
26 35
3 2 2 3
2
35 28
3 2 2 3
2
28 35
3 2 2 3
2
35 31
3 2 2 3
2
31 35
3 2 2 3
2
35 33
3 2 2 3
2
33 35
3 2 2 3
2
35 37
3 2 2 3
2
37 35
3 2 2 3
2
35 54
3 2 2 3
2
54 35
3 2 2 3
2
35 91
3 2 2 3
2
91 35
3 2 2 3
2
35 96
3 2 2 3
2
96 35
3 2 2 3
2
36 4
3 2 2 3
2
4 36
3 2 2 3
2
36 30
3 2 2 3
2
30 36
3 2 2 3
2
36 32
3 2 2 3
2
32 36
3 2 2 3
2
36 33
3 2 2 3
2
33 36
3 2 2 3
2
36 71
3 2 2 3
2
71 36
3 2 2 3
2
36 85
3 2 2 3
2
85 36
3 2 2 3
2
37 21
3 2 2 3
2
21 37
3 2 2 3
2
37 31
3 2 2 3
2
31 37
3 2 2 3
2
37 33
3 2 2 3
2
33 37
3 2 2 3
2
37 36
3 2 2 3
2
36 37
3 2 2 3
2
37 39
3 2 2 3
2
39 37
3 2 2 3
2
37 40
3 2 2 3
2
40 37
3 2 2 3
2
37 41
3 2 2 3
2
41 37
3 2 2 3
2
37 75
3 2 2 3
2
75 37
3 2 2 3
2
37 79
3 2 2 3
2
79 37
3 2 2 3
2
37 99
3 2 2 3
2
99 37
3 2 2 3
2
38 28
3 2 2 3
2
28 38
3 2 2 3
2
38 30
3 2 2 3
2
30 38
3 2 2 3
2
38 31
3 2 2 3
2
31 38
3 2 2 3
2
38 39
3 2 2 3
2
39 38
3 2 2 3
2
38 42
3 2 2 3
2
42 38
3 2 2 3
2
38 53
3 2 2 3
2
53 38
3 2 2 3
2
38 61
3 2 2 3
2
61 38
3 2 2 3
2
38 67
3 2 2 3
2
67 38
3 2 2 3
2
38 80
3 2 2 3
2
80 38
3 2 2 3
2
39 3
3 2 2 3
2
3 39
3 2 2 3
2
39 29
3 2 2 3
2
29 39
3 2 2 3
2
39 37
3 2 2 3
2
37 39
3 2 2 3
2
39 68
3 2 2 3
2
68 39
3 2 2 3
2
39 75
3 2 2 3
2
75 39
3 2 2 3
2
40 35
3 2 2 3
2
35 40
3 2 2 3
2
40 45
3 2 2 3
2
45 40
3 2 2 3
2
40 48
3 2 2 3
2
48 40
3 2 2 3
2
40 58
3 2 2 3
2
58 40
3 2 2 3
2
40 62
3 2 2 3
2
62 40
3 2 2 3
2
40 87
3 2 2 3
2
87 40
3 2 2 3
2
41 29
3 2 2 3
2
29 41
3 2 2 3
2
41 32
3 2 2 3
2
32 41
3 2 2 3
2
41 35
3 2 2 3
2
35 41
3 2 2 3
2
41 42
3 2 2 3
2
42 41
3 2 2 3
2
41 66
3 2 2 3
2
66 41
3 2 2 3
2
41 77
3 2 2 3
2
77 41
3 2 2 3
2
41 95
3 2 2 3
2
95 41
3 2 2 3
2
41 96
3 2 2 3
2
96 41
3 2 2 3
2
42 7
3 2 2 3
2
7 42
3 2 2 3
2
42 10
3 2 2 3
2
10 42
3 2 2 3
2
42 16
3 2 2 3
2
16 42
3 2 2 3
2
42 22
3 2 2 3
2
22 42
3 2 2 3
2
42 32
3 2 2 3
2
32 42
3 2 2 3
2
42 57
3 2 2 3
2
57 42
3 2 2 3
2
42 59
3 2 2 3
2
59 42
3 2 2 3
2
42 82
3 2 2 3
2
82 42
3 2 2 3
2
43 9
3 2 2 3
2
9 43
3 2 2 3
2
43 34
3 2 2 3
2
34 43
3 2 2 3
2
43 44
3 2 2 3
2
44 43
3 2 2 3
2
43 45
3 2 2 3
2
45 43
3 2 2 3
2
43 47
3 2 2 3
2
47 43
3 2 2 3
2
43 52
3 2 2 3
2
52 43
3 2 2 3
2
43 60
3 2 2 3
2
60 43
3 2 2 3
2
43 81
3 2 2 3
2
81 43
3 2 2 3
2
43 96
3 2 2 3
2
96 43
3 2 2 3
2
44 3
3 2 2 3
2
3 44
3 2 2 3
2
44 14
3 2 2 3
2
14 44
3 2 2 3
2
44 27
3 2 2 3
2
27 44
3 2 2 3
2
44 33
3 2 2 3
2
33 44
3 2 2 3
2
44 40
3 2 2 3
2
40 44
3 2 2 3
2
44 42
3 2 2 3
2
42 44
3 2 2 3
2
44 48
3 2 2 3
2
48 44
3 2 2 3
2
44 74
3 2 2 3
2
74 44
3 2 2 3
2
44 85
3 2 2 3
2
85 44
3 2 2 3
2
44 91
3 2 2 3
2
91 44
3 2 2 3
2
45 7
3 2 2 3
2
7 45
3 2 2 3
2
45 40
3 2 2 3
2
40 45
3 2 2 3
2
45 42
3 2 2 3
2
42 45
3 2 2 3
2
45 48
3 2 2 3
2
48 45
3 2 2 3
2
45 49
3 2 2 3
2
49 45
3 2 2 3
2
45 53
3 2 2 3
2
53 45
3 2 2 3
2
45 55
3 2 2 3
2
55 45
3 2 2 3
2
45 63
3 2 2 3
2
63 45
3 2 2 3
2
45 64
3 2 2 3
2
64 45
3 2 2 3
2
45 66
3 2 2 3
2
66 45
3 2 2 3
2
46 5
3 2 2 3
2
5 46
3 2 2 3
2
46 17
3 2 2 3
2
17 46
3 2 2 3
2
46 40
3 2 2 3
2
40 46
3 2 2 3
2
46 43
3 2 2 3
2
43 46
3 2 2 3
2
46 51
3 2 2 3
2
51 46
3 2 2 3
2
46 69
3 2 2 3
2
69 46
3 2 2 3
2
46 74
3 2 2 3
2
74 46
3 2 2 3
2
46 82
3 2 2 3
2
82 46
3 2 2 3
2
46 87
3 2 2 3
2
87 46
3 2 2 3
2
47 7
3 2 2 3
2
7 47
3 2 2 3
2
47 17
3 2 2 3
2
17 47
3 2 2 3
2
47 40
3 2 2 3
2
40 47
3 2 2 3
2
47 41
3 2 2 3
2
41 47
3 2 2 3
2
47 44
3 2 2 3
2
44 47
3 2 2 3
2
47 46
3 2 2 3
2
46 47
3 2 2 3
2
47 55
3 2 2 3
2
55 47
3 2 2 3
2
47 56
3 2 2 3
2
56 47
3 2 2 3
2
47 85
3 2 2 3
2
85 47
3 2 2 3
2
48 28
3 2 2 3
2
28 48
3 2 2 3
2
48 40
3 2 2 3
2
40 48
3 2 2 3
2
48 44
3 2 2 3
2
44 48
3 2 2 3
2
48 46
3 2 2 3
2
46 48
3 2 2 3
2
48 47
3 2 2 3
2
47 48
3 2 2 3
2
49 42
3 2 2 3
2
42 49
3 2 2 3
2
49 43
3 2 2 3
2
43 49
3 2 2 3
2
49 45
3 2 2 3
2
45 49
3 2 2 3
2
49 47
3 2 2 3
2
47 49
3 2 2 3
2
49 71
3 2 2 3
2
71 49
3 2 2 3
2
50 3
3 2 2 3
2
3 50
3 2 2 3
2
50 15
3 2 2 3
2
15 50
3 2 2 3
2
50 31
3 2 2 3
2
31 50
3 2 2 3
2
50 47
3 2 2 3
2
47 50
3 2 2 3
2
50 74
3 2 2 3
2
74 50
3 2 2 3
2
51 15
3 2 2 3
2
15 51
3 2 2 3
2
51 18
3 2 2 3
2
18 51
3 2 2 3
2
51 47
3 2 2 3
2
47 51
3 2 2 3
2
51 50
3 2 2 3
2
50 51
3 2 2 3
2
51 55
3 2 2 3
2
55 51
3 2 2 3
2
51 69
3 2 2 3
2
69 51
3 2 2 3
2
51 89
3 2 2 3
2
89 51
3 2 2 3
2
52 25
3 2 2 3
2
25 52
3 2 2 3
2
52 46
3 2 2 3
2
46 52
3 2 2 3
2
52 47
3 2 2 3
2
47 52
3 2 2 3
2
52 51
3 2 2 3
2
51 52
3 2 2 3
2
52 56
3 2 2 3
2
56 52
3 2 2 3
2
52 59
3 2 2 3
2
59 52
3 2 2 3
2
52 67
3 2 2 3
2
67 52
3 2 2 3
2
52 70
3 2 2 3
2
70 52
3 2 2 3
2
52 95
3 2 2 3
2
95 52
3 2 2 3
2
53 1
3 2 2 3
2
1 53
3 2 2 3
2
53 6
3 2 2 3
2
6 53
3 2 2 3
2
53 34
3 2 2 3
2
34 53
3 2 2 3
2
53 50
3 2 2 3
2
50 53
3 2 2 3
2
53 51
3 2 2 3
2
51 53
3 2 2 3
2
53 52
3 2 2 3
2
52 53
3 2 2 3
2
53 54
3 2 2 3
2
54 53
3 2 2 3
2
53 56
3 2 2 3
2
56 53
3 2 2 3
2
53 61
3 2 2 3
2
61 53
3 2 2 3
2
53 63
3 2 2 3
2
63 53
3 2 2 3
2
53 68
3 2 2 3
2
68 53
3 2 2 3
2
53 80
3 2 2 3
2
80 53
3 2 2 3
2
54 1
3 2 2 3
2
1 54
3 2 2 3
2
54 3
3 2 2 3
2
3 54
3 2 2 3
2
54 50
3 2 2 3
2
50 54
3 2 2 3
2
54 58
3 2 2 3
2
58 54
3 2 2 3
2
54 86
3 2 2 3
2
86 54
3 2 2 3
2
54 89
3 2 2 3
2
89 54
3 2 2 3
2
54 91
3 2 2 3
2
91 54
3 2 2 3
2
55 2
3 2 2 3
2
2 55
3 2 2 3
2
55 45
3 2 2 3
2
45 55
3 2 2 3
2
55 51
3 2 2 3
2
51 55
3 2 2 3
2
55 53
3 2 2 3
2
53 55
3 2 2 3
2
55 54
3 2 2 3
2
54 55
3 2 2 3
2
55 56
3 2 2 3
2
56 55
3 2 2 3
2
55 58
3 2 2 3
2
58 55
3 2 2 3
2
55 75
3 2 2 3
2
75 55
3 2 2 3
2
56 29
3 2 2 3
2
29 56
3 2 2 3
2
56 50
3 2 2 3
2
50 56
3 2 2 3
2
56 54
3 2 2 3
2
54 56
3 2 2 3
2
56 59
3 2 2 3
2
59 56
3 2 2 3
2
56 61
3 2 2 3
2
61 56
3 2 2 3
2
56 83
3 2 2 3
2
83 56
3 2 2 3
2
56 95
3 2 2 3
2
95 56
3 2 2 3
2
57 32
3 2 2 3
2
32 57
3 2 2 3
2
57 36
3 2 2 3
2
36 57
3 2 2 3
2
57 52
3 2 2 3
2
52 57
3 2 2 3
2
57 53
3 2 2 3
2
53 57
3 2 2 3
2
57 59
3 2 2 3
2
59 57
3 2 2 3
2
57 73
3 2 2 3
2
73 57
3 2 2 3
2
57 89
3 2 2 3
2
89 57
3 2 2 3
2
57 97
3 2 2 3
2
97 57
3 2 2 3
2
58 57
3 2 2 3
2
57 58
3 2 2 3
2
58 59
3 2 2 3
2
59 58
3 2 2 3
2
58 88
3 2 2 3
2
88 58
3 2 2 3
2
58 96
3 2 2 3
2
96 58
3 2 2 3
2
59 45
3 2 2 3
2
45 59
3 2 2 3
2
59 53
3 2 2 3
2
53 59
3 2 2 3
2
59 56
3 2 2 3
2
56 59
3 2 2 3
2
59 71
3 2 2 3
2
71 59
3 2 2 3
2
60 11
3 2 2 3
2
11 60
3 2 2 3
2
60 29
3 2 2 3
2
29 60
3 2 2 3
2
60 55
3 2 2 3
2
55 60
3 2 2 3
2
60 62
3 2 2 3
2
62 60
3 2 2 3
2
60 64
3 2 2 3
2
64 60
3 2 2 3
2
60 67
3 2 2 3
2
67 60
3 2 2 3
2
60 69
3 2 2 3
2
69 60
3 2 2 3
2
60 81
3 2 2 3
2
81 60
3 2 2 3
2
61 5
3 2 2 3
2
5 61
3 2 2 3
2
61 36
3 2 2 3
2
36 61
3 2 2 3
2
61 48
3 2 2 3
2
48 61
3 2 2 3
2
61 50
3 2 2 3
2
50 61
3 2 2 3
2
61 62
3 2 2 3
2
62 61
3 2 2 3
2
61 66
3 2 2 3
2
66 61
3 2 2 3
2
61 69
3 2 2 3
2
69 61
3 2 2 3
2
61 74
3 2 2 3
2
74 61
3 2 2 3
2
61 77
3 2 2 3
2
77 61
3 2 2 3
2
61 90
3 2 2 3
2
90 61
3 2 2 3
2
62 27
3 2 2 3
2
27 62
3 2 2 3
2
62 47
3 2 2 3
2
47 62
3 2 2 3
2
62 50
3 2 2 3
2
50 62
3 2 2 3
2
62 63
3 2 2 3
2
63 62
3 2 2 3
2
62 64
3 2 2 3
2
64 62
3 2 2 3
2
62 75
3 2 2 3
2
75 62
3 2 2 3
2
63 45
3 2 2 3
2
45 63
3 2 2 3
2
63 51
3 2 2 3
2
51 63
3 2 2 3
2
63 60
3 2 2 3
2
60 63
3 2 2 3
2
63 61
3 2 2 3
2
61 63
3 2 2 3
2
63 64
3 2 2 3
2
64 63
3 2 2 3
2
63 69
3 2 2 3
2
69 63
3 2 2 3
2
63 93
3 2 2 3
2
93 63
3 2 2 3
2
64 45
3 2 2 3
2
45 64
3 2 2 3
2
64 47
3 2 2 3
2
47 64
3 2 2 3
2
64 57
3 2 2 3
2
57 64
3 2 2 3
2
64 60
3 2 2 3
2
60 64
3 2 2 3
2
64 65
3 2 2 3
2
65 64
3 2 2 3
2
64 74
3 2 2 3
2
74 64
3 2 2 3
2
64 84
3 2 2 3
2
84 64
3 2 2 3
2
64 95
3 2 2 3
2
95 64
3 2 2 3
2
64 97
3 2 2 3
2
97 64
3 2 2 3
2
65 14
3 2 2 3
2
14 65
3 2 2 3
2
65 22
3 2 2 3
2
22 65
3 2 2 3
2
65 52
3 2 2 3
2
52 65
3 2 2 3
2
65 56
3 2 2 3
2
56 65
3 2 2 3
2
65 66
3 2 2 3
2
66 65
3 2 2 3
2
66 16
3 2 2 3
2
16 66
3 2 2 3
2
66 62
3 2 2 3
2
62 66
3 2 2 3
2
66 63
3 2 2 3
2
63 66
3 2 2 3
2
66 64
3 2 2 3
2
64 66
3 2 2 3
2
66 65
3 2 2 3
2
65 66
3 2 2 3
2
66 67
3 2 2 3
2
67 66
3 2 2 3
2
66 69
3 2 2 3
2
69 66
3 2 2 3
2
66 70
3 2 2 3
2
70 66
3 2 2 3
2
66 73
3 2 2 3
2
73 66
3 2 2 3
2
66 84
3 2 2 3
2
84 66
3 2 2 3
2
66 90
3 2 2 3
2
90 66
3 2 2 3
2
67 43
3 2 2 3
2
43 67
3 2 2 3
2
67 61
3 2 2 3
2
61 67
3 2 2 3
2
67 62
3 2 2 3
2
62 67
3 2 2 3
2
67 63
3 2 2 3
2
63 67
3 2 2 3
2
67 64
3 2 2 3
2
64 67
3 2 2 3
2
67 74
3 2 2 3
2
74 67
3 2 2 3
2
67 79
3 2 2 3
2
79 67
3 2 2 3
2
68 0
3 2 2 3
2
0 68
3 2 2 3
2
68 43
3 2 2 3
2
43 68
3 2 2 3
2
68 57
3 2 2 3
2
57 68
3 2 2 3
2
68 58
3 2 2 3
2
58 68
3 2 2 3
2
68 65
3 2 2 3
2
65 68
3 2 2 3
2
68 69
3 2 2 3
2
69 68
3 2 2 3
2
68 71
3 2 2 3
2
71 68
3 2 2 3
2
68 74
3 2 2 3
2
74 68
3 2 2 3
2
68 84
3 2 2 3
2
84 68
3 2 2 3
2
69 4
3 2 2 3
2
4 69
3 2 2 3
2
69 24
3 2 2 3
2
24 69
3 2 2 3
2
69 26
3 2 2 3
2
26 69
3 2 2 3
2
69 40
3 2 2 3
2
40 69
3 2 2 3
2
69 56
3 2 2 3
2
56 69
3 2 2 3
2
69 61
3 2 2 3
2
61 69
3 2 2 3
2
69 62
3 2 2 3
2
62 69
3 2 2 3
2
69 66
3 2 2 3
2
66 69
3 2 2 3
2
69 67
3 2 2 3
2
67 69
3 2 2 3
2
69 81
3 2 2 3
2
81 69
3 2 2 3
2
69 94
3 2 2 3
2
94 69
3 2 2 3
2
70 17
3 2 2 3
2
17 70
3 2 2 3
2
70 22
3 2 2 3
2
22 70
3 2 2 3
2
70 35
3 2 2 3
2
35 70
3 2 2 3
2
70 46
3 2 2 3
2
46 70
3 2 2 3
2
70 67
3 2 2 3
2
67 70
3 2 2 3
2
70 73
3 2 2 3
2
73 70
3 2 2 3
2
70 76
3 2 2 3
2
76 70
3 2 2 3
2
70 77
3 2 2 3
2
77 70
3 2 2 3
2
70 85
3 2 2 3
2
85 70
3 2 2 3
2
71 14
3 2 2 3
2
14 71
3 2 2 3
2
71 21
3 2 2 3
2
21 71
3 2 2 3
2
71 72
3 2 2 3
2
72 71
3 2 2 3
2
71 74
3 2 2 3
2
74 71
3 2 2 3
2
71 83
3 2 2 3
2
83 71
3 2 2 3
2
71 90
3 2 2 3
2
90 71
3 2 2 3
2
71 91
3 2 2 3
2
91 71
3 2 2 3
2
72 5
3 2 2 3
2
5 72
3 2 2 3
2
72 50
3 2 2 3
2
50 72
3 2 2 3
2
72 67
3 2 2 3
2
67 72
3 2 2 3
2
72 74
3 2 2 3
2
74 72
3 2 2 3
2
72 76
3 2 2 3
2
76 72
3 2 2 3
2
73 4
3 2 2 3
2
4 73
3 2 2 3
2
73 6
3 2 2 3
2
6 73
3 2 2 3
2
73 7
3 2 2 3
2
7 73
3 2 2 3
2
73 11
3 2 2 3
2
11 73
3 2 2 3
2
73 24
3 2 2 3
2
24 73
3 2 2 3
2
73 64
3 2 2 3
2
64 73
3 2 2 3
2
73 65
3 2 2 3
2
65 73
3 2 2 3
2
73 74
3 2 2 3
2
74 73
3 2 2 3
2
73 75
3 2 2 3
2
75 73
3 2 2 3
2
73 77
3 2 2 3
2
77 73
3 2 2 3
2
73 79
3 2 2 3
2
79 73
3 2 2 3
2
73 91
3 2 2 3
2
91 73
3 2 2 3
2
74 6
3 2 2 3
2
6 74
3 2 2 3
2
74 14
3 2 2 3
2
14 74
3 2 2 3
2
74 43
3 2 2 3
2
43 74
3 2 2 3
2
74 67
3 2 2 3
2
67 74
3 2 2 3
2
74 69
3 2 2 3
2
69 74
3 2 2 3
2
74 77
3 2 2 3
2
77 74
3 2 2 3
2
75 9
3 2 2 3
2
9 75
3 2 2 3
2
75 13
3 2 2 3
2
13 75
3 2 2 3
2
75 47
3 2 2 3
2
47 75
3 2 2 3
2
75 48
3 2 2 3
2
48 75
3 2 2 3
2
75 72
3 2 2 3
2
72 75
3 2 2 3
2
75 73
3 2 2 3
2
73 75
3 2 2 3
2
75 77
3 2 2 3
2
77 75
3 2 2 3
2
75 78
3 2 2 3
2
78 75
3 2 2 3
2
75 79
3 2 2 3
2
79 75
3 2 2 3
2
76 13
3 2 2 3
2
13 76
3 2 2 3
2
76 19
3 2 2 3
2
19 76
3 2 2 3
2
76 25
3 2 2 3
2
25 76
3 2 2 3
2
76 26
3 2 2 3
2
26 76
3 2 2 3
2
76 52
3 2 2 3
2
52 76
3 2 2 3
2
76 68
3 2 2 3
2
68 76
3 2 2 3
2
76 74
3 2 2 3
2
74 76
3 2 2 3
2
76 78
3 2 2 3
2
78 76
3 2 2 3
2
77 71
3 2 2 3
2
71 77
3 2 2 3
2
77 72
3 2 2 3
2
72 77
3 2 2 3
2
77 76
3 2 2 3
2
76 77
3 2 2 3
2
77 86
3 2 2 3
2
86 77
3 2 2 3
2
77 96
3 2 2 3
2
96 77
3 2 2 3
2
78 22
3 2 2 3
2
22 78
3 2 2 3
2
78 24
3 2 2 3
2
24 78
3 2 2 3
2
78 70
3 2 2 3
2
70 78
3 2 2 3
2
78 71
3 2 2 3
2
71 78
3 2 2 3
2
78 75
3 2 2 3
2
75 78
3 2 2 3
2
78 77
3 2 2 3
2
77 78
3 2 2 3
2
79 2
3 2 2 3
2
2 79
3 2 2 3
2
79 31
3 2 2 3
2
31 79
3 2 2 3
2
79 41
3 2 2 3
2
41 79
3 2 2 3
2
79 52
3 2 2 3
2
52 79
3 2 2 3
2
79 59
3 2 2 3
2
59 79
3 2 2 3
2
79 70
3 2 2 3
2
70 79
3 2 2 3
2
79 72
3 2 2 3
2
72 79
3 2 2 3
2
79 89
3 2 2 3
2
89 79
3 2 2 3
2
80 11
3 2 2 3
2
11 80
3 2 2 3
2
80 71
3 2 2 3
2
71 80
3 2 2 3
2
80 74
3 2 2 3
2
74 80
3 2 2 3
2
80 79
3 2 2 3
2
79 80
3 2 2 3
2
80 83
3 2 2 3
2
83 80
3 2 2 3
2
80 87
3 2 2 3
2
87 80
3 2 2 3
2
80 89
3 2 2 3
2
89 80
3 2 2 3
2
80 99
3 2 2 3
2
99 80
3 2 2 3
2
81 0
3 2 2 3
2
0 81
3 2 2 3
2
81 8
3 2 2 3
2
8 81
3 2 2 3
2
81 16
3 2 2 3
2
16 81
3 2 2 3
2
81 24
3 2 2 3
2
24 81
3 2 2 3
2
81 41
3 2 2 3
2
41 81
3 2 2 3
2
81 51
3 2 2 3
2
51 81
3 2 2 3
2
81 69
3 2 2 3
2
69 81
3 2 2 3
2
81 83
3 2 2 3
2
83 81
3 2 2 3
2
81 84
3 2 2 3
2
84 81
3 2 2 3
2
82 51
3 2 2 3
2
51 82
3 2 2 3
2
82 87
3 2 2 3
2
87 82
3 2 2 3
2
82 88
3 2 2 3
2
88 82
3 2 2 3
2
82 89
3 2 2 3
2
89 82
3 2 2 3
2
82 92
3 2 2 3
2
92 82
3 2 2 3
2
83 14
3 2 2 3
2
14 83
3 2 2 3
2
83 60
3 2 2 3
2
60 83
3 2 2 3
2
83 71
3 2 2 3
2
71 83
3 2 2 3
2
83 72
3 2 2 3
2
72 83
3 2 2 3
2
83 81
3 2 2 3
2
81 83
3 2 2 3
2
83 84
3 2 2 3
2
84 83
3 2 2 3
2
83 89
3 2 2 3
2
89 83
3 2 2 3
2
83 99
3 2 2 3
2
99 83
3 2 2 3
2
84 14
3 2 2 3
2
14 84
3 2 2 3
2
84 34
3 2 2 3
2
34 84
3 2 2 3
2
84 63
3 2 2 3
2
63 84
3 2 2 3
2
84 83
3 2 2 3
2
83 84
3 2 2 3
2
84 88
3 2 2 3
2
88 84
3 2 2 3
2
84 89
3 2 2 3
2
89 84
3 2 2 3
2
84 93
3 2 2 3
2
93 84
3 2 2 3
2
85 3
3 2 2 3
2
3 85
3 2 2 3
2
85 12
3 2 2 3
2
12 85
3 2 2 3
2
85 21
3 2 2 3
2
21 85
3 2 2 3
2
85 75
3 2 2 3
2
75 85
3 2 2 3
2
85 80
3 2 2 3
2
80 85
3 2 2 3
2
85 82
3 2 2 3
2
82 85
3 2 2 3
2
85 83
3 2 2 3
2
83 85
3 2 2 3
2
85 84
3 2 2 3
2
84 85
3 2 2 3
2
86 67
3 2 2 3
2
67 86
3 2 2 3
2
86 80
3 2 2 3
2
80 86
3 2 2 3
2
86 89
3 2 2 3
2
89 86
3 2 2 3
2
86 98
3 2 2 3
2
98 86
3 2 2 3
2
87 17
3 2 2 3
2
17 87
3 2 2 3
2
87 19
3 2 2 3
2
19 87
3 2 2 3
2
87 54
3 2 2 3
2
54 87
3 2 2 3
2
87 76
3 2 2 3
2
76 87
3 2 2 3
2
87 81
3 2 2 3
2
81 87
3 2 2 3
2
87 84
3 2 2 3
2
84 87
3 2 2 3
2
87 88
3 2 2 3
2
88 87
3 2 2 3
2
87 89
3 2 2 3
2
89 87
3 2 2 3
2
88 25
3 2 2 3
2
25 88
3 2 2 3
2
88 30
3 2 2 3
2
30 88
3 2 2 3
2
88 44
3 2 2 3
2
44 88
3 2 2 3
2
88 74
3 2 2 3
2
74 88
3 2 2 3
2
88 75
3 2 2 3
2
75 88
3 2 2 3
2
88 82
3 2 2 3
2
82 88
3 2 2 3
2
88 89
3 2 2 3
2
89 88
3 2 2 3
2
89 4
3 2 2 3
2
4 89
3 2 2 3
2
89 54
3 2 2 3
2
54 89
3 2 2 3
2
89 82
3 2 2 3
2
82 89
3 2 2 3
2
89 83
3 2 2 3
2
83 89
3 2 2 3
2
89 87
3 2 2 3
2
87 89
3 2 2 3
2
90 3
3 2 2 3
2
3 90
3 2 2 3
2
90 14
3 2 2 3
2
14 90
3 2 2 3
2
90 20
3 2 2 3
2
20 90
3 2 2 3
2
90 41
3 2 2 3
2
41 90
3 2 2 3
2
90 73
3 2 2 3
2
73 90
3 2 2 3
2
90 97
3 2 2 3
2
97 90
3 2 2 3
2
91 24
3 2 2 3
2
24 91
3 2 2 3
2
91 40
3 2 2 3
2
40 91
3 2 2 3
2
91 47
3 2 2 3
2
47 91
3 2 2 3
2
91 90
3 2 2 3
2
90 91
3 2 2 3
2
91 94
3 2 2 3
2
94 91
3 2 2 3
2
91 95
3 2 2 3
2
95 91
3 2 2 3
2
91 96
3 2 2 3
2
96 91
3 2 2 3
2
91 97
3 2 2 3
2
97 91
3 2 2 3
2
91 98
3 2 2 3
2
98 91
3 2 2 3
2
92 21
3 2 2 3
2
21 92
3 2 2 3
2
92 22
3 2 2 3
2
22 92
3 2 2 3
2
92 47
3 2 2 3
2
47 92
3 2 2 3
2
92 83
3 2 2 3
2
83 92
3 2 2 3
2
93 7
3 2 2 3
2
7 93
3 2 2 3
2
93 36
3 2 2 3
2
36 93
3 2 2 3
2
93 78
3 2 2 3
2
78 93
3 2 2 3
2
93 82
3 2 2 3
2
82 93
3 2 2 3
2
93 97
3 2 2 3
2
97 93
3 2 2 3
2
94 1
3 2 2 3
2
1 94
3 2 2 3
2
94 37
3 2 2 3
2
37 94
3 2 2 3
2
94 38
3 2 2 3
2
38 94
3 2 2 3
2
94 81
3 2 2 3
2
81 94
3 2 2 3
2
94 84
3 2 2 3
2
84 94
3 2 2 3
2
94 89
3 2 2 3
2
89 94
3 2 2 3
2
94 95
3 2 2 3
2
95 94
3 2 2 3
2
94 99
3 2 2 3
2
99 94
3 2 2 3
2
95 1
3 2 2 3
2
1 95
3 2 2 3
2
95 3
3 2 2 3
2
3 95
3 2 2 3
2
95 27
3 2 2 3
2
27 95
3 2 2 3
2
95 44
3 2 2 3
2
44 95
3 2 2 3
2
95 83
3 2 2 3
2
83 95
3 2 2 3
2
96 37
3 2 2 3
2
37 96
3 2 2 3
2
96 38
3 2 2 3
2
38 96
3 2 2 3
2
96 64
3 2 2 3
2
64 96
3 2 2 3
2
96 91
3 2 2 3
2
91 96
3 2 2 3
2
96 92
3 2 2 3
2
92 96
3 2 2 3
2
96 99
3 2 2 3
2
99 96
3 2 2 3
2
97 2
3 2 2 3
2
2 97
3 2 2 3
2
97 46
3 2 2 3
2
46 97
3 2 2 3
2
97 47
3 2 2 3
2
47 97
3 2 2 3
2
97 76
3 2 2 3
2
76 97
3 2 2 3
2
97 91
3 2 2 3
2
91 97
3 2 2 3
2
97 93
3 2 2 3
2
93 97
3 2 2 3
2
97 96
3 2 2 3
2
96 97
3 2 2 3
2
98 37
3 2 2 3
2
37 98
3 2 2 3
2
98 42
3 2 2 3
2
42 98
3 2 2 3
2
98 56
3 2 2 3
2
56 98
3 2 2 3
2
98 61
3 2 2 3
2
61 98
3 2 2 3
2
98 90
3 2 2 3
2
90 98
3 2 2 3
2
98 92
3 2 2 3
2
92 98
3 2 2 3
2
98 97
3 2 2 3
2
97 98
3 2 2 3
2
99 53
3 2 2 3
2
53 99
3 2 2 3
2
99 83
3 2 2 3
2
83 99
3 2 2 3
2
99 97
3 2 2 3
2
97 99
3 2 2 3
