1 6 0 0
6 1 0 0
1 8 0 0
8 1 0 0
1 9 0 0
9 1 0 0
1 22 0 0
22 1 0 0
1 27 0 0
27 1 0 0
2 5 0 0
5 2 0 0
2 6 0 0
6 2 0 0
2 8 0 0
8 2 0 0
2 10 0 0
10 2 0 0
2 13 0 0
13 2 0 0
2 46 0 0
46 2 0 0
2 48 0 0
48 2 0 0
2 51 0 0
51 2 0 0
2 57 0 0
57 2 0 0
2 98 0 0
98 2 0 0
3 5 0 0
5 3 0 0
3 23 0 0
23 3 0 0
3 63 0 0
63 3 0 0
3 95 0 0
95 3 0 0
4 5 0 0
5 4 0 0
4 7 0 0
7 4 0 0
4 10 0 0
10 4 0 0
4 14 0 0
14 4 0 0
4 21 0 0
21 4 0 0
4 22 0 0
22 4 0 0
4 35 0 0
35 4 0 0
4 37 0 0
37 4 0 0
4 53 0 0
53 4 0 0
4 79 0 0
79 4 0 0
5 8 0 0
8 5 0 0
5 9 0 0
9 5 0 0
5 14 0 0
14 5 0 0
5 47 0 0
47 5 0 0
6 20 0 0
20 6 0 0
6 40 0 0
40 6 0 0
6 67 0 0
67 6 0 0
6 69 0 0
69 6 0 0
6 70 0 0
70 6 0 0
6 82 0 0
82 6 0 0
6 90 0 0
90 6 0 0
6 93 0 0
93 6 0 0
7 2 0 0
2 7 0 0
7 4 0 0
4 7 0 0
7 5 0 0
5 7 0 0
7 6 0 0
6 7 0 0
7 25 0 0
25 7 0 0
7 70 0 0
70 7 0 0
8 4 0 0
4 8 0 0
8 7 0 0
7 8 0 0
8 18 0 0
18 8 0 0
8 29 0 0
29 8 0 0
8 35 0 0
35 8 0 0
9 3 0 0
3 9 0 0
9 7 0 0
7 9 0 0
9 16 0 0
16 9 0 0
9 26 0 0
26 9 0 0
9 54 0 0
54 9 0 0
9 59 0 0
59 9 0 0
10 3 0 0
3 10 0 0
10 4 0 0
4 10 0 0
10 5 0 0
5 10 0 0
10 7 0 0
7 10 0 0
10 8 0 0
8 10 0 0
10 19 0 0
19 10 0 0
10 23 0 0
23 10 0 0
10 28 0 0
28 10 0 0
10 37 0 0
37 10 0 0
10 61 0 0
61 10 0 0
10 96 0 0
96 10 0 0
11 6 0 0
6 11 0 0
11 16 0 0
16 11 0 0
11 19 0 0
19 11 0 0
11 20 0 0
20 11 0 0
11 22 0 0
22 11 0 0
11 53 0 0
53 11 0 0
11 68 0 0
68 11 0 0
11 86 0 0
86 11 0 0
11 99 0 0
99 11 0 0
12 10 0 0
10 12 0 0
12 15 0 0
15 12 0 0
12 17 0 0
17 12 0 0
12 44 0 0
44 12 0 0
12 52 0 0
52 12 0 0
13 11 0 0
11 13 0 0
13 14 0 0
14 13 0 0
13 15 0 0
15 13 0 0
13 16 0 0
16 13 0 0
13 19 0 0
19 13 0 0
13 20 0 0
20 13 0 0
13 37 0 0
37 13 0 0
13 47 0 0
47 13 0 0
13 50 0 0
50 13 0 0
13 91 0 0
91 13 0 0
14 3 0 0
3 14 0 0
14 12 0 0
12 14 0 0
14 16 0 0
16 14 0 0
14 17 0 0
17 14 0 0
14 18 0 0
18 14 0 0
14 25 0 0
25 14 0 0
14 31 0 0
31 14 0 0
14 49 0 0
49 14 0 0
14 65 0 0
65 14 0 0
14 71 0 0
71 14 0 0
14 85 0 0
85 14 0 0
14 87 0 0
87 14 0 0
14 91 0 0
91 14 0 0
15 11 0 0
11 15 0 0
15 12 0 0
12 15 0 0
15 14 0 0
14 15 0 0
15 19 0 0
19 15 0 0
15 37 0 0
37 15 0 0
15 55 0 0
55 15 0 0
16 7 0 0
7 16 0 0
16 11 0 0
11 16 0 0
16 12 0 0
12 16 0 0
16 13 0 0
13 16 0 0
16 17 0 0
17 16 0 0
16 18 0 0
18 16 0 0
16 30 0 0
30 16 0 0
17 1 0 0
1 17 0 0
17 15 0 0
15 17 0 0
17 16 0 0
16 17 0 0
17 18 0 0
18 17 0 0
17 20 0 0
20 17 0 0
17 34 0 0
34 17 0 0
17 81 0 0
81 17 0 0
17 89 0 0
89 17 0 0
17 92 0 0
92 17 0 0
18 2 0 0
2 18 0 0
18 16 0 0
16 18 0 0
18 17 0 0
17 18 0 0
18 19 0 0
19 18 0 0
18 35 0 0
35 18 0 0
18 47 0 0
47 18 0 0
18 59 0 0
59 18 0 0
18 89 0 0
89 18 0 0
19 13 0 0
13 19 0 0
19 21 0 0
21 19 0 0
19 30 0 0
30 19 0 0
19 42 0 0
42 19 0 0
19 69 0 0
69 19 0 0
19 80 0 0
80 19 0 0
19 88 0 0
88 19 0 0
19 89 0 0
89 19 0 0
20 10 0 0
10 20 0 0
20 11 0 0
11 20 0 0
20 15 0 0
15 20 0 0
20 17 0 0
17 20 0 0
20 73 0 0
73 20 0 0
20 97 0 0
97 20 0 0
21 25 0 0
25 21 0 0
21 27 0 0
27 21 0 0
21 29 0 0
29 21 0 0
21 30 0 0
30 21 0 0
21 54 0 0
54 21 0 0
21 63 0 0
63 21 0 0
21 87 0 0
87 21 0 0
21 91 0 0
91 21 0 0
22 2 0 0
2 22 0 0
22 14 0 0
14 22 0 0
22 16 0 0
16 22 0 0
22 23 0 0
23 22 0 0
22 27 0 0
27 22 0 0
22 86 0 0
86 22 0 0
22 95 0 0
95 22 0 0
23 21 0 0
21 23 0 0
23 22 0 0
22 23 0 0
23 25 0 0
25 23 0 0
23 26 0 0
26 23 0 0
23 29 0 0
29 23 0 0
23 30 0 0
30 23 0 0
23 37 0 0
37 23 0 0
23 39 0 0
39 23 0 0
23 45 0 0
45 23 0 0
23 47 0 0
47 23 0 0
23 88 0 0
88 23 0 0
24 11 0 0
11 24 0 0
24 14 0 0
14 24 0 0
24 18 0 0
18 24 0 0
24 21 0 0
21 24 0 0
24 22 0 0
22 24 0 0
24 26 0 0
26 24 0 0
24 29 0 0
29 24 0 0
24 30 0 0
30 24 0 0
24 53 0 0
53 24 0 0
24 92 0 0
92 24 0 0
25 15 0 0
15 25 0 0
25 21 0 0
21 25 0 0
25 22 0 0
22 25 0 0
25 29 0 0
29 25 0 0
25 75 0 0
75 25 0 0
25 89 0 0
89 25 0 0
26 10 0 0
10 26 0 0
26 20 0 0
20 26 0 0
26 23 0 0
23 26 0 0
26 25 0 0
25 26 0 0
26 27 0 0
27 26 0 0
26 29 0 0
29 26 0 0
26 76 0 0
76 26 0 0
26 91 0 0
91 26 0 0
27 21 0 0
21 27 0 0
27 22 0 0
22 27 0 0
27 26 0 0
26 27 0 0
27 28 0 0
28 27 0 0
27 35 0 0
35 27 0 0
27 37 0 0
37 27 0 0
27 41 0 0
41 27 0 0
27 43 0 0
43 27 0 0
27 81 0 0
81 27 0 0
27 92 0 0
92 27 0 0
28 15 0 0
15 28 0 0
28 22 0 0
22 28 0 0
28 26 0 0
26 28 0 0
28 29 0 0
29 28 0 0
28 34 0 0
34 28 0 0
28 39 0 0
39 28 0 0
28 54 0 0
54 28 0 0
29 6 0 0
6 29 0 0
29 24 0 0
24 29 0 0
29 28 0 0
28 29 0 0
29 36 0 0
36 29 0 0
30 36 0 0
36 30 0 0
30 83 0 0
83 30 0 0
30 86 0 0
86 30 0 0
30 96 0 0
96 30 0 0
31 14 0 0
14 31 0 0
31 35 0 0
35 31 0 0
31 37 0 0
37 31 0 0
31 39 0 0
39 31 0 0
31 41 0 0
41 31 0 0
31 42 0 0
42 31 0 0
32 19 0 0
19 32 0 0
32 33 0 0
33 32 0 0
32 40 0 0
40 32 0 0
33 30 0 0
30 33 0 0
33 34 0 0
34 33 0 0
33 36 0 0
36 33 0 0
33 38 0 0
38 33 0 0
33 49 0 0
49 33 0 0
34 8 0 0
8 34 0 0
34 24 0 0
24 34 0 0
34 31 0 0
31 34 0 0
34 33 0 0
33 34 0 0
34 35 0 0
35 34 0 0
34 36 0 0
36 34 0 0
34 39 0 0
39 34 0 0
34 86 0 0
86 34 0 0
35 7 0 0
7 35 0 0
35 31 0 0
31 35 0 0
35 34 0 0
34 35 0 0
35 37 0 0
37 35 0 0
35 45 0 0
45 35 0 0
35 53 0 0
53 35 0 0
35 66 0 0
66 35 0 0
35 69 0 0
69 35 0 0
36 32 0 0
32 36 0 0
36 33 0 0
33 36 0 0
36 34 0 0
34 36 0 0
36 39 0 0
39 36 0 0
36 40 0 0
40 36 0 0
36 61 0 0
61 36 0 0
37 16 0 0
16 37 0 0
37 34 0 0
34 37 0 0
37 38 0 0
38 37 0 0
37 78 0 0
78 37 0 0
37 80 0 0
80 37 0 0
38 1 0 0
1 38 0 0
38 24 0 0
24 38 0 0
38 34 0 0
34 38 0 0
38 36 0 0
36 38 0 0
38 87 0 0
87 38 0 0
39 31 0 0
31 39 0 0
39 34 0 0
34 39 0 0
39 35 0 0
35 39 0 0
39 37 0 0
37 39 0 0
39 45 0 0
45 39 0 0
40 15 0 0
15 40 0 0
40 31 0 0
31 40 0 0
40 32 0 0
32 40 0 0
40 33 0 0
33 40 0 0
40 36 0 0
36 40 0 0
40 57 0 0
57 40 0 0
41 7 0 0
7 41 0 0
41 13 0 0
13 41 0 0
41 28 0 0
28 41 0 0
41 43 0 0
43 41 0 0
41 46 0 0
46 41 0 0
41 74 0 0
74 41 0 0
42 15 0 0
15 42 0 0
42 22 0 0
22 42 0 0
42 24 0 0
24 42 0 0
42 25 0 0
25 42 0 0
42 33 0 0
33 42 0 0
42 44 0 0
44 42 0 0
42 48 0 0
48 42 0 0
42 50 0 0
50 42 0 0
42 53 0 0
53 42 0 0
42 84 0 0
84 42 0 0
43 27 0 0
27 43 0 0
43 41 0 0
41 43 0 0
43 42 0 0
42 43 0 0
43 55 0 0
55 43 0 0
43 67 0 0
67 43 0 0
44 15 0 0
15 44 0 0
44 35 0 0
35 44 0 0
44 43 0 0
43 44 0 0
44 45 0 0
45 44 0 0
44 47 0 0
47 44 0 0
44 49 0 0
49 44 0 0
44 61 0 0
61 44 0 0
44 68 0 0
68 44 0 0
44 69 0 0
69 44 0 0
44 90 0 0
90 44 0 0
44 95 0 0
95 44 0 0
44 99 0 0
99 44 0 0
45 8 0 0
8 45 0 0
45 26 0 0
26 45 0 0
45 32 0 0
32 45 0 0
45 33 0 0
33 45 0 0
45 44 0 0
44 45 0 0
45 48 0 0
48 45 0 0
45 54 0 0
54 45 0 0
46 12 0 0
12 46 0 0
46 17 0 0
17 46 0 0
46 42 0 0
42 46 0 0
46 43 0 0
43 46 0 0
46 44 0 0
44 46 0 0
46 48 0 0
48 46 0 0
46 56 0 0
56 46 0 0
46 66 0 0
66 46 0 0
47 13 0 0
13 47 0 0
47 43 0 0
43 47 0 0
47 48 0 0
48 47 0 0
47 50 0 0
50 47 0 0
47 59 0 0
59 47 0 0
47 74 0 0
74 47 0 0
47 86 0 0
86 47 0 0
47 92 0 0
92 47 0 0
48 3 0 0
3 48 0 0
48 21 0 0
21 48 0 0
48 50 0 0
50 48 0 0
48 74 0 0
74 48 0 0
48 90 0 0
90 48 0 0
48 95 0 0
95 48 0 0
49 14 0 0
14 49 0 0
49 15 0 0
15 49 0 0
49 25 0 0
25 49 0 0
49 41 0 0
41 49 0 0
49 43 0 0
43 49 0 0
49 44 0 0
44 49 0 0
49 45 0 0
45 49 0 0
49 47 0 0
47 49 0 0
49 59 0 0
59 49 0 0
49 67 0 0
67 49 0 0
49 77 0 0
77 49 0 0
50 9 0 0
9 50 0 0
50 14 0 0
14 50 0 0
50 23 0 0
23 50 0 0
50 37 0 0
37 50 0 0
50 45 0 0
45 50 0 0
50 46 0 0
46 50 0 0
50 49 0 0
49 50 0 0
50 78 0 0
78 50 0 0
50 80 0 0
80 50 0 0
50 89 0 0
89 50 0 0
51 42 0 0
42 51 0 0
51 56 0 0
56 51 0 0
51 57 0 0
57 51 0 0
51 60 0 0
60 51 0 0
51 62 0 0
62 51 0 0
51 86 0 0
86 51 0 0
51 89 0 0
89 51 0 0
52 8 0 0
8 52 0 0
52 22 0 0
22 52 0 0
52 39 0 0
39 52 0 0
52 44 0 0
44 52 0 0
52 51 0 0
51 52 0 0
52 53 0 0
53 52 0 0
52 54 0 0
54 52 0 0
52 55 0 0
55 52 0 0
52 59 0 0
59 52 0 0
53 32 0 0
32 53 0 0
53 36 0 0
36 53 0 0
53 52 0 0
52 53 0 0
53 56 0 0
56 53 0 0
53 59 0 0
59 53 0 0
53 74 0 0
74 53 0 0
53 94 0 0
94 53 0 0
54 5 0 0
5 54 0 0
54 27 0 0
27 54 0 0
54 29 0 0
29 54 0 0
54 51 0 0
51 54 0 0
54 57 0 0
57 54 0 0
54 58 0 0
58 54 0 0
54 59 0 0
59 54 0 0
54 68 0 0
68 54 0 0
54 78 0 0
78 54 0 0
55 57 0 0
57 55 0 0
55 84 0 0
84 55 0 0
56 27 0 0
27 56 0 0
56 32 0 0
32 56 0 0
56 53 0 0
53 56 0 0
56 54 0 0
54 56 0 0
56 55 0 0
55 56 0 0
56 57 0 0
57 56 0 0
56 59 0 0
59 56 0 0
56 81 0 0
81 56 0 0
56 93 0 0
93 56 0 0
57 22 0 0
22 57 0 0
57 39 0 0
39 57 0 0
57 59 0 0
59 57 0 0
57 60 0 0
60 57 0 0
57 71 0 0
71 57 0 0
57 75 0 0
75 57 0 0
57 98 0 0
98 57 0 0
58 45 0 0
45 58 0 0
58 53 0 0
53 58 0 0
58 56 0 0
56 58 0 0
58 76 0 0
76 58 0 0
59 36 0 0
36 59 0 0
59 51 0 0
51 59 0 0
59 56 0 0
56 59 0 0
59 57 0 0
57 59 0 0
59 58 0 0
58 59 0 0
59 89 0 0
89 59 0 0
59 95 0 0
95 59 0 0
60 7 0 0
7 60 0 0
60 52 0 0
52 60 0 0
60 54 0 0
54 60 0 0
60 55 0 0
55 60 0 0
60 56 0 0
56 60 0 0
60 59 0 0
59 60 0 0
60 64 0 0
64 60 0 0
60 87 0 0
87 60 0 0
60 91 0 0
91 60 0 0
61 2 0 0
2 61 0 0
61 13 0 0
13 61 0 0
61 44 0 0
44 61 0 0
61 64 0 0
64 61 0 0
61 66 0 0
66 61 0 0
61 67 0 0
67 61 0 0
61 68 0 0
68 61 0 0
61 84 0 0
84 61 0 0
61 90 0 0
90 61 0 0
62 3 0 0
3 62 0 0
62 7 0 0
7 62 0 0
62 20 0 0
20 62 0 0
62 48 0 0
48 62 0 0
62 50 0 0
50 62 0 0
62 63 0 0
63 62 0 0
62 64 0 0
64 62 0 0
62 65 0 0
65 62 0 0
62 70 0 0
70 62 0 0
62 81 0 0
81 62 0 0
62 91 0 0
91 62 0 0
63 27 0 0
27 63 0 0
63 37 0 0
37 63 0 0
63 49 0 0
49 63 0 0
63 60 0 0
60 63 0 0
63 61 0 0
61 63 0 0
63 65 0 0
65 63 0 0
63 67 0 0
67 63 0 0
63 68 0 0
68 63 0 0
63 70 0 0
70 63 0 0
63 80 0 0
80 63 0 0
63 81 0 0
81 63 0 0
64 30 0 0
30 64 0 0
64 40 0 0
40 64 0 0
64 45 0 0
45 64 0 0
64 65 0 0
65 64 0 0
64 68 0 0
68 64 0 0
64 69 0 0
69 64 0 0
65 14 0 0
14 65 0 0
65 22 0 0
22 65 0 0
65 39 0 0
39 65 0 0
65 64 0 0
64 65 0 0
65 98 0 0
98 65 0 0
66 36 0 0
36 66 0 0
66 55 0 0
55 66 0 0
66 61 0 0
61 66 0 0
66 62 0 0
62 66 0 0
66 93 0 0
93 66 0 0
67 1 0 0
1 67 0 0
67 2 0 0
2 67 0 0
67 61 0 0
61 67 0 0
67 68 0 0
68 67 0 0
68 13 0 0
13 68 0 0
68 33 0 0
33 68 0 0
68 35 0 0
35 68 0 0
68 43 0 0
43 68 0 0
68 65 0 0
65 68 0 0
68 66 0 0
66 68 0 0
68 83 0 0
83 68 0 0
68 91 0 0
91 68 0 0
68 94 0 0
94 68 0 0
69 2 0 0
2 69 0 0
69 11 0 0
11 69 0 0
69 31 0 0
31 69 0 0
69 63 0 0
63 69 0 0
69 67 0 0
67 69 0 0
69 100 0 0
100 69 0 0
70 10 0 0
10 70 0 0
70 19 0 0
19 70 0 0
70 61 0 0
61 70 0 0
71 24 0 0
24 71 0 0
71 29 0 0
29 71 0 0
71 31 0 0
31 71 0 0
71 88 0 0
88 71 0 0
71 98 0 0
98 71 0 0
72 41 0 0
41 72 0 0
72 43 0 0
43 72 0 0
72 49 0 0
49 72 0 0
72 63 0 0
63 72 0 0
72 76 0 0
76 72 0 0
72 77 0 0
77 72 0 0
72 78 0 0
78 72 0 0
72 79 0 0
79 72 0 0
72 80 0 0
80 72 0 0
72 85 0 0
85 72 0 0
72 88 0 0
88 72 0 0
72 95 0 0
95 72 0 0
73 4 0 0
4 73 0 0
73 41 0 0
41 73 0 0
73 51 0 0
51 73 0 0
73 71 0 0
71 73 0 0
73 72 0 0
72 73 0 0
73 76 0 0
76 73 0 0
73 98 0 0
98 73 0 0
74 12 0 0
12 74 0 0
74 27 0 0
27 74 0 0
74 33 0 0
33 74 0 0
74 48 0 0
48 74 0 0
74 55 0 0
55 74 0 0
74 64 0 0
64 74 0 0
74 77 0 0
77 74 0 0
74 85 0 0
85 74 0 0
75 2 0 0
2 75 0 0
75 9 0 0
9 75 0 0
75 24 0 0
24 75 0 0
75 76 0 0
76 75 0 0
76 18 0 0
18 76 0 0
76 26 0 0
26 76 0 0
76 46 0 0
46 76 0 0
76 50 0 0
50 76 0 0
76 70 0 0
70 76 0 0
76 74 0 0
74 76 0 0
76 79 0 0
79 76 0 0
77 71 0 0
71 77 0 0
77 73 0 0
73 77 0 0
77 75 0 0
75 77 0 0
77 76 0 0
76 77 0 0
77 95 0 0
95 77 0 0
78 10 0 0
10 78 0 0
78 36 0 0
36 78 0 0
78 58 0 0
58 78 0 0
78 73 0 0
73 78 0 0
78 74 0 0
74 78 0 0
78 75 0 0
75 78 0 0
78 79 0 0
79 78 0 0
78 93 0 0
93 78 0 0
79 10 0 0
10 79 0 0
79 70 0 0
70 79 0 0
79 73 0 0
73 79 0 0
79 77 0 0
77 79 0 0
79 80 0 0
80 79 0 0
80 2 0 0
2 80 0 0
80 13 0 0
13 80 0 0
80 14 0 0
14 80 0 0
80 27 0 0
27 80 0 0
80 32 0 0
32 80 0 0
80 64 0 0
64 80 0 0
80 71 0 0
71 80 0 0
80 72 0 0
72 80 0 0
80 74 0 0
74 80 0 0
80 77 0 0
77 80 0 0
80 78 0 0
78 80 0 0
80 83 0 0
83 80 0 0
80 87 0 0
87 80 0 0
81 5 0 0
5 81 0 0
81 57 0 0
57 81 0 0
81 63 0 0
63 81 0 0
81 80 0 0
80 81 0 0
81 82 0 0
82 81 0 0
81 83 0 0
83 81 0 0
81 89 0 0
89 81 0 0
81 99 0 0
99 81 0 0
82 2 0 0
2 82 0 0
82 5 0 0
5 82 0 0
82 83 0 0
83 82 0 0
82 94 0 0
94 82 0 0
83 18 0 0
18 83 0 0
83 25 0 0
25 83 0 0
83 49 0 0
49 83 0 0
83 57 0 0
57 83 0 0
83 60 0 0
60 83 0 0
83 71 0 0
71 83 0 0
83 75 0 0
75 83 0 0
83 82 0 0
82 83 0 0
83 84 0 0
84 83 0 0
83 87 0 0
87 83 0 0
83 88 0 0
88 83 0 0
83 90 0 0
90 83 0 0
83 98 0 0
98 83 0 0
84 9 0 0
9 84 0 0
84 47 0 0
47 84 0 0
84 83 0 0
83 84 0 0
84 85 0 0
85 84 0 0
84 89 0 0
89 84 0 0
84 95 0 0
95 84 0 0
85 34 0 0
34 85 0 0
85 41 0 0
41 85 0 0
85 75 0 0
75 85 0 0
85 84 0 0
84 85 0 0
86 66 0 0
66 86 0 0
86 77 0 0
77 86 0 0
86 81 0 0
81 86 0 0
86 84 0 0
84 86 0 0
86 87 0 0
87 86 0 0
86 98 0 0
98 86 0 0
87 34 0 0
34 87 0 0
87 40 0 0
40 87 0 0
87 47 0 0
47 87 0 0
87 76 0 0
76 87 0 0
87 86 0 0
86 87 0 0
87 89 0 0
89 87 0 0
88 13 0 0
13 88 0 0
88 30 0 0
30 88 0 0
88 46 0 0
46 88 0 0
88 68 0 0
68 88 0 0
88 80 0 0
80 88 0 0
88 83 0 0
83 88 0 0
88 85 0 0
85 88 0 0
88 86 0 0
86 88 0 0
88 89 0 0
89 88 0 0
89 51 0 0
51 89 0 0
89 52 0 0
52 89 0 0
89 78 0 0
78 89 0 0
89 88 0 0
88 89 0 0
89 90 0 0
90 89 0 0
90 25 0 0
25 90 0 0
90 79 0 0
79 90 0 0
90 82 0 0
82 90 0 0
90 84 0 0
84 90 0 0
90 86 0 0
86 90 0 0
90 87 0 0
87 90 0 0
90 91 0 0
91 90 0 0
91 32 0 0
32 91 0 0
91 43 0 0
43 91 0 0
91 95 0 0
95 91 0 0
92 7 0 0
7 92 0 0
92 10 0 0
10 92 0 0
92 11 0 0
11 92 0 0
92 51 0 0
51 92 0 0
92 75 0 0
75 92 0 0
92 95 0 0
95 92 0 0
92 97 0 0
97 92 0 0
93 16 0 0
16 93 0 0
93 68 0 0
68 93 0 0
93 70 0 0
70 93 0 0
93 74 0 0
74 93 0 0
93 87 0 0
87 93 0 0
93 92 0 0
92 93 0 0
93 94 0 0
94 93 0 0
93 99 0 0
99 93 0 0
94 1 0 0
1 94 0 0
94 19 0 0
19 94 0 0
94 29 0 0
29 94 0 0
94 63 0 0
63 94 0 0
94 82 0 0
82 94 0 0
94 89 0 0
89 94 0 0
94 91 0 0
91 94 0 0
94 92 0 0
92 94 0 0
94 97 0 0
97 94 0 0
95 1 0 0
1 95 0 0
95 87 0 0
87 95 0 0
95 91 0 0
91 95 0 0
95 96 0 0
96 95 0 0
95 98 0 0
98 95 0 0
96 17 0 0
17 96 0 0
96 18 0 0
18 96 0 0
96 45 0 0
45 96 0 0
96 63 0 0
63 96 0 0
96 83 0 0
83 96 0 0
96 92 0 0
92 96 0 0
96 93 0 0
93 96 0 0
96 100 0 0
100 96 0 0
97 27 0 0
27 97 0 0
97 91 0 0
91 97 0 0
97 92 0 0
92 97 0 0
97 93 0 0
93 97 0 0
97 96 0 0
96 97 0 0
98 10 0 0
10 98 0 0
98 13 0 0
13 98 0 0
98 45 0 0
45 98 0 0
98 93 0 0
93 98 0 0
98 97 0 0
97 98 0 0
98 100 0 0
100 98 0 0
99 1 0 0
1 99 0 0
99 22 0 0
22 99 0 0
99 33 0 0
33 99 0 0
99 42 0 0
42 99 0 0
99 90 0 0
90 99 0 0
99 97 0 0
97 99 0 0
100 6 0 0
6 100 0 0
100 7 0 0
7 100 0 0
100 29 0 0
29 100 0 0
100 44 0 0
44 100 0 0
100 45 0 0
45 100 0 0
100 64 0 0
64 100 0 0
100 88 0 0
88 100 0 0
100 92 0 0
92 100 0 0
100 96 0 0
96 100 0 0
100 97 0 0
97 100 0 0
