1 5 0 0
5 1 0 0
1 9 0 0
9 1 0 0
1 10 0 0
10 1 0 0
2 1 0 0
1 2 0 0
2 3 0 0
3 2 0 0
2 9 0 0
9 2 0 0
2 10 0 0
10 2 0 0
2 28 0 0
28 2 0 0
2 36 0 0
36 2 0 0
2 64 0 0
64 2 0 0
3 5 0 0
5 3 0 0
3 7 0 0
7 3 0 0
3 14 0 0
14 3 0 0
3 33 0 0
33 3 0 0
4 8 0 0
8 4 0 0
4 9 0 0
9 4 0 0
4 21 0 0
21 4 0 0
4 46 0 0
46 4 0 0
4 47 0 0
47 4 0 0
4 52 0 0
52 4 0 0
4 69 0 0
69 4 0 0
4 84 0 0
84 4 0 0
5 53 0 0
53 5 0 0
5 91 0 0
91 5 0 0
5 96 0 0
96 5 0 0
6 4 0 0
4 6 0 0
6 10 0 0
10 6 0 0
6 40 0 0
40 6 0 0
6 57 0 0
57 6 0 0
6 62 0 0
62 6 0 0
6 78 0 0
78 6 0 0
6 80 0 0
80 6 0 0
6 82 0 0
82 6 0 0
6 87 0 0
87 6 0 0
6 94 0 0
94 6 0 0
6 98 0 0
98 6 0 0
7 20 0 0
20 7 0 0
7 43 0 0
43 7 0 0
7 57 0 0
57 7 0 0
7 71 0 0
71 7 0 0
7 94 0 0
94 7 0 0
8 1 0 0
1 8 0 0
8 5 0 0
5 8 0 0
8 7 0 0
7 8 0 0
8 9 0 0
9 8 0 0
8 22 0 0
22 8 0 0
8 40 0 0
40 8 0 0
8 60 0 0
60 8 0 0
8 61 0 0
61 8 0 0
8 62 0 0
62 8 0 0
8 68 0 0
68 8 0 0
8 69 0 0
69 8 0 0
8 75 0 0
75 8 0 0
8 82 0 0
82 8 0 0
8 99 0 0
99 8 0 0
9 2 0 0
2 9 0 0
9 3 0 0
3 9 0 0
9 6 0 0
6 9 0 0
9 8 0 0
8 9 0 0
9 10 0 0
10 9 0 0
9 33 0 0
33 9 0 0
9 42 0 0
42 9 0 0
9 49 0 0
49 9 0 0
9 51 0 0
51 9 0 0
9 81 0 0
81 9 0 0
9 91 0 0
91 9 0 0
10 2 0 0
2 10 0 0
10 6 0 0
6 10 0 0
10 24 0 0
24 10 0 0
10 33 0 0
33 10 0 0
10 53 0 0
53 10 0 0
10 59 0 0
59 10 0 0
10 64 0 0
64 10 0 0
10 86 0 0
86 10 0 0
11 5 0 0
5 11 0 0
11 12 0 0
12 11 0 0
11 16 0 0
16 11 0 0
11 17 0 0
17 11 0 0
11 40 0 0
40 11 0 0
11 69 0 0
69 11 0 0
12 3 0 0
3 12 0 0
12 6 0 0
6 12 0 0
12 11 0 0
11 12 0 0
12 14 0 0
14 12 0 0
12 15 0 0
15 12 0 0
12 89 0 0
89 12 0 0
12 91 0 0
91 12 0 0
12 97 0 0
97 12 0 0
13 4 0 0
4 13 0 0
13 9 0 0
9 13 0 0
13 11 0 0
11 13 0 0
13 17 0 0
17 13 0 0
13 18 0 0
18 13 0 0
13 28 0 0
28 13 0 0
13 39 0 0
39 13 0 0
13 63 0 0
63 13 0 0
13 67 0 0
67 13 0 0
13 77 0 0
77 13 0 0
13 96 0 0
96 13 0 0
13 97 0 0
97 13 0 0
14 17 0 0
17 14 0 0
14 20 0 0
20 14 0 0
14 24 0 0
24 14 0 0
14 85 0 0
85 14 0 0
15 3 0 0
3 15 0 0
15 12 0 0
12 15 0 0
15 14 0 0
14 15 0 0
15 20 0 0
20 15 0 0
15 31 0 0
31 15 0 0
16 13 0 0
13 16 0 0
16 17 0 0
17 16 0 0
16 47 0 0
47 16 0 0
16 57 0 0
57 16 0 0
16 64 0 0
64 16 0 0
16 66 0 0
66 16 0 0
16 75 0 0
75 16 0 0
16 82 0 0
82 16 0 0
16 99 0 0
99 16 0 0
17 2 0 0
2 17 0 0
17 14 0 0
14 17 0 0
17 15 0 0
15 17 0 0
17 18 0 0
18 17 0 0
17 19 0 0
19 17 0 0
17 20 0 0
20 17 0 0
17 59 0 0
59 17 0 0
17 85 0 0
85 17 0 0
18 5 0 0
5 18 0 0
18 11 0 0
11 18 0 0
18 14 0 0
14 18 0 0
18 15 0 0
15 18 0 0
18 17 0 0
17 18 0 0
18 46 0 0
46 18 0 0
18 52 0 0
52 18 0 0
19 9 0 0
9 19 0 0
19 10 0 0
10 19 0 0
19 11 0 0
11 19 0 0
19 12 0 0
12 19 0 0
19 17 0 0
17 19 0 0
19 18 0 0
18 19 0 0
19 27 0 0
27 19 0 0
19 35 0 0
35 19 0 0
19 43 0 0
43 19 0 0
19 65 0 0
65 19 0 0
19 81 0 0
81 19 0 0
20 12 0 0
12 20 0 0
20 13 0 0
13 20 0 0
20 16 0 0
16 20 0 0
20 17 0 0
17 20 0 0
20 80 0 0
80 20 0 0
20 88 0 0
88 20 0 0
21 15 0 0
15 21 0 0
21 22 0 0
22 21 0 0
21 25 0 0
25 21 0 0
21 47 0 0
47 21 0 0
21 60 0 0
60 21 0 0
21 91 0 0
91 21 0 0
22 2 0 0
2 22 0 0
22 21 0 0
21 22 0 0
22 23 0 0
23 22 0 0
22 28 0 0
28 22 0 0
22 29 0 0
29 22 0 0
23 4 0 0
4 23 0 0
23 21 0 0
21 23 0 0
23 22 0 0
22 23 0 0
23 24 0 0
24 23 0 0
23 28 0 0
28 23 0 0
23 37 0 0
37 23 0 0
23 42 0 0
42 23 0 0
23 61 0 0
61 23 0 0
23 69 0 0
69 23 0 0
24 21 0 0
21 24 0 0
24 25 0 0
25 24 0 0
24 29 0 0
29 24 0 0
24 30 0 0
30 24 0 0
24 68 0 0
68 24 0 0
24 70 0 0
70 24 0 0
24 78 0 0
78 24 0 0
24 99 0 0
99 24 0 0
25 14 0 0
14 25 0 0
25 22 0 0
22 25 0 0
25 62 0 0
62 25 0 0
26 9 0 0
9 26 0 0
26 23 0 0
23 26 0 0
26 24 0 0
24 26 0 0
26 27 0 0
27 26 0 0
26 28 0 0
28 26 0 0
26 29 0 0
29 26 0 0
26 30 0 0
30 26 0 0
26 57 0 0
57 26 0 0
26 60 0 0
60 26 0 0
26 61 0 0
61 26 0 0
26 74 0 0
74 26 0 0
26 75 0 0
75 26 0 0
26 100 0 0
100 26 0 0
27 21 0 0
21 27 0 0
27 25 0 0
25 27 0 0
27 43 0 0
43 27 0 0
27 62 0 0
62 27 0 0
28 27 0 0
27 28 0 0
28 29 0 0
29 28 0 0
28 31 0 0
31 28 0 0
28 38 0 0
38 28 0 0
28 40 0 0
40 28 0 0
28 60 0 0
60 28 0 0
28 62 0 0
62 28 0 0
28 69 0 0
69 28 0 0
28 94 0 0
94 28 0 0
28 95 0 0
95 28 0 0
28 99 0 0
99 28 0 0
29 4 0 0
4 29 0 0
29 21 0 0
21 29 0 0
29 30 0 0
30 29 0 0
29 53 0 0
53 29 0 0
29 77 0 0
77 29 0 0
29 93 0 0
93 29 0 0
29 94 0 0
94 29 0 0
30 2 0 0
2 30 0 0
30 27 0 0
27 30 0 0
30 60 0 0
60 30 0 0
30 61 0 0
61 30 0 0
30 78 0 0
78 30 0 0
30 96 0 0
96 30 0 0
31 32 0 0
32 31 0 0
31 36 0 0
36 31 0 0
31 39 0 0
39 31 0 0
31 56 0 0
56 31 0 0
31 64 0 0
64 31 0 0
31 91 0 0
91 31 0 0
32 15 0 0
15 32 0 0
32 19 0 0
19 32 0 0
32 33 0 0
33 32 0 0
32 36 0 0
36 32 0 0
32 37 0 0
37 32 0 0
32 40 0 0
40 32 0 0
32 52 0 0
52 32 0 0
32 53 0 0
53 32 0 0
32 77 0 0
77 32 0 0
33 6 0 0
6 33 0 0
33 31 0 0
31 33 0 0
33 43 0 0
43 33 0 0
33 61 0 0
61 33 0 0
33 69 0 0
69 33 0 0
33 75 0 0
75 33 0 0
34 7 0 0
7 34 0 0
34 25 0 0
25 34 0 0
34 35 0 0
35 34 0 0
34 36 0 0
36 34 0 0
34 52 0 0
52 34 0 0
34 80 0 0
80 34 0 0
34 99 0 0
99 34 0 0
35 5 0 0
5 35 0 0
35 20 0 0
20 35 0 0
35 32 0 0
32 35 0 0
35 33 0 0
33 35 0 0
35 40 0 0
40 35 0 0
35 42 0 0
42 35 0 0
35 43 0 0
43 35 0 0
35 93 0 0
93 35 0 0
36 15 0 0
15 36 0 0
36 32 0 0
32 36 0 0
36 33 0 0
33 36 0 0
36 37 0 0
37 36 0 0
36 40 0 0
40 36 0 0
36 58 0 0
58 36 0 0
36 59 0 0
59 36 0 0
36 75 0 0
75 36 0 0
36 85 0 0
85 36 0 0
37 2 0 0
2 37 0 0
37 9 0 0
9 37 0 0
37 32 0 0
32 37 0 0
37 33 0 0
33 37 0 0
37 35 0 0
35 37 0 0
37 38 0 0
38 37 0 0
37 39 0 0
39 37 0 0
37 49 0 0
49 37 0 0
37 50 0 0
50 37 0 0
37 51 0 0
51 37 0 0
38 33 0 0
33 38 0 0
38 36 0 0
36 38 0 0
38 39 0 0
39 38 0 0
38 61 0 0
61 38 0 0
38 84 0 0
84 38 0 0
38 86 0 0
86 38 0 0
38 100 0 0
100 38 0 0
39 1 0 0
1 39 0 0
39 13 0 0
13 39 0 0
39 22 0 0
22 39 0 0
39 24 0 0
24 39 0 0
39 54 0 0
54 39 0 0
39 81 0 0
81 39 0 0
39 94 0 0
94 39 0 0
40 8 0 0
8 40 0 0
40 14 0 0
14 40 0 0
40 34 0 0
34 40 0 0
40 35 0 0
35 40 0 0
40 38 0 0
38 40 0 0
40 53 0 0
53 40 0 0
40 67 0 0
67 40 0 0
41 29 0 0
29 41 0 0
41 31 0 0
31 41 0 0
41 44 0 0
44 41 0 0
41 46 0 0
46 41 0 0
41 58 0 0
58 41 0 0
41 76 0 0
76 41 0 0
41 87 0 0
87 41 0 0
41 95 0 0
95 41 0 0
42 36 0 0
36 42 0 0
42 41 0 0
41 42 0 0
42 43 0 0
43 42 0 0
42 44 0 0
44 42 0 0
42 46 0 0
46 42 0 0
42 51 0 0
51 42 0 0
42 56 0 0
56 42 0 0
42 96 0 0
96 42 0 0
43 3 0 0
3 43 0 0
43 7 0 0
7 43 0 0
43 13 0 0
13 43 0 0
43 15 0 0
15 43 0 0
43 35 0 0
35 43 0 0
43 44 0 0
44 43 0 0
43 47 0 0
47 43 0 0
43 98 0 0
98 43 0 0
44 5 0 0
5 44 0 0
44 31 0 0
31 44 0 0
44 41 0 0
41 44 0 0
44 45 0 0
45 44 0 0
44 47 0 0
47 44 0 0
44 100 0 0
100 44 0 0
45 41 0 0
41 45 0 0
45 42 0 0
42 45 0 0
45 43 0 0
43 45 0 0
45 44 0 0
44 45 0 0
45 50 0 0
50 45 0 0
45 53 0 0
53 45 0 0
45 54 0 0
54 45 0 0
45 80 0 0
80 45 0 0
46 16 0 0
16 46 0 0
46 24 0 0
24 46 0 0
46 42 0 0
42 46 0 0
46 47 0 0
47 46 0 0
46 49 0 0
49 46 0 0
46 65 0 0
65 46 0 0
46 74 0 0
74 46 0 0
46 96 0 0
96 46 0 0
47 31 0 0
31 47 0 0
47 41 0 0
41 47 0 0
47 50 0 0
50 47 0 0
47 58 0 0
58 47 0 0
47 80 0 0
80 47 0 0
47 98 0 0
98 47 0 0
48 45 0 0
45 48 0 0
48 47 0 0
47 48 0 0
48 49 0 0
49 48 0 0
48 61 0 0
61 48 0 0
48 94 0 0
94 48 0 0
49 23 0 0
23 49 0 0
49 47 0 0
47 49 0 0
49 72 0 0
72 49 0 0
50 5 0 0
5 50 0 0
50 46 0 0
46 50 0 0
50 47 0 0
47 50 0 0
50 48 0 0
48 50 0 0
50 49 0 0
49 50 0 0
50 73 0 0
73 50 0 0
50 79 0 0
79 50 0 0
50 92 0 0
92 50 0 0
50 93 0 0
93 50 0 0
51 3 0 0
3 51 0 0
51 29 0 0
29 51 0 0
51 39 0 0
39 51 0 0
51 55 0 0
55 51 0 0
51 57 0 0
57 51 0 0
51 58 0 0
58 51 0 0
51 59 0 0
59 51 0 0
51 60 0 0
60 51 0 0
51 80 0 0
80 51 0 0
51 91 0 0
91 51 0 0
52 6 0 0
6 52 0 0
52 8 0 0
8 52 0 0
52 11 0 0
11 52 0 0
52 28 0 0
28 52 0 0
52 37 0 0
37 52 0 0
52 51 0 0
51 52 0 0
52 54 0 0
54 52 0 0
52 55 0 0
55 52 0 0
52 60 0 0
60 52 0 0
52 69 0 0
69 52 0 0
53 55 0 0
55 53 0 0
53 57 0 0
57 53 0 0
53 60 0 0
60 53 0 0
53 81 0 0
81 53 0 0
54 2 0 0
2 54 0 0
54 48 0 0
48 54 0 0
54 50 0 0
50 54 0 0
54 57 0 0
57 54 0 0
54 58 0 0
58 54 0 0
54 59 0 0
59 54 0 0
54 60 0 0
60 54 0 0
54 84 0 0
84 54 0 0
55 1 0 0
1 55 0 0
55 12 0 0
12 55 0 0
55 52 0 0
52 55 0 0
55 54 0 0
54 55 0 0
55 56 0 0
56 55 0 0
55 100 0 0
100 55 0 0
56 4 0 0
4 56 0 0
56 11 0 0
11 56 0 0
56 17 0 0
17 56 0 0
56 47 0 0
47 56 0 0
56 53 0 0
53 56 0 0
56 55 0 0
55 56 0 0
56 60 0 0
60 56 0 0
56 76 0 0
76 56 0 0
57 8 0 0
8 57 0 0
57 52 0 0
52 57 0 0
57 56 0 0
56 57 0 0
57 58 0 0
58 57 0 0
57 59 0 0
59 57 0 0
57 60 0 0
60 57 0 0
57 65 0 0
65 57 0 0
57 66 0 0
66 57 0 0
57 80 0 0
80 57 0 0
58 57 0 0
57 58 0 0
58 77 0 0
77 58 0 0
59 23 0 0
23 59 0 0
59 52 0 0
52 59 0 0
59 53 0 0
53 59 0 0
59 55 0 0
55 59 0 0
59 69 0 0
69 59 0 0
60 28 0 0
28 60 0 0
60 55 0 0
55 60 0 0
60 59 0 0
59 60 0 0
60 84 0 0
84 60 0 0
61 10 0 0
10 61 0 0
61 12 0 0
12 61 0 0
61 14 0 0
14 61 0 0
61 34 0 0
34 61 0 0
61 38 0 0
38 61 0 0
61 65 0 0
65 61 0 0
61 76 0 0
76 61 0 0
61 95 0 0
95 61 0 0
62 2 0 0
2 62 0 0
62 54 0 0
54 62 0 0
62 68 0 0
68 62 0 0
62 70 0 0
70 62 0 0
62 74 0 0
74 62 0 0
63 12 0 0
12 63 0 0
63 29 0 0
29 63 0 0
63 31 0 0
31 63 0 0
63 32 0 0
32 63 0 0
63 46 0 0
46 63 0 0
63 53 0 0
53 63 0 0
63 61 0 0
61 63 0 0
63 65 0 0
65 63 0 0
63 66 0 0
66 63 0 0
63 84 0 0
84 63 0 0
64 19 0 0
19 64 0 0
64 29 0 0
29 64 0 0
64 59 0 0
59 64 0 0
64 91 0 0
91 64 0 0
65 8 0 0
8 65 0 0
65 10 0 0
10 65 0 0
65 35 0 0
35 65 0 0
65 66 0 0
66 65 0 0
65 68 0 0
68 65 0 0
65 69 0 0
69 65 0 0
65 96 0 0
96 65 0 0
66 5 0 0
5 66 0 0
66 8 0 0
8 66 0 0
66 12 0 0
12 66 0 0
66 15 0 0
15 66 0 0
66 45 0 0
45 66 0 0
66 53 0 0
53 66 0 0
66 54 0 0
54 66 0 0
66 64 0 0
64 66 0 0
66 69 0 0
69 66 0 0
66 73 0 0
73 66 0 0
66 95 0 0
95 66 0 0
67 10 0 0
10 67 0 0
67 32 0 0
32 67 0 0
67 58 0 0
58 67 0 0
67 66 0 0
66 67 0 0
67 68 0 0
68 67 0 0
67 70 0 0
70 67 0 0
67 79 0 0
79 67 0 0
67 87 0 0
87 67 0 0
68 37 0 0
37 68 0 0
68 61 0 0
61 68 0 0
68 62 0 0
62 68 0 0
68 94 0 0
94 68 0 0
69 10 0 0
10 69 0 0
69 55 0 0
55 69 0 0
69 62 0 0
62 69 0 0
70 66 0 0
66 70 0 0
70 81 0 0
81 70 0 0
70 86 0 0
86 70 0 0
71 7 0 0
7 71 0 0
71 14 0 0
14 71 0 0
71 22 0 0
22 71 0 0
71 57 0 0
57 71 0 0
71 72 0 0
72 71 0 0
71 73 0 0
73 71 0 0
71 96 0 0
96 71 0 0
71 98 0 0
98 71 0 0
71 100 0 0
100 71 0 0
72 4 0 0
4 72 0 0
72 30 0 0
30 72 0 0
72 57 0 0
57 72 0 0
72 76 0 0
76 72 0 0
72 80 0 0
80 72 0 0
72 91 0 0
91 72 0 0
73 17 0 0
17 73 0 0
73 46 0 0
46 73 0 0
73 55 0 0
55 73 0 0
73 72 0 0
72 73 0 0
73 75 0 0
75 73 0 0
73 78 0 0
78 73 0 0
73 79 0 0
79 73 0 0
73 81 0 0
81 73 0 0
73 90 0 0
90 73 0 0
73 98 0 0
98 73 0 0
74 7 0 0
7 74 0 0
74 44 0 0
44 74 0 0
74 46 0 0
46 74 0 0
74 60 0 0
60 74 0 0
74 77 0 0
77 74 0 0
74 79 0 0
79 74 0 0
74 84 0 0
84 74 0 0
75 15 0 0
15 75 0 0
75 17 0 0
17 75 0 0
75 34 0 0
34 75 0 0
75 67 0 0
67 75 0 0
75 77 0 0
77 75 0 0
76 3 0 0
3 76 0 0
76 25 0 0
25 76 0 0
76 35 0 0
35 76 0 0
76 44 0 0
44 76 0 0
76 57 0 0
57 76 0 0
76 71 0 0
71 76 0 0
76 75 0 0
75 76 0 0
76 79 0 0
79 76 0 0
76 80 0 0
80 76 0 0
77 46 0 0
46 77 0 0
77 71 0 0
71 77 0 0
77 74 0 0
74 77 0 0
77 78 0 0
78 77 0 0
77 79 0 0
79 77 0 0
78 11 0 0
11 78 0 0
78 12 0 0
12 78 0 0
78 24 0 0
24 78 0 0
78 32 0 0
32 78 0 0
78 37 0 0
37 78 0 0
78 61 0 0
61 78 0 0
78 72 0 0
72 78 0 0
78 73 0 0
73 78 0 0
78 75 0 0
75 78 0 0
78 80 0 0
80 78 0 0
79 55 0 0
55 79 0 0
79 71 0 0
71 79 0 0
79 73 0 0
73 79 0 0
79 77 0 0
77 79 0 0
80 29 0 0
29 80 0 0
80 49 0 0
49 80 0 0
80 71 0 0
71 80 0 0
80 75 0 0
75 80 0 0
80 78 0 0
78 80 0 0
80 79 0 0
79 80 0 0
80 82 0 0
82 80 0 0
81 43 0 0
43 81 0 0
81 45 0 0
45 81 0 0
81 57 0 0
57 81 0 0
81 61 0 0
61 81 0 0
81 82 0 0
82 81 0 0
81 85 0 0
85 81 0 0
81 86 0 0
86 81 0 0
81 99 0 0
99 81 0 0
82 2 0 0
2 82 0 0
82 28 0 0
28 82 0 0
82 30 0 0
30 82 0 0
82 35 0 0
35 82 0 0
82 37 0 0
37 82 0 0
82 40 0 0
40 82 0 0
82 54 0 0
54 82 0 0
82 66 0 0
66 82 0 0
82 81 0 0
81 82 0 0
82 83 0 0
83 82 0 0
82 85 0 0
85 82 0 0
82 86 0 0
86 82 0 0
82 87 0 0
87 82 0 0
82 90 0 0
90 82 0 0
82 94 0 0
94 82 0 0
83 28 0 0
28 83 0 0
83 53 0 0
53 83 0 0
83 84 0 0
84 83 0 0
83 87 0 0
87 83 0 0
83 89 0 0
89 83 0 0
83 90 0 0
90 83 0 0
84 20 0 0
20 84 0 0
84 31 0 0
31 84 0 0
84 41 0 0
41 84 0 0
84 51 0 0
51 84 0 0
84 54 0 0
54 84 0 0
84 69 0 0
69 84 0 0
84 71 0 0
71 84 0 0
84 75 0 0
75 84 0 0
84 77 0 0
77 84 0 0
84 78 0 0
78 84 0 0
84 81 0 0
81 84 0 0
84 89 0 0
89 84 0 0
84 96 0 0
96 84 0 0
84 97 0 0
97 84 0 0
85 16 0 0
16 85 0 0
85 25 0 0
25 85 0 0
85 28 0 0
28 85 0 0
85 51 0 0
51 85 0 0
85 55 0 0
55 85 0 0
85 58 0 0
58 85 0 0
85 59 0 0
59 85 0 0
85 78 0 0
78 85 0 0
85 82 0 0
82 85 0 0
85 84 0 0
84 85 0 0
85 88 0 0
88 85 0 0
86 29 0 0
29 86 0 0
86 67 0 0
67 86 0 0
86 73 0 0
73 86 0 0
86 76 0 0
76 86 0 0
86 78 0 0
78 86 0 0
86 81 0 0
81 86 0 0
86 82 0 0
82 86 0 0
86 83 0 0
83 86 0 0
86 84 0 0
84 86 0 0
86 85 0 0
85 86 0 0
86 87 0 0
87 86 0 0
86 88 0 0
88 86 0 0
86 90 0 0
90 86 0 0
87 38 0 0
38 87 0 0
87 67 0 0
67 87 0 0
87 85 0 0
85 87 0 0
87 86 0 0
86 87 0 0
87 88 0 0
88 87 0 0
87 89 0 0
89 87 0 0
87 90 0 0
90 87 0 0
88 21 0 0
21 88 0 0
88 47 0 0
47 88 0 0
88 90 0 0
90 88 0 0
88 92 0 0
92 88 0 0
89 46 0 0
46 89 0 0
89 49 0 0
49 89 0 0
89 69 0 0
69 89 0 0
89 86 0 0
86 89 0 0
89 88 0 0
88 89 0 0
90 66 0 0
66 90 0 0
90 85 0 0
85 90 0 0
90 100 0 0
100 90 0 0
91 8 0 0
8 91 0 0
91 93 0 0
93 91 0 0
91 96 0 0
96 91 0 0
92 17 0 0
17 92 0 0
92 49 0 0
49 92 0 0
92 91 0 0
91 92 0 0
92 96 0 0
96 92 0 0
92 99 0 0
99 92 0 0
93 35 0 0
35 93 0 0
93 39 0 0
39 93 0 0
93 56 0 0
56 93 0 0
93 65 0 0
65 93 0 0
93 95 0 0
95 93 0 0
93 96 0 0
96 93 0 0
93 98 0 0
98 93 0 0
94 19 0 0
19 94 0 0
94 70 0 0
70 94 0 0
94 84 0 0
84 94 0 0
94 91 0 0
91 94 0 0
94 96 0 0
96 94 0 0
95 19 0 0
19 95 0 0
95 30 0 0
30 95 0 0
95 93 0 0
93 95 0 0
95 96 0 0
96 95 0 0
95 97 0 0
97 95 0 0
95 99 0 0
99 95 0 0
96 7 0 0
7 96 0 0
96 74 0 0
74 96 0 0
96 75 0 0
75 96 0 0
96 78 0 0
78 96 0 0
96 91 0 0
91 96 0 0
96 93 0 0
93 96 0 0
96 98 0 0
98 96 0 0
97 6 0 0
6 97 0 0
97 15 0 0
15 97 0 0
97 39 0 0
39 97 0 0
97 47 0 0
47 97 0 0
97 50 0 0
50 97 0 0
97 56 0 0
56 97 0 0
97 60 0 0
60 97 0 0
97 68 0 0
68 97 0 0
97 87 0 0
87 97 0 0
97 91 0 0
91 97 0 0
97 96 0 0
96 97 0 0
98 14 0 0
14 98 0 0
98 23 0 0
23 98 0 0
98 56 0 0
56 98 0 0
98 91 0 0
91 98 0 0
98 100 0 0
100 98 0 0
99 25 0 0
25 99 0 0
99 78 0 0
78 99 0 0
99 79 0 0
79 99 0 0
99 91 0 0
91 99 0 0
99 95 0 0
95 99 0 0
99 97 0 0
97 99 0 0
99 98 0 0
98 99 0 0
100 18 0 0
18 100 0 0
100 24 0 0
24 100 0 0
100 29 0 0
29 100 0 0
100 42 0 0
42 100 0 0
100 70 0 0
70 100 0 0
100 81 0 0
81 100 0 0
100 91 0 0
91 100 0 0
100 92 0 0
92 100 0 0
100 98 0 0
98 100 0 0
