120 351
2
0 98
3 2 2 3
2
0 3
3 2 2 3
2
0 4
3 2 2 3
2
0 9
3 2 2 3
2
0 74
3 2 2 3
2
0 76
3 2 2 3
2
0 14
3 2 2 3
2
0 47
3 2 2 3
2
0 16
3 2 2 3
2
0 92
3 2 2 3
2
0 51
3 2 2 3
2
0 20
3 2 2 3
2
0 86
3 2 2 3
2
0 28
3 2 2 3
2
0 30
3 2 2 3
2
0 63
3 2 2 3
2
1 3
3 2 2 3
2
2 98
3 2 2 3
2
2 3
3 2 2 3
2
2 4
3 2 2 3
2
2 5
3 2 2 3
2
2 6
3 2 2 3
2
2 8
3 2 2 3
2
2 11
3 2 2 3
2
2 12
3 2 2 3
2
2 13
3 2 2 3
2
2 16
3 2 2 3
2
2 17
3 2 2 3
2
2 21
3 2 2 3
2
2 24
3 2 2 3
2
3 75
3 2 2 3
2
3 4
3 2 2 3
2
3 5
3 2 2 3
2
3 6
3 2 2 3
2
3 72
3 2 2 3
2
3 11
3 2 2 3
2
3 12
3 2 2 3
2
3 66
3 2 2 3
2
3 84
3 2 2 3
2
3 21
3 2 2 3
2
3 88
3 2 2 3
2
3 26
3 2 2 3
2
3 31
3 2 2 3
2
4 5
3 2 2 3
2
4 6
3 2 2 3
2
4 7
3 2 2 3
2
4 8
3 2 2 3
2
4 9
3 2 2 3
2
4 10
3 2 2 3
2
4 11
3 2 2 3
2
4 12
3 2 2 3
2
4 15
3 2 2 3
2
4 20
3 2 2 3
2
4 22
3 2 2 3
2
4 23
3 2 2 3
2
4 25
3 2 2 3
2
4 26
3 2 2 3
2
4 27
3 2 2 3
2
4 37
3 2 2 3
2
4 40
3 2 2 3
2
4 59
3 2 2 3
2
4 68
3 2 2 3
2
4 78
3 2 2 3
2
4 80
3 2 2 3
2
4 81
3 2 2 3
2
4 99
3 2 2 3
2
4 100
3 2 2 3
2
4 107
3 2 2 3
2
4 112
3 2 2 3
2
5 64
3 2 2 3
2
5 65
3 2 2 3
2
5 100
3 2 2 3
2
5 39
3 2 2 3
2
5 105
3 2 2 3
2
5 10
3 2 2 3
2
5 7
3 2 2 3
2
5 46
3 2 2 3
2
5 117
3 2 2 3
2
5 89
3 2 2 3
2
5 57
3 2 2 3
2
6 96
3 2 2 3
2
6 7
3 2 2 3
2
6 72
3 2 2 3
2
6 74
3 2 2 3
2
6 93
3 2 2 3
2
6 15
3 2 2 3
2
6 115
3 2 2 3
2
6 50
3 2 2 3
2
6 106
3 2 2 3
2
6 21
3 2 2 3
2
6 118
3 2 2 3
2
6 58
3 2 2 3
2
6 47
3 2 2 3
2
6 28
3 2 2 3
2
6 29
3 2 2 3
2
7 8
3 2 2 3
2
7 41
3 2 2 3
2
7 108
3 2 2 3
2
7 50
3 2 2 3
2
7 52
3 2 2 3
2
7 59
3 2 2 3
2
8 32
3 2 2 3
2
8 35
3 2 2 3
2
8 81
3 2 2 3
2
8 9
3 2 2 3
2
8 10
3 2 2 3
2
8 39
3 2 2 3
2
8 13
3 2 2 3
2
8 43
3 2 2 3
2
8 116
3 2 2 3
2
8 53
3 2 2 3
2
8 23
3 2 2 3
2
8 106
3 2 2 3
2
9 14
3 2 2 3
2
9 15
3 2 2 3
2
9 17
3 2 2 3
2
9 18
3 2 2 3
2
9 20
3 2 2 3
2
9 27
3 2 2 3
2
9 36
3 2 2 3
2
9 45
3 2 2 3
2
9 48
3 2 2 3
2
9 60
3 2 2 3
2
9 69
3 2 2 3
2
9 70
3 2 2 3
2
9 82
3 2 2 3
2
9 83
3 2 2 3
2
9 95
3 2 2 3
2
9 101
3 2 2 3
2
9 103
3 2 2 3
2
9 111
3 2 2 3
2
9 112
3 2 2 3
2
9 113
3 2 2 3
2
10 51
3 2 2 3
2
10 44
3 2 2 3
2
10 13
3 2 2 3
2
10 18
3 2 2 3
2
10 19
3 2 2 3
2
10 22
3 2 2 3
2
10 36
3 2 2 3
2
10 26
3 2 2 3
2
10 61
3 2 2 3
2
10 62
3 2 2 3
2
11 33
3 2 2 3
2
11 69
3 2 2 3
2
11 105
3 2 2 3
2
11 46
3 2 2 3
2
11 81
3 2 2 3
2
11 82
3 2 2 3
2
11 87
3 2 2 3
2
11 89
3 2 2 3
2
11 30
3 2 2 3
2
12 32
3 2 2 3
2
12 35
3 2 2 3
2
12 37
3 2 2 3
2
12 70
3 2 2 3
2
12 103
3 2 2 3
2
12 64
3 2 2 3
2
12 67
3 2 2 3
2
12 14
3 2 2 3
2
12 19
3 2 2 3
2
12 22
3 2 2 3
2
12 23
3 2 2 3
2
12 28
3 2 2 3
2
12 62
3 2 2 3
2
13 97
3 2 2 3
2
13 41
3 2 2 3
2
13 34
3 2 2 3
2
13 77
3 2 2 3
2
13 16
3 2 2 3
2
13 92
3 2 2 3
2
13 94
3 2 2 3
2
14 65
3 2 2 3
2
14 38
3 2 2 3
2
14 54
3 2 2 3
2
14 24
3 2 2 3
2
14 25
3 2 2 3
2
15 17
3 2 2 3
2
15 18
3 2 2 3
2
15 19
3 2 2 3
2
15 25
3 2 2 3
2
15 30
3 2 2 3
2
15 31
3 2 2 3
2
15 34
3 2 2 3
2
15 42
3 2 2 3
2
15 44
3 2 2 3
2
15 54
3 2 2 3
2
15 55
3 2 2 3
2
15 56
3 2 2 3
2
15 58
3 2 2 3
2
15 80
3 2 2 3
2
15 91
3 2 2 3
2
15 109
3 2 2 3
2
15 110
3 2 2 3
2
15 113
3 2 2 3
2
15 117
3 2 2 3
2
16 41
3 2 2 3
2
16 87
3 2 2 3
2
17 102
3 2 2 3
2
17 42
3 2 2 3
2
17 109
3 2 2 3
2
17 24
3 2 2 3
2
17 94
3 2 2 3
2
18 45
3 2 2 3
2
18 47
3 2 2 3
2
18 80
3 2 2 3
2
18 73
3 2 2 3
2
18 29
3 2 2 3
2
19 34
3 2 2 3
2
19 40
3 2 2 3
2
19 44
3 2 2 3
2
19 119
3 2 2 3
2
19 56
3 2 2 3
2
19 91
3 2 2 3
2
20 71
3 2 2 3
2
20 85
3 2 2 3
2
20 90
3 2 2 3
2
21 68
3 2 2 3
2
21 101
3 2 2 3
2
21 66
3 2 2 3
2
21 78
3 2 2 3
2
21 67
3 2 2 3
2
21 86
3 2 2 3
2
21 27
3 2 2 3
2
21 31
3 2 2 3
2
22 35
3 2 2 3
2
22 38
3 2 2 3
2
22 39
3 2 2 3
2
22 76
3 2 2 3
2
22 46
3 2 2 3
2
22 48
3 2 2 3
2
22 84
3 2 2 3
2
22 100
3 2 2 3
2
22 60
3 2 2 3
2
23 32
3 2 2 3
2
23 69
3 2 2 3
2
23 43
3 2 2 3
2
24 114
3 2 2 3
2
24 117
3 2 2 3
2
24 55
3 2 2 3
2
25 118
3 2 2 3
2
25 107
3 2 2 3
2
25 109
3 2 2 3
2
25 86
3 2 2 3
2
26 67
3 2 2 3
2
26 73
3 2 2 3
2
26 114
3 2 2 3
2
26 106
3 2 2 3
2
26 89
3 2 2 3
2
26 29
3 2 2 3
2
26 63
3 2 2 3
2
27 33
3 2 2 3
2
27 37
3 2 2 3
2
27 71
3 2 2 3
2
29 49
3 2 2 3
2
30 40
3 2 2 3
2
30 96
3 2 2 3
2
31 64
3 2 2 3
2
31 97
3 2 2 3
2
31 76
3 2 2 3
2
31 45
3 2 2 3
2
31 48
3 2 2 3
2
31 113
3 2 2 3
2
31 79
3 2 2 3
2
31 60
3 2 2 3
2
31 63
3 2 2 3
2
32 33
3 2 2 3
2
32 88
3 2 2 3
2
32 95
3 2 2 3
2
33 68
3 2 2 3
2
33 111
3 2 2 3
2
33 83
3 2 2 3
2
33 53
3 2 2 3
2
33 57
3 2 2 3
2
33 61
3 2 2 3
2
34 79
3 2 2 3
2
34 36
3 2 2 3
2
35 38
3 2 2 3
2
35 52
3 2 2 3
2
35 94
3 2 2 3
2
36 103
3 2 2 3
2
36 115
3 2 2 3
2
36 73
3 2 2 3
2
36 105
3 2 2 3
2
38 58
3 2 2 3
2
39 82
3 2 2 3
2
39 43
3 2 2 3
2
40 75
3 2 2 3
2
40 42
3 2 2 3
2
42 49
3 2 2 3
2
42 110
3 2 2 3
2
42 72
3 2 2 3
2
43 65
3 2 2 3
2
43 70
3 2 2 3
2
43 55
3 2 2 3
2
43 77
3 2 2 3
2
43 49
3 2 2 3
2
43 51
3 2 2 3
2
43 52
3 2 2 3
2
43 85
3 2 2 3
2
43 54
3 2 2 3
2
43 61
3 2 2 3
2
45 50
3 2 2 3
2
46 91
3 2 2 3
2
46 108
3 2 2 3
2
47 66
3 2 2 3
2
47 88
3 2 2 3
2
47 57
3 2 2 3
2
48 74
3 2 2 3
2
48 79
3 2 2 3
2
49 53
3 2 2 3
2
49 56
3 2 2 3
2
49 59
3 2 2 3
2
50 77
3 2 2 3
2
52 104
3 2 2 3
2
53 75
3 2 2 3
2
55 119
3 2 2 3
2
55 71
3 2 2 3
2
57 101
3 2 2 3
2
58 99
3 2 2 3
2
58 93
3 2 2 3
2
59 112
3 2 2 3
2
60 104
3 2 2 3
2
61 62
3 2 2 3
2
61 97
3 2 2 3
2
62 84
3 2 2 3
2
63 116
3 2 2 3
2
63 110
3 2 2 3
2
64 108
3 2 2 3
2
64 90
3 2 2 3
2
65 116
3 2 2 3
2
65 78
3 2 2 3
2
67 102
3 2 2 3
2
67 114
3 2 2 3
2
67 85
3 2 2 3
2
68 115
3 2 2 3
2
69 111
3 2 2 3
2
69 93
3 2 2 3
2
71 83
3 2 2 3
2
76 104
3 2 2 3
2
78 87
3 2 2 3
2
79 95
3 2 2 3
2
80 96
3 2 2 3
2
80 98
3 2 2 3
2
80 99
3 2 2 3
2
80 92
3 2 2 3
2
86 107
3 2 2 3
2
87 90
3 2 2 3
2
92 119
3 2 2 3
2
95 102
3 2 2 3
2
106 118
3 2 2 3
