1 33 1 0
1 4 1 0
1 6 1 0
1 45 1 0
1 14 1 0
1 19 1 0
1 30 1 0
1 32 1 0
2 36 1 0
2 84 1 0
2 4 1 0
2 5 1 0
2 70 1 0
2 9 1 0
2 99 1 0
2 83 1 0
2 20 1 0
2 22 1 0
2 119 1 0
2 90 1 0
2 62 1 0
2 31 1 0
3 4 1 0
3 5 1 0
3 38 1 0
3 7 1 0
3 8 1 0
3 41 1 0
3 10 1 0
3 11 1 0
3 12 1 0
3 15 1 0
3 17 1 0
3 50 1 0
3 42 1 0
3 25 1 0
3 58 1 0
3 73 1 0
3 64 1 0
4 5 1 0
4 6 1 0
4 7 1 0
4 8 1 0
4 9 1 0
4 12 1 0
4 15 1 0
4 18 1 0
4 21 1 0
4 22 1 0
4 23 1 0
4 26 1 0
4 43 1 0
4 54 1 0
4 59 1 0
4 60 1 0
4 65 1 0
4 71 1 0
4 77 1 0
4 80 1 0
4 84 1 0
4 100 1 0
4 102 1 0
4 103 1 0
4 106 1 0
4 118 1 0
5 6 1 0
5 7 1 0
5 8 1 0
5 9 1 0
5 10 1 0
5 11 1 0
5 13 1 0
5 14 1 0
5 16 1 0
5 24 1 0
5 25 1 0
5 27 1 0
5 30 1 0
5 34 1 0
5 38 1 0
5 69 1 0
5 70 1 0
5 74 1 0
5 81 1 0
5 86 1 0
5 89 1 0
5 108 1 0
5 113 1 0
5 119 1 0
6 39 1 0
6 45 1 0
6 13 1 0
6 51 1 0
6 74 1 0
6 92 1 0
6 61 1 0
7 87 1 0
7 72 1 0
7 10 1 0
7 45 1 0
7 35 1 0
7 79 1 0
7 77 1 0
7 19 1 0
7 21 1 0
7 23 1 0
7 28 1 0
7 29 1 0
8 74 1 0
8 109 1 0
8 16 1 0
9 13 1 0
9 62 1 0
9 18 1 0
9 51 1 0
9 36 1 0
9 117 1 0
9 22 1 0
9 26 1 0
9 27 1 0
9 59 1 0
9 118 1 0
10 49 1 0
10 36 1 0
10 39 1 0
10 40 1 0
10 113 1 0
10 11 1 0
10 12 1 0
10 83 1 0
10 16 1 0
10 17 1 0
10 19 1 0
10 20 1 0
10 87 1 0
10 68 1 0
10 59 1 0
10 93 1 0
10 62 1 0
10 66 1 0
11 49 1 0
11 50 1 0
11 96 1 0
12 97 1 0
12 34 1 0
12 105 1 0
12 76 1 0
12 15 1 0
12 113 1 0
12 55 1 0
12 88 1 0
12 95 1 0
13 34 1 0
13 43 1 0
13 109 1 0
13 14 1 0
13 81 1 0
13 23 1 0
13 24 1 0
13 25 1 0
14 65 1 0
14 73 1 0
14 47 1 0
14 17 1 0
14 18 1 0
14 115 1 0
15 73 1 0
16 110 1 0
16 84 1 0
16 26 1 0
16 27 1 0
16 37 1 0
16 94 1 0
16 32 1 0
17 40 1 0
17 104 1 0
17 77 1 0
17 35 1 0
17 47 1 0
17 29 1 0
18 44 1 0
18 46 1 0
18 20 1 0
18 53 1 0
18 24 1 0
18 91 1 0
18 94 1 0
18 96 1 0
19 41 1 0
19 110 1 0
19 78 1 0
19 48 1 0
19 21 1 0
20 99 1 0
20 30 1 0
20 96 1 0
21 67 1 0
21 37 1 0
21 48 1 0
21 80 1 0
21 31 1 0
22 66 1 0
23 38 1 0
23 76 1 0
23 47 1 0
23 92 1 0
23 108 1 0
23 111 1 0
23 56 1 0
23 60 1 0
24 105 1 0
24 107 1 0
24 80 1 0
24 52 1 0
24 56 1 0
24 28 1 0
25 68 1 0
25 102 1 0
25 92 1 0
25 35 1 0
25 78 1 0
25 46 1 0
25 51 1 0
25 53 1 0
25 28 1 0
25 29 1 0
25 63 1 0
25 32 1 0
26 33 1 0
26 85 1 0
26 57 1 0
28 33 1 0
28 66 1 0
28 82 1 0
28 42 1 0
28 108 1 0
28 57 1 0
29 46 1 0
29 88 1 0
30 43 1 0
30 31 1 0
31 44 1 0
32 103 1 0
32 71 1 0
32 44 1 0
32 53 1 0
32 58 1 0
33 37 1 0
33 102 1 0
33 79 1 0
33 49 1 0
33 52 1 0
33 118 1 0
34 85 1 0
34 72 1 0
35 68 1 0
35 40 1 0
35 42 1 0
35 78 1 0
35 52 1 0
35 117 1 0
35 54 1 0
36 48 1 0
37 81 1 0
37 76 1 0
38 50 1 0
38 39 1 0
39 67 1 0
39 104 1 0
39 41 1 0
39 116 1 0
41 72 1 0
42 98 1 0
43 100 1 0
44 82 1 0
45 69 1 0
45 119 1 0
45 89 1 0
45 58 1 0
47 107 1 0
47 120 1 0
48 89 1 0
48 70 1 0
49 93 1 0
50 116 1 0
50 103 1 0
51 65 1 0
51 69 1 0
51 75 1 0
51 57 1 0
51 54 1 0
51 55 1 0
51 87 1 0
51 63 1 0
51 64 1 0
53 85 1 0
53 55 1 0
54 61 1 0
54 120 1 0
55 97 1 0
55 101 1 0
55 104 1 0
55 82 1 0
55 114 1 0
55 56 1 0
57 64 1 0
58 114 1 0
58 67 1 0
59 71 1 0
59 120 1 0
59 60 1 0
59 61 1 0
60 79 1 0
60 75 1 0
61 106 1 0
61 93 1 0
61 63 1 0
62 107 1 0
62 86 1 0
63 98 1 0
63 109 1 0
65 83 1 0
65 100 1 0
65 86 1 0
65 94 1 0
67 116 1 0
67 117 1 0
69 75 1 0
71 101 1 0
76 90 1 0
77 112 1 0
78 95 1 0
79 98 1 0
80 111 1 0
81 91 1 0
82 112 1 0
83 97 1 0
84 88 1 0
85 99 1 0
86 110 1 0
87 91 1 0
87 106 1 0
88 101 1 0
88 115 1 0
89 90 1 0
90 95 1 0
90 105 1 0
97 115 1 0
98 111 1 0
102 114 1 0
111 112 1 0
