1 34 1 0
1 4 1 0
1 5 1 0
1 38 1 0
1 9 1 0
1 10 1 0
1 43 1 0
1 52 1 0
1 21 1 0
1 22 1 0
1 55 1 0
2 4 1 0
2 71 1 0
2 7 1 0
2 40 1 0
2 42 1 0
2 15 1 0
2 17 1 0
2 55 1 0
2 62 1 0
3 4 1 0
3 5 1 0
3 6 1 0
3 8 1 0
3 10 1 0
3 11 1 0
3 12 1 0
3 13 1 0
3 14 1 0
3 18 1 0
3 22 1 0
3 27 1 0
3 32 1 0
3 37 1 0
3 44 1 0
3 45 1 0
3 48 1 0
3 51 1 0
3 61 1 0
3 63 1 0
3 64 1 0
3 69 1 0
3 70 1 0
3 80 1 0
4 5 1 0
4 6 1 0
4 7 1 0
4 8 1 0
4 9 1 0
4 11 1 0
4 12 1 0
4 14 1 0
4 16 1 0
4 17 1 0
4 18 1 0
4 22 1 0
4 26 1 0
4 29 1 0
4 32 1 0
4 34 1 0
4 37 1 0
4 39 1 0
4 41 1 0
4 46 1 0
4 54 1 0
4 57 1 0
4 64 1 0
4 67 1 0
4 72 1 0
5 6 1 0
5 7 1 0
5 12 1 0
5 77 1 0
5 78 1 0
5 18 1 0
5 19 1 0
5 68 1 0
5 27 1 0
5 28 1 0
5 29 1 0
5 30 1 0
6 66 1 0
6 39 1 0
6 8 1 0
6 9 1 0
6 74 1 0
6 13 1 0
6 35 1 0
6 19 1 0
6 54 1 0
6 59 1 0
6 61 1 0
6 31 1 0
7 40 1 0
7 11 1 0
7 78 1 0
7 20 1 0
7 21 1 0
7 27 1 0
7 63 1 0
8 65 1 0
8 50 1 0
8 10 1 0
8 75 1 0
8 76 1 0
8 45 1 0
8 14 1 0
8 47 1 0
8 16 1 0
8 17 1 0
8 35 1 0
8 23 1 0
8 58 1 0
8 28 1 0
8 77 1 0
8 31 1 0
10 33 1 0
10 36 1 0
10 41 1 0
10 42 1 0
10 75 1 0
10 44 1 0
10 67 1 0
10 15 1 0
10 19 1 0
10 24 1 0
10 57 1 0
10 28 1 0
10 30 1 0
10 31 1 0
11 70 1 0
11 13 1 0
11 46 1 0
11 50 1 0
11 68 1 0
11 53 1 0
12 70 1 0
12 73 1 0
12 56 1 0
13 46 1 0
13 15 1 0
13 20 1 0
13 79 1 0
13 62 1 0
13 63 1 0
14 71 1 0
14 73 1 0
14 16 1 0
14 21 1 0
15 60 1 0
15 26 1 0
16 52 1 0
16 47 1 0
16 48 1 0
16 20 1 0
16 53 1 0
16 24 1 0
16 25 1 0
16 30 1 0
17 38 1 0
18 36 1 0
18 73 1 0
18 42 1 0
18 35 1 0
18 47 1 0
18 79 1 0
18 74 1 0
18 69 1 0
19 25 1 0
19 50 1 0
20 67 1 0
20 23 1 0
20 60 1 0
20 32 1 0
21 26 1 0
21 49 1 0
22 66 1 0
22 23 1 0
22 71 1 0
22 56 1 0
22 55 1 0
22 24 1 0
24 25 1 0
24 51 1 0
25 33 1 0
26 29 1 0
26 59 1 0
27 34 1 0
29 41 1 0
29 43 1 0
29 58 1 0
32 33 1 0
32 37 1 0
32 38 1 0
33 76 1 0
34 36 1 0
34 40 1 0
37 69 1 0
37 39 1 0
37 57 1 0
39 72 1 0
39 44 1 0
39 49 1 0
40 65 1 0
40 43 1 0
40 78 1 0
40 49 1 0
40 59 1 0
41 45 1 0
41 58 1 0
41 60 1 0
42 68 1 0
43 65 1 0
44 48 1 0
44 52 1 0
44 74 1 0
45 66 1 0
45 75 1 0
45 54 1 0
45 61 1 0
45 62 1 0
46 64 1 0
47 80 1 0
47 51 1 0
47 53 1 0
51 56 1 0
52 76 1 0
53 77 1 0
54 80 1 0
65 72 1 0
76 79 1 0
