1 5 1 0
5 1 1 0
1 6 1 0
6 1 1 0
2 7 1 0
7 2 1 0
2 8 1 0
8 2 1 0
2 14 1 0
14 2 1 0
3 2 1 0
2 3 1 0
3 8 1 0
8 3 1 0
4 1 1 0
1 4 1 0
4 7 1 0
7 4 1 0
4 12 1 0
12 4 1 0
5 8 1 0
8 5 1 0
5 9 1 0
9 5 1 0
6 3 1 0
3 6 1 0
6 4 1 0
4 6 1 0
6 5 1 0
5 6 1 0
6 9 1 0
9 6 1 0
7 2 1 0
2 7 1 0
7 3 1 0
3 7 1 0
7 4 1 0
4 7 1 0
7 10 1 0
10 7 1 0
8 4 1 0
4 8 1 0
8 6 1 0
6 8 1 0
8 7 1 0
7 8 1 0
9 5 1 0
5 9 1 0
9 6 1 0
6 9 1 0
9 10 1 0
10 9 1 0
10 1 1 0
1 10 1 0
10 3 1 0
3 10 1 0
10 4 1 0
4 10 1 0
10 6 1 0
6 10 1 0
10 8 1 0
8 10 1 0
11 8 1 0
8 11 1 0
11 13 1 0
13 11 1 0
11 18 1 0
18 11 1 0
12 13 1 0
13 12 1 0
12 16 1 0
16 12 1 0
13 11 1 0
11 13 1 0
13 16 1 0
16 13 1 0
13 18 1 0
18 13 1 0
14 11 1 0
11 14 1 0
14 17 1 0
17 14 1 0
14 19 1 0
19 14 1 0
15 16 1 0
16 15 1 0
15 20 1 0
20 15 1 0
16 8 1 0
8 16 1 0
16 15 1 0
15 16 1 0
16 20 1 0
20 16 1 0
17 5 1 0
5 17 1 0
17 15 1 0
15 17 1 0
17 18 1 0
18 17 1 0
17 20 1 0
20 17 1 0
18 2 1 0
2 18 1 0
18 12 1 0
12 18 1 0
18 19 1 0
19 18 1 0
19 12 1 0
12 19 1 0
19 16 1 0
16 19 1 0
19 18 1 0
18 19 1 0
20 11 1 0
11 20 1 0
20 12 1 0
12 20 1 0
20 15 1 0
15 20 1 0
