20 116
2
0 4
3 2 2 3
2
4 0
3 2 2 3
2
0 7
3 2 2 3
2
7 0
3 2 2 3
2
0 14
3 2 2 3
2
14 0
3 2 2 3
2
0 16
3 2 2 3
2
16 0
3 2 2 3
2
0 19
3 2 2 3
2
19 0
3 2 2 3
2
1 0
3 2 2 3
2
0 1
3 2 2 3
2
1 10
3 2 2 3
2
10 1
3 2 2 3
2
2 0
3 2 2 3
2
0 2
3 2 2 3
2
2 4
3 2 2 3
2
4 2
3 2 2 3
2
2 5
3 2 2 3
2
5 2
3 2 2 3
2
2 6
3 2 2 3
2
6 2
3 2 2 3
2
2 7
3 2 2 3
2
7 2
3 2 2 3
2
2 9
3 2 2 3
2
9 2
3 2 2 3
2
3 4
3 2 2 3
2
4 3
3 2 2 3
2
3 8
3 2 2 3
2
8 3
3 2 2 3
2
4 1
3 2 2 3
2
1 4
3 2 2 3
2
4 14
3 2 2 3
2
14 4
3 2 2 3
2
4 16
3 2 2 3
2
16 4
3 2 2 3
2
5 3
3 2 2 3
2
3 5
3 2 2 3
2
5 12
3 2 2 3
2
12 5
3 2 2 3
2
5 16
3 2 2 3
2
16 5
3 2 2 3
2
6 0
3 2 2 3
2
0 6
3 2 2 3
2
7 3
3 2 2 3
2
3 7
3 2 2 3
2
7 8
3 2 2 3
2
8 7
3 2 2 3
2
7 18
3 2 2 3
2
18 7
3 2 2 3
2
8 0
3 2 2 3
2
0 8
3 2 2 3
2
8 3
3 2 2 3
2
3 8
3 2 2 3
2
8 5
3 2 2 3
2
5 8
3 2 2 3
2
8 9
3 2 2 3
2
9 8
3 2 2 3
2
9 2
3 2 2 3
2
2 9
3 2 2 3
2
9 7
3 2 2 3
2
7 9
3 2 2 3
2
9 8
3 2 2 3
2
8 9
3 2 2 3
2
9 19
3 2 2 3
2
19 9
3 2 2 3
2
10 11
3 2 2 3
2
11 10
3 2 2 3
2
10 16
3 2 2 3
2
16 10
3 2 2 3
2
10 17
3 2 2 3
2
17 10
3 2 2 3
2
10 19
3 2 2 3
2
19 10
3 2 2 3
2
12 8
3 2 2 3
2
8 12
3 2 2 3
2
12 14
3 2 2 3
2
14 12
3 2 2 3
2
13 10
3 2 2 3
2
10 13
3 2 2 3
2
13 18
3 2 2 3
2
18 13
3 2 2 3
2
14 6
3 2 2 3
2
6 14
3 2 2 3
2
14 10
3 2 2 3
2
10 14
3 2 2 3
2
14 16
3 2 2 3
2
16 14
3 2 2 3
2
14 18
3 2 2 3
2
18 14
3 2 2 3
2
14 19
3 2 2 3
2
19 14
3 2 2 3
2
15 16
3 2 2 3
2
16 15
3 2 2 3
2
16 11
3 2 2 3
2
11 16
3 2 2 3
2
16 14
3 2 2 3
2
14 16
3 2 2 3
2
16 15
3 2 2 3
2
15 16
3 2 2 3
2
17 10
3 2 2 3
2
10 17
3 2 2 3
2
17 11
3 2 2 3
2
11 17
3 2 2 3
2
17 15
3 2 2 3
2
15 17
3 2 2 3
2
17 18
3 2 2 3
2
18 17
3 2 2 3
2
18 10
3 2 2 3
2
10 18
3 2 2 3
2
18 11
3 2 2 3
2
11 18
3 2 2 3
2
18 16
3 2 2 3
2
16 18
3 2 2 3
2
19 11
3 2 2 3
2
11 19
3 2 2 3
