1 3 1 0
3 1 1 0
1 5 1 0
5 1 1 0
1 7 1 0
7 1 1 0
1 8 1 0
8 1 1 0
1 9 1 0
9 1 1 0
1 11 1 0
11 1 1 0
2 3 1 0
3 2 1 0
2 7 1 0
7 2 1 0
3 1 1 0
1 3 1 0
3 2 1 0
2 3 1 0
3 9 1 0
9 3 1 0
3 10 1 0
10 3 1 0
4 2 1 0
2 4 1 0
4 6 1 0
6 4 1 0
5 2 1 0
2 5 1 0
5 3 1 0
3 5 1 0
5 4 1 0
4 5 1 0
5 6 1 0
6 5 1 0
5 8 1 0
8 5 1 0
5 9 1 0
9 5 1 0
5 11 1 0
11 5 1 0
6 5 1 0
5 6 1 0
6 7 1 0
7 6 1 0
7 2 1 0
2 7 1 0
7 3 1 0
3 7 1 0
7 4 1 0
4 7 1 0
7 9 1 0
9 7 1 0
7 12 1 0
12 7 1 0
7 18 1 0
18 7 1 0
8 1 1 0
1 8 1 0
8 4 1 0
4 8 1 0
8 5 1 0
5 8 1 0
9 3 1 0
3 9 1 0
9 5 1 0
5 9 1 0
9 8 1 0
8 9 1 0
10 2 1 0
2 10 1 0
10 4 1 0
4 10 1 0
10 6 1 0
6 10 1 0
10 8 1 0
8 10 1 0
10 9 1 0
9 10 1 0
11 15 1 0
15 11 1 0
11 20 1 0
20 11 1 0
12 9 1 0
9 12 1 0
12 11 1 0
11 12 1 0
12 16 1 0
16 12 1 0
12 18 1 0
18 12 1 0
13 12 1 0
12 13 1 0
13 14 1 0
14 13 1 0
13 18 1 0
18 13 1 0
14 9 1 0
9 14 1 0
14 20 1 0
20 14 1 0
15 11 1 0
11 15 1 0
15 13 1 0
13 15 1 0
15 19 1 0
19 15 1 0
15 20 1 0
20 15 1 0
16 2 1 0
2 16 1 0
16 7 1 0
7 16 1 0
16 12 1 0
12 16 1 0
16 19 1 0
19 16 1 0
16 20 1 0
20 16 1 0
17 12 1 0
12 17 1 0
17 13 1 0
13 17 1 0
17 15 1 0
15 17 1 0
17 16 1 0
16 17 1 0
18 13 1 0
13 18 1 0
18 15 1 0
15 18 1 0
19 11 1 0
11 19 1 0
19 14 1 0
14 19 1 0
19 16 1 0
16 19 1 0
19 20 1 0
20 19 1 0
20 4 1 0
4 20 1 0
20 14 1 0
14 20 1 0
20 16 1 0
16 20 1 0
20 17 1 0
17 20 1 0
