1 2 1 0
2 1 1 0
1 6 1 0
6 1 1 0
1 7 1 0
7 1 1 0
1 10 1 0
10 1 1 0
2 7 1 0
7 2 1 0
3 5 1 0
5 3 1 0
3 7 1 0
7 3 1 0
3 9 1 0
9 3 1 0
3 10 1 0
10 3 1 0
4 2 1 0
2 4 1 0
4 9 1 0
9 4 1 0
4 10 1 0
10 4 1 0
4 15 1 0
15 4 1 0
4 18 1 0
18 4 1 0
5 1 1 0
1 5 1 0
5 4 1 0
4 5 1 0
5 7 1 0
7 5 1 0
5 15 1 0
15 5 1 0
6 2 1 0
2 6 1 0
6 3 1 0
3 6 1 0
6 9 1 0
9 6 1 0
6 10 1 0
10 6 1 0
7 5 1 0
5 7 1 0
7 6 1 0
6 7 1 0
7 8 1 0
8 7 1 0
7 13 1 0
13 7 1 0
7 20 1 0
20 7 1 0
8 1 1 0
1 8 1 0
8 2 1 0
2 8 1 0
9 16 1 0
16 9 1 0
10 1 1 0
1 10 1 0
10 4 1 0
4 10 1 0
10 5 1 0
5 10 1 0
10 6 1 0
6 10 1 0
10 9 1 0
9 10 1 0
11 5 1 0
5 11 1 0
11 13 1 0
13 11 1 0
11 19 1 0
19 11 1 0
11 20 1 0
20 11 1 0
12 16 1 0
16 12 1 0
12 17 1 0
17 12 1 0
12 20 1 0
20 12 1 0
13 20 1 0
20 13 1 0
14 13 1 0
13 14 1 0
14 19 1 0
19 14 1 0
15 14 1 0
14 15 1 0
17 13 1 0
13 17 1 0
18 15 1 0
15 18 1 0
18 19 1 0
19 18 1 0
18 20 1 0
20 18 1 0
19 5 1 0
5 19 1 0
19 12 1 0
12 19 1 0
19 18 1 0
18 19 1 0
20 14 1 0
14 20 1 0
20 19 1 0
19 20 1 0
