----------------------------------------
Begin PBS Prologue Thu Aug 31 01:46:46 PDT 2017
Job ID:            24124941.hpc-pbs1.hpcc.usc.edu
Username:          amulyaya
Accountname:       default
Group:             csci-ar
Project:           default
Name:              13.pbs
Queue:             tambe
Shared Access:     no
All Cores:         no
Has MIC:           no
Is hsda:           false
Nodes:             hpc3443 
TMPDIR:            /tmp/24124941.hpc-pbs1.hpcc.usc.edu
End PBS Prologue Thu Aug 31 01:46:47 PDT 2017
----------------------------------------
******************************************************************************
METIS 5.0 Copyright 1998-13, Regents of the University of Minnesota
 (HEAD: , Built on: Oct 20 2015, 01:33:37)
 size of idx_t: 64bits, real_t: 32bits, idx_t *: 64bits

Graph Information -----------------------------------------------------------
 Name: /home/rcf-proj/mj1/amulyaya/pomcp-ve/src/6BfpN09y6o.txt, #Vertices: 40, #Edges: 142, #Parts: 4

Options ---------------------------------------------------------------------
 ptype=kway, objtype=cut, ctype=shem, rtype=greedy, iptype=metisrb
 dbglvl=0, ufactor=1.030, no2hop=NO, minconn=NO, contig=NO, nooutput=NO
 seed=-1, niter=10, ncuts=1

Direct k-way Partitioning ---------------------------------------------------
 - Edgecut: 46, communication volume: 72.

 - Balance:
     constraint #0:  1.000 out of 0.100

 - Most overweight partition:
     pid: 0, actual: 10, desired: 10, ratio: 1.00.

 - Subdomain connectivity: max: 3, min: 3, avg: 3.00

 - Each partition is contiguous.

Timing Information ----------------------------------------------------------
  I/O:          		   0.001 sec
  Partitioning: 		   0.003 sec   (METIS time)
  Reporting:    		   0.000 sec

Memory Information ----------------------------------------------------------
  Max memory used:		   0.068 MB
******************************************************************************
Initialising fast UCB table... done
Main runs
Starting run 1 with 1024 simulations... 

Presence: 0000000000000100000000000000000000000000
Invited Nodes: 
Actions left: 3
Session index: 1
About to find best action in Step: 0
Values: 10.9165(endSession) 10.2662(query) 10.5784(invite)
Foind best action in Step: 0
Coolie

Action Type: 2

Presence: 0000000000000100000000000000000000000010
Invited Nodes: 
Actions left: 3
Session index: 2

Observation: ..
Reward 0
About to find best action in Step: 1
Values: 10.0045(endSession) 10.4531(query) 10.9598(invite)
Foind best action in Step: 1
Coolie

Action Type: 1
Active Nodes: 27 36 

Presence: 0000000000000100000000000000000000000010
Invited Nodes: 
Actions left: 2
Session index: 2

Observation: ..
Reward -0
About to find best action in Step: 2
Values: 10.3(endSession) 10.3096(query) 10.0047(invite)
Foind best action in Step: 2
Coolie

Action Type: 0
Active Nodes: 4 5 

Presence: 0000000000000100000000000000000000000010
Invited Nodes: 
Actions left: 1
Session index: 2

Observation: ..
Reward -0
About to find best action in Step: 3
Values: 7.9835(endSession) 10.0062(query) 10.0465(invite)
Foind best action in Step: 3
Coolie

Action Type: 1
Active Nodes: 10 18 

Presence: 0000000000000100000000000000000000000010
Invited Nodes: 
Actions left: 0
Session index: 2

Observation: ..
Reward -0
About to find best action in Step: 4
Foind best action in Step: 4
Coolie

Action Type: 2

Presence: 1111111111111111111111111111111111111111
Invited Nodes: 
Actions left: 3
Session index: 3

Observation: ..
Reward 0
About to find best action in Step: 5
Values: 9.2115(endSession) 10.2996(query) 10.3457(invite)
Foind best action in Step: 5
Coolie

Action Type: 1
Active Nodes: 8 11 

Presence: 1111111111111111111111111111111111111111
Invited Nodes: 8 11 
Actions left: 2
Session index: 3

Observation: ..11
Reward -0
About to find best action in Step: 6
Foind best action in Step: 6
Coolie

Action Type: 2

Presence: 0000000000000000000000000000000000000000
Invited Nodes: 8 11 
Actions left: 3
Session index: 4

Observation: ..
Reward 0
About to find best action in Step: 7
Foind best action in Step: 7
Coolie

Action Type: 2

Presence: 0000000000000000000000000000000000000000
Invited Nodes: 8 11 
Actions left: 3
Session index: 5

Observation: ..
Reward 0
About to find best action in Step: 8
Foind best action in Step: 8
Coolie

Action Type: 2

Presence: 0000000000000000000000000000001000000000
Invited Nodes: 8 11 
Actions left: 3
Session index: 6

Observation: ..
Reward 0
About to find best action in Step: 9
Foind best action in Step: 9
Coolie

Action Type: 2

Presence: 0000000000000000000000000000000000000010
Invited Nodes: 8 11 
Actions left: 3
Session index: 7

Observation: ..
Reward 11.586
Terminated
Discounted return = 11.586, average = 11.586
Undiscounted return = 11.586, average = 11.586
Starting run 2 with 1024 simulations... 

Presence: 1111111111111111111111111111111111111111
Invited Nodes: 
Actions left: 3
Session index: 1
About to find best action in Step: 0
Values: 10.4695(endSession) 10.359(query) 10.664(invite)
Foind best action in Step: 0
Coolie

Action Type: 1
Active Nodes: 6 23 

Presence: 1111111111111111111111111111111111111111
Invited Nodes: 6 23 
Actions left: 2
Session index: 1

Observation: ..11
Reward -0
About to find best action in Step: 1
Foind best action in Step: 1
Coolie

Action Type: 2

Presence: 1111111111111111111111111111111111111111
Invited Nodes: 6 23 
Actions left: 3
Session index: 2

Observation: ..
Reward 0
About to find best action in Step: 2
Foind best action in Step: 2
Coolie

Action Type: 2

Presence: 1111111111111111111111111111111111111111
Invited Nodes: 6 23 
Actions left: 3
Session index: 3

Observation: ..
Reward 0
About to find best action in Step: 3
Foind best action in Step: 3
Coolie

Action Type: 2

Presence: 1111111111111111111111111111111111111111
Invited Nodes: 6 23 
Actions left: 3
Session index: 4

Observation: ..
Reward 0
About to find best action in Step: 4
Foind best action in Step: 4
Coolie

Action Type: 2

Presence: 1111111111111111111111111111111111111111
Invited Nodes: 6 23 
Actions left: 3
Session index: 5

Observation: ..
Reward 0
About to find best action in Step: 5
Foind best action in Step: 5
Coolie

Action Type: 2

Presence: 1111111111111111111111111111111111111111
Invited Nodes: 6 23 
Actions left: 3
Session index: 6

Observation: ..
Reward 0
About to find best action in Step: 6
Foind best action in Step: 6
Coolie

Action Type: 2

Presence: 1111111111111111111111111111111110011111
Invited Nodes: 6 23 
Actions left: 3
Session index: 7

Observation: ..
Reward 12.32
Terminated
Discounted return = 12.32, average = 11.953
Undiscounted return = 12.32, average = 11.953
Starting run 3 with 1024 simulations... 

Presence: 1111111111111111111111111111111111111111
Invited Nodes: 
Actions left: 3
Session index: 1
About to find best action in Step: 0
Values: 10.0095(endSession) 10.2397(query) 10.4377(invite)
Foind best action in Step: 0
Coolie

Action Type: 1
Active Nodes: 19 39 

Presence: 1111111111111111111111111111111111111111
Invited Nodes: 19 39 
Actions left: 2
Session index: 1

Observation: ..11
Reward -0
About to find best action in Step: 1
Foind best action in Step: 1
Coolie

Action Type: 2

Presence: 0000000000000000000000000000000000000000
Invited Nodes: 19 39 
Actions left: 3
Session index: 2

Observation: ..
Reward 0
About to find best action in Step: 2
Foind best action in Step: 2
Coolie

Action Type: 2

Presence: 1111111111111111111111111111110111111111
Invited Nodes: 19 39 
Actions left: 3
Session index: 3

Observation: ..
Reward 0
About to find best action in Step: 3
Foind best action in Step: 3
Coolie

Action Type: 2

Presence: 0000000000000000000000000000000000000010
Invited Nodes: 19 39 
Actions left: 3
Session index: 4

Observation: ..
Reward 0
About to find best action in Step: 4
Foind best action in Step: 4
Coolie

Action Type: 2

Presence: 0000000000000000000000000000000000000000
Invited Nodes: 19 39 
Actions left: 3
Session index: 5

Observation: ..
Reward 0
About to find best action in Step: 5
Foind best action in Step: 5
Coolie

Action Type: 2

Presence: 1111111111111111111111111111111111111111
Invited Nodes: 19 39 
Actions left: 3
Session index: 6

Observation: ..
Reward 0
About to find best action in Step: 6
Foind best action in Step: 6
Coolie

Action Type: 2

Presence: 1111111111111111111111111111111111111111
Invited Nodes: 19 39 
Actions left: 3
Session index: 7

Observation: ..
Reward 12.148
Terminated
Discounted return = 12.148, average = 12.018
Undiscounted return = 12.148, average = 12.018
Starting run 4 with 1024 simulations... 

Presence: 1111111111111111111111111111111111111111
Invited Nodes: 
Actions left: 3
Session index: 1
About to find best action in Step: 0
Values: 9.349(endSession) 10.3684(query) 10.5636(invite)
Foind best action in Step: 0
Coolie

Action Type: 1
Active Nodes: 6 27 

Presence: 1111111111111111111111111111111111111111
Invited Nodes: 6 27 
Actions left: 2
Session index: 1

Observation: ..11
Reward -0
About to find best action in Step: 1
Foind best action in Step: 1
Coolie

Action Type: 2

Presence: 0000000000000000000000000000000000000000
Invited Nodes: 6 27 
Actions left: 3
Session index: 2

Observation: ..
Reward 0
About to find best action in Step: 2
Foind best action in Step: 2
Coolie

Action Type: 2

Presence: 0000000000000000000000000000000000000000
Invited Nodes: 6 27 
Actions left: 3
Session index: 3

Observation: ..
Reward 0
About to find best action in Step: 3
Foind best action in Step: 3
Coolie

Action Type: 2

Presence: 1111111111111111111111111111111111111111
Invited Nodes: 6 27 
Actions left: 3
Session index: 4

Observation: ..
Reward 0
About to find best action in Step: 4
Foind best action in Step: 4
Coolie

Action Type: 2

Presence: 1111111111111111111111111111111111111111
Invited Nodes: 6 27 
Actions left: 3
Session index: 5

Observation: ..
Reward 0
About to find best action in Step: 5
Foind best action in Step: 5
Coolie

Action Type: 2

Presence: 1111111111111111111111111111111111111111
Invited Nodes: 6 27 
Actions left: 3
Session index: 6

Observation: ..
Reward 0
About to find best action in Step: 6
Foind best action in Step: 6
Coolie

Action Type: 2

Presence: 0000000000000000000000000000000000000000
Invited Nodes: 6 27 
Actions left: 3
Session index: 7

Observation: ..
Reward 14.422
Terminated
Discounted return = 14.422, average = 12.619
Undiscounted return = 14.422, average = 12.619
Starting run 5 with 1024 simulations... 

Presence: 0000000000000000000000000000000000000000
Invited Nodes: 
Actions left: 3
Session index: 1
About to find best action in Step: 0
Values: 8.619(endSession) 10.255(query) 10.7226(invite)
Foind best action in Step: 0
Coolie

Action Type: 1
Active Nodes: 19 23 

Presence: 0000000000000000000000000000000000000000
Invited Nodes: 
Actions left: 2
Session index: 1

Observation: ..
Reward -0
About to find best action in Step: 1
Values: 11.3695(endSession) 10.2452(query) 10.0654(invite)
Foind best action in Step: 1
Coolie

Action Type: 2

Presence: 1111111111111111111111111111111111111111
Invited Nodes: 
Actions left: 3
Session index: 2

Observation: ..
Reward 0
About to find best action in Step: 2
Values: 10.0375(endSession) 10.2155(query) 10.4241(invite)
Foind best action in Step: 2
Coolie

Action Type: 1
Active Nodes: 19 23 

Presence: 1111111111111111111111111111111111111111
Invited Nodes: 19 23 
Actions left: 2
Session index: 2

Observation: ..11
Reward -0
About to find best action in Step: 3
Foind best action in Step: 3
Coolie

Action Type: 2

Presence: 0000000000000000000000000000000000000000
Invited Nodes: 19 23 
Actions left: 3
Session index: 3

Observation: ..
Reward 0
About to find best action in Step: 4
Foind best action in Step: 4
Coolie

Action Type: 2

Presence: 0000000000000000000000000000000000000000
Invited Nodes: 19 23 
Actions left: 3
Session index: 4

Observation: ..
Reward 0
About to find best action in Step: 5
Foind best action in Step: 5
Coolie

Action Type: 2

Presence: 1111111111111111111111111111110111111111
Invited Nodes: 19 23 
Actions left: 3
Session index: 5

Observation: ..
Reward 0
About to find best action in Step: 6
Foind best action in Step: 6
Coolie

Action Type: 2

Presence: 0000000000000000000000000000000000000000
Invited Nodes: 19 23 
Actions left: 3
Session index: 6

Observation: ..
Reward 0
About to find best action in Step: 7
Foind best action in Step: 7
Coolie

Action Type: 2

Presence: 0000000000000000000000000000000000000000
Invited Nodes: 19 23 
Actions left: 3
Session index: 7

Observation: ..
Reward 13.063
Terminated
Discounted return = 13.063, average = 12.7078
Undiscounted return = 13.063, average = 12.7078
Starting run 6 with 1024 simulations... 

Presence: 1000000000000000000000000000001000000000
Invited Nodes: 
Actions left: 3
Session index: 1
About to find best action in Step: 0
Values: 10.8615(endSession) 10.3552(query) 10.461(invite)
Foind best action in Step: 0
Coolie

Action Type: 2

Presence: 0000000000000000000000000000000000000000
Invited Nodes: 
Actions left: 3
Session index: 2

Observation: ..
Reward 0
About to find best action in Step: 1
Values: 0(endSession) 10.22(query) 10.5834(invite)
Foind best action in Step: 1
Coolie

Action Type: 1
Active Nodes: 14 27 

Presence: 0000000000000000000000000000000000000000
Invited Nodes: 
Actions left: 2
Session index: 2

Observation: ..
Reward -0
About to find best action in Step: 2
Values: 11.0735(endSession) 10.0651(query) 10.136(invite)
Foind best action in Step: 2
Coolie

Action Type: 2

Presence: 1111111111111111111111111111111111111111
Invited Nodes: 
Actions left: 3
Session index: 3

Observation: ..
Reward 0
About to find best action in Step: 3
Values: 10.7735(endSession) 9.99682(query) 10.2786(invite)
Foind best action in Step: 3
Coolie

Action Type: 2

Presence: 0000000000000000000000000000000000000000
Invited Nodes: 
Actions left: 3
Session index: 4

Observation: ..
Reward 0
About to find best action in Step: 4
Values: 7.951(endSession) 9.0335(query) 9.70238(invite)
Foind best action in Step: 4
Coolie

Action Type: 1
Active Nodes: 19 31 

Presence: 0000000000000000000000000000000000000000
Invited Nodes: 
Actions left: 2
Session index: 4

Observation: ..
Reward -0
About to find best action in Step: 5
Values: 0(endSession) 8.71341(query) 9.37345(invite)
Foind best action in Step: 5
Coolie

Action Type: 1
Active Nodes: 1 15 

Presence: 0000000000000000000000000000000000000000
Invited Nodes: 
Actions left: 1
Session index: 4

Observation: ..
Reward -0
About to find best action in Step: 6
Values: 9.0445(endSession) 8.9789(query) 9.29007(invite)
Foind best action in Step: 6
Coolie

Action Type: 1
Active Nodes: 19 23 

Presence: 0000000000000000000000000000000000000000
Invited Nodes: 
Actions left: 0
Session index: 4

Observation: ..
Reward -0
About to find best action in Step: 7
Foind best action in Step: 7
Coolie

Action Type: 2

Presence: 0000000000000000000000000000000000000000
Invited Nodes: 
Actions left: 3
Session index: 5

Observation: ..
Reward 0
About to find best action in Step: 8
Values: 4.582(endSession) 8.31382(query) 9.27164(invite)
Foind best action in Step: 8
Coolie

Action Type: 1
Active Nodes: 1 25 

Presence: 0000000000000000000000000000000000000000
Invited Nodes: 
Actions left: 2
Session index: 5

Observation: ..
Reward -0
About to find best action in Step: 9
Values: 0(endSession) 7.28102(query) 7.76723(invite)
Foind best action in Step: 9
Coolie

Action Type: 1
Active Nodes: 18 25 

Presence: 0000000000000000000000000000000000000000
Invited Nodes: 
Actions left: 1
Session index: 5

Observation: ..
Reward -0
About to find best action in Step: 10
Values: 9.0655(endSession) 6.94048(query) 7.58319(invite)
Foind best action in Step: 10
Coolie

Action Type: 2

Presence: 0000000000000000000000000000000000000000
Invited Nodes: 
Actions left: 3
Session index: 6

Observation: ..
Reward 0
About to find best action in Step: 11
Values: 0(endSession) 5.51564(query) 6.75001(invite)
Foind best action in Step: 11
Coolie

Action Type: 1
Active Nodes: 6 20 

Presence: 0000000000000000000000000000000000000000
Invited Nodes: 
Actions left: 2
Session index: 6

Observation: ..
Reward -0
About to find best action in Step: 12
Values: 0(endSession) 0.749648(query) 4.45165(invite)
Foind best action in Step: 12
Coolie

Action Type: 1
Active Nodes: 23 25 

Presence: 0000000000000000000000000000000000000000
Invited Nodes: 
Actions left: 1
Session index: 6

Observation: ..
Reward -0
About to find best action in Step: 13
Values: 0(endSession) 0(query) 1.97519(invite)
Foind best action in Step: 13
Coolie

Action Type: 1
Active Nodes: 4 5 

Presence: 0000000000000000000000000000000000000000
Invited Nodes: 
Actions left: 0
Session index: 6

Observation: ..
Reward -0
About to find best action in Step: 14
Foind best action in Step: 14
Coolie

Action Type: 2

Presence: 0000000000000000000000000000000000000000
Invited Nodes: 
Actions left: 3
Session index: 7

Observation: ..
Reward 0
Terminated
Discounted return = 0, average = 10.5898
Undiscounted return = 0, average = 10.5898
Starting run 7 with 1024 simulations... 

Presence: 1111111111111111111111111111111111111101
Invited Nodes: 
Actions left: 3
Session index: 1
About to find best action in Step: 0
Values: 9.3725(endSession) 10.4879(query) 10.5387(invite)
Foind best action in Step: 0
Coolie

Action Type: 1
Active Nodes: 6 19 

Presence: 1111111111111111111111111111111111111101
Invited Nodes: 6 19 
Actions left: 2
Session index: 1

Observation: ..11
Reward -0
About to find best action in Step: 1
Foind best action in Step: 1
Coolie

Action Type: 2

Presence: 1111111111111111111111111111111111111111
Invited Nodes: 6 19 
Actions left: 3
Session index: 2

Observation: ..
Reward 0
About to find best action in Step: 2
Foind best action in Step: 2
Coolie

Action Type: 2

Presence: 1111111111111111111111111111111111111111
Invited Nodes: 6 19 
Actions left: 3
Session index: 3

Observation: ..
Reward 0
About to find best action in Step: 3
Foind best action in Step: 3
Coolie

Action Type: 2

Presence: 1111111111111111111111111111111111111111
Invited Nodes: 6 19 
Actions left: 3
Session index: 4

Observation: ..
Reward 0
About to find best action in Step: 4
Foind best action in Step: 4
Coolie

Action Type: 2

Presence: 0000000000000000000000000000000000000000
Invited Nodes: 6 19 
Actions left: 3
Session index: 5

Observation: ..
Reward 0
About to find best action in Step: 5
Foind best action in Step: 5
Coolie

Action Type: 2

Presence: 1111111111111111111111111111111111111111
Invited Nodes: 6 19 
Actions left: 3
Session index: 6

Observation: ..
Reward 0
About to find best action in Step: 6
Foind best action in Step: 6
Coolie

Action Type: 2

Presence: 1111111111111111111111111111111111111101
Invited Nodes: 6 19 
Actions left: 3
Session index: 7

Observation: ..
Reward 13.673
Terminated
Discounted return = 13.673, average = 11.0303
Undiscounted return = 13.673, average = 11.0303
Starting run 8 with 1024 simulations... 

Presence: 1111111111111111111111111111111111111111
Invited Nodes: 
Actions left: 3
Session index: 1
About to find best action in Step: 0
Values: 8.64(endSession) 10.3014(query) 10.478(invite)
Foind best action in Step: 0
Coolie

Action Type: 1
Active Nodes: 5 37 

Presence: 1111111111111111111111111111111111111111
Invited Nodes: 5 37 
Actions left: 2
Session index: 1

Observation: ..11
Reward -0
About to find best action in Step: 1
Foind best action in Step: 1
Coolie

Action Type: 2

Presence: 1111111111111111111111111111111111111111
Invited Nodes: 5 37 
Actions left: 3
Session index: 2

Observation: ..
Reward 0
About to find best action in Step: 2
Foind best action in Step: 2
Coolie

Action Type: 2

Presence: 1111111111111111111111111111111111111101
Invited Nodes: 5 37 
Actions left: 3
Session index: 3

Observation: ..
Reward 0
About to find best action in Step: 3
Foind best action in Step: 3
Coolie

Action Type: 2

Presence: 0000000000000000000000000000000010000000
Invited Nodes: 5 37 
Actions left: 3
Session index: 4

Observation: ..
Reward 0
About to find best action in Step: 4
Foind best action in Step: 4
Coolie

Action Type: 2

Presence: 1111111111111111111111111111111111111111
Invited Nodes: 5 37 
Actions left: 3
Session index: 5

Observation: ..
Reward 0
About to find best action in Step: 5
Foind best action in Step: 5
Coolie

Action Type: 2

Presence: 1111111111111111111111111111111111111111
Invited Nodes: 5 37 
Actions left: 3
Session index: 6

Observation: ..
Reward 0
About to find best action in Step: 6
Foind best action in Step: 6
Coolie

Action Type: 2

Presence: 0000000000000000000000000000000000000000
Invited Nodes: 5 37 
Actions left: 3
Session index: 7

Observation: ..
Reward 11.461
Terminated
Discounted return = 11.461, average = 11.0841
Undiscounted return = 11.461, average = 11.0841
Starting run 9 with 1024 simulations... 

Presence: 1111111110111111111111111111111111111111
Invited Nodes: 
Actions left: 3
Session index: 1
About to find best action in Step: 0
Values: 10.8075(endSession) 10.3902(query) 10.229(invite)
Foind best action in Step: 0
Coolie

Action Type: 2

Presence: 0000000000000000000000000000000000000000
Invited Nodes: 
Actions left: 3
Session index: 2

Observation: ..
Reward 0
About to find best action in Step: 1
Values: 10.615(endSession) 10.2259(query) 10.1836(invite)
Foind best action in Step: 1
Coolie

Action Type: 2

Presence: 0000000000000000000000000000000000000000
Invited Nodes: 
Actions left: 3
Session index: 3

Observation: ..
Reward 0
About to find best action in Step: 2
Values: 0(endSession) 9.85618(query) 9.89874(invite)
Foind best action in Step: 2
Coolie

Action Type: 1
Active Nodes: 16 23 

Presence: 0000000000000000000000000000000000000000
Invited Nodes: 
Actions left: 2
Session index: 3

Observation: ..
Reward -0
About to find best action in Step: 3
Values: 0(endSession) 9.83067(query) 9.94696(invite)
Foind best action in Step: 3
Coolie

Action Type: 1
Active Nodes: 25 37 

Presence: 0000000000000000000000000000000000000000
Invited Nodes: 
Actions left: 1
Session index: 3

Observation: ..
Reward -0
About to find best action in Step: 4
Values: 4.6035(endSession) 9.90966(query) 9.66107(invite)
Foind best action in Step: 4
Coolie

Action Type: 0
Active Nodes: 2 17 

Presence: 0000000000000000000000000000000000000000
Invited Nodes: 
Actions left: 0
Session index: 3

Observation: ..
Reward -0
About to find best action in Step: 5
Foind best action in Step: 5
Coolie

Action Type: 2

Presence: 1111111111111111111111111111111111111111
Invited Nodes: 
Actions left: 3
Session index: 4

Observation: ..
Reward 0
About to find best action in Step: 6
Values: 9.9885(endSession) 9.68996(query) 9.87893(invite)
Foind best action in Step: 6
Coolie

Action Type: 2

Presence: 1111111111111111111111111111111111111111
Invited Nodes: 
Actions left: 3
Session index: 5

Observation: ..
Reward 0
About to find best action in Step: 7
Values: 9.6945(endSession) 8.08078(query) 9.02911(invite)
Foind best action in Step: 7
Coolie

Action Type: 2

Presence: 0000000000000000000000000000000000000000
Invited Nodes: 
Actions left: 3
Session index: 6

Observation: ..
Reward 0
About to find best action in Step: 8
Values: 0(endSession) 5.6842(query) 7.22757(invite)
Foind best action in Step: 8
Coolie

Action Type: 1
Active Nodes: 5 18 

Presence: 0000000000000000000000000000000000000000
Invited Nodes: 
Actions left: 2
Session index: 6

Observation: ..
Reward -0
About to find best action in Step: 9
Values: 0(endSession) 0.750145(query) 4.49064(invite)
Foind best action in Step: 9
Coolie

Action Type: 1
Active Nodes: 1 11 

Presence: 0000000000000000000000000000000000000000
Invited Nodes: 
Actions left: 1
Session index: 6

Observation: ..
Reward -0
About to find best action in Step: 10
Values: 0(endSession) 0(query) 2.90694(invite)
Foind best action in Step: 10
Coolie

Action Type: 1
Active Nodes: 25 27 

Presence: 0000000000000000000000000000000000000000
Invited Nodes: 
Actions left: 0
Session index: 6

Observation: ..
Reward -0
About to find best action in Step: 11
Foind best action in Step: 11
Coolie

Action Type: 2

Presence: 1111111111111111111111111111111111111111
Invited Nodes: 
Actions left: 3
Session index: 7

Observation: ..
Reward 0
Terminated
Discounted return = 0, average = 9.85256
Undiscounted return = 0, average = 9.85256
Starting run 10 with 1024 simulations... 

Presence: 1111111111111111111111111111111111111111
Invited Nodes: 
Actions left: 3
Session index: 1
About to find best action in Step: 0
Values: 12.664(endSession) 10.3468(query) 10.5426(invite)
Foind best action in Step: 0
Coolie

Action Type: 2

Presence: 1111111111111111111111111111111111111111
Invited Nodes: 
Actions left: 3
Session index: 2

Observation: ..
Reward 0
About to find best action in Step: 1
Values: 4.0145(endSession) 10.2004(query) 10.7964(invite)
Foind best action in Step: 1
Coolie

Action Type: 1
Active Nodes: 27 33 

Presence: 1111111111111111111111111111111111111111
Invited Nodes: 27 33 
Actions left: 2
Session index: 2

Observation: ..11
Reward -0
About to find best action in Step: 2
Foind best action in Step: 2
Coolie

Action Type: 2

Presence: 1111111111111111111111111111111111111111
Invited Nodes: 27 33 
Actions left: 3
Session index: 3

Observation: ..
Reward 0
About to find best action in Step: 3
Foind best action in Step: 3
Coolie

Action Type: 2

Presence: 0000000000000000000000000000000000000000
Invited Nodes: 27 33 
Actions left: 3
Session index: 4

Observation: ..
Reward 0
About to find best action in Step: 4
Foind best action in Step: 4
Coolie

Action Type: 2

Presence: 0000000000000000000000000000000000000000
Invited Nodes: 27 33 
Actions left: 3
Session index: 5

Observation: ..
Reward 0
About to find best action in Step: 5
Foind best action in Step: 5
Coolie

Action Type: 2

Presence: 1111111111111111111111111111111111111111
Invited Nodes: 27 33 
Actions left: 3
Session index: 6

Observation: ..
Reward 0
About to find best action in Step: 6
Foind best action in Step: 6
Coolie

Action Type: 2

Presence: 0000000000000000000000000000000000000000
Invited Nodes: 27 33 
Actions left: 3
Session index: 7

Observation: ..
Reward 12.766
Terminated
Discounted return = 12.766, average = 10.1439
Undiscounted return = 12.766, average = 10.1439
Starting run 11 with 1024 simulations... 

Presence: 1111111111111111111111111111111111111111
Invited Nodes: 
Actions left: 3
Session index: 1
About to find best action in Step: 0
Values: 9.322(endSession) 10.3719(query) 10.5707(invite)
Foind best action in Step: 0
Coolie

Action Type: 1
Active Nodes: 19 23 

Presence: 1111111111111111111111111111111111111111
Invited Nodes: 19 23 
Actions left: 2
Session index: 1

Observation: ..11
Reward -0
About to find best action in Step: 1
Foind best action in Step: 1
Coolie

Action Type: 2

Presence: 1111111111111111111111111111111111111111
Invited Nodes: 19 23 
Actions left: 3
Session index: 2

Observation: ..
Reward 0
About to find best action in Step: 2
Foind best action in Step: 2
Coolie

Action Type: 2

Presence: 0000000000000000000000001000000010000010
Invited Nodes: 19 23 
Actions left: 3
Session index: 3

Observation: ..
Reward 0
About to find best action in Step: 3
Foind best action in Step: 3
Coolie

Action Type: 2

Presence: 1111111111111011111111111111111111111111
Invited Nodes: 19 23 
Actions left: 3
Session index: 4

Observation: ..
Reward 0
About to find best action in Step: 4
Foind best action in Step: 4
Coolie

Action Type: 2

Presence: 1111111111111111111111111111111111111111
Invited Nodes: 19 23 
Actions left: 3
Session index: 5

Observation: ..
Reward 0
About to find best action in Step: 5
Foind best action in Step: 5
Coolie

Action Type: 2

Presence: 1111111111111111111111111111111111111111
Invited Nodes: 19 23 
Actions left: 3
Session index: 6

Observation: ..
Reward 0
About to find best action in Step: 6
Foind best action in Step: 6
Coolie

Action Type: 2

Presence: 1111111111111111111111111111111111111111
Invited Nodes: 19 23 
Actions left: 3
Session index: 7

Observation: ..
Reward 13.037
Terminated
Discounted return = 13.037, average = 10.4069
Undiscounted return = 13.037, average = 10.4069
Starting run 12 with 1024 simulations... 

Presence: 0000000000000000000000000000001000000000
Invited Nodes: 
Actions left: 3
Session index: 1
About to find best action in Step: 0
Values: 9.5685(endSession) 10.3074(query) 10.814(invite)
Foind best action in Step: 0
Coolie

Action Type: 1
Active Nodes: 5 27 

Presence: 0000000000000000000000000000001000000000
Invited Nodes: 
Actions left: 2
Session index: 1

Observation: ..
Reward -0
About to find best action in Step: 1
Values: 11.0845(endSession) 10.4324(query) 10.2643(invite)
Foind best action in Step: 1
Coolie

Action Type: 2

Presence: 0000000000000000000000000000000000000000
Invited Nodes: 
Actions left: 3
Session index: 2

Observation: ..
Reward 0
About to find best action in Step: 2
Values: 8.6885(endSession) 10.4345(query) 10.3985(invite)
Foind best action in Step: 2
Coolie

Action Type: 0
Active Nodes: 23 24 

Presence: 0000000000000000000000000000000000000000
Invited Nodes: 
Actions left: 2
Session index: 2

Observation: ..
Reward -0
About to find best action in Step: 3
Values: 9.7215(endSession) 10.2717(query) 10.3414(invite)
Foind best action in Step: 3
Coolie

Action Type: 1
Active Nodes: 14 27 

Presence: 0000000000000000000000000000000000000000
Invited Nodes: 
Actions left: 1
Session index: 2

Observation: ..
Reward -0
About to find best action in Step: 4
Values: 9.8305(endSession) 9.96222(query) 10.0941(invite)
Foind best action in Step: 4
Coolie

Action Type: 1
Active Nodes: 3 26 

Presence: 0000000000000000000000000000000000000000
Invited Nodes: 
Actions left: 0
Session index: 2

Observation: ..
Reward -0
About to find best action in Step: 5
Foind best action in Step: 5
Coolie

Action Type: 2

Presence: 0000000000000000000000000010000000000000
Invited Nodes: 
Actions left: 3
Session index: 3

Observation: ..
Reward 0
About to find best action in Step: 6
Values: 4.4015(endSession) 10.2581(query) 11.1384(invite)
Foind best action in Step: 6
Coolie

Action Type: 1
Active Nodes: 19 23 

Presence: 0000000000000000000000000010000000000000
Invited Nodes: 
Actions left: 2
Session index: 3

Observation: ..
Reward -0
About to find best action in Step: 7
Values: 10.0445(endSession) 9.73678(query) 9.8642(invite)
Foind best action in Step: 7
Coolie

Action Type: 2

Presence: 1111111111111111111111111111111111111111
Invited Nodes: 
Actions left: 3
Session index: 4

Observation: ..
Reward 0
About to find best action in Step: 8
Values: 9.921(endSession) 9.44375(query) 9.42427(invite)
Foind best action in Step: 8
Coolie

Action Type: 2

Presence: 0000000110111111111111111111110000000000
Invited Nodes: 
Actions left: 3
Session index: 5

Observation: ..
Reward 0
About to find best action in Step: 9
Values: 0(endSession) 8.18906(query) 9.30911(invite)
Foind best action in Step: 9
Coolie

Action Type: 1
Active Nodes: 6 22 

Presence: 0000000110111111111111111111110000000000
Invited Nodes: 22 
Actions left: 2
Session index: 5

Observation: ..10
Reward -0
About to find best action in Step: 10
Values: 7.4325(endSession) 8.29236(query) 9.49378(invite)
Foind best action in Step: 10
Coolie

Action Type: 1
Active Nodes: 19 

Presence: 0000000110111111111111111111110000000000
Invited Nodes: 19 22 
Actions left: 1
Session index: 5

Observation: ..1
Reward -0
About to find best action in Step: 11
Foind best action in Step: 11
Coolie

Action Type: 2

Presence: 0000000000000000000000000000001000000000
Invited Nodes: 19 22 
Actions left: 3
Session index: 6

Observation: ..
Reward 0
About to find best action in Step: 12
Foind best action in Step: 12
Coolie

Action Type: 2

Presence: 1111111111111111111111111111111111111111
Invited Nodes: 19 22 
Actions left: 3
Session index: 7

Observation: ..
Reward 12.238
Terminated
Discounted return = 12.238, average = 10.5595
Undiscounted return = 12.238, average = 10.5595
Starting run 13 with 1024 simulations... 

Presence: 1111111111111111111111111111110111111111
Invited Nodes: 
Actions left: 3
Session index: 1
About to find best action in Step: 0
Values: 10.754(endSession) 10.4183(query) 10.4181(invite)
Foind best action in Step: 0
Coolie

Action Type: 2

Presence: 0000000000000000000000000000001000000000
Invited Nodes: 
Actions left: 3
Session index: 2

Observation: ..
Reward 0
About to find best action in Step: 1
Values: 8.686(endSession) 10.1671(query) 10.0564(invite)
Foind best action in Step: 1
Coolie

Action Type: 0
Active Nodes: 17 18 

Presence: 0000000000000000000000000000001000000000
Invited Nodes: 
Actions left: 2
Session index: 2

Observation: ..
Reward -0
About to find best action in Step: 2
Values: 8.318(endSession) 9.69064(query) 10.0968(invite)
Foind best action in Step: 2
Coolie

Action Type: 1
Active Nodes: 19 23 

Presence: 0000000000000000000000000000001000000000
Invited Nodes: 
Actions left: 1
Session index: 2

Observation: ..
Reward -0
About to find best action in Step: 3
Values: 4.944(endSession) 10.1449(query) 10.1013(invite)
Foind best action in Step: 3
Coolie

Action Type: 0
Active Nodes: 20 29 

Presence: 0000000000000000000000000000001000000000
Invited Nodes: 
Actions left: 0
Session index: 2

Observation: ..
Reward -0
About to find best action in Step: 4
Foind best action in Step: 4
Coolie

Action Type: 2

Presence: 1111111111111111111111111111111111111101
Invited Nodes: 
Actions left: 3
Session index: 3

Observation: ..
Reward 0
About to find best action in Step: 5
Values: 10.096(endSession) 9.95546(query) 10.5502(invite)
Foind best action in Step: 5
Coolie

Action Type: 1
Active Nodes: 19 27 

Presence: 1111111111111111111111111111111111111101
Invited Nodes: 19 27 
Actions left: 2
Session index: 3

Observation: ..11
Reward -0
About to find best action in Step: 6
Foind best action in Step: 6
Coolie

Action Type: 2

Presence: 0000000000000000000000000000000000000000
Invited Nodes: 19 27 
Actions left: 3
Session index: 4

Observation: ..
Reward 0
About to find best action in Step: 7
Foind best action in Step: 7
Coolie

Action Type: 2

Presence: 0000000000000100000000000000000000000010
Invited Nodes: 19 27 
Actions left: 3
Session index: 5

Observation: ..
Reward 0
About to find best action in Step: 8
Foind best action in Step: 8
Coolie

Action Type: 2

Presence: 1111111111111111111111111111111111111111
Invited Nodes: 19 27 
Actions left: 3
Session index: 6

Observation: ..
Reward 0
About to find best action in Step: 9
Foind best action in Step: 9
Coolie

Action Type: 2

Presence: 0000000000000000000000000000000000000000
Invited Nodes: 19 27 
Actions left: 3
Session index: 7

Observation: ..
Reward 13.967
Terminated
Discounted return = 13.967, average = 10.8216
Undiscounted return = 13.967, average = 10.8216
Starting run 14 with 1024 simulations... 

Presence: 0000000000000000000000000000000000000010
Invited Nodes: 
Actions left: 3
Session index: 1
About to find best action in Step: 0
Values: 0(endSession) 10.3118(query) 10.3893(invite)
Foind best action in Step: 0
Coolie

Action Type: 1
Active Nodes: 5 28 

Presence: 0000000000000000000000000000000000000010
Invited Nodes: 
Actions left: 2
Session index: 1

Observation: ..
Reward -0
About to find best action in Step: 1
Values: 9.8205(endSession) 10.4026(query) 10.6519(invite)
Foind best action in Step: 1
Coolie

Action Type: 1
Active Nodes: 8 27 

Presence: 0000000000000000000000000000000000000010
Invited Nodes: 
Actions left: 1
Session index: 1

Observation: ..
Reward -0
About to find best action in Step: 2
Values: 10.3595(endSession) 10.3478(query) 10.486(invite)
Foind best action in Step: 2
Coolie

Action Type: 1
Active Nodes: 5 9 

Presence: 0000000000000000000000000000000000000010
Invited Nodes: 
Actions left: 0
Session index: 1

Observation: ..
Reward -0
About to find best action in Step: 3
Foind best action in Step: 3
Coolie

Action Type: 2

Presence: 0000000001000000000000000000000000000000
Invited Nodes: 
Actions left: 3
Session index: 2

Observation: ..
Reward 0
About to find best action in Step: 4
Values: 11.1275(endSession) 10.1191(query) 10.2694(invite)
Foind best action in Step: 4
Coolie

Action Type: 2

Presence: 1111111111111111111111111111111111111101
Invited Nodes: 
Actions left: 3
Session index: 3

Observation: ..
Reward 0
About to find best action in Step: 5
Values: 11.728(endSession) 10.2132(query) 10.4653(invite)
Foind best action in Step: 5
Coolie

Action Type: 2

Presence: 0000000000100011111011111111100000000000
Invited Nodes: 
Actions left: 3
Session index: 4

Observation: ..
Reward 0
About to find best action in Step: 6
Values: 0(endSession) 9.65265(query) 9.77486(invite)
Foind best action in Step: 6
Coolie

Action Type: 1
Active Nodes: 9 37 

Presence: 0000000000100011111011111111100000000000
Invited Nodes: 
Actions left: 2
Session index: 4

Observation: ..
Reward -0
About to find best action in Step: 7
Values: 10.798(endSession) 8.88569(query) 9.31057(invite)
Foind best action in Step: 7
Coolie

Action Type: 2

Presence: 0000000000000000000000000000000000000000
Invited Nodes: 
Actions left: 3
Session index: 5

Observation: ..
Reward 0
About to find best action in Step: 8
Values: 6.239(endSession) 8.25385(query) 8.1575(invite)
Foind best action in Step: 8
Coolie

Action Type: 0
Active Nodes: 12 32 

Presence: 0000000000000000000000000000000000000000
Invited Nodes: 
Actions left: 2
Session index: 5

Observation: ..
Reward -0
About to find best action in Step: 9
Values: 8.7065(endSession) 6.72685(query) 8.02885(invite)
Foind best action in Step: 9
Coolie

Action Type: 2

Presence: 1111111111111111111111111111111111111101
Invited Nodes: 
Actions left: 3
Session index: 6

Observation: ..
Reward 0
About to find best action in Step: 10
Values: 0(endSession) 5.43505(query) 7.79247(invite)
Foind best action in Step: 10
Coolie

Action Type: 1
Active Nodes: 7 12 

Presence: 1111111111111111111111111111111111111101
Invited Nodes: 7 12 
Actions left: 2
Session index: 6

Observation: ..11
Reward -0
About to find best action in Step: 11
Foind best action in Step: 11
Coolie

Action Type: 2

Presence: 0000000000000000000000000000000000000000
Invited Nodes: 7 12 
Actions left: 3
Session index: 7

Observation: ..
Reward 10.375
Terminated
Discounted return = 10.375, average = 10.7897
Undiscounted return = 10.375, average = 10.7897
Starting run 15 with 1024 simulations... 

Presence: 1111111111111111111111111111111111111111
Invited Nodes: 
Actions left: 3
Session index: 1
About to find best action in Step: 0
Values: 7.835(endSession) 10.4253(query) 10.603(invite)
Foind best action in Step: 0
Coolie

Action Type: 1
Active Nodes: 14 27 

Presence: 1111111111111111111111111111111111111111
Invited Nodes: 14 27 
Actions left: 2
Session index: 1

Observation: ..11
Reward -0
About to find best action in Step: 1
Foind best action in Step: 1
Coolie

Action Type: 2

Presence: 0000000000000000000000000000000000000000
Invited Nodes: 14 27 
Actions left: 3
Session index: 2

Observation: ..
Reward 0
About to find best action in Step: 2
Foind best action in Step: 2
Coolie

Action Type: 2

Presence: 0000000000000000000000000000001000000010
Invited Nodes: 14 27 
Actions left: 3
Session index: 3

Observation: ..
Reward 0
About to find best action in Step: 3
Foind best action in Step: 3
Coolie

Action Type: 2

Presence: 0000000000000000000000000000000000000000
Invited Nodes: 14 27 
Actions left: 3
Session index: 4

Observation: ..
Reward 0
About to find best action in Step: 4
Foind best action in Step: 4
Coolie

Action Type: 2

Presence: 1111111111111111111111111111111111111111
Invited Nodes: 14 27 
Actions left: 3
Session index: 5

Observation: ..
Reward 0
About to find best action in Step: 5
Foind best action in Step: 5
Coolie

Action Type: 2

Presence: 1111111111111111111111111111111111111111
Invited Nodes: 14 27 
Actions left: 3
Session index: 6

Observation: ..
Reward 0
About to find best action in Step: 6
Foind best action in Step: 6
Coolie

Action Type: 2

Presence: 0000000000000000000000000000000000000000
Invited Nodes: 14 27 
Actions left: 3
Session index: 7

Observation: ..
Reward 12.746
Terminated
Discounted return = 12.746, average = 10.9201
Undiscounted return = 12.746, average = 10.9201
Starting run 16 with 1024 simulations... 

Presence: 0000000000000000000000000000000000000000
Invited Nodes: 
Actions left: 3
Session index: 1
About to find best action in Step: 0
Values: 7.9175(endSession) 10.4275(query) 11.0816(invite)
Foind best action in Step: 0
Coolie

Action Type: 1
Active Nodes: 9 27 

Presence: 0000000000000000000000000000000000000000
Invited Nodes: 
Actions left: 2
Session index: 1

Observation: ..
Reward -0
About to find best action in Step: 1
Values: 11.0515(endSession) 10.1984(query) 9.96365(invite)
Foind best action in Step: 1
Coolie

Action Type: 2

Presence: 0000000000000000000000000000001000000010
Invited Nodes: 
Actions left: 3
Session index: 2

Observation: ..
Reward 0
About to find best action in Step: 2
Values: 8.4075(endSession) 10.3431(query) 10.269(invite)
Foind best action in Step: 2
Coolie

Action Type: 0
Active Nodes: 28 32 

Presence: 0000000000000000000000000000001000000010
Invited Nodes: 
Actions left: 2
Session index: 2

Observation: ..
Reward -0
About to find best action in Step: 3
Values: 10.3525(endSession) 10.0644(query) 10.2846(invite)
Foind best action in Step: 3
Coolie

Action Type: 2

Presence: 0000000000000000000000000000001000000000
Invited Nodes: 
Actions left: 3
Session index: 3

Observation: ..
Reward 0
About to find best action in Step: 4
Values: 9.7475(endSession) 9.85835(query) 10.2311(invite)
Foind best action in Step: 4
Coolie

Action Type: 1
Active Nodes: 6 22 

Presence: 0000000000000000000000000000001000000000
Invited Nodes: 
Actions left: 2
Session index: 3

Observation: ..
Reward -0
About to find best action in Step: 5
Values: 9.3555(endSession) 9.90443(query) 10.4106(invite)
Foind best action in Step: 5
Coolie

Action Type: 1
Active Nodes: 19 23 

Presence: 0000000000000000000000000000001000000000
Invited Nodes: 
Actions left: 1
Session index: 3

Observation: ..
Reward -0
About to find best action in Step: 6
Values: 10.063(endSession) 9.75979(query) 9.67696(invite)
Foind best action in Step: 6
Coolie

Action Type: 2

Presence: 0000000000000000000000000000000000000000
Invited Nodes: 
Actions left: 3
Session index: 4

Observation: ..
Reward 0
About to find best action in Step: 7
Values: 9.975(endSession) 9.31255(query) 10.0047(invite)
Foind best action in Step: 7
Coolie

Action Type: 1
Active Nodes: 0 27 

Presence: 0000000000000000000000000000000000000000
Invited Nodes: 
Actions left: 2
Session index: 4

Observation: ..
Reward -0
About to find best action in Step: 8
Values: 2.335(endSession) 9.00169(query) 9.02499(invite)
Foind best action in Step: 8
Coolie

Action Type: 1
Active Nodes: 2 32 

Presence: 0000000000000000000000000000000000000000
Invited Nodes: 
Actions left: 1
Session index: 4

Observation: ..
Reward -0
About to find best action in Step: 9
Values: 8.7535(endSession) 9.29472(query) 8.77818(invite)
Foind best action in Step: 9
Coolie

Action Type: 0
Active Nodes: 21 35 

Presence: 0000000000000000000000000000000000000000
Invited Nodes: 
Actions left: 0
Session index: 4

Observation: ..
Reward -0
About to find best action in Step: 10
Foind best action in Step: 10
Coolie

Action Type: 2

Presence: 0000000000000100000000000000000000000000
Invited Nodes: 
Actions left: 3
Session index: 5

Observation: ..
Reward 0
About to find best action in Step: 11
Values: 0(endSession) 8.78551(query) 8.39214(invite)
Foind best action in Step: 11
Coolie

Action Type: 0
Active Nodes: 13 29 

Presence: 0000000000000100000000000000000000000000
Invited Nodes: 
Actions left: 2
Session index: 5

Observation: ..1
Reward -0
About to find best action in Step: 12
Values: 0(endSession) 6.85799(query) 8.12551(invite)
Foind best action in Step: 12
Coolie

Action Type: 1
Active Nodes: 23 27 

Presence: 0000000000000100000000000000000000000000
Invited Nodes: 
Actions left: 1
Session index: 5

Observation: ..
Reward -0
About to find best action in Step: 13
Values: 0(endSession) 6.54997(query) 7.30986(invite)
Foind best action in Step: 13
Coolie

Action Type: 1
Active Nodes: 3 9 

Presence: 0000000000000100000000000000000000000000
Invited Nodes: 
Actions left: 0
Session index: 5

Observation: ..
Reward -0
About to find best action in Step: 14
Foind best action in Step: 14
Coolie

Action Type: 2

Presence: 1111111111111111111111111111110111111110
Invited Nodes: 
Actions left: 3
Session index: 6

Observation: ..
Reward 0
About to find best action in Step: 15
Values: 0(endSession) 5.74352(query) 6.66976(invite)
Foind best action in Step: 15
Coolie

Action Type: 1
Active Nodes: 27 29 

Presence: 1111111111111111111111111111110111111110
Invited Nodes: 27 29 
Actions left: 2
Session index: 6

Observation: ..11
Reward -0
About to find best action in Step: 16
Foind best action in Step: 16
Coolie

Action Type: 2

Presence: 0000000000000000000000000000000000000000
Invited Nodes: 27 29 
Actions left: 3
Session index: 7

Observation: ..
Reward 11.693
Terminated
Discounted return = 11.693, average = 10.9684
Undiscounted return = 11.693, average = 10.9684
Starting run 17 with 1024 simulations... 

Presence: 1111111111111111111111111111111111111111
Invited Nodes: 
Actions left: 3
Session index: 1
About to find best action in Step: 0
Values: 8.8605(endSession) 10.2053(query) 10.1439(invite)
Foind best action in Step: 0
Coolie

Action Type: 0
Active Nodes: 4 21 

Presence: 1111111111111111111111111111111111111111
Invited Nodes: 
Actions left: 2
Session index: 1

Observation: ..11
Reward -0
About to find best action in Step: 1
Values: 9.1185(endSession) 10.3425(query) 11.0435(invite)
Foind best action in Step: 1
Coolie

Action Type: 1
Active Nodes: 6 27 

Presence: 1111111111111111111111111111111111111111
Invited Nodes: 6 27 
Actions left: 1
Session index: 1

Observation: ..11
Reward -0
About to find best action in Step: 2
Foind best action in Step: 2
Coolie

Action Type: 2

Presence: 0000000000000000000000000000000000000000
Invited Nodes: 6 27 
Actions left: 3
Session index: 2

Observation: ..
Reward 0
About to find best action in Step: 3
Foind best action in Step: 3
Coolie

Action Type: 2

Presence: 0000000000000000000000000000000000000000
Invited Nodes: 6 27 
Actions left: 3
Session index: 3

Observation: ..
Reward 0
About to find best action in Step: 4
Foind best action in Step: 4
Coolie

Action Type: 2

Presence: 1111111111111111111111111111110111111111
Invited Nodes: 6 27 
Actions left: 3
Session index: 4

Observation: ..
Reward 0
About to find best action in Step: 5
Foind best action in Step: 5
Coolie

Action Type: 2

Presence: 1111111111111111111111111111111111111111
Invited Nodes: 6 27 
Actions left: 3
Session index: 5

Observation: ..
Reward 0
About to find best action in Step: 6
Foind best action in Step: 6
Coolie

Action Type: 2

Presence: 1111111111111111111111111111111111111111
Invited Nodes: 6 27 
Actions left: 3
Session index: 6

Observation: ..
Reward 0
About to find best action in Step: 7
Foind best action in Step: 7
Coolie

Action Type: 2

Presence: 0000000000000000000000000000000000000000
Invited Nodes: 6 27 
Actions left: 3
Session index: 7

Observation: ..
Reward 14.622
Terminated
Discounted return = 14.622, average = 11.1834
Undiscounted return = 14.622, average = 11.1834
Starting run 18 with 1024 simulations... 

Presence: 0000000000000000000010100000000000000000
Invited Nodes: 
Actions left: 3
Session index: 1
About to find best action in Step: 0
Values: 7.3615(endSession) 10.4966(query) 10.8513(invite)
Foind best action in Step: 0
Coolie

Action Type: 1
Active Nodes: 28 36 

Presence: 0000000000000000000010100000000000000000
Invited Nodes: 
Actions left: 2
Session index: 1

Observation: ..
Reward -0
About to find best action in Step: 1
Values: 9.435(endSession) 10.367(query) 10.1974(invite)
Foind best action in Step: 1
Coolie

Action Type: 0
Active Nodes: 13 18 

Presence: 0000000000000000000010100000000000000000
Invited Nodes: 
Actions left: 1
Session index: 1

Observation: ..
Reward -0
About to find best action in Step: 2
Values: 9.8595(endSession) 10.2971(query) 10.2253(invite)
Foind best action in Step: 2
Coolie

Action Type: 0
Active Nodes: 3 24 

Presence: 0000000000000000000010100000000000000000
Invited Nodes: 
Actions left: 0
Session index: 1

Observation: ..
Reward -0
About to find best action in Step: 3
Foind best action in Step: 3
Coolie

Action Type: 2

Presence: 0000000000000000000000000000001000000000
Invited Nodes: 
Actions left: 3
Session index: 2

Observation: ..
Reward 0
About to find best action in Step: 4
Values: 10.1345(endSession) 10.2494(query) 11.1012(invite)
Foind best action in Step: 4
Coolie

Action Type: 1
Active Nodes: 27 33 

Presence: 0000000000000000000000000000001000000000
Invited Nodes: 
Actions left: 2
Session index: 2

Observation: ..
Reward -0
About to find best action in Step: 5
Values: 12.3915(endSession) 9.99665(query) 10.2718(invite)
Foind best action in Step: 5
Coolie

Action Type: 2

Presence: 1111111111111111111111111111111111111111
Invited Nodes: 
Actions left: 3
Session index: 3

Observation: ..
Reward 0
About to find best action in Step: 6
Values: 0(endSession) 10.1939(query) 9.90126(invite)
Foind best action in Step: 6
Coolie

Action Type: 0
Active Nodes: 20 21 

Presence: 1111111111111111111111111111111111111111
Invited Nodes: 
Actions left: 2
Session index: 3

Observation: ..11
Reward -0
About to find best action in Step: 7
Values: 10.5015(endSession) 9.75277(query) 10.8383(invite)
Foind best action in Step: 7
Coolie

Action Type: 1
Active Nodes: 1 27 

Presence: 1111111111111111111111111111111111111111
Invited Nodes: 1 27 
Actions left: 1
Session index: 3

Observation: ..11
Reward -0
About to find best action in Step: 8
Foind best action in Step: 8
Coolie

Action Type: 2

Presence: 1111111111111111111111111111110111111111
Invited Nodes: 1 27 
Actions left: 3
Session index: 4

Observation: ..
Reward 0
About to find best action in Step: 9
Foind best action in Step: 9
Coolie

Action Type: 2

Presence: 0000000000000000000000000000000000000010
Invited Nodes: 1 27 
Actions left: 3
Session index: 5

Observation: ..
Reward 0
About to find best action in Step: 10
Foind best action in Step: 10
Coolie

Action Type: 2

Presence: 0000000000000000000000000000000000000000
Invited Nodes: 1 27 
Actions left: 3
Session index: 6

Observation: ..
Reward 0
About to find best action in Step: 11
Foind best action in Step: 11
Coolie

Action Type: 2

Presence: 0110000000111111111111101111110000000010
Invited Nodes: 1 27 
Actions left: 3
Session index: 7

Observation: ..
Reward 12.979
Terminated
Discounted return = 12.979, average = 11.2831
Undiscounted return = 12.979, average = 11.2831
Starting run 19 with 1024 simulations... 

Presence: 0000000000000000000000000000000000000000
Invited Nodes: 
Actions left: 3
Session index: 1
About to find best action in Step: 0
Values: 9.7265(endSession) 10.608(query) 10.5753(invite)
Foind best action in Step: 0
Coolie

Action Type: 0
Active Nodes: 23 34 

Presence: 0000000000000000000000000000000000000000
Invited Nodes: 
Actions left: 2
Session index: 1

Observation: ..
Reward -0
About to find best action in Step: 1
Values: 8.686(endSession) 10.3635(query) 10.2441(invite)
Foind best action in Step: 1
Coolie

Action Type: 0
Active Nodes: 5 38 

Presence: 0000000000000000000000000000000000000000
Invited Nodes: 
Actions left: 1
Session index: 1

Observation: ..
Reward -0
About to find best action in Step: 2
Values: 8.7205(endSession) 10.4275(query) 10.4329(invite)
Foind best action in Step: 2
Coolie

Action Type: 1
Active Nodes: 5 37 

Presence: 0000000000000000000000000000000000000000
Invited Nodes: 
Actions left: 0
Session index: 1

Observation: ..
Reward -0
About to find best action in Step: 3
Foind best action in Step: 3
Coolie

Action Type: 2

Presence: 1111111111111111111111111111111111111111
Invited Nodes: 
Actions left: 3
Session index: 2

Observation: ..
Reward 0
About to find best action in Step: 4
Values: 0(endSession) 10.1136(query) 10.9662(invite)
Foind best action in Step: 4
Coolie

Action Type: 1
Active Nodes: 19 27 

Presence: 1111111111111111111111111111111111111111
Invited Nodes: 19 27 
Actions left: 2
Session index: 2

Observation: ..11
Reward -0
About to find best action in Step: 5
Foind best action in Step: 5
Coolie

Action Type: 2

Presence: 1111111111111111111111111111111111111101
Invited Nodes: 19 27 
Actions left: 3
Session index: 3

Observation: ..
Reward 0
About to find best action in Step: 6
Foind best action in Step: 6
Coolie

Action Type: 2

Presence: 0000000000000100001000000000000000000010
Invited Nodes: 19 27 
Actions left: 3
Session index: 4

Observation: ..
Reward 0
About to find best action in Step: 7
Foind best action in Step: 7
Coolie

Action Type: 2

Presence: 0000000000000000000000000000000000000000
Invited Nodes: 19 27 
Actions left: 3
Session index: 5

Observation: ..
Reward 0
About to find best action in Step: 8
Foind best action in Step: 8
Coolie

Action Type: 2

Presence: 0000000000000000000000000000000000000000
Invited Nodes: 19 27 
Actions left: 3
Session index: 6

Observation: ..
Reward 0
About to find best action in Step: 9
Foind best action in Step: 9
Coolie

Action Type: 2

Presence: 1111111111111111111111111111111111111111
Invited Nodes: 19 27 
Actions left: 3
Session index: 7

Observation: ..
Reward 14.116
Terminated
Discounted return = 14.116, average = 11.4322
Undiscounted return = 14.116, average = 11.4322
Starting run 20 with 1024 simulations... 

Presence: 0000000000000000000000000000000000000000
Invited Nodes: 
Actions left: 3
Session index: 1
About to find best action in Step: 0
Values: 7.0815(endSession) 10.1957(query) 10.9101(invite)
Foind best action in Step: 0
Coolie

Action Type: 1
Active Nodes: 7 27 

Presence: 0000000000000000000000000000000000000000
Invited Nodes: 
Actions left: 2
Session index: 1

Observation: ..
Reward -0
About to find best action in Step: 1
Values: 10.027(endSession) 9.90666(query) 10.1646(invite)
Foind best action in Step: 1
Coolie

Action Type: 1
Active Nodes: 5 8 

Presence: 0000000000000000000000000000000000000000
Invited Nodes: 
Actions left: 1
Session index: 1

Observation: ..
Reward -0
About to find best action in Step: 2
Values: 10.088(endSession) 10.1338(query) 10.2774(invite)
Foind best action in Step: 2
Coolie

Action Type: 1
Active Nodes: 9 23 

Presence: 0000000000000000000000000000000000000000
Invited Nodes: 
Actions left: 0
Session index: 1

Observation: ..
Reward -0
About to find best action in Step: 3
Foind best action in Step: 3
Coolie

Action Type: 2

Presence: 1111111111111111111111111111111111111111
Invited Nodes: 
Actions left: 3
Session index: 2

Observation: ..
Reward 0
About to find best action in Step: 4
Values: 9.6225(endSession) 10.195(query) 10.0993(invite)
Foind best action in Step: 4
Coolie

Action Type: 0
Active Nodes: 22 24 

Presence: 1111111111111111111111111111111111111111
Invited Nodes: 
Actions left: 2
Session index: 2

Observation: ..11
Reward -0
About to find best action in Step: 5
Values: 11.475(endSession) 10.0379(query) 10.6429(invite)
Foind best action in Step: 5
Coolie

Action Type: 2

Presence: 1111111111111111111111111111111111111111
Invited Nodes: 
Actions left: 3
Session index: 3

Observation: ..
Reward 0
About to find best action in Step: 6
Values: 11.4145(endSession) 9.9917(query) 10.0831(invite)
Foind best action in Step: 6
Coolie

Action Type: 2

Presence: 1111111111111111111111111111111111111111
Invited Nodes: 
Actions left: 3
Session index: 4

Observation: ..
Reward 0
About to find best action in Step: 7
Values: 8.145(endSession) 9.51798(query) 9.92377(invite)
Foind best action in Step: 7
Coolie

Action Type: 1
Active Nodes: 16 25 

Presence: 1111111111111111111111111111111111111111
Invited Nodes: 16 25 
Actions left: 2
Session index: 4

Observation: ..11
Reward -0
About to find best action in Step: 8
Foind best action in Step: 8
Coolie

Action Type: 2

Presence: 1111111111111111111111111111111111111101
Invited Nodes: 16 25 
Actions left: 3
Session index: 5

Observation: ..
Reward 0
About to find best action in Step: 9
Foind best action in Step: 9
Coolie

Action Type: 2

Presence: 1111111111111111111111111111111111111111
Invited Nodes: 16 25 
Actions left: 3
Session index: 6

Observation: ..
Reward 0
About to find best action in Step: 10
Foind best action in Step: 10
Coolie

Action Type: 2

Presence: 0000000000000000000000000000000000000000
Invited Nodes: 16 25 
Actions left: 3
Session index: 7

Observation: ..
Reward 11.19
Terminated
Discounted return = 11.19, average = 11.4201
Undiscounted return = 11.19, average = 11.4201
Simulations = 1024
Runs = 20
Undiscounted return = 11.4201 +- 0.885299
Discounted return = 11.4201 +- 0.885299
Time = 18.3805
----------------------------------------
Begin PBS Epilogue Thu Aug 31 01:52:59 PDT 2017
Job ID:           24124941.hpc-pbs1.hpcc.usc.edu
Username:         amulyaya
Accountname:      default
Group:            csci-ar
Job Name:         13.pbs
Session:          53249
Limits:           neednodes=1:ppn=16:sl230s,nodes=1:ppn=16:sl230s,walltime=24:00:00
Resources:        cput=00:06:10,energy_used=0,mem=31210312kb,vmem=28302952kb,walltime=00:06:12
Queue:            tambe
Shared Access:    no
Has MIC:          no
Is hsda:          false
removed '/scratch'
End PBS Epilogue Thu Aug 31 01:52:59 PDT 2017
----------------------------------------
