----------------------------------------
Begin PBS Prologue Thu Aug 31 00:56:55 PDT 2017
Job ID:            24124934.hpc-pbs1.hpcc.usc.edu
Username:          amulyaya
Accountname:       default
Group:             csci-ar
Project:           default
Name:              6.pbs
Queue:             tambe
Shared Access:     no
All Cores:         no
Has MIC:           no
Is hsda:           false
Nodes:             hpc3443 
TMPDIR:            /tmp/24124934.hpc-pbs1.hpcc.usc.edu
End PBS Prologue Thu Aug 31 00:56:56 PDT 2017
----------------------------------------
******************************************************************************
METIS 5.0 Copyright 1998-13, Regents of the University of Minnesota
 (HEAD: , Built on: Oct 20 2015, 01:33:37)
 size of idx_t: 64bits, real_t: 32bits, idx_t *: 64bits

Graph Information -----------------------------------------------------------
 Name: /home/rcf-proj/mj1/amulyaya/pomcp-ve/src/E52ZNvMjEG.txt, #Vertices: 40, #Edges: 140, #Parts: 4

Options ---------------------------------------------------------------------
 ptype=kway, objtype=cut, ctype=shem, rtype=greedy, iptype=metisrb
 dbglvl=0, ufactor=1.030, no2hop=NO, minconn=NO, contig=NO, nooutput=NO
 seed=-1, niter=10, ncuts=1

Direct k-way Partitioning ---------------------------------------------------
 - Edgecut: 56, communication volume: 76.

 - Balance:
     constraint #0:  1.000 out of 0.100

 - Most overweight partition:
     pid: 0, actual: 10, desired: 10, ratio: 1.00.

 - Subdomain connectivity: max: 3, min: 3, avg: 3.00

 - Each partition is contiguous.

Timing Information ----------------------------------------------------------
  I/O:          		   0.000 sec
  Partitioning: 		   0.003 sec   (METIS time)
  Reporting:    		   0.000 sec

Memory Information ----------------------------------------------------------
  Max memory used:		   0.068 MB
******************************************************************************
Initialising fast UCB table... done
Main runs
Starting run 1 with 1024 simulations... 

Presence: 1111111111111111111111111111111111111111
Invited Nodes: 
Actions left: 3
Session index: 1
About to find best action in Step: 0
Values: 10.189(endSession) 10.368(query) 11.0162(invite)
Foind best action in Step: 0
Coolie

Action Type: 1
Active Nodes: 0 30 

Presence: 1111111111111111111111111111111111111111
Invited Nodes: 0 30 
Actions left: 2
Session index: 1

Observation: ..11
Reward -0
About to find best action in Step: 1
Foind best action in Step: 1
Coolie

Action Type: 2

Presence: 0000000000100000000000000000000000000000
Invited Nodes: 0 30 
Actions left: 3
Session index: 2

Observation: ..
Reward 0
About to find best action in Step: 2
Foind best action in Step: 2
Coolie

Action Type: 2

Presence: 0000000000000000000010000000000000100000
Invited Nodes: 0 30 
Actions left: 3
Session index: 3

Observation: ..
Reward 0
About to find best action in Step: 3
Foind best action in Step: 3
Coolie

Action Type: 2

Presence: 1111111111011111111101111111111111111110
Invited Nodes: 0 30 
Actions left: 3
Session index: 4

Observation: ..
Reward 0
About to find best action in Step: 4
Foind best action in Step: 4
Coolie

Action Type: 2

Presence: 1111111111110111111111111111110001000000
Invited Nodes: 0 30 
Actions left: 3
Session index: 5

Observation: ..
Reward 0
About to find best action in Step: 5
Foind best action in Step: 5
Coolie

Action Type: 2

Presence: 0010000000000000000000000000000000000000
Invited Nodes: 0 30 
Actions left: 3
Session index: 6

Observation: ..
Reward 0
About to find best action in Step: 6
Foind best action in Step: 6
Coolie

Action Type: 2

Presence: 0000000000000000000000000000000000000000
Invited Nodes: 0 30 
Actions left: 3
Session index: 7

Observation: ..
Reward 13.273
Terminated
Discounted return = 13.273, average = 13.273
Undiscounted return = 13.273, average = 13.273
Starting run 2 with 1024 simulations... 

Presence: 1111111111000001000011111110110000000000
Invited Nodes: 
Actions left: 3
Session index: 1
About to find best action in Step: 0
Values: 9.1785(endSession) 10.5521(query) 10.9572(invite)
Foind best action in Step: 0
Coolie

Action Type: 1
Active Nodes: 19 25 

Presence: 1111111111000001000011111110110000000000
Invited Nodes: 25 
Actions left: 2
Session index: 1

Observation: ..10
Reward -0
About to find best action in Step: 1
Values: 10.8735(endSession) 12.2553(query) 12.5014(invite)
Foind best action in Step: 1
Coolie

Action Type: 1
Active Nodes: 30 

Presence: 1111111111000001000011111110110000000000
Invited Nodes: 25 
Actions left: 1
Session index: 1

Observation: ..
Reward -0
About to find best action in Step: 2
Values: 11.9653(endSession) 12.1311(query) 11.9553(invite)
Foind best action in Step: 2
Coolie

Action Type: 0
Active Nodes: 1 21 

Presence: 1111111111000001000011111110110000000000
Invited Nodes: 25 
Actions left: 0
Session index: 1

Observation: ..11
Reward -0
About to find best action in Step: 3
Foind best action in Step: 3
Coolie

Action Type: 2

Presence: 0000000000000000000000000000000000000000
Invited Nodes: 25 
Actions left: 3
Session index: 2

Observation: ..
Reward 0
About to find best action in Step: 4
Values: 12.6893(endSession) 12.273(query) 12.1185(invite)
Foind best action in Step: 4
Coolie

Action Type: 2

Presence: 0000000000000000000000000000000000000000
Invited Nodes: 25 
Actions left: 3
Session index: 3

Observation: ..
Reward 0
About to find best action in Step: 5
Values: 10.7207(endSession) 11.9764(query) 12.3377(invite)
Foind best action in Step: 5
Coolie

Action Type: 1
Active Nodes: 37 

Presence: 0000000000000000000000000000000000000000
Invited Nodes: 25 
Actions left: 2
Session index: 3

Observation: ..
Reward -0
About to find best action in Step: 6
Values: 9.4835(endSession) 11.9361(query) 12.1087(invite)
Foind best action in Step: 6
Coolie

Action Type: 1
Active Nodes: 19 

Presence: 0000000000000000000000000000000000000000
Invited Nodes: 25 
Actions left: 1
Session index: 3

Observation: ..
Reward -0
About to find best action in Step: 7
Values: 9.976(endSession) 11.7971(query) 12.0541(invite)
Foind best action in Step: 7
Coolie

Action Type: 1
Active Nodes: 18 

Presence: 0000000000000000000000000000000000000000
Invited Nodes: 25 
Actions left: 0
Session index: 3

Observation: ..
Reward -0
About to find best action in Step: 8
Foind best action in Step: 8
Coolie

Action Type: 2

Presence: 0000000000000000000000000000000000000000
Invited Nodes: 25 
Actions left: 3
Session index: 4

Observation: ..
Reward 0
About to find best action in Step: 9
Values: 9.049(endSession) 11.7936(query) 11.8769(invite)
Foind best action in Step: 9
Coolie

Action Type: 1
Active Nodes: 30 

Presence: 0000000000000000000000000000000000000000
Invited Nodes: 25 
Actions left: 2
Session index: 4

Observation: ..
Reward -0
About to find best action in Step: 10
Values: 9.94(endSession) 11.3757(query) 11.9007(invite)
Foind best action in Step: 10
Coolie

Action Type: 1
Active Nodes: 3 

Presence: 0000000000000000000000000000000000000000
Invited Nodes: 25 
Actions left: 1
Session index: 4

Observation: ..
Reward -0
About to find best action in Step: 11
Values: 10.113(endSession) 11.8157(query) 11.4577(invite)
Foind best action in Step: 11
Coolie

Action Type: 0
Active Nodes: 4 29 

Presence: 0000000000000000000000000000000000000000
Invited Nodes: 25 
Actions left: 0
Session index: 4

Observation: ..
Reward -0
About to find best action in Step: 12
Foind best action in Step: 12
Coolie

Action Type: 2

Presence: 0000000000000000000010000000000000000000
Invited Nodes: 25 
Actions left: 3
Session index: 5

Observation: ..
Reward 0
About to find best action in Step: 13
Values: 9.582(endSession) 11.1374(query) 11.4221(invite)
Foind best action in Step: 13
Coolie

Action Type: 1
Active Nodes: 3 

Presence: 0000000000000000000010000000000000000000
Invited Nodes: 25 
Actions left: 2
Session index: 5

Observation: ..
Reward -0
About to find best action in Step: 14
Values: 10.441(endSession) 10.4253(query) 10.9572(invite)
Foind best action in Step: 14
Coolie

Action Type: 1
Active Nodes: 30 

Presence: 0000000000000000000010000000000000000000
Invited Nodes: 25 
Actions left: 1
Session index: 5

Observation: ..
Reward -0
About to find best action in Step: 15
Values: 9.14(endSession) 10.6454(query) 10.6888(invite)
Foind best action in Step: 15
Coolie

Action Type: 1
Active Nodes: 22 

Presence: 0000000000000000000010000000000000000000
Invited Nodes: 25 
Actions left: 0
Session index: 5

Observation: ..
Reward -0
About to find best action in Step: 16
Foind best action in Step: 16
Coolie

Action Type: 2

Presence: 1111111111111111111111111111111111111111
Invited Nodes: 25 
Actions left: 3
Session index: 6

Observation: ..
Reward 0
About to find best action in Step: 17
Values: 7.6405(endSession) 9.30544(query) 10.6267(invite)
Foind best action in Step: 17
Coolie

Action Type: 1
Active Nodes: 19 

Presence: 1111111111111111111111111111111111111111
Invited Nodes: 19 25 
Actions left: 2
Session index: 6

Observation: ..1
Reward -0
About to find best action in Step: 18
Foind best action in Step: 18
Coolie

Action Type: 2

Presence: 1101111111111111111101010111111111111111
Invited Nodes: 19 25 
Actions left: 3
Session index: 7

Observation: ..
Reward 14.1
Terminated
Discounted return = 14.1, average = 13.6865
Undiscounted return = 14.1, average = 13.6865
Starting run 3 with 1024 simulations... 

Presence: 0000000000000000000000000000000000000010
Invited Nodes: 
Actions left: 3
Session index: 1
About to find best action in Step: 0
Values: 9.7215(endSession) 10.1613(query) 10.7338(invite)
Foind best action in Step: 0
Coolie

Action Type: 1
Active Nodes: 3 30 

Presence: 0000000000000000000000000000000000000010
Invited Nodes: 
Actions left: 2
Session index: 1

Observation: ..
Reward -0
About to find best action in Step: 1
Values: 7.9965(endSession) 10.271(query) 10.152(invite)
Foind best action in Step: 1
Coolie

Action Type: 0
Active Nodes: 24 28 

Presence: 0000000000000000000000000000000000000010
Invited Nodes: 
Actions left: 1
Session index: 1

Observation: ..
Reward -0
About to find best action in Step: 2
Values: 9.626(endSession) 10.2563(query) 10.0652(invite)
Foind best action in Step: 2
Coolie

Action Type: 0
Active Nodes: 13 19 

Presence: 0000000000000000000000000000000000000010
Invited Nodes: 
Actions left: 0
Session index: 1

Observation: ..
Reward -0
About to find best action in Step: 3
Foind best action in Step: 3
Coolie

Action Type: 2

Presence: 1111111111111111111111111111111111111111
Invited Nodes: 
Actions left: 3
Session index: 2

Observation: ..
Reward 0
About to find best action in Step: 4
Values: 10.1(endSession) 10.0841(query) 10.4282(invite)
Foind best action in Step: 4
Coolie

Action Type: 1
Active Nodes: 0 31 

Presence: 1111111111111111111111111111111111111111
Invited Nodes: 0 31 
Actions left: 2
Session index: 2

Observation: ..11
Reward -0
About to find best action in Step: 5
Foind best action in Step: 5
Coolie

Action Type: 2

Presence: 0000000000000000000000000000000000000000
Invited Nodes: 0 31 
Actions left: 3
Session index: 3

Observation: ..
Reward 0
About to find best action in Step: 6
Foind best action in Step: 6
Coolie

Action Type: 2

Presence: 0000000000000000000000000000000000000000
Invited Nodes: 0 31 
Actions left: 3
Session index: 4

Observation: ..
Reward 0
About to find best action in Step: 7
Foind best action in Step: 7
Coolie

Action Type: 2

Presence: 0000000000000000000000000000000000000000
Invited Nodes: 0 31 
Actions left: 3
Session index: 5

Observation: ..
Reward 0
About to find best action in Step: 8
Foind best action in Step: 8
Coolie

Action Type: 2

Presence: 0000000000000000000000000000000000000000
Invited Nodes: 0 31 
Actions left: 3
Session index: 6

Observation: ..
Reward 0
About to find best action in Step: 9
Foind best action in Step: 9
Coolie

Action Type: 2

Presence: 0000000000000000000010000000000000000000
Invited Nodes: 0 31 
Actions left: 3
Session index: 7

Observation: ..
Reward 10.709
Terminated
Discounted return = 10.709, average = 12.694
Undiscounted return = 10.709, average = 12.694
Starting run 4 with 1024 simulations... 

Presence: 1111111111011111111101111111111111111111
Invited Nodes: 
Actions left: 3
Session index: 1
About to find best action in Step: 0
Values: 9.492(endSession) 10.43(query) 10.5718(invite)
Foind best action in Step: 0
Coolie

Action Type: 1
Active Nodes: 4 23 

Presence: 1111111111011111111101111111111111111111
Invited Nodes: 4 23 
Actions left: 2
Session index: 1

Observation: ..11
Reward -0
About to find best action in Step: 1
Foind best action in Step: 1
Coolie

Action Type: 2

Presence: 1111111111111111111101111111111111111111
Invited Nodes: 4 23 
Actions left: 3
Session index: 2

Observation: ..
Reward 0
About to find best action in Step: 2
Foind best action in Step: 2
Coolie

Action Type: 2

Presence: 0000000000000010000000000000000000000000
Invited Nodes: 4 23 
Actions left: 3
Session index: 3

Observation: ..
Reward 0
About to find best action in Step: 3
Foind best action in Step: 3
Coolie

Action Type: 2

Presence: 1011111111111111111111111110111111111111
Invited Nodes: 4 23 
Actions left: 3
Session index: 4

Observation: ..
Reward 0
About to find best action in Step: 4
Foind best action in Step: 4
Coolie

Action Type: 2

Presence: 1111111111111111111111111111111111111111
Invited Nodes: 4 23 
Actions left: 3
Session index: 5

Observation: ..
Reward 0
About to find best action in Step: 5
Foind best action in Step: 5
Coolie

Action Type: 2

Presence: 0000000000000000000000000000000000000000
Invited Nodes: 4 23 
Actions left: 3
Session index: 6

Observation: ..
Reward 0
About to find best action in Step: 6
Foind best action in Step: 6
Coolie

Action Type: 2

Presence: 1111111111011111111101111111111111111111
Invited Nodes: 4 23 
Actions left: 3
Session index: 7

Observation: ..
Reward 13.394
Terminated
Discounted return = 13.394, average = 12.869
Undiscounted return = 13.394, average = 12.869
Starting run 5 with 1024 simulations... 

Presence: 0000000000000000000000000000000000000000
Invited Nodes: 
Actions left: 3
Session index: 1
About to find best action in Step: 0
Values: 7.703(endSession) 10.3842(query) 11.4064(invite)
Foind best action in Step: 0
Coolie

Action Type: 1
Active Nodes: 4 30 

Presence: 0000000000000000000000000000000000000000
Invited Nodes: 
Actions left: 2
Session index: 1

Observation: ..
Reward -0
About to find best action in Step: 1
Values: 11.5075(endSession) 10.0629(query) 10.4613(invite)
Foind best action in Step: 1
Coolie

Action Type: 2

Presence: 1111111111111111111111111111111111111111
Invited Nodes: 
Actions left: 3
Session index: 2

Observation: ..
Reward 0
About to find best action in Step: 2
Values: 7.4205(endSession) 10.0709(query) 10.4529(invite)
Foind best action in Step: 2
Coolie

Action Type: 1
Active Nodes: 8 30 

Presence: 1111111111111111111111111111111111111111
Invited Nodes: 8 30 
Actions left: 2
Session index: 2

Observation: ..11
Reward -0
About to find best action in Step: 3
Foind best action in Step: 3
Coolie

Action Type: 2

Presence: 0010000000100000000000000000000000000000
Invited Nodes: 8 30 
Actions left: 3
Session index: 3

Observation: ..
Reward 0
About to find best action in Step: 4
Foind best action in Step: 4
Coolie

Action Type: 2

Presence: 1111111111000000000011111110110000000000
Invited Nodes: 8 30 
Actions left: 3
Session index: 4

Observation: ..
Reward 0
About to find best action in Step: 5
Foind best action in Step: 5
Coolie

Action Type: 2

Presence: 1111111111111111111111111111111111011111
Invited Nodes: 8 30 
Actions left: 3
Session index: 5

Observation: ..
Reward 0
About to find best action in Step: 6
Foind best action in Step: 6
Coolie

Action Type: 2

Presence: 0000000000000000000000000000000000000000
Invited Nodes: 8 30 
Actions left: 3
Session index: 6

Observation: ..
Reward 0
About to find best action in Step: 7
Foind best action in Step: 7
Coolie

Action Type: 2

Presence: 0000000000000000000000000000000000000000
Invited Nodes: 8 30 
Actions left: 3
Session index: 7

Observation: ..
Reward 13.382
Terminated
Discounted return = 13.382, average = 12.9716
Undiscounted return = 13.382, average = 12.9716
Starting run 6 with 1024 simulations... 

Presence: 0000000000000000000000000000000000000000
Invited Nodes: 
Actions left: 3
Session index: 1
About to find best action in Step: 0
Values: 8.127(endSession) 10.3552(query) 10.2691(invite)
Foind best action in Step: 0
Coolie

Action Type: 0
Active Nodes: 1 12 

Presence: 0000000000000000000000000000000000000000
Invited Nodes: 
Actions left: 2
Session index: 1

Observation: ..
Reward -0
About to find best action in Step: 1
Values: 11.6885(endSession) 10.1385(query) 10.8209(invite)
Foind best action in Step: 1
Coolie

Action Type: 2

Presence: 1111111111111111111111111111111111111111
Invited Nodes: 
Actions left: 3
Session index: 2

Observation: ..
Reward 0
About to find best action in Step: 2
Values: 10.8675(endSession) 10.0661(query) 10.514(invite)
Foind best action in Step: 2
Coolie

Action Type: 2

Presence: 1101101111111111111111111111111111111111
Invited Nodes: 
Actions left: 3
Session index: 3

Observation: ..
Reward 0
About to find best action in Step: 3
Values: 8.028(endSession) 10.0029(query) 10.4678(invite)
Foind best action in Step: 3
Coolie

Action Type: 1
Active Nodes: 17 25 

Presence: 1101101111111111111111111111111111111111
Invited Nodes: 17 25 
Actions left: 2
Session index: 3

Observation: ..11
Reward -0
About to find best action in Step: 4
Foind best action in Step: 4
Coolie

Action Type: 2

Presence: 0000000000000000000000000000000000000000
Invited Nodes: 17 25 
Actions left: 3
Session index: 4

Observation: ..
Reward 0
About to find best action in Step: 5
Foind best action in Step: 5
Coolie

Action Type: 2

Presence: 0000000000000000000000000000000000000000
Invited Nodes: 17 25 
Actions left: 3
Session index: 5

Observation: ..
Reward 0
About to find best action in Step: 6
Foind best action in Step: 6
Coolie

Action Type: 2

Presence: 1111111111111111111101111111111111111111
Invited Nodes: 17 25 
Actions left: 3
Session index: 6

Observation: ..
Reward 0
About to find best action in Step: 7
Foind best action in Step: 7
Coolie

Action Type: 2

Presence: 0000000000000000000000000000000000000000
Invited Nodes: 17 25 
Actions left: 3
Session index: 7

Observation: ..
Reward 13.027
Terminated
Discounted return = 13.027, average = 12.9808
Undiscounted return = 13.027, average = 12.9808
Starting run 7 with 1024 simulations... 

Presence: 0000000000100000000000000000000000000000
Invited Nodes: 
Actions left: 3
Session index: 1
About to find best action in Step: 0
Values: 7.392(endSession) 10.4491(query) 11.0679(invite)
Foind best action in Step: 0
Coolie

Action Type: 1
Active Nodes: 4 37 

Presence: 0000000000100000000000000000000000000000
Invited Nodes: 
Actions left: 2
Session index: 1

Observation: ..
Reward -0
About to find best action in Step: 1
Values: 8.579(endSession) 10.1264(query) 10.3427(invite)
Foind best action in Step: 1
Coolie

Action Type: 1
Active Nodes: 19 30 

Presence: 0000000000100000000000000000000000000000
Invited Nodes: 
Actions left: 1
Session index: 1

Observation: ..
Reward -0
About to find best action in Step: 2
Values: 11.109(endSession) 10.1983(query) 10.519(invite)
Foind best action in Step: 2
Coolie

Action Type: 2

Presence: 0000000000000010000000000000000000000000
Invited Nodes: 
Actions left: 3
Session index: 2

Observation: ..
Reward 0
About to find best action in Step: 3
Values: 7.943(endSession) 10.4159(query) 10.3435(invite)
Foind best action in Step: 3
Coolie

Action Type: 0
Active Nodes: 0 34 

Presence: 0000000000000010000000000000000000000000
Invited Nodes: 
Actions left: 2
Session index: 2

Observation: ..
Reward -0
About to find best action in Step: 4
Values: 9.2195(endSession) 10.1095(query) 10.7302(invite)
Foind best action in Step: 4
Coolie

Action Type: 1
Active Nodes: 25 37 

Presence: 0000000000000010000000000000000000000000
Invited Nodes: 
Actions left: 1
Session index: 2

Observation: ..
Reward -0
About to find best action in Step: 5
Values: 7.994(endSession) 10.1156(query) 9.90898(invite)
Foind best action in Step: 5
Coolie

Action Type: 0
Active Nodes: 11 13 

Presence: 0000000000000010000000000000000000000000
Invited Nodes: 
Actions left: 0
Session index: 2

Observation: ..
Reward -0
About to find best action in Step: 6
Foind best action in Step: 6
Coolie

Action Type: 2

Presence: 0000000000000000000000001000000000000000
Invited Nodes: 
Actions left: 3
Session index: 3

Observation: ..
Reward 0
About to find best action in Step: 7
Values: 9.371(endSession) 9.83151(query) 10.2591(invite)
Foind best action in Step: 7
Coolie

Action Type: 1
Active Nodes: 4 29 

Presence: 0000000000000000000000001000000000000000
Invited Nodes: 
Actions left: 2
Session index: 3

Observation: ..
Reward -0
About to find best action in Step: 8
Values: 5.594(endSession) 9.83039(query) 9.70167(invite)
Foind best action in Step: 8
Coolie

Action Type: 0
Active Nodes: 4 29 

Presence: 0000000000000000000000001000000000000000
Invited Nodes: 
Actions left: 1
Session index: 3

Observation: ..
Reward -0
About to find best action in Step: 9
Values: 10.7485(endSession) 9.60609(query) 9.77623(invite)
Foind best action in Step: 9
Coolie

Action Type: 2

Presence: 1111111111111111111111111101111111111111
Invited Nodes: 
Actions left: 3
Session index: 4

Observation: ..
Reward 0
About to find best action in Step: 10
Values: 8.4335(endSession) 9.46577(query) 9.94507(invite)
Foind best action in Step: 10
Coolie

Action Type: 1
Active Nodes: 25 37 

Presence: 1111111111111111111111111101111111111111
Invited Nodes: 25 37 
Actions left: 2
Session index: 4

Observation: ..11
Reward -0
About to find best action in Step: 11
Foind best action in Step: 11
Coolie

Action Type: 2

Presence: 1111111111111111111111111110111111111111
Invited Nodes: 25 37 
Actions left: 3
Session index: 5

Observation: ..
Reward 0
About to find best action in Step: 12
Foind best action in Step: 12
Coolie

Action Type: 2

Presence: 0000000000000000000000000000000000000000
Invited Nodes: 25 37 
Actions left: 3
Session index: 6

Observation: ..
Reward 0
About to find best action in Step: 13
Foind best action in Step: 13
Coolie

Action Type: 2

Presence: 1111111111111111111101110111111111111111
Invited Nodes: 25 37 
Actions left: 3
Session index: 7

Observation: ..
Reward 14.633
Terminated
Discounted return = 14.633, average = 13.2169
Undiscounted return = 14.633, average = 13.2169
Starting run 8 with 1024 simulations... 

Presence: 1111111111111111111111111111111111111111
Invited Nodes: 
Actions left: 3
Session index: 1
About to find best action in Step: 0
Values: 11.2535(endSession) 10.0942(query) 10.506(invite)
Foind best action in Step: 0
Coolie

Action Type: 2

Presence: 1111111111111111111101111111111111111111
Invited Nodes: 
Actions left: 3
Session index: 2

Observation: ..
Reward 0
About to find best action in Step: 1
Values: 10.1505(endSession) 10.0298(query) 10.8002(invite)
Foind best action in Step: 1
Coolie

Action Type: 1
Active Nodes: 25 30 

Presence: 1111111111111111111101111111111111111111
Invited Nodes: 25 30 
Actions left: 2
Session index: 2

Observation: ..11
Reward -0
About to find best action in Step: 2
Foind best action in Step: 2
Coolie

Action Type: 2

Presence: 1111111111111111111111111111111111111111
Invited Nodes: 25 30 
Actions left: 3
Session index: 3

Observation: ..
Reward 0
About to find best action in Step: 3
Foind best action in Step: 3
Coolie

Action Type: 2

Presence: 1111111111111111111111111111111111111111
Invited Nodes: 25 30 
Actions left: 3
Session index: 4

Observation: ..
Reward 0
About to find best action in Step: 4
Foind best action in Step: 4
Coolie

Action Type: 2

Presence: 0000000000000000000000000000000000000000
Invited Nodes: 25 30 
Actions left: 3
Session index: 5

Observation: ..
Reward 0
About to find best action in Step: 5
Foind best action in Step: 5
Coolie

Action Type: 2

Presence: 1111111111111111111111111111111111111111
Invited Nodes: 25 30 
Actions left: 3
Session index: 6

Observation: ..
Reward 0
About to find best action in Step: 6
Foind best action in Step: 6
Coolie

Action Type: 2

Presence: 1111111111111111111101111111111111111111
Invited Nodes: 25 30 
Actions left: 3
Session index: 7

Observation: ..
Reward 14.73
Terminated
Discounted return = 14.73, average = 13.406
Undiscounted return = 14.73, average = 13.406
Starting run 9 with 1024 simulations... 

Presence: 1111111111111111111111111111111100011111
Invited Nodes: 
Actions left: 3
Session index: 1
About to find best action in Step: 0
Values: 9.701(endSession) 10.4359(query) 10.62(invite)
Foind best action in Step: 0
Coolie

Action Type: 1
Active Nodes: 25 37 

Presence: 1111111111111111111111111111111100011111
Invited Nodes: 25 37 
Actions left: 2
Session index: 1

Observation: ..11
Reward -0
About to find best action in Step: 1
Foind best action in Step: 1
Coolie

Action Type: 2

Presence: 0000000000000000000000000000000000000000
Invited Nodes: 25 37 
Actions left: 3
Session index: 2

Observation: ..
Reward 0
About to find best action in Step: 2
Foind best action in Step: 2
Coolie

Action Type: 2

Presence: 1111111111111111111111111111111111111111
Invited Nodes: 25 37 
Actions left: 3
Session index: 3

Observation: ..
Reward 0
About to find best action in Step: 3
Foind best action in Step: 3
Coolie

Action Type: 2

Presence: 1111111111111111111111111111111111111111
Invited Nodes: 25 37 
Actions left: 3
Session index: 4

Observation: ..
Reward 0
About to find best action in Step: 4
Foind best action in Step: 4
Coolie

Action Type: 2

Presence: 0000000000000000000000000000000000000000
Invited Nodes: 25 37 
Actions left: 3
Session index: 5

Observation: ..
Reward 0
About to find best action in Step: 5
Foind best action in Step: 5
Coolie

Action Type: 2

Presence: 0010000001000000000010000000000000000000
Invited Nodes: 25 37 
Actions left: 3
Session index: 6

Observation: ..
Reward 0
About to find best action in Step: 6
Foind best action in Step: 6
Coolie

Action Type: 2

Presence: 1111111111111111111111111111111111111111
Invited Nodes: 25 37 
Actions left: 3
Session index: 7

Observation: ..
Reward 14.478
Terminated
Discounted return = 14.478, average = 13.5251
Undiscounted return = 14.478, average = 13.5251
Starting run 10 with 1024 simulations... 

Presence: 0010000000000000000000000000000000000000
Invited Nodes: 
Actions left: 3
Session index: 1
About to find best action in Step: 0
Values: 11.8525(endSession) 10.2153(query) 10.6208(invite)
Foind best action in Step: 0
Coolie

Action Type: 2

Presence: 1111111111111111111111111111111111111111
Invited Nodes: 
Actions left: 3
Session index: 2

Observation: ..
Reward 0
About to find best action in Step: 1
Values: 9.0265(endSession) 10.2998(query) 10.397(invite)
Foind best action in Step: 1
Coolie

Action Type: 1
Active Nodes: 25 39 

Presence: 1111111111111111111111111111111111111111
Invited Nodes: 25 39 
Actions left: 2
Session index: 2

Observation: ..11
Reward -0
About to find best action in Step: 2
Foind best action in Step: 2
Coolie

Action Type: 2

Presence: 0000000000000000000000001000000000000000
Invited Nodes: 25 39 
Actions left: 3
Session index: 3

Observation: ..
Reward 0
About to find best action in Step: 3
Foind best action in Step: 3
Coolie

Action Type: 2

Presence: 1111111111111111111111111111111111111111
Invited Nodes: 25 39 
Actions left: 3
Session index: 4

Observation: ..
Reward 0
About to find best action in Step: 4
Foind best action in Step: 4
Coolie

Action Type: 2

Presence: 1111111111111111111111111111111111111111
Invited Nodes: 25 39 
Actions left: 3
Session index: 5

Observation: ..
Reward 0
About to find best action in Step: 5
Foind best action in Step: 5
Coolie

Action Type: 2

Presence: 0000000000000000000010000000000000000000
Invited Nodes: 25 39 
Actions left: 3
Session index: 6

Observation: ..
Reward 0
About to find best action in Step: 6
Foind best action in Step: 6
Coolie

Action Type: 2

Presence: 1111111111111111111111111111111111111111
Invited Nodes: 25 39 
Actions left: 3
Session index: 7

Observation: ..
Reward 13.667
Terminated
Discounted return = 13.667, average = 13.5393
Undiscounted return = 13.667, average = 13.5393
Starting run 11 with 1024 simulations... 

Presence: 1111111111111111111111111111111111111111
Invited Nodes: 
Actions left: 3
Session index: 1
About to find best action in Step: 0
Values: 8.26(endSession) 10.4171(query) 10.4753(invite)
Foind best action in Step: 0
Coolie

Action Type: 1
Active Nodes: 17 37 

Presence: 1111111111111111111111111111111111111111
Invited Nodes: 17 37 
Actions left: 2
Session index: 1

Observation: ..11
Reward -0
About to find best action in Step: 1
Foind best action in Step: 1
Coolie

Action Type: 2

Presence: 0000000000000000000000000000000000000000
Invited Nodes: 17 37 
Actions left: 3
Session index: 2

Observation: ..
Reward 0
About to find best action in Step: 2
Foind best action in Step: 2
Coolie

Action Type: 2

Presence: 0000000000100000000000000000000000000000
Invited Nodes: 17 37 
Actions left: 3
Session index: 3

Observation: ..
Reward 0
About to find best action in Step: 3
Foind best action in Step: 3
Coolie

Action Type: 2

Presence: 0000000000000000000000000000000000000000
Invited Nodes: 17 37 
Actions left: 3
Session index: 4

Observation: ..
Reward 0
About to find best action in Step: 4
Foind best action in Step: 4
Coolie

Action Type: 2

Presence: 1111111111111111111111111111111111111111
Invited Nodes: 17 37 
Actions left: 3
Session index: 5

Observation: ..
Reward 0
About to find best action in Step: 5
Foind best action in Step: 5
Coolie

Action Type: 2

Presence: 1111111111111111111111111111111111111111
Invited Nodes: 17 37 
Actions left: 3
Session index: 6

Observation: ..
Reward 0
About to find best action in Step: 6
Foind best action in Step: 6
Coolie

Action Type: 2

Presence: 0000000000000010000000000000000000000000
Invited Nodes: 17 37 
Actions left: 3
Session index: 7

Observation: ..
Reward 11.156
Terminated
Discounted return = 11.156, average = 13.3226
Undiscounted return = 11.156, average = 13.3226
Starting run 12 with 1024 simulations... 

Presence: 1111111111111111111111110111111101111111
Invited Nodes: 
Actions left: 3
Session index: 1
About to find best action in Step: 0
Values: 10.9735(endSession) 10.2762(query) 10.2592(invite)
Foind best action in Step: 0
Coolie

Action Type: 2

Presence: 1111111111111111111101110111111111111111
Invited Nodes: 
Actions left: 3
Session index: 2

Observation: ..
Reward 0
About to find best action in Step: 1
Values: 11.8665(endSession) 10.3042(query) 10.5506(invite)
Foind best action in Step: 1
Coolie

Action Type: 2

Presence: 1111111111111111111111111111111111111111
Invited Nodes: 
Actions left: 3
Session index: 3

Observation: ..
Reward 0
About to find best action in Step: 2
Values: 9.399(endSession) 10.0117(query) 10.0703(invite)
Foind best action in Step: 2
Coolie

Action Type: 1
Active Nodes: 25 35 

Presence: 1111111111111111111111111111111111111111
Invited Nodes: 25 35 
Actions left: 2
Session index: 3

Observation: ..11
Reward -0
About to find best action in Step: 3
Foind best action in Step: 3
Coolie

Action Type: 2

Presence: 0000000000000000000000000000000000000000
Invited Nodes: 25 35 
Actions left: 3
Session index: 4

Observation: ..
Reward 0
About to find best action in Step: 4
Foind best action in Step: 4
Coolie

Action Type: 2

Presence: 0000000000000000000000000000000000000000
Invited Nodes: 25 35 
Actions left: 3
Session index: 5

Observation: ..
Reward 0
About to find best action in Step: 5
Foind best action in Step: 5
Coolie

Action Type: 2

Presence: 0000000000000000000000000000000000000000
Invited Nodes: 25 35 
Actions left: 3
Session index: 6

Observation: ..
Reward 0
About to find best action in Step: 6
Foind best action in Step: 6
Coolie

Action Type: 2

Presence: 0000000000000000000010000000000000000000
Invited Nodes: 25 35 
Actions left: 3
Session index: 7

Observation: ..
Reward 13.082
Terminated
Discounted return = 13.082, average = 13.3026
Undiscounted return = 13.082, average = 13.3026
Starting run 13 with 1024 simulations... 

Presence: 0000000000000000000000000010000000000000
Invited Nodes: 
Actions left: 3
Session index: 1
About to find best action in Step: 0
Values: 10.782(endSession) 10.3198(query) 10.7733(invite)
Foind best action in Step: 0
Coolie

Action Type: 2

Presence: 1111111111111111111111111111111111111111
Invited Nodes: 
Actions left: 3
Session index: 2

Observation: ..
Reward 0
About to find best action in Step: 1
Values: 8.938(endSession) 10.4948(query) 10.5386(invite)
Foind best action in Step: 1
Coolie

Action Type: 1
Active Nodes: 0 30 

Presence: 1111111111111111111111111111111111111111
Invited Nodes: 0 30 
Actions left: 2
Session index: 2

Observation: ..11
Reward -0
About to find best action in Step: 2
Foind best action in Step: 2
Coolie

Action Type: 2

Presence: 0000000000000000000010001000000000000000
Invited Nodes: 0 30 
Actions left: 3
Session index: 3

Observation: ..
Reward 0
About to find best action in Step: 3
Foind best action in Step: 3
Coolie

Action Type: 2

Presence: 0010000000000000000000100000000000000000
Invited Nodes: 0 30 
Actions left: 3
Session index: 4

Observation: ..
Reward 0
About to find best action in Step: 4
Foind best action in Step: 4
Coolie

Action Type: 2

Presence: 1111111111111111111111111111111111111111
Invited Nodes: 0 30 
Actions left: 3
Session index: 5

Observation: ..
Reward 0
About to find best action in Step: 5
Foind best action in Step: 5
Coolie

Action Type: 2

Presence: 0000000000000000000000000000000000000000
Invited Nodes: 0 30 
Actions left: 3
Session index: 6

Observation: ..
Reward 0
About to find best action in Step: 6
Foind best action in Step: 6
Coolie

Action Type: 2

Presence: 1111111111111111111111111111111111111111
Invited Nodes: 0 30 
Actions left: 3
Session index: 7

Observation: ..
Reward 13.409
Terminated
Discounted return = 13.409, average = 13.3108
Undiscounted return = 13.409, average = 13.3108
Starting run 14 with 1024 simulations... 

Presence: 1111111111111111111111111111111111111111
Invited Nodes: 
Actions left: 3
Session index: 1
About to find best action in Step: 0
Values: 7.745(endSession) 10.4774(query) 10.7449(invite)
Foind best action in Step: 0
Coolie

Action Type: 1
Active Nodes: 25 30 

Presence: 1111111111111111111111111111111111111111
Invited Nodes: 25 30 
Actions left: 2
Session index: 1

Observation: ..11
Reward -0
About to find best action in Step: 1
Foind best action in Step: 1
Coolie

Action Type: 2

Presence: 0000000000000000000000000000100000100000
Invited Nodes: 25 30 
Actions left: 3
Session index: 2

Observation: ..
Reward 0
About to find best action in Step: 2
Foind best action in Step: 2
Coolie

Action Type: 2

Presence: 1111111111111111111111011111111111111111
Invited Nodes: 25 30 
Actions left: 3
Session index: 3

Observation: ..
Reward 0
About to find best action in Step: 3
Foind best action in Step: 3
Coolie

Action Type: 2

Presence: 1101111111111111111111111111111111111111
Invited Nodes: 25 30 
Actions left: 3
Session index: 4

Observation: ..
Reward 0
About to find best action in Step: 4
Foind best action in Step: 4
Coolie

Action Type: 2

Presence: 1111111111111111111101111111111111111111
Invited Nodes: 25 30 
Actions left: 3
Session index: 5

Observation: ..
Reward 0
About to find best action in Step: 5
Foind best action in Step: 5
Coolie

Action Type: 2

Presence: 1111111111111111111111111111111111111111
Invited Nodes: 25 30 
Actions left: 3
Session index: 6

Observation: ..
Reward 0
About to find best action in Step: 6
Foind best action in Step: 6
Coolie

Action Type: 2

Presence: 0000000000000000000000000000000000000000
Invited Nodes: 25 30 
Actions left: 3
Session index: 7

Observation: ..
Reward 14.71
Terminated
Discounted return = 14.71, average = 13.4107
Undiscounted return = 14.71, average = 13.4107
Starting run 15 with 1024 simulations... 

Presence: 1111111111111111111111111111111111111111
Invited Nodes: 
Actions left: 3
Session index: 1
About to find best action in Step: 0
Values: 10.989(endSession) 10.2571(query) 10.7439(invite)
Foind best action in Step: 0
Coolie

Action Type: 2

Presence: 0000000000000000000000000000000000000000
Invited Nodes: 
Actions left: 3
Session index: 2

Observation: ..
Reward 0
About to find best action in Step: 1
Values: 10.0585(endSession) 10.1813(query) 10.4279(invite)
Foind best action in Step: 1
Coolie

Action Type: 1
Active Nodes: 25 37 

Presence: 0000000000000000000000000000000000000000
Invited Nodes: 
Actions left: 2
Session index: 2

Observation: ..
Reward -0
About to find best action in Step: 2
Values: 8.8495(endSession) 10.1627(query) 10.0318(invite)
Foind best action in Step: 2
Coolie

Action Type: 0
Active Nodes: 11 18 

Presence: 0000000000000000000000000000000000000000
Invited Nodes: 
Actions left: 1
Session index: 2

Observation: ..
Reward -0
About to find best action in Step: 3
Values: 9.931(endSession) 10.4277(query) 9.97312(invite)
Foind best action in Step: 3
Coolie

Action Type: 0
Active Nodes: 23 29 

Presence: 0000000000000000000000000000000000000000
Invited Nodes: 
Actions left: 0
Session index: 2

Observation: ..
Reward -0
About to find best action in Step: 4
Foind best action in Step: 4
Coolie

Action Type: 2

Presence: 1111111111111111111101110111111111111111
Invited Nodes: 
Actions left: 3
Session index: 3

Observation: ..
Reward 0
About to find best action in Step: 5
Values: 11.5495(endSession) 9.83725(query) 10.3907(invite)
Foind best action in Step: 5
Coolie

Action Type: 2

Presence: 1111111111111111111111111101111111111111
Invited Nodes: 
Actions left: 3
Session index: 4

Observation: ..
Reward 0
About to find best action in Step: 6
Values: 9.2905(endSession) 9.57121(query) 9.93088(invite)
Foind best action in Step: 6
Coolie

Action Type: 1
Active Nodes: 8 25 

Presence: 1111111111111111111111111101111111111111
Invited Nodes: 8 25 
Actions left: 2
Session index: 4

Observation: ..11
Reward -0
About to find best action in Step: 7
Foind best action in Step: 7
Coolie

Action Type: 2

Presence: 1111111111111111111111111111111111111111
Invited Nodes: 8 25 
Actions left: 3
Session index: 5

Observation: ..
Reward 0
About to find best action in Step: 8
Foind best action in Step: 8
Coolie

Action Type: 2

Presence: 0000000000000000000000000000000000000000
Invited Nodes: 8 25 
Actions left: 3
Session index: 6

Observation: ..
Reward 0
About to find best action in Step: 9
Foind best action in Step: 9
Coolie

Action Type: 2

Presence: 1111111111111111111111111111111111111111
Invited Nodes: 8 25 
Actions left: 3
Session index: 7

Observation: ..
Reward 11.653
Terminated
Discounted return = 11.653, average = 13.2935
Undiscounted return = 11.653, average = 13.2935
Starting run 16 with 1024 simulations... 

Presence: 1111111111111111111111111111110111110110
Invited Nodes: 
Actions left: 3
Session index: 1
About to find best action in Step: 0
Values: 9.4385(endSession) 10.3255(query) 10.6374(invite)
Foind best action in Step: 0
Coolie

Action Type: 1
Active Nodes: 4 29 

Presence: 1111111111111111111111111111110111110110
Invited Nodes: 4 29 
Actions left: 2
Session index: 1

Observation: ..11
Reward -0
About to find best action in Step: 1
Foind best action in Step: 1
Coolie

Action Type: 2

Presence: 0000000000000000000000000000000000000000
Invited Nodes: 4 29 
Actions left: 3
Session index: 2

Observation: ..
Reward 0
About to find best action in Step: 2
Foind best action in Step: 2
Coolie

Action Type: 2

Presence: 1111111111111111111101111111111111111111
Invited Nodes: 4 29 
Actions left: 3
Session index: 3

Observation: ..
Reward 0
About to find best action in Step: 3
Foind best action in Step: 3
Coolie

Action Type: 2

Presence: 0000000000000000000000000000000000000000
Invited Nodes: 4 29 
Actions left: 3
Session index: 4

Observation: ..
Reward 0
About to find best action in Step: 4
Foind best action in Step: 4
Coolie

Action Type: 2

Presence: 1111111111111111111111111111111111111111
Invited Nodes: 4 29 
Actions left: 3
Session index: 5

Observation: ..
Reward 0
About to find best action in Step: 5
Foind best action in Step: 5
Coolie

Action Type: 2

Presence: 1101111111111111111111111111111111111111
Invited Nodes: 4 29 
Actions left: 3
Session index: 6

Observation: ..
Reward 0
About to find best action in Step: 6
Foind best action in Step: 6
Coolie

Action Type: 2

Presence: 0000000000000000000010000000000000000000
Invited Nodes: 4 29 
Actions left: 3
Session index: 7

Observation: ..
Reward 12.753
Terminated
Discounted return = 12.753, average = 13.2597
Undiscounted return = 12.753, average = 13.2597
Starting run 17 with 1024 simulations... 

Presence: 0000000000000000000000000000000000000000
Invited Nodes: 
Actions left: 3
Session index: 1
About to find best action in Step: 0
Values: 11.6405(endSession) 10.2729(query) 10.346(invite)
Foind best action in Step: 0
Coolie

Action Type: 2

Presence: 0000000000000000000000000000000000000000
Invited Nodes: 
Actions left: 3
Session index: 2

Observation: ..
Reward 0
About to find best action in Step: 1
Values: 8.953(endSession) 9.8576(query) 10.3017(invite)
Foind best action in Step: 1
Coolie

Action Type: 1
Active Nodes: 4 37 

Presence: 0000000000000000000000000000000000000000
Invited Nodes: 
Actions left: 2
Session index: 2

Observation: ..
Reward -0
About to find best action in Step: 2
Values: 9.416(endSession) 9.85258(query) 10.073(invite)
Foind best action in Step: 2
Coolie

Action Type: 1
Active Nodes: 0 8 

Presence: 0000000000000000000000000000000000000000
Invited Nodes: 
Actions left: 1
Session index: 2

Observation: ..
Reward -0
About to find best action in Step: 3
Values: 5.4065(endSession) 9.93625(query) 9.84629(invite)
Foind best action in Step: 3
Coolie

Action Type: 0
Active Nodes: 0 9 

Presence: 0000000000000000000000000000000000000000
Invited Nodes: 
Actions left: 0
Session index: 2

Observation: ..
Reward -0
About to find best action in Step: 4
Foind best action in Step: 4
Coolie

Action Type: 2

Presence: 0000000000100000000000000000000000000000
Invited Nodes: 
Actions left: 3
Session index: 3

Observation: ..
Reward 0
About to find best action in Step: 5
Values: 7.207(endSession) 9.74301(query) 10.084(invite)
Foind best action in Step: 5
Coolie

Action Type: 1
Active Nodes: 17 29 

Presence: 0000000000100000000000000000000000000000
Invited Nodes: 
Actions left: 2
Session index: 3

Observation: ..
Reward -0
About to find best action in Step: 6
Values: 10.142(endSession) 9.8663(query) 9.92069(invite)
Foind best action in Step: 6
Coolie

Action Type: 2

Presence: 0000000000000000000000000000000000000000
Invited Nodes: 
Actions left: 3
Session index: 4

Observation: ..
Reward 0
About to find best action in Step: 7
Values: 11.2965(endSession) 9.37306(query) 9.61121(invite)
Foind best action in Step: 7
Coolie

Action Type: 2

Presence: 1111111111111111111111111111111111111111
Invited Nodes: 
Actions left: 3
Session index: 5

Observation: ..
Reward 0
About to find best action in Step: 8
Values: 0(endSession) 8.51465(query) 9.20302(invite)
Foind best action in Step: 8
Coolie

Action Type: 1
Active Nodes: 25 37 

Presence: 1111111111111111111111111111111111111111
Invited Nodes: 25 37 
Actions left: 2
Session index: 5

Observation: ..11
Reward -0
About to find best action in Step: 9
Foind best action in Step: 9
Coolie

Action Type: 2

Presence: 0000000000000100000000000000000000000000
Invited Nodes: 25 37 
Actions left: 3
Session index: 6

Observation: ..
Reward 0
About to find best action in Step: 10
Foind best action in Step: 10
Coolie

Action Type: 2

Presence: 1111111111111111111111111111111100011111
Invited Nodes: 25 37 
Actions left: 3
Session index: 7

Observation: ..
Reward 14.677
Terminated
Discounted return = 14.677, average = 13.3431
Undiscounted return = 14.677, average = 13.3431
Starting run 18 with 1024 simulations... 

Presence: 1111111011111111111111111111111111111111
Invited Nodes: 
Actions left: 3
Session index: 1
About to find best action in Step: 0
Values: 10.6735(endSession) 10.1362(query) 10.6257(invite)
Foind best action in Step: 0
Coolie

Action Type: 2

Presence: 0000000000100000000010000000000000000000
Invited Nodes: 
Actions left: 3
Session index: 2

Observation: ..
Reward 0
About to find best action in Step: 1
Values: 8.416(endSession) 10.0487(query) 10.7337(invite)
Foind best action in Step: 1
Coolie

Action Type: 1
Active Nodes: 3 29 

Presence: 0000000000100000000010000000000000000000
Invited Nodes: 
Actions left: 2
Session index: 2

Observation: ..
Reward -0
About to find best action in Step: 2
Values: 10.3095(endSession) 9.91992(query) 10.0586(invite)
Foind best action in Step: 2
Coolie

Action Type: 2

Presence: 0000000000000000000000000000000000000000
Invited Nodes: 
Actions left: 3
Session index: 3

Observation: ..
Reward 0
About to find best action in Step: 3
Values: 9.1425(endSession) 9.75008(query) 10.4628(invite)
Foind best action in Step: 3
Coolie

Action Type: 1
Active Nodes: 25 37 

Presence: 0000000000000000000000000000000000000000
Invited Nodes: 
Actions left: 2
Session index: 3

Observation: ..
Reward -0
About to find best action in Step: 4
Values: 10.216(endSession) 9.65775(query) 9.89033(invite)
Foind best action in Step: 4
Coolie

Action Type: 2

Presence: 1111111111111111111101111111111111111111
Invited Nodes: 
Actions left: 3
Session index: 4

Observation: ..
Reward 0
About to find best action in Step: 5
Values: 9.7845(endSession) 9.01515(query) 9.66943(invite)
Foind best action in Step: 5
Coolie

Action Type: 2

Presence: 1111111111111111111101110111111111111111
Invited Nodes: 
Actions left: 3
Session index: 5

Observation: ..
Reward 0
About to find best action in Step: 6
Values: 9.2235(endSession) 8.62788(query) 8.92058(invite)
Foind best action in Step: 6
Coolie

Action Type: 2

Presence: 0000000000000000000010000000000000000000
Invited Nodes: 
Actions left: 3
Session index: 6

Observation: ..
Reward 0
About to find best action in Step: 7
Values: 0(endSession) 5.23351(query) 7.03548(invite)
Foind best action in Step: 7
Coolie

Action Type: 1
Active Nodes: 4 22 

Presence: 0000000000000000000010000000000000000000
Invited Nodes: 
Actions left: 2
Session index: 6

Observation: ..
Reward -0
About to find best action in Step: 8
Values: 0(endSession) 1.20051(query) 4.64966(invite)
Foind best action in Step: 8
Coolie

Action Type: 1
Active Nodes: 13 37 

Presence: 0000000000000000000010000000000000000000
Invited Nodes: 
Actions left: 1
Session index: 6

Observation: ..
Reward -0
About to find best action in Step: 9
Values: 0(endSession) 0(query) 2.57981(invite)
Foind best action in Step: 9
Coolie

Action Type: 1
Active Nodes: 25 34 

Presence: 0000000000000000000010000000000000000000
Invited Nodes: 
Actions left: 0
Session index: 6

Observation: ..
Reward -0
About to find best action in Step: 10
Foind best action in Step: 10
Coolie

Action Type: 2

Presence: 1111111111111111111111111111111111111111
Invited Nodes: 
Actions left: 3
Session index: 7

Observation: ..
Reward 0
Terminated
Discounted return = 0, average = 12.6018
Undiscounted return = 0, average = 12.6018
Starting run 19 with 1024 simulations... 

Presence: 0000000000000000000000000000000000000000
Invited Nodes: 
Actions left: 3
Session index: 1
About to find best action in Step: 0
Values: 3.6195(endSession) 10.5427(query) 10.0757(invite)
Foind best action in Step: 0
Coolie

Action Type: 0
Active Nodes: 2 9 

Presence: 0000000000000000000000000000000000000000
Invited Nodes: 
Actions left: 2
Session index: 1

Observation: ..
Reward -0
About to find best action in Step: 1
Values: 9.1835(endSession) 10.2739(query) 10.22(invite)
Foind best action in Step: 1
Coolie

Action Type: 0
Active Nodes: 4 11 

Presence: 0000000000000000000000000000000000000000
Invited Nodes: 
Actions left: 1
Session index: 1

Observation: ..
Reward -0
About to find best action in Step: 2
Values: 10.057(endSession) 10.3192(query) 9.95503(invite)
Foind best action in Step: 2
Coolie

Action Type: 0
Active Nodes: 26 29 

Presence: 0000000000000000000000000000000000000000
Invited Nodes: 
Actions left: 0
Session index: 1

Observation: ..
Reward -0
About to find best action in Step: 3
Foind best action in Step: 3
Coolie

Action Type: 2

Presence: 1111111111111111111111111111111111111111
Invited Nodes: 
Actions left: 3
Session index: 2

Observation: ..
Reward 0
About to find best action in Step: 4
Values: 10.131(endSession) 9.965(query) 10.3949(invite)
Foind best action in Step: 4
Coolie

Action Type: 1
Active Nodes: 25 39 

Presence: 1111111111111111111111111111111111111111
Invited Nodes: 25 39 
Actions left: 2
Session index: 2

Observation: ..11
Reward -0
About to find best action in Step: 5
Foind best action in Step: 5
Coolie

Action Type: 2

Presence: 1111111111111111111111111111111111111111
Invited Nodes: 25 39 
Actions left: 3
Session index: 3

Observation: ..
Reward 0
About to find best action in Step: 6
Foind best action in Step: 6
Coolie

Action Type: 2

Presence: 1111111111111111111111111111111111111111
Invited Nodes: 25 39 
Actions left: 3
Session index: 4

Observation: ..
Reward 0
About to find best action in Step: 7
Foind best action in Step: 7
Coolie

Action Type: 2

Presence: 0000000000100000000000000000000000000000
Invited Nodes: 25 39 
Actions left: 3
Session index: 5

Observation: ..
Reward 0
About to find best action in Step: 8
Foind best action in Step: 8
Coolie

Action Type: 2

Presence: 1111111111111111111111111111111111111111
Invited Nodes: 25 39 
Actions left: 3
Session index: 6

Observation: ..
Reward 0
About to find best action in Step: 9
Foind best action in Step: 9
Coolie

Action Type: 2

Presence: 0000000000000000000000000000000000000000
Invited Nodes: 25 39 
Actions left: 3
Session index: 7

Observation: ..
Reward 13.623
Terminated
Discounted return = 13.623, average = 12.6556
Undiscounted return = 13.623, average = 12.6556
Starting run 20 with 1024 simulations... 

Presence: 0000000000000000000000000000000010100000
Invited Nodes: 
Actions left: 3
Session index: 1
About to find best action in Step: 0
Values: 12.201(endSession) 10.2054(query) 10.4573(invite)
Foind best action in Step: 0
Coolie

Action Type: 2

Presence: 0000000000000000000010000000000000000000
Invited Nodes: 
Actions left: 3
Session index: 2

Observation: ..
Reward 0
About to find best action in Step: 1
Values: 8.387(endSession) 10.0427(query) 10.699(invite)
Foind best action in Step: 1
Coolie

Action Type: 1
Active Nodes: 19 37 

Presence: 0000000000000000000010000000000000000000
Invited Nodes: 
Actions left: 2
Session index: 2

Observation: ..
Reward -0
About to find best action in Step: 2
Values: 10.864(endSession) 10.3231(query) 9.88371(invite)
Foind best action in Step: 2
Coolie

Action Type: 2

Presence: 1111111111111111111111111111111111111111
Invited Nodes: 
Actions left: 3
Session index: 3

Observation: ..
Reward 0
About to find best action in Step: 3
Values: 9.903(endSession) 9.87118(query) 10.6587(invite)
Foind best action in Step: 3
Coolie

Action Type: 1
Active Nodes: 25 37 

Presence: 1111111111111111111111111111111111111111
Invited Nodes: 25 37 
Actions left: 2
Session index: 3

Observation: ..11
Reward -0
About to find best action in Step: 4
Foind best action in Step: 4
Coolie

Action Type: 2

Presence: 1111111111111101111101111111111111111111
Invited Nodes: 25 37 
Actions left: 3
Session index: 4

Observation: ..
Reward 0
About to find best action in Step: 5
Foind best action in Step: 5
Coolie

Action Type: 2

Presence: 1101111111111111111101011111111101111111
Invited Nodes: 25 37 
Actions left: 3
Session index: 5

Observation: ..
Reward 0
About to find best action in Step: 6
Foind best action in Step: 6
Coolie

Action Type: 2

Presence: 0000000000000000000000000000000000000000
Invited Nodes: 25 37 
Actions left: 3
Session index: 6

Observation: ..
Reward 0
About to find best action in Step: 7
Foind best action in Step: 7
Coolie

Action Type: 2

Presence: 0000000000000000000000000000000000000000
Invited Nodes: 25 37 
Actions left: 3
Session index: 7

Observation: ..
Reward 14.641
Terminated
Discounted return = 14.641, average = 12.7548
Undiscounted return = 14.641, average = 12.7548
Simulations = 1024
Runs = 20
Undiscounted return = 12.7548 +- 0.702121
Discounted return = 12.7548 +- 0.702121
Time = 17.0245
----------------------------------------
Begin PBS Epilogue Thu Aug 31 01:02:39 PDT 2017
Job ID:           24124934.hpc-pbs1.hpcc.usc.edu
Username:         amulyaya
Accountname:      default
Group:            csci-ar
Job Name:         6.pbs
Session:          50367
Limits:           neednodes=1:ppn=16:sl230s,nodes=1:ppn=16:sl230s,walltime=24:00:00
Resources:        cput=00:05:43,energy_used=0,mem=27124852kb,vmem=24629320kb,walltime=00:05:43
Queue:            tambe
Shared Access:    no
Has MIC:          no
Is hsda:          false
removed '/scratch'
End PBS Epilogue Thu Aug 31 01:02:39 PDT 2017
----------------------------------------
