----------------------------------------
Begin PBS Prologue Thu Aug 31 01:03:57 PDT 2017
Job ID:            24124935.hpc-pbs1.hpcc.usc.edu
Username:          amulyaya
Accountname:       default
Group:             csci-ar
Project:           default
Name:              7.pbs
Queue:             tambe
Shared Access:     no
All Cores:         no
Has MIC:           no
Is hsda:           false
Nodes:             hpc3443 
TMPDIR:            /tmp/24124935.hpc-pbs1.hpcc.usc.edu
End PBS Prologue Thu Aug 31 01:03:58 PDT 2017
----------------------------------------
******************************************************************************
METIS 5.0 Copyright 1998-13, Regents of the University of Minnesota
 (HEAD: , Built on: Oct 20 2015, 01:33:37)
 size of idx_t: 64bits, real_t: 32bits, idx_t *: 64bits

Graph Information -----------------------------------------------------------
 Name: /home/rcf-proj/mj1/amulyaya/pomcp-ve/src/aLWZaWytzd.txt, #Vertices: 40, #Edges: 144, #Parts: 4

Options ---------------------------------------------------------------------
 ptype=kway, objtype=cut, ctype=shem, rtype=greedy, iptype=metisrb
 dbglvl=0, ufactor=1.030, no2hop=NO, minconn=NO, contig=NO, nooutput=NO
 seed=-1, niter=10, ncuts=1

Direct k-way Partitioning ---------------------------------------------------
 - Edgecut: 66, communication volume: 88.

 - Balance:
     constraint #0:  1.000 out of 0.100

 - Most overweight partition:
     pid: 0, actual: 10, desired: 10, ratio: 1.00.

 - Subdomain connectivity: max: 3, min: 3, avg: 3.00

 - Each partition is contiguous.

Timing Information ----------------------------------------------------------
  I/O:          		   0.001 sec
  Partitioning: 		   0.004 sec   (METIS time)
  Reporting:    		  -0.000 sec

Memory Information ----------------------------------------------------------
  Max memory used:		   0.068 MB
******************************************************************************
Initialising fast UCB table... done
Main runs
Starting run 1 with 1024 simulations... 

Presence: 0000000000000000000000000101000000000000
Invited Nodes: 
Actions left: 3
Session index: 1
About to find best action in Step: 0
Values: 11.6325(endSession) 10.4465(query) 10.6424(invite)
Foind best action in Step: 0
Coolie

Action Type: 2

Presence: 0000000000000000000100000000000000000000
Invited Nodes: 
Actions left: 3
Session index: 2

Observation: ..
Reward 0
About to find best action in Step: 1
Values: 9.131(endSession) 10.3652(query) 10.6473(invite)
Foind best action in Step: 1
Coolie

Action Type: 1
Active Nodes: 2 14 

Presence: 0000000000000000000100000000000000000000
Invited Nodes: 
Actions left: 2
Session index: 2

Observation: ..
Reward -0
About to find best action in Step: 2
Values: 9.497(endSession) 10.4456(query) 10.338(invite)
Foind best action in Step: 2
Coolie

Action Type: 0
Active Nodes: 22 25 

Presence: 0000000000000000000100000000000000000000
Invited Nodes: 
Actions left: 1
Session index: 2

Observation: ..
Reward -0
About to find best action in Step: 3
Values: 10.5975(endSession) 10.022(query) 10.0802(invite)
Foind best action in Step: 3
Coolie

Action Type: 2

Presence: 0000000000000000000000000101000000000000
Invited Nodes: 
Actions left: 3
Session index: 3

Observation: ..
Reward 0
About to find best action in Step: 4
Values: 9.6495(endSession) 9.92692(query) 10.6076(invite)
Foind best action in Step: 4
Coolie

Action Type: 1
Active Nodes: 21 32 

Presence: 0000000000000000000000000101000000000000
Invited Nodes: 
Actions left: 2
Session index: 3

Observation: ..
Reward -0
About to find best action in Step: 5
Values: 10.6815(endSession) 9.80294(query) 10.1463(invite)
Foind best action in Step: 5
Coolie

Action Type: 2

Presence: 0000000000000000000000000000000000000000
Invited Nodes: 
Actions left: 3
Session index: 4

Observation: ..
Reward 0
About to find best action in Step: 6
Values: 0(endSession) 9.78824(query) 9.98112(invite)
Foind best action in Step: 6
Coolie

Action Type: 1
Active Nodes: 15 34 

Presence: 0000000000000000000000000000000000000000
Invited Nodes: 
Actions left: 2
Session index: 4

Observation: ..
Reward -0
About to find best action in Step: 7
Values: 4.6165(endSession) 9.00798(query) 9.92114(invite)
Foind best action in Step: 7
Coolie

Action Type: 1
Active Nodes: 1 11 

Presence: 0000000000000000000000000000000000000000
Invited Nodes: 
Actions left: 1
Session index: 4

Observation: ..
Reward -0
About to find best action in Step: 8
Values: 0(endSession) 8.90664(query) 8.90998(invite)
Foind best action in Step: 8
Coolie

Action Type: 1
Active Nodes: 1 8 

Presence: 0000000000000000000000000000000000000000
Invited Nodes: 
Actions left: 0
Session index: 4

Observation: ..
Reward -0
About to find best action in Step: 9
Foind best action in Step: 9
Coolie

Action Type: 2

Presence: 0000000000001000000000000000000001000000
Invited Nodes: 
Actions left: 3
Session index: 5

Observation: ..
Reward 0
About to find best action in Step: 10
Values: 7.3505(endSession) 8.62831(query) 9.05865(invite)
Foind best action in Step: 10
Coolie

Action Type: 1
Active Nodes: 8 34 

Presence: 0000000000001000000000000000000001000000
Invited Nodes: 
Actions left: 2
Session index: 5

Observation: ..
Reward -0
About to find best action in Step: 11
Values: 5.226(endSession) 6.78718(query) 8.09427(invite)
Foind best action in Step: 11
Coolie

Action Type: 1
Active Nodes: 1 3 

Presence: 0000000000001000000000000000000001000000
Invited Nodes: 
Actions left: 1
Session index: 5

Observation: ..
Reward -0
About to find best action in Step: 12
Values: 4.8585(endSession) 7.10441(query) 7.20141(invite)
Foind best action in Step: 12
Coolie

Action Type: 1
Active Nodes: 12 29 

Presence: 0000000000001000000000000000000001000000
Invited Nodes: 12 
Actions left: 0
Session index: 5

Observation: ..1
Reward -0
About to find best action in Step: 13
Foind best action in Step: 13
Coolie

Action Type: 2

Presence: 0000000000000000000000000100000000000000
Invited Nodes: 12 
Actions left: 3
Session index: 6

Observation: ..
Reward 0
About to find best action in Step: 14
Values: 4.0225(endSession) 6.07109(query) 7.25086(invite)
Foind best action in Step: 14
Coolie

Action Type: 1
Active Nodes: 29 

Presence: 0000000000000000000000000100000000000000
Invited Nodes: 12 
Actions left: 2
Session index: 6

Observation: ..
Reward -0
About to find best action in Step: 15
Values: 3.9905(endSession) 4.01091(query) 6.7505(invite)
Foind best action in Step: 15
Coolie

Action Type: 1
Active Nodes: 5 

Presence: 0000000000000000000000000100000000000000
Invited Nodes: 12 
Actions left: 1
Session index: 6

Observation: ..
Reward -0
About to find best action in Step: 16
Values: 3.98967(endSession) 4.01086(query) 5.96868(invite)
Foind best action in Step: 16
Coolie

Action Type: 1
Active Nodes: 8 

Presence: 0000000000000000000000000100000000000000
Invited Nodes: 12 
Actions left: 0
Session index: 6

Observation: ..
Reward -0
About to find best action in Step: 17
Foind best action in Step: 17
Coolie

Action Type: 2

Presence: 1111111111111111111111111111111111111111
Invited Nodes: 12 
Actions left: 3
Session index: 7

Observation: ..
Reward 4.013
Terminated
Discounted return = 4.013, average = 4.013
Undiscounted return = 4.013, average = 4.013
Starting run 2 with 1024 simulations... 

Presence: 0000000000000000000000000000000000000000
Invited Nodes: 
Actions left: 3
Session index: 1
About to find best action in Step: 0
Values: 9.1055(endSession) 10.4818(query) 11.9206(invite)
Foind best action in Step: 0
Coolie

Action Type: 1
Active Nodes: 14 35 

Presence: 0000000000000000000000000000000000000000
Invited Nodes: 
Actions left: 2
Session index: 1

Observation: ..
Reward -0
About to find best action in Step: 1
Values: 7.1925(endSession) 10.3445(query) 10.2435(invite)
Foind best action in Step: 1
Coolie

Action Type: 0
Active Nodes: 15 24 

Presence: 0000000000000000000000000000000000000000
Invited Nodes: 
Actions left: 1
Session index: 1

Observation: ..
Reward -0
About to find best action in Step: 2
Values: 7.628(endSession) 10.5656(query) 10.471(invite)
Foind best action in Step: 2
Coolie

Action Type: 0
Active Nodes: 8 24 

Presence: 0000000000000000000000000000000000000000
Invited Nodes: 
Actions left: 0
Session index: 1

Observation: ..
Reward -0
About to find best action in Step: 3
Foind best action in Step: 3
Coolie

Action Type: 2

Presence: 0000000000000000000000000000000000000000
Invited Nodes: 
Actions left: 3
Session index: 2

Observation: ..
Reward 0
About to find best action in Step: 4
Values: 2.857(endSession) 10.3797(query) 10.4081(invite)
Foind best action in Step: 4
Coolie

Action Type: 1
Active Nodes: 7 16 

Presence: 0000000000000000000000000000000000000000
Invited Nodes: 
Actions left: 2
Session index: 2

Observation: ..
Reward -0
About to find best action in Step: 5
Values: 7.476(endSession) 10.0998(query) 10.6956(invite)
Foind best action in Step: 5
Coolie

Action Type: 1
Active Nodes: 14 22 

Presence: 0000000000000000000000000000000000000000
Invited Nodes: 
Actions left: 1
Session index: 2

Observation: ..
Reward -0
About to find best action in Step: 6
Values: 10.2565(endSession) 10.2687(query) 9.91109(invite)
Foind best action in Step: 6
Coolie

Action Type: 0
Active Nodes: 12 19 

Presence: 0000000000000000000000000000000000000000
Invited Nodes: 
Actions left: 0
Session index: 2

Observation: ..
Reward -0
About to find best action in Step: 7
Foind best action in Step: 7
Coolie

Action Type: 2

Presence: 0000000000000000000000000000000000000000
Invited Nodes: 
Actions left: 3
Session index: 3

Observation: ..
Reward 0
About to find best action in Step: 8
Values: 9.3025(endSession) 10.3665(query) 10.5822(invite)
Foind best action in Step: 8
Coolie

Action Type: 1
Active Nodes: 2 10 

Presence: 0000000000000000000000000000000000000000
Invited Nodes: 
Actions left: 2
Session index: 3

Observation: ..
Reward -0
About to find best action in Step: 9
Values: 8.587(endSession) 10.1054(query) 9.85123(invite)
Foind best action in Step: 9
Coolie

Action Type: 0
Active Nodes: 30 31 

Presence: 0000000000000000000000000000000000000000
Invited Nodes: 
Actions left: 1
Session index: 3

Observation: ..
Reward -0
About to find best action in Step: 10
Values: 8.691(endSession) 9.64467(query) 10.1683(invite)
Foind best action in Step: 10
Coolie

Action Type: 1
Active Nodes: 7 20 

Presence: 0000000000000000000000000000000000000000
Invited Nodes: 
Actions left: 0
Session index: 3

Observation: ..
Reward -0
About to find best action in Step: 11
Foind best action in Step: 11
Coolie

Action Type: 2

Presence: 0000000000000000000000000000000000000000
Invited Nodes: 
Actions left: 3
Session index: 4

Observation: ..
Reward 0
About to find best action in Step: 12
Values: 5.536(endSession) 9.61093(query) 9.90375(invite)
Foind best action in Step: 12
Coolie

Action Type: 1
Active Nodes: 16 21 

Presence: 0000000000000000000000000000000000000000
Invited Nodes: 
Actions left: 2
Session index: 4

Observation: ..
Reward -0
About to find best action in Step: 13
Values: 0(endSession) 9.1863(query) 9.49328(invite)
Foind best action in Step: 13
Coolie

Action Type: 1
Active Nodes: 24 36 

Presence: 0000000000000000000000000000000000000000
Invited Nodes: 
Actions left: 1
Session index: 4

Observation: ..
Reward -0
About to find best action in Step: 14
Values: 5.433(endSession) 8.77735(query) 8.85413(invite)
Foind best action in Step: 14
Coolie

Action Type: 1
Active Nodes: 22 26 

Presence: 0000000000000000000000000000000000000000
Invited Nodes: 
Actions left: 0
Session index: 4

Observation: ..
Reward -0
About to find best action in Step: 15
Foind best action in Step: 15
Coolie

Action Type: 2

Presence: 0000000000000000000000000000000000000000
Invited Nodes: 
Actions left: 3
Session index: 5

Observation: ..
Reward 0
About to find best action in Step: 16
Values: 3.51(endSession) 8.13802(query) 8.75459(invite)
Foind best action in Step: 16
Coolie

Action Type: 1
Active Nodes: 10 14 

Presence: 0000000000000000000000000000000000000000
Invited Nodes: 
Actions left: 2
Session index: 5

Observation: ..
Reward -0
About to find best action in Step: 17
Values: 6.562(endSession) 6.62547(query) 7.67558(invite)
Foind best action in Step: 17
Coolie

Action Type: 1
Active Nodes: 7 9 

Presence: 0000000000000000000000000000000000000000
Invited Nodes: 
Actions left: 1
Session index: 5

Observation: ..
Reward -0
About to find best action in Step: 18
Values: 4.9985(endSession) 6.61257(query) 7.16084(invite)
Foind best action in Step: 18
Coolie

Action Type: 1
Active Nodes: 16 18 

Presence: 0000000000000000000000000000000000000000
Invited Nodes: 
Actions left: 0
Session index: 5

Observation: ..
Reward -0
About to find best action in Step: 19
Foind best action in Step: 19
Coolie

Action Type: 2

Presence: 0000000000000000000000000000000000000000
Invited Nodes: 
Actions left: 3
Session index: 6

Observation: ..
Reward 0
About to find best action in Step: 20
Values: 0(endSession) 5.71813(query) 6.78362(invite)
Foind best action in Step: 20
Coolie

Action Type: 1
Active Nodes: 10 16 

Presence: 0000000000000000000000000000000000000000
Invited Nodes: 
Actions left: 2
Session index: 6

Observation: ..
Reward -0
About to find best action in Step: 21
Values: 0(endSession) 0.785295(query) 3.87466(invite)
Foind best action in Step: 21
Coolie

Action Type: 1
Active Nodes: 24 35 

Presence: 0000000000000000000000000000000000000000
Invited Nodes: 
Actions left: 1
Session index: 6

Observation: ..
Reward -0
About to find best action in Step: 22
Values: 0(endSession) 0(query) 1.12241(invite)
Foind best action in Step: 22
Coolie

Action Type: 1
Active Nodes: 17 18 

Presence: 0000000000000000000000000000000000000000
Invited Nodes: 
Actions left: 0
Session index: 6

Observation: ..
Reward -0
About to find best action in Step: 23
Foind best action in Step: 23
Coolie

Action Type: 2

Presence: 0000000000000000000000000000000000000000
Invited Nodes: 
Actions left: 3
Session index: 7

Observation: ..
Reward 0
Terminated
Discounted return = 0, average = 2.0065
Undiscounted return = 0, average = 2.0065
Starting run 3 with 1024 simulations... 

Presence: 1111111111111111111111111111111011111111
Invited Nodes: 
Actions left: 3
Session index: 1
About to find best action in Step: 0
Values: 10.438(endSession) 10.4129(query) 11.1387(invite)
Foind best action in Step: 0
Coolie

Action Type: 1
Active Nodes: 2 14 

Presence: 1111111111111111111111111111111011111111
Invited Nodes: 2 14 
Actions left: 2
Session index: 1

Observation: ..11
Reward -0
About to find best action in Step: 1
Foind best action in Step: 1
Coolie

Action Type: 2

Presence: 0000000000000000000000000000000000000000
Invited Nodes: 2 14 
Actions left: 3
Session index: 2

Observation: ..
Reward 0
About to find best action in Step: 2
Foind best action in Step: 2
Coolie

Action Type: 2

Presence: 1111111111111111111111111111111111111100
Invited Nodes: 2 14 
Actions left: 3
Session index: 3

Observation: ..
Reward 0
About to find best action in Step: 3
Foind best action in Step: 3
Coolie

Action Type: 2

Presence: 0000000000000000000000000000000000000000
Invited Nodes: 2 14 
Actions left: 3
Session index: 4

Observation: ..
Reward 0
About to find best action in Step: 4
Foind best action in Step: 4
Coolie

Action Type: 2

Presence: 0000000000000000000000000000000000000000
Invited Nodes: 2 14 
Actions left: 3
Session index: 5

Observation: ..
Reward 0
About to find best action in Step: 5
Foind best action in Step: 5
Coolie

Action Type: 2

Presence: 0000000000000000000000000000000000000000
Invited Nodes: 2 14 
Actions left: 3
Session index: 6

Observation: ..
Reward 0
About to find best action in Step: 6
Foind best action in Step: 6
Coolie

Action Type: 2

Presence: 0000000000000000000000000000000000000000
Invited Nodes: 2 14 
Actions left: 3
Session index: 7

Observation: ..
Reward 15.096
Terminated
Discounted return = 15.096, average = 6.36967
Undiscounted return = 15.096, average = 6.36967
Starting run 4 with 1024 simulations... 

Presence: 0000000000000000000000000000000000000000
Invited Nodes: 
Actions left: 3
Session index: 1
About to find best action in Step: 0
Values: 7.7925(endSession) 10.3127(query) 10.5907(invite)
Foind best action in Step: 0
Coolie

Action Type: 1
Active Nodes: 14 16 

Presence: 0000000000000000000000000000000000000000
Invited Nodes: 
Actions left: 2
Session index: 1

Observation: ..
Reward -0
About to find best action in Step: 1
Values: 10.8185(endSession) 10.3372(query) 10.7813(invite)
Foind best action in Step: 1
Coolie

Action Type: 2

Presence: 1111111111111111111111111111111111111110
Invited Nodes: 
Actions left: 3
Session index: 2

Observation: ..
Reward 0
About to find best action in Step: 2
Values: 9.695(endSession) 10.3703(query) 10.8864(invite)
Foind best action in Step: 2
Coolie

Action Type: 1
Active Nodes: 5 14 

Presence: 1111111111111111111111111111111111111110
Invited Nodes: 5 14 
Actions left: 2
Session index: 2

Observation: ..11
Reward -0
About to find best action in Step: 3
Foind best action in Step: 3
Coolie

Action Type: 2

Presence: 0000000000000000000000000000000000000000
Invited Nodes: 5 14 
Actions left: 3
Session index: 3

Observation: ..
Reward 0
About to find best action in Step: 4
Foind best action in Step: 4
Coolie

Action Type: 2

Presence: 0000000000000000000000000000000000000000
Invited Nodes: 5 14 
Actions left: 3
Session index: 4

Observation: ..
Reward 0
About to find best action in Step: 5
Foind best action in Step: 5
Coolie

Action Type: 2

Presence: 0000000000000000000000000000000000000000
Invited Nodes: 5 14 
Actions left: 3
Session index: 5

Observation: ..
Reward 0
About to find best action in Step: 6
Foind best action in Step: 6
Coolie

Action Type: 2

Presence: 1111111111111111111111111111111111111111
Invited Nodes: 5 14 
Actions left: 3
Session index: 6

Observation: ..
Reward 0
About to find best action in Step: 7
Foind best action in Step: 7
Coolie

Action Type: 2

Presence: 0000000000000000000000000000000000000000
Invited Nodes: 5 14 
Actions left: 3
Session index: 7

Observation: ..
Reward 14.243
Terminated
Discounted return = 14.243, average = 8.338
Undiscounted return = 14.243, average = 8.338
Starting run 5 with 1024 simulations... 

Presence: 1111111111111111111111111111111111111111
Invited Nodes: 
Actions left: 3
Session index: 1
About to find best action in Step: 0
Values: 9.7925(endSession) 10.3866(query) 10.7808(invite)
Foind best action in Step: 0
Coolie

Action Type: 1
Active Nodes: 14 35 

Presence: 1111111111111111111111111111111111111111
Invited Nodes: 14 35 
Actions left: 2
Session index: 1

Observation: ..11
Reward -0
About to find best action in Step: 1
Foind best action in Step: 1
Coolie

Action Type: 2

Presence: 1111111111111111111111111111111111111111
Invited Nodes: 14 35 
Actions left: 3
Session index: 2

Observation: ..
Reward 0
About to find best action in Step: 2
Foind best action in Step: 2
Coolie

Action Type: 2

Presence: 0000000000000000000000000000000000000000
Invited Nodes: 14 35 
Actions left: 3
Session index: 3

Observation: ..
Reward 0
About to find best action in Step: 3
Foind best action in Step: 3
Coolie

Action Type: 2

Presence: 0000000000000000000000000101000000000000
Invited Nodes: 14 35 
Actions left: 3
Session index: 4

Observation: ..
Reward 0
About to find best action in Step: 4
Foind best action in Step: 4
Coolie

Action Type: 2

Presence: 0000000000000000000000000000000000000000
Invited Nodes: 14 35 
Actions left: 3
Session index: 5

Observation: ..
Reward 0
About to find best action in Step: 5
Foind best action in Step: 5
Coolie

Action Type: 2

Presence: 0000000000000000000000000000000000000000
Invited Nodes: 14 35 
Actions left: 3
Session index: 6

Observation: ..
Reward 0
About to find best action in Step: 6
Foind best action in Step: 6
Coolie

Action Type: 2

Presence: 0000000000000000000000000000000000000001
Invited Nodes: 14 35 
Actions left: 3
Session index: 7

Observation: ..
Reward 14.842
Terminated
Discounted return = 14.842, average = 9.6388
Undiscounted return = 14.842, average = 9.6388
Starting run 6 with 1024 simulations... 

Presence: 0000000000000000000100000000000100000000
Invited Nodes: 
Actions left: 3
Session index: 1
About to find best action in Step: 0
Values: 10.9305(endSession) 10.4458(query) 10.4708(invite)
Foind best action in Step: 0
Coolie

Action Type: 2

Presence: 1111111111111111111111111011111111111111
Invited Nodes: 
Actions left: 3
Session index: 2

Observation: ..
Reward 0
About to find best action in Step: 1
Values: 10.7235(endSession) 10.2704(query) 10.7647(invite)
Foind best action in Step: 1
Coolie

Action Type: 1
Active Nodes: 8 14 

Presence: 1111111111111111111111111011111111111111
Invited Nodes: 8 14 
Actions left: 2
Session index: 2

Observation: ..11
Reward -0
About to find best action in Step: 2
Foind best action in Step: 2
Coolie

Action Type: 2

Presence: 0000000000000001000000000000000000000000
Invited Nodes: 8 14 
Actions left: 3
Session index: 3

Observation: ..
Reward 0
About to find best action in Step: 3
Foind best action in Step: 3
Coolie

Action Type: 2

Presence: 0000000000000000000000000000000000000000
Invited Nodes: 8 14 
Actions left: 3
Session index: 4

Observation: ..
Reward 0
About to find best action in Step: 4
Foind best action in Step: 4
Coolie

Action Type: 2

Presence: 0000000000000000000000000000000000000001
Invited Nodes: 8 14 
Actions left: 3
Session index: 5

Observation: ..
Reward 0
About to find best action in Step: 5
Foind best action in Step: 5
Coolie

Action Type: 2

Presence: 1111111111111111111111111111111011111111
Invited Nodes: 8 14 
Actions left: 3
Session index: 6

Observation: ..
Reward 0
About to find best action in Step: 6
Foind best action in Step: 6
Coolie

Action Type: 2

Presence: 1111111111111111111111111111111111111101
Invited Nodes: 8 14 
Actions left: 3
Session index: 7

Observation: ..
Reward 14.192
Terminated
Discounted return = 14.192, average = 10.3977
Undiscounted return = 14.192, average = 10.3977
Starting run 7 with 1024 simulations... 

Presence: 0000000000000000000000000000000000000000
Invited Nodes: 
Actions left: 3
Session index: 1
About to find best action in Step: 0
Values: 9.5195(endSession) 10.4897(query) 10.3974(invite)
Foind best action in Step: 0
Coolie

Action Type: 0
Active Nodes: 19 38 

Presence: 0000000000000000000000000000000000000000
Invited Nodes: 
Actions left: 2
Session index: 1

Observation: ..
Reward -0
About to find best action in Step: 1
Values: 8.6155(endSession) 10.316(query) 10.5519(invite)
Foind best action in Step: 1
Coolie

Action Type: 1
Active Nodes: 14 38 

Presence: 0000000000000000000000000000000000000000
Invited Nodes: 
Actions left: 1
Session index: 1

Observation: ..
Reward -0
About to find best action in Step: 2
Values: 8.8395(endSession) 10.4055(query) 10.6324(invite)
Foind best action in Step: 2
Coolie

Action Type: 1
Active Nodes: 2 14 

Presence: 0000000000000000000000000000000000000000
Invited Nodes: 
Actions left: 0
Session index: 1

Observation: ..
Reward -0
About to find best action in Step: 3
Foind best action in Step: 3
Coolie

Action Type: 2

Presence: 1111111111111111111111111111111110111110
Invited Nodes: 
Actions left: 3
Session index: 2

Observation: ..
Reward 0
About to find best action in Step: 4
Values: 0(endSession) 10.215(query) 11.2296(invite)
Foind best action in Step: 4
Coolie

Action Type: 1
Active Nodes: 2 18 

Presence: 1111111111111111111111111111111110111110
Invited Nodes: 2 18 
Actions left: 2
Session index: 2

Observation: ..11
Reward -0
About to find best action in Step: 5
Foind best action in Step: 5
Coolie

Action Type: 2

Presence: 1111111111111111111111111111111111111111
Invited Nodes: 2 18 
Actions left: 3
Session index: 3

Observation: ..
Reward 0
About to find best action in Step: 6
Foind best action in Step: 6
Coolie

Action Type: 2

Presence: 0000000000000000000000000000000000000000
Invited Nodes: 2 18 
Actions left: 3
Session index: 4

Observation: ..
Reward 0
About to find best action in Step: 7
Foind best action in Step: 7
Coolie

Action Type: 2

Presence: 0000000000000000000000000000000000000000
Invited Nodes: 2 18 
Actions left: 3
Session index: 5

Observation: ..
Reward 0
About to find best action in Step: 8
Foind best action in Step: 8
Coolie

Action Type: 2

Presence: 0000000000000000000000000000000000000000
Invited Nodes: 2 18 
Actions left: 3
Session index: 6

Observation: ..
Reward 0
About to find best action in Step: 9
Foind best action in Step: 9
Coolie

Action Type: 2

Presence: 0000000000000000000000000000000100000000
Invited Nodes: 2 18 
Actions left: 3
Session index: 7

Observation: ..
Reward 13.6
Terminated
Discounted return = 13.6, average = 10.8551
Undiscounted return = 13.6, average = 10.8551
Starting run 8 with 1024 simulations... 

Presence: 0000000000000000000000000000000100000010
Invited Nodes: 
Actions left: 3
Session index: 1
About to find best action in Step: 0
Values: 10.889(endSession) 10.4937(query) 10.3133(invite)
Foind best action in Step: 0
Coolie

Action Type: 2

Presence: 0000000000000000000000000000000000000001
Invited Nodes: 
Actions left: 3
Session index: 2

Observation: ..
Reward 0
About to find best action in Step: 1
Values: 12.6395(endSession) 10.2885(query) 11.15(invite)
Foind best action in Step: 1
Coolie

Action Type: 2

Presence: 1111111111111111111111111111111111111110
Invited Nodes: 
Actions left: 3
Session index: 3

Observation: ..
Reward 0
About to find best action in Step: 2
Values: 8.406(endSession) 9.93759(query) 11.3138(invite)
Foind best action in Step: 2
Coolie

Action Type: 1
Active Nodes: 2 14 

Presence: 1111111111111111111111111111111111111110
Invited Nodes: 2 14 
Actions left: 2
Session index: 3

Observation: ..11
Reward -0
About to find best action in Step: 3
Foind best action in Step: 3
Coolie

Action Type: 2

Presence: 0000000000000000000000000000000000000000
Invited Nodes: 2 14 
Actions left: 3
Session index: 4

Observation: ..
Reward 0
About to find best action in Step: 4
Foind best action in Step: 4
Coolie

Action Type: 2

Presence: 1111111111111111111111111110111111111111
Invited Nodes: 2 14 
Actions left: 3
Session index: 5

Observation: ..
Reward 0
About to find best action in Step: 5
Foind best action in Step: 5
Coolie

Action Type: 2

Presence: 0000000000000000000000000000000000000000
Invited Nodes: 2 14 
Actions left: 3
Session index: 6

Observation: ..
Reward 0
About to find best action in Step: 6
Foind best action in Step: 6
Coolie

Action Type: 2

Presence: 0000000000000000000000000101000000000000
Invited Nodes: 2 14 
Actions left: 3
Session index: 7

Observation: ..
Reward 15.014
Terminated
Discounted return = 15.014, average = 11.375
Undiscounted return = 15.014, average = 11.375
Starting run 9 with 1024 simulations... 

Presence: 1111111111111111111111111111111111111111
Invited Nodes: 
Actions left: 3
Session index: 1
About to find best action in Step: 0
Values: 10.293(endSession) 10.3436(query) 10.5381(invite)
Foind best action in Step: 0
Coolie

Action Type: 1
Active Nodes: 1 16 

Presence: 1111111111111111111111111111111111111111
Invited Nodes: 1 16 
Actions left: 2
Session index: 1

Observation: ..11
Reward -0
About to find best action in Step: 1
Foind best action in Step: 1
Coolie

Action Type: 2

Presence: 0000000000000000000000000000000000000000
Invited Nodes: 1 16 
Actions left: 3
Session index: 2

Observation: ..
Reward 0
About to find best action in Step: 2
Foind best action in Step: 2
Coolie

Action Type: 2

Presence: 0000000000000000000000000000000000000001
Invited Nodes: 1 16 
Actions left: 3
Session index: 3

Observation: ..
Reward 0
About to find best action in Step: 3
Foind best action in Step: 3
Coolie

Action Type: 2

Presence: 1111111111111111111111111111111111111111
Invited Nodes: 1 16 
Actions left: 3
Session index: 4

Observation: ..
Reward 0
About to find best action in Step: 4
Foind best action in Step: 4
Coolie

Action Type: 2

Presence: 1111111111111111111111111110111111111111
Invited Nodes: 1 16 
Actions left: 3
Session index: 5

Observation: ..
Reward 0
About to find best action in Step: 5
Foind best action in Step: 5
Coolie

Action Type: 2

Presence: 0000000000001000000000000000000000000000
Invited Nodes: 1 16 
Actions left: 3
Session index: 6

Observation: ..
Reward 0
About to find best action in Step: 6
Foind best action in Step: 6
Coolie

Action Type: 2

Presence: 0000000000000000000000000001000000000000
Invited Nodes: 1 16 
Actions left: 3
Session index: 7

Observation: ..
Reward 13.122
Terminated
Discounted return = 13.122, average = 11.5691
Undiscounted return = 13.122, average = 11.5691
Starting run 10 with 1024 simulations... 

Presence: 1111111111111111111111111111111111111111
Invited Nodes: 
Actions left: 3
Session index: 1
About to find best action in Step: 0
Values: 9.1255(endSession) 10.5025(query) 10.6616(invite)
Foind best action in Step: 0
Coolie

Action Type: 1
Active Nodes: 10 29 

Presence: 1111111111111111111111111111111111111111
Invited Nodes: 10 29 
Actions left: 2
Session index: 1

Observation: ..11
Reward -0
About to find best action in Step: 1
Foind best action in Step: 1
Coolie

Action Type: 2

Presence: 0000000000000000000000000000000000000000
Invited Nodes: 10 29 
Actions left: 3
Session index: 2

Observation: ..
Reward 0
About to find best action in Step: 2
Foind best action in Step: 2
Coolie

Action Type: 2

Presence: 1111111111111111111111111111111111111010
Invited Nodes: 10 29 
Actions left: 3
Session index: 3

Observation: ..
Reward 0
About to find best action in Step: 3
Foind best action in Step: 3
Coolie

Action Type: 2

Presence: 0000000000000000000000000000000000000000
Invited Nodes: 10 29 
Actions left: 3
Session index: 4

Observation: ..
Reward 0
About to find best action in Step: 4
Foind best action in Step: 4
Coolie

Action Type: 2

Presence: 1111111111111111111111111111111111111101
Invited Nodes: 10 29 
Actions left: 3
Session index: 5

Observation: ..
Reward 0
About to find best action in Step: 5
Foind best action in Step: 5
Coolie

Action Type: 2

Presence: 1111111111111111111111111010111111111111
Invited Nodes: 10 29 
Actions left: 3
Session index: 6

Observation: ..
Reward 0
About to find best action in Step: 6
Foind best action in Step: 6
Coolie

Action Type: 2

Presence: 1111111111111111111111111111111111111111
Invited Nodes: 10 29 
Actions left: 3
Session index: 7

Observation: ..
Reward 12.27
Terminated
Discounted return = 12.27, average = 11.6392
Undiscounted return = 12.27, average = 11.6392
Starting run 11 with 1024 simulations... 

Presence: 1111111111111111111111111110111011111111
Invited Nodes: 
Actions left: 3
Session index: 1
About to find best action in Step: 0
Values: 9.954(endSession) 10.2194(query) 11.0625(invite)
Foind best action in Step: 0
Coolie

Action Type: 1
Active Nodes: 2 14 

Presence: 1111111111111111111111111110111011111111
Invited Nodes: 2 14 
Actions left: 2
Session index: 1

Observation: ..11
Reward -0
About to find best action in Step: 1
Foind best action in Step: 1
Coolie

Action Type: 2

Presence: 0000000000000000000000000000000000000000
Invited Nodes: 2 14 
Actions left: 3
Session index: 2

Observation: ..
Reward 0
About to find best action in Step: 2
Foind best action in Step: 2
Coolie

Action Type: 2

Presence: 0000000000000000000000000000000000000000
Invited Nodes: 2 14 
Actions left: 3
Session index: 3

Observation: ..
Reward 0
About to find best action in Step: 3
Foind best action in Step: 3
Coolie

Action Type: 2

Presence: 0000000000000000000000000000000000000000
Invited Nodes: 2 14 
Actions left: 3
Session index: 4

Observation: ..
Reward 0
About to find best action in Step: 4
Foind best action in Step: 4
Coolie

Action Type: 2

Presence: 0000000000000000000010000000000000000000
Invited Nodes: 2 14 
Actions left: 3
Session index: 5

Observation: ..
Reward 0
About to find best action in Step: 5
Foind best action in Step: 5
Coolie

Action Type: 2

Presence: 0000000000000000000000000000000000000001
Invited Nodes: 2 14 
Actions left: 3
Session index: 6

Observation: ..
Reward 0
About to find best action in Step: 6
Foind best action in Step: 6
Coolie

Action Type: 2

Presence: 1111111111111111111111111011111111111111
Invited Nodes: 2 14 
Actions left: 3
Session index: 7

Observation: ..
Reward 15.108
Terminated
Discounted return = 15.108, average = 11.9545
Undiscounted return = 15.108, average = 11.9545
Starting run 12 with 1024 simulations... 

Presence: 1111111111110111111111111111111111111111
Invited Nodes: 
Actions left: 3
Session index: 1
About to find best action in Step: 0
Values: 10.3835(endSession) 10.3521(query) 11.1222(invite)
Foind best action in Step: 0
Coolie

Action Type: 1
Active Nodes: 8 14 

Presence: 1111111111110111111111111111111111111111
Invited Nodes: 8 14 
Actions left: 2
Session index: 1

Observation: ..11
Reward -0
About to find best action in Step: 1
Foind best action in Step: 1
Coolie

Action Type: 2

Presence: 0000000000000001000000000100000000000000
Invited Nodes: 8 14 
Actions left: 3
Session index: 2

Observation: ..
Reward 0
About to find best action in Step: 2
Foind best action in Step: 2
Coolie

Action Type: 2

Presence: 1111111111111111111111111111111111111111
Invited Nodes: 8 14 
Actions left: 3
Session index: 3

Observation: ..
Reward 0
About to find best action in Step: 3
Foind best action in Step: 3
Coolie

Action Type: 2

Presence: 0000000000000000000000000000000000000000
Invited Nodes: 8 14 
Actions left: 3
Session index: 4

Observation: ..
Reward 0
About to find best action in Step: 4
Foind best action in Step: 4
Coolie

Action Type: 2

Presence: 0000000000001000000000000000000000000000
Invited Nodes: 8 14 
Actions left: 3
Session index: 5

Observation: ..
Reward 0
About to find best action in Step: 5
Foind best action in Step: 5
Coolie

Action Type: 2

Presence: 1111111111111111111111111111111011111111
Invited Nodes: 8 14 
Actions left: 3
Session index: 6

Observation: ..
Reward 0
About to find best action in Step: 6
Foind best action in Step: 6
Coolie

Action Type: 2

Presence: 1111111111111111111111111111111111111111
Invited Nodes: 8 14 
Actions left: 3
Session index: 7

Observation: ..
Reward 14.134
Terminated
Discounted return = 14.134, average = 12.1362
Undiscounted return = 14.134, average = 12.1362
Starting run 13 with 1024 simulations... 

Presence: 1111111111111111111111111111111111111110
Invited Nodes: 
Actions left: 3
Session index: 1
About to find best action in Step: 0
Values: 11.22(endSession) 10.7246(query) 11.0836(invite)
Foind best action in Step: 0
Coolie

Action Type: 2

Presence: 1111111111111111111111111111111011111111
Invited Nodes: 
Actions left: 3
Session index: 2

Observation: ..
Reward 0
About to find best action in Step: 1
Values: 11.5035(endSession) 10.1406(query) 10.5326(invite)
Foind best action in Step: 1
Coolie

Action Type: 2

Presence: 0000000000000000000000000000000000000001
Invited Nodes: 
Actions left: 3
Session index: 3

Observation: ..
Reward 0
About to find best action in Step: 2
Values: 0(endSession) 10.1537(query) 10.6426(invite)
Foind best action in Step: 2
Coolie

Action Type: 1
Active Nodes: 2 16 

Presence: 0000000000000000000000000000000000000001
Invited Nodes: 
Actions left: 2
Session index: 3

Observation: ..
Reward -0
About to find best action in Step: 3
Values: 10.4775(endSession) 9.79709(query) 10.0748(invite)
Foind best action in Step: 3
Coolie

Action Type: 2

Presence: 0000000000000000000000000000000000000000
Invited Nodes: 
Actions left: 3
Session index: 4

Observation: ..
Reward 0
About to find best action in Step: 4
Values: 0(endSession) 9.71643(query) 10.28(invite)
Foind best action in Step: 4
Coolie

Action Type: 1
Active Nodes: 14 35 

Presence: 0000000000000000000000000000000000000000
Invited Nodes: 
Actions left: 2
Session index: 4

Observation: ..
Reward -0
About to find best action in Step: 5
Values: 9.402(endSession) 9.08642(query) 8.73133(invite)
Foind best action in Step: 5
Coolie

Action Type: 2

Presence: 1111111111111111111111111110111111111111
Invited Nodes: 
Actions left: 3
Session index: 5

Observation: ..
Reward 0
About to find best action in Step: 6
Values: 10.0585(endSession) 8.86306(query) 9.34558(invite)
Foind best action in Step: 6
Coolie

Action Type: 2

Presence: 0000000000000000000000000000000000000000
Invited Nodes: 
Actions left: 3
Session index: 6

Observation: ..
Reward 0
About to find best action in Step: 7
Values: 0(endSession) 5.89497(query) 6.44979(invite)
Foind best action in Step: 7
Coolie

Action Type: 1
Active Nodes: 2 35 

Presence: 0000000000000000000000000000000000000000
Invited Nodes: 
Actions left: 2
Session index: 6

Observation: ..
Reward -0
About to find best action in Step: 8
Values: 0(endSession) 1.55084(query) 4.36584(invite)
Foind best action in Step: 8
Coolie

Action Type: 1
Active Nodes: 11 34 

Presence: 0000000000000000000000000000000000000000
Invited Nodes: 
Actions left: 1
Session index: 6

Observation: ..
Reward -0
About to find best action in Step: 9
Values: 0(endSession) 0(query) 1.40696(invite)
Foind best action in Step: 9
Coolie

Action Type: 1
Active Nodes: 16 18 

Presence: 0000000000000000000000000000000000000000
Invited Nodes: 
Actions left: 0
Session index: 6

Observation: ..
Reward -0
About to find best action in Step: 10
Foind best action in Step: 10
Coolie

Action Type: 2

Presence: 0000000000000000000000000101000000000000
Invited Nodes: 
Actions left: 3
Session index: 7

Observation: ..
Reward 0
Terminated
Discounted return = 0, average = 11.2026
Undiscounted return = 0, average = 11.2026
Starting run 14 with 1024 simulations... 

Presence: 0000000000000000000000000000000000000000
Invited Nodes: 
Actions left: 3
Session index: 1
About to find best action in Step: 0
Values: 10.308(endSession) 10.3976(query) 10.4393(invite)
Foind best action in Step: 0
Coolie

Action Type: 1
Active Nodes: 2 11 

Presence: 0000000000000000000000000000000000000000
Invited Nodes: 
Actions left: 2
Session index: 1

Observation: ..
Reward -0
About to find best action in Step: 1
Values: 12.4235(endSession) 10.3055(query) 10.2622(invite)
Foind best action in Step: 1
Coolie

Action Type: 2

Presence: 1111111111111111111111111111111111111111
Invited Nodes: 
Actions left: 3
Session index: 2

Observation: ..
Reward 0
About to find best action in Step: 2
Values: 8.6215(endSession) 10.0119(query) 10.7666(invite)
Foind best action in Step: 2
Coolie

Action Type: 1
Active Nodes: 2 18 

Presence: 1111111111111111111111111111111111111111
Invited Nodes: 2 18 
Actions left: 2
Session index: 2

Observation: ..11
Reward -0
About to find best action in Step: 3
Foind best action in Step: 3
Coolie

Action Type: 2

Presence: 1111111111111111111111111111111111111111
Invited Nodes: 2 18 
Actions left: 3
Session index: 3

Observation: ..
Reward 0
About to find best action in Step: 4
Foind best action in Step: 4
Coolie

Action Type: 2

Presence: 1111111111111111111111111111111011111111
Invited Nodes: 2 18 
Actions left: 3
Session index: 4

Observation: ..
Reward 0
About to find best action in Step: 5
Foind best action in Step: 5
Coolie

Action Type: 2

Presence: 1111111111111111111111111111111111111111
Invited Nodes: 2 18 
Actions left: 3
Session index: 5

Observation: ..
Reward 0
About to find best action in Step: 6
Foind best action in Step: 6
Coolie

Action Type: 2

Presence: 1111111111111111111111111110111111111111
Invited Nodes: 2 18 
Actions left: 3
Session index: 6

Observation: ..
Reward 0
About to find best action in Step: 7
Foind best action in Step: 7
Coolie

Action Type: 2

Presence: 0000000000000000000000000000000000000000
Invited Nodes: 2 18 
Actions left: 3
Session index: 7

Observation: ..
Reward 13.675
Terminated
Discounted return = 13.675, average = 11.3792
Undiscounted return = 13.675, average = 11.3792
Starting run 15 with 1024 simulations... 

Presence: 0000000000000000000000000000000000000000
Invited Nodes: 
Actions left: 3
Session index: 1
About to find best action in Step: 0
Values: 9.0845(endSession) 10.4714(query) 10.5242(invite)
Foind best action in Step: 0
Coolie

Action Type: 1
Active Nodes: 1 17 

Presence: 0000000000000000000000000000000000000000
Invited Nodes: 
Actions left: 2
Session index: 1

Observation: ..
Reward -0
About to find best action in Step: 1
Values: 9.365(endSession) 10.3653(query) 10.9988(invite)
Foind best action in Step: 1
Coolie

Action Type: 1
Active Nodes: 2 32 

Presence: 0000000000000000000000000000000000000000
Invited Nodes: 
Actions left: 1
Session index: 1

Observation: ..
Reward -0
About to find best action in Step: 2
Values: 10.0495(endSession) 10.2362(query) 10.5798(invite)
Foind best action in Step: 2
Coolie

Action Type: 1
Active Nodes: 16 28 

Presence: 0000000000000000000000000000000000000000
Invited Nodes: 
Actions left: 0
Session index: 1

Observation: ..
Reward -0
About to find best action in Step: 3
Foind best action in Step: 3
Coolie

Action Type: 2

Presence: 0000000000000000000000000000000000000001
Invited Nodes: 
Actions left: 3
Session index: 2

Observation: ..
Reward 0
About to find best action in Step: 4
Values: 11.6355(endSession) 10.4219(query) 10.5011(invite)
Foind best action in Step: 4
Coolie

Action Type: 2

Presence: 0000000000001000000000000000000000000000
Invited Nodes: 
Actions left: 3
Session index: 3

Observation: ..
Reward 0
About to find best action in Step: 5
Values: 11.039(endSession) 10.1993(query) 10.1753(invite)
Foind best action in Step: 5
Coolie

Action Type: 2

Presence: 0000000000000000000000000101000000000000
Invited Nodes: 
Actions left: 3
Session index: 4

Observation: ..
Reward 0
About to find best action in Step: 6
Values: 10.965(endSession) 9.74358(query) 9.64246(invite)
Foind best action in Step: 6
Coolie

Action Type: 2

Presence: 0000000000000000000000000000000000000010
Invited Nodes: 
Actions left: 3
Session index: 5

Observation: ..
Reward 0
About to find best action in Step: 7
Values: 0(endSession) 8.9355(query) 9.07049(invite)
Foind best action in Step: 7
Coolie

Action Type: 1
Active Nodes: 4 14 

Presence: 0000000000000000000000000000000000000010
Invited Nodes: 
Actions left: 2
Session index: 5

Observation: ..
Reward -0
About to find best action in Step: 8
Values: 0(endSession) 6.52239(query) 7.54513(invite)
Foind best action in Step: 8
Coolie

Action Type: 1
Active Nodes: 4 5 

Presence: 0000000000000000000000000000000000000010
Invited Nodes: 
Actions left: 1
Session index: 5

Observation: ..
Reward -0
About to find best action in Step: 9
Values: 1.9905(endSession) 6.39545(query) 7.40959(invite)
Foind best action in Step: 9
Coolie

Action Type: 1
Active Nodes: 9 18 

Presence: 0000000000000000000000000000000000000010
Invited Nodes: 
Actions left: 0
Session index: 5

Observation: ..
Reward -0
About to find best action in Step: 10
Foind best action in Step: 10
Coolie

Action Type: 2

Presence: 0000000000000000000000000000000000000000
Invited Nodes: 
Actions left: 3
Session index: 6

Observation: ..
Reward 0
About to find best action in Step: 11
Values: 0(endSession) 5.73095(query) 7.39776(invite)
Foind best action in Step: 11
Coolie

Action Type: 1
Active Nodes: 22 37 

Presence: 0000000000000000000000000000000000000000
Invited Nodes: 
Actions left: 2
Session index: 6

Observation: ..
Reward -0
About to find best action in Step: 12
Values: 0(endSession) 1.66935(query) 5.15568(invite)
Foind best action in Step: 12
Coolie

Action Type: 1
Active Nodes: 2 5 

Presence: 0000000000000000000000000000000000000000
Invited Nodes: 
Actions left: 1
Session index: 6

Observation: ..
Reward -0
About to find best action in Step: 13
Values: 0(endSession) 0(query) 2.81526(invite)
Foind best action in Step: 13
Coolie

Action Type: 1
Active Nodes: 11 14 

Presence: 0000000000000000000000000000000000000000
Invited Nodes: 
Actions left: 0
Session index: 6

Observation: ..
Reward -0
About to find best action in Step: 14
Foind best action in Step: 14
Coolie

Action Type: 2

Presence: 0000001000000000000000000010000000000000
Invited Nodes: 
Actions left: 3
Session index: 7

Observation: ..
Reward 0
Terminated
Discounted return = 0, average = 10.6206
Undiscounted return = 0, average = 10.6206
Starting run 16 with 1024 simulations... 

Presence: 0000000000000000000000000000000000000000
Invited Nodes: 
Actions left: 3
Session index: 1
About to find best action in Step: 0
Values: 11.399(endSession) 10.4906(query) 10.9179(invite)
Foind best action in Step: 0
Coolie

Action Type: 2

Presence: 1111111111111111111111111111111111110110
Invited Nodes: 
Actions left: 3
Session index: 2

Observation: ..
Reward 0
About to find best action in Step: 1
Values: 9.0035(endSession) 10.2535(query) 10.8574(invite)
Foind best action in Step: 1
Coolie

Action Type: 1
Active Nodes: 2 14 

Presence: 1111111111111111111111111111111111110110
Invited Nodes: 2 14 
Actions left: 2
Session index: 2

Observation: ..11
Reward -0
About to find best action in Step: 2
Foind best action in Step: 2
Coolie

Action Type: 2

Presence: 0000000000000000000000000100000000000000
Invited Nodes: 2 14 
Actions left: 3
Session index: 3

Observation: ..
Reward 0
About to find best action in Step: 3
Foind best action in Step: 3
Coolie

Action Type: 2

Presence: 1111111111111111111111111111111111111111
Invited Nodes: 2 14 
Actions left: 3
Session index: 4

Observation: ..
Reward 0
About to find best action in Step: 4
Foind best action in Step: 4
Coolie

Action Type: 2

Presence: 1111111111111111111111111110111111111110
Invited Nodes: 2 14 
Actions left: 3
Session index: 5

Observation: ..
Reward 0
About to find best action in Step: 5
Foind best action in Step: 5
Coolie

Action Type: 2

Presence: 0000000000000000000000000000000000000000
Invited Nodes: 2 14 
Actions left: 3
Session index: 6

Observation: ..
Reward 0
About to find best action in Step: 6
Foind best action in Step: 6
Coolie

Action Type: 2

Presence: 0000000000000000000000000001000000000000
Invited Nodes: 2 14 
Actions left: 3
Session index: 7

Observation: ..
Reward 14.943
Terminated
Discounted return = 14.943, average = 10.8908
Undiscounted return = 14.943, average = 10.8908
Starting run 17 with 1024 simulations... 

Presence: 0000000000000000000000000000000000000000
Invited Nodes: 
Actions left: 3
Session index: 1
About to find best action in Step: 0
Values: 10.283(endSession) 10.6775(query) 11.2349(invite)
Foind best action in Step: 0
Coolie

Action Type: 1
Active Nodes: 2 18 

Presence: 0000000000000000000000000000000000000000
Invited Nodes: 
Actions left: 2
Session index: 1

Observation: ..
Reward -0
About to find best action in Step: 1
Values: 10.132(endSession) 10.6353(query) 10.4806(invite)
Foind best action in Step: 1
Coolie

Action Type: 0
Active Nodes: 14 17 

Presence: 0000000000000000000000000000000000000000
Invited Nodes: 
Actions left: 1
Session index: 1

Observation: ..
Reward -0
About to find best action in Step: 2
Values: 9.0125(endSession) 10.2614(query) 10.254(invite)
Foind best action in Step: 2
Coolie

Action Type: 0
Active Nodes: 8 29 

Presence: 0000000000000000000000000000000000000000
Invited Nodes: 
Actions left: 0
Session index: 1

Observation: ..
Reward -0
About to find best action in Step: 3
Foind best action in Step: 3
Coolie

Action Type: 2

Presence: 0000000000000000000000000000000000000000
Invited Nodes: 
Actions left: 3
Session index: 2

Observation: ..
Reward 0
About to find best action in Step: 4
Values: 10.0305(endSession) 10.352(query) 10.5532(invite)
Foind best action in Step: 4
Coolie

Action Type: 1
Active Nodes: 2 18 

Presence: 0000000000000000000000000000000000000000
Invited Nodes: 
Actions left: 2
Session index: 2

Observation: ..
Reward -0
About to find best action in Step: 5
Values: 0(endSession) 10.3042(query) 10.1253(invite)
Foind best action in Step: 5
Coolie

Action Type: 0
Active Nodes: 11 38 

Presence: 0000000000000000000000000000000000000000
Invited Nodes: 
Actions left: 1
Session index: 2

Observation: ..
Reward -0
About to find best action in Step: 6
Values: 10.2095(endSession) 10.2382(query) 10.0972(invite)
Foind best action in Step: 6
Coolie

Action Type: 0
Active Nodes: 7 35 

Presence: 0000000000000000000000000000000000000000
Invited Nodes: 
Actions left: 0
Session index: 2

Observation: ..
Reward -0
About to find best action in Step: 7
Foind best action in Step: 7
Coolie

Action Type: 2

Presence: 1111111111111111111011111111111111111111
Invited Nodes: 
Actions left: 3
Session index: 3

Observation: ..
Reward 0
About to find best action in Step: 8
Values: 9.284(endSession) 10.0164(query) 10.6237(invite)
Foind best action in Step: 8
Coolie

Action Type: 1
Active Nodes: 14 37 

Presence: 1111111111111111111011111111111111111111
Invited Nodes: 14 37 
Actions left: 2
Session index: 3

Observation: ..11
Reward -0
About to find best action in Step: 9
Foind best action in Step: 9
Coolie

Action Type: 2

Presence: 0000000000000000000000000000000000000000
Invited Nodes: 14 37 
Actions left: 3
Session index: 4

Observation: ..
Reward 0
About to find best action in Step: 10
Foind best action in Step: 10
Coolie

Action Type: 2

Presence: 1111111111111111111011111111111011111111
Invited Nodes: 14 37 
Actions left: 3
Session index: 5

Observation: ..
Reward 0
About to find best action in Step: 11
Foind best action in Step: 11
Coolie

Action Type: 2

Presence: 1111111111111111111111111011111111111111
Invited Nodes: 14 37 
Actions left: 3
Session index: 6

Observation: ..
Reward 0
About to find best action in Step: 12
Foind best action in Step: 12
Coolie

Action Type: 2

Presence: 1111111111111111111111111111111111111110
Invited Nodes: 14 37 
Actions left: 3
Session index: 7

Observation: ..
Reward 12.724
Terminated
Discounted return = 12.724, average = 10.9986
Undiscounted return = 12.724, average = 10.9986
Starting run 18 with 1024 simulations... 

Presence: 0000000000000000000000000000000000000000
Invited Nodes: 
Actions left: 3
Session index: 1
About to find best action in Step: 0
Values: 9.461(endSession) 10.503(query) 10.7781(invite)
Foind best action in Step: 0
Coolie

Action Type: 1
Active Nodes: 1 17 

Presence: 0000000000000000000000000000000000000000
Invited Nodes: 
Actions left: 2
Session index: 1

Observation: ..
Reward -0
About to find best action in Step: 1
Values: 10.87(endSession) 10.3112(query) 10.5315(invite)
Foind best action in Step: 1
Coolie

Action Type: 2

Presence: 0000000000000000000000000100000000000000
Invited Nodes: 
Actions left: 3
Session index: 2

Observation: ..
Reward 0
About to find best action in Step: 2
Values: 8.8385(endSession) 10.6637(query) 10.2685(invite)
Foind best action in Step: 2
Coolie

Action Type: 0
Active Nodes: 0 35 

Presence: 0000000000000000000000000100000000000000
Invited Nodes: 
Actions left: 2
Session index: 2

Observation: ..
Reward -0
About to find best action in Step: 3
Values: 10.396(endSession) 10.3156(query) 10.606(invite)
Foind best action in Step: 3
Coolie

Action Type: 1
Active Nodes: 14 37 

Presence: 0000000000000000000000000100000000000000
Invited Nodes: 
Actions left: 1
Session index: 2

Observation: ..
Reward -0
About to find best action in Step: 4
Values: 10.957(endSession) 10.2258(query) 10.0519(invite)
Foind best action in Step: 4
Coolie

Action Type: 2

Presence: 0000000000000000000000000100000000100001
Invited Nodes: 
Actions left: 3
Session index: 3

Observation: ..
Reward 0
About to find best action in Step: 5
Values: 10.505(endSession) 10.2962(query) 11.4551(invite)
Foind best action in Step: 5
Coolie

Action Type: 1
Active Nodes: 14 35 

Presence: 0000000000000000000000000100000000100001
Invited Nodes: 
Actions left: 2
Session index: 3

Observation: ..
Reward -0
About to find best action in Step: 6
Values: 0(endSession) 10.0476(query) 10.0481(invite)
Foind best action in Step: 6
Coolie

Action Type: 1
Active Nodes: 7 34 

Presence: 0000000000000000000000000100000000100001
Invited Nodes: 34 
Actions left: 1
Session index: 3

Observation: ..10
Reward -0
About to find best action in Step: 7
Values: 8.19033(endSession) 9.97598(query) 9.956(invite)
Foind best action in Step: 7
Coolie

Action Type: 0
Active Nodes: 8 31 

Presence: 0000000000000000000000000100000000100001
Invited Nodes: 34 
Actions left: 0
Session index: 3

Observation: ..
Reward -0
About to find best action in Step: 8
Foind best action in Step: 8
Coolie

Action Type: 2

Presence: 0000000000000000000000000000000100000010
Invited Nodes: 34 
Actions left: 3
Session index: 4

Observation: ..
Reward 0
About to find best action in Step: 9
Values: 9.11233(endSession) 9.79405(query) 9.6853(invite)
Foind best action in Step: 9
Coolie

Action Type: 0
Active Nodes: 1 39 

Presence: 0000000000000000000000000000000100000010
Invited Nodes: 34 
Actions left: 2
Session index: 4

Observation: ..
Reward -0
About to find best action in Step: 10
Values: 10.234(endSession) 9.43947(query) 10.0623(invite)
Foind best action in Step: 10
Coolie

Action Type: 2

Presence: 1111111111111111111111111111111111111111
Invited Nodes: 34 
Actions left: 3
Session index: 5

Observation: ..
Reward 0
About to find best action in Step: 11
Values: 5.1695(endSession) 8.85377(query) 9.6048(invite)
Foind best action in Step: 11
Coolie

Action Type: 1
Active Nodes: 2 

Presence: 1111111111111111111111111111111111111111
Invited Nodes: 2 34 
Actions left: 2
Session index: 5

Observation: ..1
Reward -0
About to find best action in Step: 12
Foind best action in Step: 12
Coolie

Action Type: 2

Presence: 1111111111111111111111111111111111111111
Invited Nodes: 2 34 
Actions left: 3
Session index: 6

Observation: ..
Reward 0
About to find best action in Step: 13
Foind best action in Step: 13
Coolie

Action Type: 2

Presence: 0000000000000000000000000000000000000000
Invited Nodes: 2 34 
Actions left: 3
Session index: 7

Observation: ..
Reward 12.516
Terminated
Discounted return = 12.516, average = 11.0829
Undiscounted return = 12.516, average = 11.0829
Starting run 19 with 1024 simulations... 

Presence: 0000000000000000000000000001000100000000
Invited Nodes: 
Actions left: 3
Session index: 1
About to find best action in Step: 0
Values: 10.935(endSession) 10.3969(query) 10.5101(invite)
Foind best action in Step: 0
Coolie

Action Type: 2

Presence: 0000000000000000000000000100000000000000
Invited Nodes: 
Actions left: 3
Session index: 2

Observation: ..
Reward 0
About to find best action in Step: 1
Values: 9.9705(endSession) 10.3927(query) 10.6645(invite)
Foind best action in Step: 1
Coolie

Action Type: 1
Active Nodes: 14 29 

Presence: 0000000000000000000000000100000000000000
Invited Nodes: 
Actions left: 2
Session index: 2

Observation: ..
Reward -0
About to find best action in Step: 2
Values: 9.284(endSession) 10.2278(query) 10.3(invite)
Foind best action in Step: 2
Coolie

Action Type: 1
Active Nodes: 14 16 

Presence: 0000000000000000000000000100000000000000
Invited Nodes: 
Actions left: 1
Session index: 2

Observation: ..
Reward -0
About to find best action in Step: 3
Values: 11.389(endSession) 10.1052(query) 10.2877(invite)
Foind best action in Step: 3
Coolie

Action Type: 2

Presence: 1111111111111111111111111111111011111111
Invited Nodes: 
Actions left: 3
Session index: 3

Observation: ..
Reward 0
About to find best action in Step: 4
Values: 10.0455(endSession) 10.3683(query) 9.99435(invite)
Foind best action in Step: 4
Coolie

Action Type: 0
Active Nodes: 5 25 

Presence: 1111111111111111111111111111111011111111
Invited Nodes: 
Actions left: 2
Session index: 3

Observation: ..11
Reward -0
About to find best action in Step: 5
Values: 11.3185(endSession) 9.74899(query) 10.7618(invite)
Foind best action in Step: 5
Coolie

Action Type: 2

Presence: 0000000000000000000000000100000000100000
Invited Nodes: 
Actions left: 3
Session index: 4

Observation: ..
Reward 0
About to find best action in Step: 6
Values: 0(endSession) 9.95128(query) 9.77676(invite)
Foind best action in Step: 6
Coolie

Action Type: 0
Active Nodes: 6 39 

Presence: 0000000000000000000000000100000000100000
Invited Nodes: 
Actions left: 2
Session index: 4

Observation: ..
Reward -0
About to find best action in Step: 7
Values: 4.6405(endSession) 8.76718(query) 9.84126(invite)
Foind best action in Step: 7
Coolie

Action Type: 1
Active Nodes: 10 35 

Presence: 0000000000000000000000000100000000100000
Invited Nodes: 
Actions left: 1
Session index: 4

Observation: ..
Reward -0
About to find best action in Step: 8
Values: 9.905(endSession) 8.67011(query) 9.42277(invite)
Foind best action in Step: 8
Coolie

Action Type: 2

Presence: 0000000000000000000000000000000000000000
Invited Nodes: 
Actions left: 3
Session index: 5

Observation: ..
Reward 0
About to find best action in Step: 9
Values: 8.5285(endSession) 8.53376(query) 9.32108(invite)
Foind best action in Step: 9
Coolie

Action Type: 1
Active Nodes: 4 10 

Presence: 0000000000000000000000000000000000000000
Invited Nodes: 
Actions left: 2
Session index: 5

Observation: ..
Reward -0
About to find best action in Step: 10
Values: 5.289(endSession) 7.11698(query) 7.77243(invite)
Foind best action in Step: 10
Coolie

Action Type: 1
Active Nodes: 1 17 

Presence: 0000000000000000000000000000000000000000
Invited Nodes: 
Actions left: 1
Session index: 5

Observation: ..
Reward -0
About to find best action in Step: 11
Values: 0(endSession) 7.19018(query) 7.30093(invite)
Foind best action in Step: 11
Coolie

Action Type: 1
Active Nodes: 13 24 

Presence: 0000000000000000000000000000000000000000
Invited Nodes: 
Actions left: 0
Session index: 5

Observation: ..
Reward -0
About to find best action in Step: 12
Foind best action in Step: 12
Coolie

Action Type: 2

Presence: 0000000000000000000000000000000000000000
Invited Nodes: 
Actions left: 3
Session index: 6

Observation: ..
Reward 0
About to find best action in Step: 13
Values: 0(endSession) 5.77161(query) 7.16658(invite)
Foind best action in Step: 13
Coolie

Action Type: 1
Active Nodes: 10 16 

Presence: 0000000000000000000000000000000000000000
Invited Nodes: 
Actions left: 2
Session index: 6

Observation: ..
Reward -0
About to find best action in Step: 14
Values: 0(endSession) 0.787909(query) 3.81237(invite)
Foind best action in Step: 14
Coolie

Action Type: 1
Active Nodes: 3 26 

Presence: 0000000000000000000000000000000000000000
Invited Nodes: 
Actions left: 1
Session index: 6

Observation: ..
Reward -0
About to find best action in Step: 15
Values: 0(endSession) 0(query) 2.31123(invite)
Foind best action in Step: 15
Coolie

Action Type: 1
Active Nodes: 13 34 

Presence: 0000000000000000000000000000000000000000
Invited Nodes: 
Actions left: 0
Session index: 6

Observation: ..
Reward -0
About to find best action in Step: 16
Foind best action in Step: 16
Coolie

Action Type: 2

Presence: 0000000000000000000000000000000100000000
Invited Nodes: 
Actions left: 3
Session index: 7

Observation: ..
Reward 0
Terminated
Discounted return = 0, average = 10.4996
Undiscounted return = 0, average = 10.4996
Starting run 20 with 1024 simulations... 

Presence: 1111111111111111111111111111111011111111
Invited Nodes: 
Actions left: 3
Session index: 1
About to find best action in Step: 0
Values: 9.9185(endSession) 10.1844(query) 10.8811(invite)
Foind best action in Step: 0
Coolie

Action Type: 1
Active Nodes: 2 15 

Presence: 1111111111111111111111111111111011111111
Invited Nodes: 2 15 
Actions left: 2
Session index: 1

Observation: ..11
Reward -0
About to find best action in Step: 1
Foind best action in Step: 1
Coolie

Action Type: 2

Presence: 0000000000000000000000000000000000000000
Invited Nodes: 2 15 
Actions left: 3
Session index: 2

Observation: ..
Reward 0
About to find best action in Step: 2
Foind best action in Step: 2
Coolie

Action Type: 2

Presence: 0000000000000000000000000000000000000000
Invited Nodes: 2 15 
Actions left: 3
Session index: 3

Observation: ..
Reward 0
About to find best action in Step: 3
Foind best action in Step: 3
Coolie

Action Type: 2

Presence: 0000000000000000000001000000000000000000
Invited Nodes: 2 15 
Actions left: 3
Session index: 4

Observation: ..
Reward 0
About to find best action in Step: 4
Foind best action in Step: 4
Coolie

Action Type: 2

Presence: 1111111111111111111111111111111111111111
Invited Nodes: 2 15 
Actions left: 3
Session index: 5

Observation: ..
Reward 0
About to find best action in Step: 5
Foind best action in Step: 5
Coolie

Action Type: 2

Presence: 0000000000000000000000000000000000000001
Invited Nodes: 2 15 
Actions left: 3
Session index: 6

Observation: ..
Reward 0
About to find best action in Step: 6
Foind best action in Step: 6
Coolie

Action Type: 2

Presence: 1111111111111111111111111111111011111111
Invited Nodes: 2 15 
Actions left: 3
Session index: 7

Observation: ..
Reward 12.339
Terminated
Discounted return = 12.339, average = 10.5915
Undiscounted return = 12.339, average = 10.5915
Simulations = 1024
Runs = 20
Undiscounted return = 10.5915 +- 1.29149
Discounted return = 10.5915 +- 1.29149
Time = 19.476
----------------------------------------
Begin PBS Epilogue Thu Aug 31 01:10:31 PDT 2017
Job ID:           24124935.hpc-pbs1.hpcc.usc.edu
Username:         amulyaya
Accountname:      default
Group:            csci-ar
Job Name:         7.pbs
Session:          50794
Limits:           neednodes=1:ppn=16:sl230s,nodes=1:ppn=16:sl230s,walltime=24:00:00
Resources:        cput=00:06:32,energy_used=0,mem=33845468kb,vmem=33434640kb,walltime=00:06:33
Queue:            tambe
Shared Access:    no
Has MIC:          no
Is hsda:          false
removed '/scratch'
End PBS Epilogue Thu Aug 31 01:10:31 PDT 2017
----------------------------------------
