----------------------------------------
Begin PBS Prologue Tue Jul 18 16:18:30 PDT 2017
Job ID:            23741814.hpc-pbs1.hpcc.usc.edu
Username:          amulyaya
Accountname:       default
Group:             csci-ar
Project:           default
Name:              run_smaller_forced_16.pbs
Queue:             tambe
Shared Access:     no
All Cores:         no
Has MIC:           no
Is hsda:           false
Nodes:             hpc1052 
TMPDIR:            /tmp/23741814.hpc-pbs1.hpcc.usc.edu
End PBS Prologue Tue Jul 18 16:18:32 PDT 2017
----------------------------------------
******************************************************************************
METIS 5.0 Copyright 1998-13, Regents of the University of Minnesota
 (HEAD: , Built on: Oct 20 2015, 01:33:37)
 size of idx_t: 64bits, real_t: 32bits, idx_t *: 64bits

Graph Information -----------------------------------------------------------
 Name: /home/rcf-proj/mj1/amulyaya/pomcp-ve/src/VKV9LlO46j.txt, #Vertices: 10, #Edges: 13, #Parts: 2

Options ---------------------------------------------------------------------
 ptype=kway, objtype=cut, ctype=shem, rtype=greedy, iptype=metisrb
 dbglvl=0, ufactor=1.030, no2hop=NO, minconn=NO, contig=NO, nooutput=NO
 seed=-1, niter=10, ncuts=1

Direct k-way Partitioning ---------------------------------------------------
 - Edgecut: 0, communication volume: 0.

 - Balance:
     constraint #0:  1.200 out of 0.200

 - Most overweight partition:
     pid: 1, actual: 6, desired: 5, ratio: 1.20.

 - Subdomain connectivity: max: 0, min: 0, avg: 0.00

 - Each partition is contiguous.

Timing Information ----------------------------------------------------------
  I/O:          		   0.001 sec
  Partitioning: 		   0.001 sec   (METIS time)
  Reporting:    		   0.000 sec

Memory Information ----------------------------------------------------------
  Max memory used:		   0.052 MB
******************************************************************************
Initialising fast UCB table... done
Main runs
Starting run 1 with 65536 simulations... 

Presence: 1000000101
Invited Nodes: 
Actions left: 3
Session index: 1
About to find best action in Step: 0
Values: 0(endSession) 3.3328(query) 0(invite)
Foind best action in Step: 0
Coolie

Action Type: 0
Active Nodes: 2 4 

Presence: 1000000101
Invited Nodes: 
Actions left: 2
Session index: 1

Observation: ..
Reward -0
About to find best action in Step: 1
Values: 3.0892(endSession) 0(query) 3.40873(invite)
Foind best action in Step: 1
Coolie

Action Type: 1
Active Nodes: 0 6 

Presence: 1000000101
Invited Nodes: 0 
Actions left: 1
Session index: 1

Observation: ..1
Reward -0
About to find best action in Step: 2
Values: 3.5971(endSession) 0(query) 3.77955(invite)
Foind best action in Step: 2
Coolie

Action Type: 1
Active Nodes: 7 

Presence: 1000000101
Invited Nodes: 0 7 
Actions left: 0
Session index: 1

Observation: ..1
Reward -0
About to find best action in Step: 3
Foind best action in Step: 3
Coolie

Action Type: 2

Presence: 0100001011
Invited Nodes: 0 7 
Actions left: 3
Session index: 2

Observation: ..
Reward 0
About to find best action in Step: 4
Foind best action in Step: 4
Coolie

Action Type: 2

Presence: 0000000001
Invited Nodes: 0 7 
Actions left: 3
Session index: 3

Observation: ..
Reward 0
About to find best action in Step: 5
Foind best action in Step: 5
Coolie

Action Type: 2

Presence: 1101100000
Invited Nodes: 0 7 
Actions left: 3
Session index: 4

Observation: ..
Reward 4.444
Terminated
Discounted return = 4.444, average = 4.444
Undiscounted return = 4.444, average = 4.444
Simulations = 65536
Runs = 1
Undiscounted return = 4.444 +- 0
Discounted return = 4.444 +- 0
Time = 344.14
----------------------------------------
Begin PBS Epilogue Tue Jul 18 16:24:32 PDT 2017
Job ID:           23741814.hpc-pbs1.hpcc.usc.edu
Username:         amulyaya
Accountname:      default
Group:            csci-ar
Job Name:         run_smaller_forced_16.pbs
Session:          9287
Limits:           neednodes=1:ppn=16,nodes=1:ppn=16,walltime=24:00:00
Resources:        cput=00:05:48,energy_used=0,mem=28017084kb,vmem=25263348kb,walltime=00:05:50
Queue:            tambe
Shared Access:    no
Has MIC:          no
Is hsda:          false
removed '/scratch'
End PBS Epilogue Tue Jul 18 16:24:32 PDT 2017
----------------------------------------
