20 51
2
0 3
3 2 2 3
2
0 4
3 2 2 3
2
0 5
3 2 2 3
2
0 6
3 2 2 3
2
0 7
3 2 2 3
2
0 9
3 2 2 3
2
0 11
3 2 2 3
2
0 12
3 2 2 3
2
0 13
3 2 2 3
2
0 15
3 2 2 3
2
0 17
3 2 2 3
2
1 3
3 2 2 3
2
1 4
3 2 2 3
2
1 5
3 2 2 3
2
1 12
3 2 2 3
2
1 14
3 2 2 3
2
1 16
3 2 2 3
2
1 18
3 2 2 3
2
2 3
3 2 2 3
2
3 4
3 2 2 3
2
3 6
3 2 2 3
2
3 10
3 2 2 3
2
3 12
3 2 2 3
2
3 13
3 2 2 3
2
3 16
3 2 2 3
2
4 5
3 2 2 3
2
4 6
3 2 2 3
2
4 7
3 2 2 3
2
4 8
3 2 2 3
2
4 9
3 2 2 3
2
4 10
3 2 2 3
2
4 11
3 2 2 3
2
4 13
3 2 2 3
2
4 17
3 2 2 3
2
4 19
3 2 2 3
2
5 8
3 2 2 3
2
5 9
3 2 2 3
2
5 14
3 2 2 3
2
6 7
3 2 2 3
2
6 10
3 2 2 3
2
6 15
3 2 2 3
2
6 18
3 2 2 3
2
7 8
3 2 2 3
2
8 17
3 2 2 3
2
9 11
3 2 2 3
2
9 15
3 2 2 3
2
10 14
3 2 2 3
2
11 18
3 2 2 3
2
13 16
3 2 2 3
2
14 19
3 2 2 3
2
18 19
3 2 2 3
