20 51
2
0 3
3 2 2 3
2
0 4
3 2 2 3
2
0 5
3 2 2 3
2
0 6
3 2 2 3
2
0 13
3 2 2 3
2
0 19
3 2 2 3
2
1 17
3 2 2 3
2
1 3
3 2 2 3
2
1 6
3 2 2 3
2
1 7
3 2 2 3
2
2 8
3 2 2 3
2
2 12
3 2 2 3
2
2 3
3 2 2 3
2
2 4
3 2 2 3
2
2 15
3 2 2 3
2
3 4
3 2 2 3
2
3 5
3 2 2 3
2
3 7
3 2 2 3
2
3 8
3 2 2 3
2
3 9
3 2 2 3
2
3 11
3 2 2 3
2
3 16
3 2 2 3
2
3 18
3 2 2 3
2
4 5
3 2 2 3
2
4 8
3 2 2 3
2
4 11
3 2 2 3
2
4 14
3 2 2 3
2
5 6
3 2 2 3
2
5 7
3 2 2 3
2
5 10
3 2 2 3
2
5 11
3 2 2 3
2
5 12
3 2 2 3
2
5 15
3 2 2 3
2
5 19
3 2 2 3
2
6 9
3 2 2 3
2
6 12
3 2 2 3
2
6 13
3 2 2 3
2
8 9
3 2 2 3
2
8 10
3 2 2 3
2
8 16
3 2 2 3
2
9 10
3 2 2 3
2
9 13
3 2 2 3
2
9 16
3 2 2 3
2
9 17
3 2 2 3
2
9 18
3 2 2 3
2
12 18
3 2 2 3
2
12 14
3 2 2 3
2
13 14
3 2 2 3
2
13 17
3 2 2 3
2
14 15
3 2 2 3
2
18 19
3 2 2 3
