1 3 0 0
3 1 0 0
1 4 0 0
4 1 0 0
1 6 0 0
6 1 0 0
1 25 0 0
25 1 0 0
1 38 0 0
38 1 0 0
1 46 0 0
46 1 0 0
2 1 0 0
1 2 0 0
2 3 0 0
3 2 0 0
2 5 0 0
5 2 0 0
2 7 0 0
7 2 0 0
2 22 0 0
22 2 0 0
2 35 0 0
35 2 0 0
2 41 0 0
41 2 0 0
3 23 0 0
23 3 0 0
4 8 0 0
8 4 0 0
4 19 0 0
19 4 0 0
4 24 0 0
24 4 0 0
4 35 0 0
35 4 0 0
4 39 0 0
39 4 0 0
4 45 0 0
45 4 0 0
5 6 0 0
6 5 0 0
5 17 0 0
17 5 0 0
5 28 0 0
28 5 0 0
5 44 0 0
44 5 0 0
5 60 0 0
60 5 0 0
6 1 0 0
1 6 0 0
6 3 0 0
3 6 0 0
6 4 0 0
4 6 0 0
6 7 0 0
7 6 0 0
6 10 0 0
10 6 0 0
6 30 0 0
30 6 0 0
6 41 0 0
41 6 0 0
7 5 0 0
5 7 0 0
7 16 0 0
16 7 0 0
7 26 0 0
26 7 0 0
8 43 0 0
43 8 0 0
9 2 0 0
2 9 0 0
9 3 0 0
3 9 0 0
9 11 0 0
11 9 0 0
9 22 0 0
22 9 0 0
9 32 0 0
32 9 0 0
9 36 0 0
36 9 0 0
9 40 0 0
40 9 0 0
9 50 0 0
50 9 0 0
10 1 0 0
1 10 0 0
10 2 0 0
2 10 0 0
10 5 0 0
5 10 0 0
10 8 0 0
8 10 0 0
10 15 0 0
15 10 0 0
10 39 0 0
39 10 0 0
11 1 0 0
1 11 0 0
11 7 0 0
7 11 0 0
11 12 0 0
12 11 0 0
11 13 0 0
13 11 0 0
11 14 0 0
14 11 0 0
11 15 0 0
15 11 0 0
11 17 0 0
17 11 0 0
11 18 0 0
18 11 0 0
11 20 0 0
20 11 0 0
11 37 0 0
37 11 0 0
11 39 0 0
39 11 0 0
11 43 0 0
43 11 0 0
11 54 0 0
54 11 0 0
12 1 0 0
1 12 0 0
12 7 0 0
7 12 0 0
12 11 0 0
11 12 0 0
12 16 0 0
16 12 0 0
12 17 0 0
17 12 0 0
12 19 0 0
19 12 0 0
12 29 0 0
29 12 0 0
12 30 0 0
30 12 0 0
12 48 0 0
48 12 0 0
13 15 0 0
15 13 0 0
13 18 0 0
18 13 0 0
13 19 0 0
19 13 0 0
13 29 0 0
29 13 0 0
13 30 0 0
30 13 0 0
14 3 0 0
3 14 0 0
14 13 0 0
13 14 0 0
14 16 0 0
16 14 0 0
14 19 0 0
19 14 0 0
14 53 0 0
53 14 0 0
15 3 0 0
3 15 0 0
15 16 0 0
16 15 0 0
15 19 0 0
19 15 0 0
15 45 0 0
45 15 0 0
16 7 0 0
7 16 0 0
16 11 0 0
11 16 0 0
16 17 0 0
17 16 0 0
16 40 0 0
40 16 0 0
16 51 0 0
51 16 0 0
16 52 0 0
52 16 0 0
16 55 0 0
55 16 0 0
17 15 0 0
15 17 0 0
17 43 0 0
43 17 0 0
18 13 0 0
13 18 0 0
18 14 0 0
14 18 0 0
18 16 0 0
16 18 0 0
18 17 0 0
17 18 0 0
19 3 0 0
3 19 0 0
19 9 0 0
9 19 0 0
19 11 0 0
11 19 0 0
19 14 0 0
14 19 0 0
19 16 0 0
16 19 0 0
19 17 0 0
17 19 0 0
19 20 0 0
20 19 0 0
19 26 0 0
26 19 0 0
19 28 0 0
28 19 0 0
19 35 0 0
35 19 0 0
19 40 0 0
40 19 0 0
19 42 0 0
42 19 0 0
19 44 0 0
44 19 0 0
19 51 0 0
51 19 0 0
19 59 0 0
59 19 0 0
20 8 0 0
8 20 0 0
20 10 0 0
10 20 0 0
20 18 0 0
18 20 0 0
20 36 0 0
36 20 0 0
20 39 0 0
39 20 0 0
21 22 0 0
22 21 0 0
21 27 0 0
27 21 0 0
22 24 0 0
24 22 0 0
22 29 0 0
29 22 0 0
22 38 0 0
38 22 0 0
22 41 0 0
41 22 0 0
22 45 0 0
45 22 0 0
22 47 0 0
47 22 0 0
22 53 0 0
53 22 0 0
23 9 0 0
9 23 0 0
23 22 0 0
22 23 0 0
23 24 0 0
24 23 0 0
23 25 0 0
25 23 0 0
23 30 0 0
30 23 0 0
24 4 0 0
4 24 0 0
24 7 0 0
7 24 0 0
24 9 0 0
9 24 0 0
24 15 0 0
15 24 0 0
24 22 0 0
22 24 0 0
24 23 0 0
23 24 0 0
24 27 0 0
27 24 0 0
24 28 0 0
28 24 0 0
24 32 0 0
32 24 0 0
24 38 0 0
38 24 0 0
25 13 0 0
13 25 0 0
25 23 0 0
23 25 0 0
25 26 0 0
26 25 0 0
26 2 0 0
2 26 0 0
26 8 0 0
8 26 0 0
26 12 0 0
12 26 0 0
26 21 0 0
21 26 0 0
26 29 0 0
29 26 0 0
26 47 0 0
47 26 0 0
27 22 0 0
22 27 0 0
27 24 0 0
24 27 0 0
27 26 0 0
26 27 0 0
27 29 0 0
29 27 0 0
27 32 0 0
32 27 0 0
27 57 0 0
57 27 0 0
28 19 0 0
19 28 0 0
28 21 0 0
21 28 0 0
28 22 0 0
22 28 0 0
28 23 0 0
23 28 0 0
28 24 0 0
24 28 0 0
28 26 0 0
26 28 0 0
28 27 0 0
27 28 0 0
28 48 0 0
48 28 0 0
28 51 0 0
51 28 0 0
28 60 0 0
60 28 0 0
29 3 0 0
3 29 0 0
29 19 0 0
19 29 0 0
29 23 0 0
23 29 0 0
29 25 0 0
25 29 0 0
29 27 0 0
27 29 0 0
29 30 0 0
30 29 0 0
29 40 0 0
40 29 0 0
29 43 0 0
43 29 0 0
29 48 0 0
48 29 0 0
30 2 0 0
2 30 0 0
30 23 0 0
23 30 0 0
30 24 0 0
24 30 0 0
30 26 0 0
26 30 0 0
30 39 0 0
39 30 0 0
30 47 0 0
47 30 0 0
31 12 0 0
12 31 0 0
31 36 0 0
36 31 0 0
31 40 0 0
40 31 0 0
31 58 0 0
58 31 0 0
31 60 0 0
60 31 0 0
32 31 0 0
31 32 0 0
32 35 0 0
35 32 0 0
32 37 0 0
37 32 0 0
32 39 0 0
39 32 0 0
32 49 0 0
49 32 0 0
33 10 0 0
10 33 0 0
33 11 0 0
11 33 0 0
33 34 0 0
34 33 0 0
33 35 0 0
35 33 0 0
33 36 0 0
36 33 0 0
33 37 0 0
37 33 0 0
34 6 0 0
6 34 0 0
34 38 0 0
38 34 0 0
34 40 0 0
40 34 0 0
34 43 0 0
43 34 0 0
34 58 0 0
58 34 0 0
35 1 0 0
1 35 0 0
35 14 0 0
14 35 0 0
35 33 0 0
33 35 0 0
35 37 0 0
37 35 0 0
35 40 0 0
40 35 0 0
35 54 0 0
54 35 0 0
35 57 0 0
57 35 0 0
36 7 0 0
7 36 0 0
36 12 0 0
12 36 0 0
36 16 0 0
16 36 0 0
36 32 0 0
32 36 0 0
36 37 0 0
37 36 0 0
37 3 0 0
3 37 0 0
37 6 0 0
6 37 0 0
37 32 0 0
32 37 0 0
37 33 0 0
33 37 0 0
37 38 0 0
38 37 0 0
38 35 0 0
35 38 0 0
39 4 0 0
4 39 0 0
39 33 0 0
33 39 0 0
39 38 0 0
38 39 0 0
39 40 0 0
40 39 0 0
40 31 0 0
31 40 0 0
40 32 0 0
32 40 0 0
40 33 0 0
33 40 0 0
40 55 0 0
55 40 0 0
40 60 0 0
60 40 0 0
41 9 0 0
9 41 0 0
41 15 0 0
15 41 0 0
41 18 0 0
18 41 0 0
41 24 0 0
24 41 0 0
41 47 0 0
47 41 0 0
41 49 0 0
49 41 0 0
42 30 0 0
30 42 0 0
42 35 0 0
35 42 0 0
42 52 0 0
52 42 0 0
43 32 0 0
32 43 0 0
43 45 0 0
45 43 0 0
43 47 0 0
47 43 0 0
43 54 0 0
54 43 0 0
44 45 0 0
45 44 0 0
44 46 0 0
46 44 0 0
44 50 0 0
50 44 0 0
45 4 0 0
4 45 0 0
45 21 0 0
21 45 0 0
45 35 0 0
35 45 0 0
45 46 0 0
46 45 0 0
45 50 0 0
50 45 0 0
46 41 0 0
41 46 0 0
46 47 0 0
47 46 0 0
46 58 0 0
58 46 0 0
47 15 0 0
15 47 0 0
47 48 0 0
48 47 0 0
47 49 0 0
49 47 0 0
48 19 0 0
19 48 0 0
48 32 0 0
32 48 0 0
48 38 0 0
38 48 0 0
48 45 0 0
45 48 0 0
49 31 0 0
31 49 0 0
49 33 0 0
33 49 0 0
49 45 0 0
45 49 0 0
49 48 0 0
48 49 0 0
49 58 0 0
58 49 0 0
50 4 0 0
4 50 0 0
50 41 0 0
41 50 0 0
50 43 0 0
43 50 0 0
50 48 0 0
48 50 0 0
50 57 0 0
57 50 0 0
51 7 0 0
7 51 0 0
51 16 0 0
16 51 0 0
51 19 0 0
19 51 0 0
51 28 0 0
28 51 0 0
51 50 0 0
50 51 0 0
52 53 0 0
53 52 0 0
53 1 0 0
1 53 0 0
53 10 0 0
10 53 0 0
53 14 0 0
14 53 0 0
53 24 0 0
24 53 0 0
53 51 0 0
51 53 0 0
53 54 0 0
54 53 0 0
53 59 0 0
59 53 0 0
53 60 0 0
60 53 0 0
54 2 0 0
2 54 0 0
54 33 0 0
33 54 0 0
54 40 0 0
40 54 0 0
54 41 0 0
41 54 0 0
54 44 0 0
44 54 0 0
54 53 0 0
53 54 0 0
54 59 0 0
59 54 0 0
54 60 0 0
60 54 0 0
55 34 0 0
34 55 0 0
55 45 0 0
45 55 0 0
55 52 0 0
52 55 0 0
55 53 0 0
53 55 0 0
56 29 0 0
29 56 0 0
56 59 0 0
59 56 0 0
57 2 0 0
2 57 0 0
57 6 0 0
6 57 0 0
57 9 0 0
9 57 0 0
57 28 0 0
28 57 0 0
57 36 0 0
36 57 0 0
57 56 0 0
56 57 0 0
58 8 0 0
8 58 0 0
58 52 0 0
52 58 0 0
58 54 0 0
54 58 0 0
58 56 0 0
56 58 0 0
58 59 0 0
59 58 0 0
58 60 0 0
60 58 0 0
59 49 0 0
49 59 0 0
59 52 0 0
52 59 0 0
59 53 0 0
53 59 0 0
59 57 0 0
57 59 0 0
60 25 0 0
25 60 0 0
60 50 0 0
50 60 0 0
60 55 0 0
55 60 0 0
60 56 0 0
56 60 0 0
60 57 0 0
57 60 0 0
60 59 0 0
59 60 0 0
