60 708
2
0 9
3 2 2 3
2
9 0
3 2 2 3
2
0 15
3 2 2 3
2
15 0
3 2 2 3
2
1 8
3 2 2 3
2
8 1
3 2 2 3
2
1 19
3 2 2 3
2
19 1
3 2 2 3
2
1 50
3 2 2 3
2
50 1
3 2 2 3
2
2 0
3 2 2 3
2
0 2
3 2 2 3
2
2 1
3 2 2 3
2
1 2
3 2 2 3
2
2 5
3 2 2 3
2
5 2
3 2 2 3
2
2 6
3 2 2 3
2
6 2
3 2 2 3
2
2 7
3 2 2 3
2
7 2
3 2 2 3
2
2 26
3 2 2 3
2
26 2
3 2 2 3
2
2 35
3 2 2 3
2
35 2
3 2 2 3
2
2 40
3 2 2 3
2
40 2
3 2 2 3
2
2 41
3 2 2 3
2
41 2
3 2 2 3
2
2 47
3 2 2 3
2
47 2
3 2 2 3
2
2 51
3 2 2 3
2
51 2
3 2 2 3
2
2 59
3 2 2 3
2
59 2
3 2 2 3
2
3 0
3 2 2 3
2
0 3
3 2 2 3
2
3 1
3 2 2 3
2
1 3
3 2 2 3
2
3 5
3 2 2 3
2
5 3
3 2 2 3
2
3 8
3 2 2 3
2
8 3
3 2 2 3
2
3 14
3 2 2 3
2
14 3
3 2 2 3
2
3 43
3 2 2 3
2
43 3
3 2 2 3
2
4 5
3 2 2 3
2
5 4
3 2 2 3
2
4 6
3 2 2 3
2
6 4
3 2 2 3
2
4 7
3 2 2 3
2
7 4
3 2 2 3
2
4 8
3 2 2 3
2
8 4
3 2 2 3
2
4 9
3 2 2 3
2
9 4
3 2 2 3
2
4 25
3 2 2 3
2
25 4
3 2 2 3
2
4 51
3 2 2 3
2
51 4
3 2 2 3
2
5 2
3 2 2 3
2
2 5
3 2 2 3
2
5 8
3 2 2 3
2
8 5
3 2 2 3
2
5 48
3 2 2 3
2
48 5
3 2 2 3
2
6 0
3 2 2 3
2
0 6
3 2 2 3
2
6 4
3 2 2 3
2
4 6
3 2 2 3
2
6 5
3 2 2 3
2
5 6
3 2 2 3
2
6 7
3 2 2 3
2
7 6
3 2 2 3
2
6 26
3 2 2 3
2
26 6
3 2 2 3
2
6 38
3 2 2 3
2
38 6
3 2 2 3
2
6 48
3 2 2 3
2
48 6
3 2 2 3
2
6 49
3 2 2 3
2
49 6
3 2 2 3
2
6 52
3 2 2 3
2
52 6
3 2 2 3
2
6 54
3 2 2 3
2
54 6
3 2 2 3
2
7 3
3 2 2 3
2
3 7
3 2 2 3
2
7 8
3 2 2 3
2
8 7
3 2 2 3
2
7 9
3 2 2 3
2
9 7
3 2 2 3
2
7 15
3 2 2 3
2
15 7
3 2 2 3
2
7 22
3 2 2 3
2
22 7
3 2 2 3
2
7 41
3 2 2 3
2
41 7
3 2 2 3
2
7 50
3 2 2 3
2
50 7
3 2 2 3
2
8 4
3 2 2 3
2
4 8
3 2 2 3
2
8 7
3 2 2 3
2
7 8
3 2 2 3
2
8 9
3 2 2 3
2
9 8
3 2 2 3
2
8 59
3 2 2 3
2
59 8
3 2 2 3
2
9 0
3 2 2 3
2
0 9
3 2 2 3
2
9 1
3 2 2 3
2
1 9
3 2 2 3
2
9 2
3 2 2 3
2
2 9
3 2 2 3
2
9 4
3 2 2 3
2
4 9
3 2 2 3
2
9 7
3 2 2 3
2
7 9
3 2 2 3
2
9 21
3 2 2 3
2
21 9
3 2 2 3
2
9 49
3 2 2 3
2
49 9
3 2 2 3
2
9 51
3 2 2 3
2
51 9
3 2 2 3
2
10 1
3 2 2 3
2
1 10
3 2 2 3
2
10 3
3 2 2 3
2
3 10
3 2 2 3
2
10 14
3 2 2 3
2
14 10
3 2 2 3
2
10 19
3 2 2 3
2
19 10
3 2 2 3
2
10 21
3 2 2 3
2
21 10
3 2 2 3
2
10 32
3 2 2 3
2
32 10
3 2 2 3
2
10 44
3 2 2 3
2
44 10
3 2 2 3
2
11 3
3 2 2 3
2
3 11
3 2 2 3
2
11 10
3 2 2 3
2
10 11
3 2 2 3
2
11 12
3 2 2 3
2
12 11
3 2 2 3
2
11 13
3 2 2 3
2
13 11
3 2 2 3
2
11 17
3 2 2 3
2
17 11
3 2 2 3
2
11 34
3 2 2 3
2
34 11
3 2 2 3
2
11 49
3 2 2 3
2
49 11
3 2 2 3
2
12 10
3 2 2 3
2
10 12
3 2 2 3
2
12 16
3 2 2 3
2
16 12
3 2 2 3
2
12 44
3 2 2 3
2
44 12
3 2 2 3
2
12 53
3 2 2 3
2
53 12
3 2 2 3
2
13 12
3 2 2 3
2
12 13
3 2 2 3
2
13 16
3 2 2 3
2
16 13
3 2 2 3
2
13 50
3 2 2 3
2
50 13
3 2 2 3
2
13 53
3 2 2 3
2
53 13
3 2 2 3
2
13 56
3 2 2 3
2
56 13
3 2 2 3
2
14 10
3 2 2 3
2
10 14
3 2 2 3
2
14 13
3 2 2 3
2
13 14
3 2 2 3
2
14 17
3 2 2 3
2
17 14
3 2 2 3
2
14 19
3 2 2 3
2
19 14
3 2 2 3
2
14 24
3 2 2 3
2
24 14
3 2 2 3
2
14 38
3 2 2 3
2
38 14
3 2 2 3
2
15 0
3 2 2 3
2
0 15
3 2 2 3
2
15 6
3 2 2 3
2
6 15
3 2 2 3
2
15 12
3 2 2 3
2
12 15
3 2 2 3
2
15 14
3 2 2 3
2
14 15
3 2 2 3
2
15 16
3 2 2 3
2
16 15
3 2 2 3
2
15 17
3 2 2 3
2
17 15
3 2 2 3
2
15 32
3 2 2 3
2
32 15
3 2 2 3
2
15 36
3 2 2 3
2
36 15
3 2 2 3
2
15 58
3 2 2 3
2
58 15
3 2 2 3
2
16 11
3 2 2 3
2
11 16
3 2 2 3
2
16 12
3 2 2 3
2
12 16
3 2 2 3
2
16 19
3 2 2 3
2
19 16
3 2 2 3
2
16 28
3 2 2 3
2
28 16
3 2 2 3
2
16 55
3 2 2 3
2
55 16
3 2 2 3
2
17 5
3 2 2 3
2
5 17
3 2 2 3
2
17 11
3 2 2 3
2
11 17
3 2 2 3
2
17 13
3 2 2 3
2
13 17
3 2 2 3
2
17 16
3 2 2 3
2
16 17
3 2 2 3
2
17 18
3 2 2 3
2
18 17
3 2 2 3
2
17 19
3 2 2 3
2
19 17
3 2 2 3
2
17 22
3 2 2 3
2
22 17
3 2 2 3
2
17 24
3 2 2 3
2
24 17
3 2 2 3
2
17 44
3 2 2 3
2
44 17
3 2 2 3
2
17 53
3 2 2 3
2
53 17
3 2 2 3
2
17 55
3 2 2 3
2
55 17
3 2 2 3
2
18 3
3 2 2 3
2
3 18
3 2 2 3
2
18 10
3 2 2 3
2
10 18
3 2 2 3
2
18 12
3 2 2 3
2
12 18
3 2 2 3
2
18 19
3 2 2 3
2
19 18
3 2 2 3
2
18 24
3 2 2 3
2
24 18
3 2 2 3
2
19 0
3 2 2 3
2
0 19
3 2 2 3
2
19 13
3 2 2 3
2
13 19
3 2 2 3
2
19 25
3 2 2 3
2
25 19
3 2 2 3
2
20 23
3 2 2 3
2
23 20
3 2 2 3
2
20 25
3 2 2 3
2
25 20
3 2 2 3
2
20 27
3 2 2 3
2
27 20
3 2 2 3
2
20 29
3 2 2 3
2
29 20
3 2 2 3
2
20 43
3 2 2 3
2
43 20
3 2 2 3
2
20 45
3 2 2 3
2
45 20
3 2 2 3
2
20 59
3 2 2 3
2
59 20
3 2 2 3
2
21 22
3 2 2 3
2
22 21
3 2 2 3
2
21 27
3 2 2 3
2
27 21
3 2 2 3
2
21 32
3 2 2 3
2
32 21
3 2 2 3
2
21 33
3 2 2 3
2
33 21
3 2 2 3
2
22 4
3 2 2 3
2
4 22
3 2 2 3
2
22 21
3 2 2 3
2
21 22
3 2 2 3
2
22 27
3 2 2 3
2
27 22
3 2 2 3
2
22 49
3 2 2 3
2
49 22
3 2 2 3
2
23 20
3 2 2 3
2
20 23
3 2 2 3
2
23 26
3 2 2 3
2
26 23
3 2 2 3
2
23 27
3 2 2 3
2
27 23
3 2 2 3
2
23 52
3 2 2 3
2
52 23
3 2 2 3
2
24 7
3 2 2 3
2
7 24
3 2 2 3
2
24 17
3 2 2 3
2
17 24
3 2 2 3
2
24 21
3 2 2 3
2
21 24
3 2 2 3
2
24 25
3 2 2 3
2
25 24
3 2 2 3
2
24 40
3 2 2 3
2
40 24
3 2 2 3
2
25 3
3 2 2 3
2
3 25
3 2 2 3
2
25 4
3 2 2 3
2
4 25
3 2 2 3
2
25 21
3 2 2 3
2
21 25
3 2 2 3
2
25 24
3 2 2 3
2
24 25
3 2 2 3
2
25 29
3 2 2 3
2
29 25
3 2 2 3
2
25 31
3 2 2 3
2
31 25
3 2 2 3
2
25 42
3 2 2 3
2
42 25
3 2 2 3
2
25 57
3 2 2 3
2
57 25
3 2 2 3
2
26 2
3 2 2 3
2
2 26
3 2 2 3
2
26 21
3 2 2 3
2
21 26
3 2 2 3
2
26 25
3 2 2 3
2
25 26
3 2 2 3
2
26 35
3 2 2 3
2
35 26
3 2 2 3
2
26 42
3 2 2 3
2
42 26
3 2 2 3
2
27 5
3 2 2 3
2
5 27
3 2 2 3
2
27 22
3 2 2 3
2
22 27
3 2 2 3
2
27 24
3 2 2 3
2
24 27
3 2 2 3
2
27 25
3 2 2 3
2
25 27
3 2 2 3
2
27 35
3 2 2 3
2
35 27
3 2 2 3
2
27 49
3 2 2 3
2
49 27
3 2 2 3
2
28 2
3 2 2 3
2
2 28
3 2 2 3
2
28 31
3 2 2 3
2
31 28
3 2 2 3
2
28 38
3 2 2 3
2
38 28
3 2 2 3
2
28 40
3 2 2 3
2
40 28
3 2 2 3
2
28 44
3 2 2 3
2
44 28
3 2 2 3
2
29 3
3 2 2 3
2
3 29
3 2 2 3
2
29 8
3 2 2 3
2
8 29
3 2 2 3
2
29 15
3 2 2 3
2
15 29
3 2 2 3
2
29 19
3 2 2 3
2
19 29
3 2 2 3
2
29 21
3 2 2 3
2
21 29
3 2 2 3
2
29 23
3 2 2 3
2
23 29
3 2 2 3
2
29 48
3 2 2 3
2
48 29
3 2 2 3
2
30 3
3 2 2 3
2
3 30
3 2 2 3
2
30 17
3 2 2 3
2
17 30
3 2 2 3
2
30 28
3 2 2 3
2
28 30
3 2 2 3
2
30 31
3 2 2 3
2
31 30
3 2 2 3
2
30 32
3 2 2 3
2
32 30
3 2 2 3
2
30 35
3 2 2 3
2
35 30
3 2 2 3
2
31 4
3 2 2 3
2
4 31
3 2 2 3
2
31 18
3 2 2 3
2
18 31
3 2 2 3
2
31 29
3 2 2 3
2
29 31
3 2 2 3
2
31 32
3 2 2 3
2
32 31
3 2 2 3
2
31 34
3 2 2 3
2
34 31
3 2 2 3
2
31 36
3 2 2 3
2
36 31
3 2 2 3
2
31 38
3 2 2 3
2
38 31
3 2 2 3
2
32 33
3 2 2 3
2
33 32
3 2 2 3
2
32 38
3 2 2 3
2
38 32
3 2 2 3
2
32 59
3 2 2 3
2
59 32
3 2 2 3
2
33 29
3 2 2 3
2
29 33
3 2 2 3
2
33 39
3 2 2 3
2
39 33
3 2 2 3
2
33 42
3 2 2 3
2
42 33
3 2 2 3
2
33 44
3 2 2 3
2
44 33
3 2 2 3
2
34 24
3 2 2 3
2
24 34
3 2 2 3
2
34 35
3 2 2 3
2
35 34
3 2 2 3
2
34 37
3 2 2 3
2
37 34
3 2 2 3
2
35 2
3 2 2 3
2
2 35
3 2 2 3
2
35 21
3 2 2 3
2
21 35
3 2 2 3
2
35 32
3 2 2 3
2
32 35
3 2 2 3
2
35 33
3 2 2 3
2
33 35
3 2 2 3
2
35 41
3 2 2 3
2
41 35
3 2 2 3
2
36 16
3 2 2 3
2
16 36
3 2 2 3
2
36 35
3 2 2 3
2
35 36
3 2 2 3
2
36 37
3 2 2 3
2
37 36
3 2 2 3
2
36 38
3 2 2 3
2
38 36
3 2 2 3
2
37 10
3 2 2 3
2
10 37
3 2 2 3
2
37 21
3 2 2 3
2
21 37
3 2 2 3
2
37 32
3 2 2 3
2
32 37
3 2 2 3
2
37 33
3 2 2 3
2
33 37
3 2 2 3
2
37 34
3 2 2 3
2
34 37
3 2 2 3
2
37 35
3 2 2 3
2
35 37
3 2 2 3
2
37 36
3 2 2 3
2
36 37
3 2 2 3
2
37 39
3 2 2 3
2
39 37
3 2 2 3
2
37 42
3 2 2 3
2
42 37
3 2 2 3
2
37 53
3 2 2 3
2
53 37
3 2 2 3
2
38 35
3 2 2 3
2
35 38
3 2 2 3
2
38 48
3 2 2 3
2
48 38
3 2 2 3
2
38 49
3 2 2 3
2
49 38
3 2 2 3
2
38 57
3 2 2 3
2
57 38
3 2 2 3
2
39 7
3 2 2 3
2
7 39
3 2 2 3
2
39 31
3 2 2 3
2
31 39
3 2 2 3
2
39 32
3 2 2 3
2
32 39
3 2 2 3
2
39 34
3 2 2 3
2
34 39
3 2 2 3
2
39 37
3 2 2 3
2
37 39
3 2 2 3
2
39 38
3 2 2 3
2
38 39
3 2 2 3
2
39 49
3 2 2 3
2
49 39
3 2 2 3
2
39 52
3 2 2 3
2
52 39
3 2 2 3
2
40 7
3 2 2 3
2
7 40
3 2 2 3
2
40 13
3 2 2 3
2
13 40
3 2 2 3
2
40 20
3 2 2 3
2
20 40
3 2 2 3
2
40 43
3 2 2 3
2
43 40
3 2 2 3
2
40 47
3 2 2 3
2
47 40
3 2 2 3
2
40 48
3 2 2 3
2
48 40
3 2 2 3
2
40 53
3 2 2 3
2
53 40
3 2 2 3
2
41 31
3 2 2 3
2
31 41
3 2 2 3
2
41 40
3 2 2 3
2
40 41
3 2 2 3
2
41 42
3 2 2 3
2
42 41
3 2 2 3
2
41 44
3 2 2 3
2
44 41
3 2 2 3
2
41 49
3 2 2 3
2
49 41
3 2 2 3
2
42 41
3 2 2 3
2
41 42
3 2 2 3
2
42 46
3 2 2 3
2
46 42
3 2 2 3
2
43 9
3 2 2 3
2
9 43
3 2 2 3
2
43 25
3 2 2 3
2
25 43
3 2 2 3
2
43 29
3 2 2 3
2
29 43
3 2 2 3
2
43 44
3 2 2 3
2
44 43
3 2 2 3
2
43 46
3 2 2 3
2
46 43
3 2 2 3
2
43 50
3 2 2 3
2
50 43
3 2 2 3
2
43 58
3 2 2 3
2
58 43
3 2 2 3
2
44 19
3 2 2 3
2
19 44
3 2 2 3
2
44 36
3 2 2 3
2
36 44
3 2 2 3
2
44 37
3 2 2 3
2
37 44
3 2 2 3
2
44 45
3 2 2 3
2
45 44
3 2 2 3
2
44 49
3 2 2 3
2
49 44
3 2 2 3
2
44 51
3 2 2 3
2
51 44
3 2 2 3
2
45 38
3 2 2 3
2
38 45
3 2 2 3
2
45 42
3 2 2 3
2
42 45
3 2 2 3
2
45 43
3 2 2 3
2
43 45
3 2 2 3
2
45 44
3 2 2 3
2
44 45
3 2 2 3
2
45 46
3 2 2 3
2
46 45
3 2 2 3
2
45 52
3 2 2 3
2
52 45
3 2 2 3
2
46 12
3 2 2 3
2
12 46
3 2 2 3
2
46 20
3 2 2 3
2
20 46
3 2 2 3
2
46 23
3 2 2 3
2
23 46
3 2 2 3
2
46 27
3 2 2 3
2
27 46
3 2 2 3
2
46 36
3 2 2 3
2
36 46
3 2 2 3
2
46 44
3 2 2 3
2
44 46
3 2 2 3
2
46 55
3 2 2 3
2
55 46
3 2 2 3
2
47 40
3 2 2 3
2
40 47
3 2 2 3
2
47 42
3 2 2 3
2
42 47
3 2 2 3
2
47 51
3 2 2 3
2
51 47
3 2 2 3
2
47 57
3 2 2 3
2
57 47
3 2 2 3
2
47 58
3 2 2 3
2
58 47
3 2 2 3
2
48 16
3 2 2 3
2
16 48
3 2 2 3
2
48 24
3 2 2 3
2
24 48
3 2 2 3
2
48 40
3 2 2 3
2
40 48
3 2 2 3
2
48 46
3 2 2 3
2
46 48
3 2 2 3
2
48 49
3 2 2 3
2
49 48
3 2 2 3
2
48 56
3 2 2 3
2
56 48
3 2 2 3
2
49 9
3 2 2 3
2
9 49
3 2 2 3
2
49 41
3 2 2 3
2
41 49
3 2 2 3
2
49 42
3 2 2 3
2
42 49
3 2 2 3
2
49 48
3 2 2 3
2
48 49
3 2 2 3
2
49 50
3 2 2 3
2
50 49
3 2 2 3
2
50 0
3 2 2 3
2
0 50
3 2 2 3
2
50 10
3 2 2 3
2
10 50
3 2 2 3
2
50 14
3 2 2 3
2
14 50
3 2 2 3
2
50 26
3 2 2 3
2
26 50
3 2 2 3
2
50 33
3 2 2 3
2
33 50
3 2 2 3
2
50 55
3 2 2 3
2
55 50
3 2 2 3
2
50 56
3 2 2 3
2
56 50
3 2 2 3
2
50 57
3 2 2 3
2
57 50
3 2 2 3
2
50 59
3 2 2 3
2
59 50
3 2 2 3
2
51 34
3 2 2 3
2
34 51
3 2 2 3
2
51 46
3 2 2 3
2
46 51
3 2 2 3
2
51 50
3 2 2 3
2
50 51
3 2 2 3
2
51 52
3 2 2 3
2
52 51
3 2 2 3
2
51 53
3 2 2 3
2
53 51
3 2 2 3
2
51 55
3 2 2 3
2
55 51
3 2 2 3
2
51 57
3 2 2 3
2
57 51
3 2 2 3
2
51 59
3 2 2 3
2
59 51
3 2 2 3
2
52 16
3 2 2 3
2
16 52
3 2 2 3
2
52 42
3 2 2 3
2
42 52
3 2 2 3
2
52 55
3 2 2 3
2
55 52
3 2 2 3
2
52 56
3 2 2 3
2
56 52
3 2 2 3
2
52 58
3 2 2 3
2
58 52
3 2 2 3
2
52 59
3 2 2 3
2
59 52
3 2 2 3
2
53 10
3 2 2 3
2
10 53
3 2 2 3
2
53 14
3 2 2 3
2
14 53
3 2 2 3
2
53 16
3 2 2 3
2
16 53
3 2 2 3
2
53 51
3 2 2 3
2
51 53
3 2 2 3
2
53 52
3 2 2 3
2
52 53
3 2 2 3
2
53 54
3 2 2 3
2
54 53
3 2 2 3
2
53 56
3 2 2 3
2
56 53
3 2 2 3
2
53 57
3 2 2 3
2
57 53
3 2 2 3
2
54 19
3 2 2 3
2
19 54
3 2 2 3
2
54 29
3 2 2 3
2
29 54
3 2 2 3
2
54 34
3 2 2 3
2
34 54
3 2 2 3
2
54 48
3 2 2 3
2
48 54
3 2 2 3
2
54 50
3 2 2 3
2
50 54
3 2 2 3
2
54 52
3 2 2 3
2
52 54
3 2 2 3
2
54 55
3 2 2 3
2
55 54
3 2 2 3
2
54 56
3 2 2 3
2
56 54
3 2 2 3
2
54 58
3 2 2 3
2
58 54
3 2 2 3
2
55 8
3 2 2 3
2
8 55
3 2 2 3
2
55 54
3 2 2 3
2
54 55
3 2 2 3
2
55 56
3 2 2 3
2
56 55
3 2 2 3
2
56 4
3 2 2 3
2
4 56
3 2 2 3
2
56 12
3 2 2 3
2
12 56
3 2 2 3
2
56 43
3 2 2 3
2
43 56
3 2 2 3
2
56 51
3 2 2 3
2
51 56
3 2 2 3
2
56 53
3 2 2 3
2
53 56
3 2 2 3
2
56 59
3 2 2 3
2
59 56
3 2 2 3
2
57 14
3 2 2 3
2
14 57
3 2 2 3
2
57 16
3 2 2 3
2
16 57
3 2 2 3
2
57 23
3 2 2 3
2
23 57
3 2 2 3
2
57 55
3 2 2 3
2
55 57
3 2 2 3
2
57 58
3 2 2 3
2
58 57
3 2 2 3
2
57 59
3 2 2 3
2
59 57
3 2 2 3
2
58 35
3 2 2 3
2
35 58
3 2 2 3
2
58 37
3 2 2 3
2
37 58
3 2 2 3
2
58 56
3 2 2 3
2
56 58
3 2 2 3
2
58 57
3 2 2 3
2
57 58
3 2 2 3
2
58 59
3 2 2 3
2
59 58
3 2 2 3
2
59 7
3 2 2 3
2
7 59
3 2 2 3
2
59 11
3 2 2 3
2
11 59
3 2 2 3
2
59 47
3 2 2 3
2
47 59
3 2 2 3
2
59 54
3 2 2 3
2
54 59
3 2 2 3
2
59 57
3 2 2 3
2
57 59
3 2 2 3
