60 620
2
0 1
3 2 2 3
2
1 0
3 2 2 3
2
0 3
3 2 2 3
2
3 0
3 2 2 3
2
0 21
3 2 2 3
2
21 0
3 2 2 3
2
0 25
3 2 2 3
2
25 0
3 2 2 3
2
1 2
3 2 2 3
2
2 1
3 2 2 3
2
1 5
3 2 2 3
2
5 1
3 2 2 3
2
1 6
3 2 2 3
2
6 1
3 2 2 3
2
1 16
3 2 2 3
2
16 1
3 2 2 3
2
1 25
3 2 2 3
2
25 1
3 2 2 3
2
1 48
3 2 2 3
2
48 1
3 2 2 3
2
1 57
3 2 2 3
2
57 1
3 2 2 3
2
2 3
3 2 2 3
2
3 2
3 2 2 3
2
2 4
3 2 2 3
2
4 2
3 2 2 3
2
2 7
3 2 2 3
2
7 2
3 2 2 3
2
2 8
3 2 2 3
2
8 2
3 2 2 3
2
2 21
3 2 2 3
2
21 2
3 2 2 3
2
2 36
3 2 2 3
2
36 2
3 2 2 3
2
2 43
3 2 2 3
2
43 2
3 2 2 3
2
3 2
3 2 2 3
2
2 3
3 2 2 3
2
3 4
3 2 2 3
2
4 3
3 2 2 3
2
3 8
3 2 2 3
2
8 3
3 2 2 3
2
3 9
3 2 2 3
2
9 3
3 2 2 3
2
3 10
3 2 2 3
2
10 3
3 2 2 3
2
4 0
3 2 2 3
2
0 4
3 2 2 3
2
4 3
3 2 2 3
2
3 4
3 2 2 3
2
4 9
3 2 2 3
2
9 4
3 2 2 3
2
4 39
3 2 2 3
2
39 4
3 2 2 3
2
5 0
3 2 2 3
2
0 5
3 2 2 3
2
5 8
3 2 2 3
2
8 5
3 2 2 3
2
5 44
3 2 2 3
2
44 5
3 2 2 3
2
5 47
3 2 2 3
2
47 5
3 2 2 3
2
5 52
3 2 2 3
2
52 5
3 2 2 3
2
6 3
3 2 2 3
2
3 6
3 2 2 3
2
6 5
3 2 2 3
2
5 6
3 2 2 3
2
6 9
3 2 2 3
2
9 6
3 2 2 3
2
6 16
3 2 2 3
2
16 6
3 2 2 3
2
6 24
3 2 2 3
2
24 6
3 2 2 3
2
6 36
3 2 2 3
2
36 6
3 2 2 3
2
6 58
3 2 2 3
2
58 6
3 2 2 3
2
7 1
3 2 2 3
2
1 7
3 2 2 3
2
7 2
3 2 2 3
2
2 7
3 2 2 3
2
7 3
3 2 2 3
2
3 7
3 2 2 3
2
7 5
3 2 2 3
2
5 7
3 2 2 3
2
7 8
3 2 2 3
2
8 7
3 2 2 3
2
7 9
3 2 2 3
2
9 7
3 2 2 3
2
7 13
3 2 2 3
2
13 7
3 2 2 3
2
7 25
3 2 2 3
2
25 7
3 2 2 3
2
8 4
3 2 2 3
2
4 8
3 2 2 3
2
8 42
3 2 2 3
2
42 8
3 2 2 3
2
8 50
3 2 2 3
2
50 8
3 2 2 3
2
9 1
3 2 2 3
2
1 9
3 2 2 3
2
9 6
3 2 2 3
2
6 9
3 2 2 3
2
9 11
3 2 2 3
2
11 9
3 2 2 3
2
9 14
3 2 2 3
2
14 9
3 2 2 3
2
10 1
3 2 2 3
2
1 10
3 2 2 3
2
10 11
3 2 2 3
2
11 10
3 2 2 3
2
10 16
3 2 2 3
2
16 10
3 2 2 3
2
10 18
3 2 2 3
2
18 10
3 2 2 3
2
10 20
3 2 2 3
2
20 10
3 2 2 3
2
10 49
3 2 2 3
2
49 10
3 2 2 3
2
10 52
3 2 2 3
2
52 10
3 2 2 3
2
10 59
3 2 2 3
2
59 10
3 2 2 3
2
11 10
3 2 2 3
2
10 11
3 2 2 3
2
11 13
3 2 2 3
2
13 11
3 2 2 3
2
11 15
3 2 2 3
2
15 11
3 2 2 3
2
11 17
3 2 2 3
2
17 11
3 2 2 3
2
11 41
3 2 2 3
2
41 11
3 2 2 3
2
11 54
3 2 2 3
2
54 11
3 2 2 3
2
11 57
3 2 2 3
2
57 11
3 2 2 3
2
12 7
3 2 2 3
2
7 12
3 2 2 3
2
13 0
3 2 2 3
2
0 13
3 2 2 3
2
13 9
3 2 2 3
2
9 13
3 2 2 3
2
13 14
3 2 2 3
2
14 13
3 2 2 3
2
13 16
3 2 2 3
2
16 13
3 2 2 3
2
13 35
3 2 2 3
2
35 13
3 2 2 3
2
13 58
3 2 2 3
2
58 13
3 2 2 3
2
14 15
3 2 2 3
2
15 14
3 2 2 3
2
14 37
3 2 2 3
2
37 14
3 2 2 3
2
14 44
3 2 2 3
2
44 14
3 2 2 3
2
15 23
3 2 2 3
2
23 15
3 2 2 3
2
15 25
3 2 2 3
2
25 15
3 2 2 3
2
15 30
3 2 2 3
2
30 15
3 2 2 3
2
16 10
3 2 2 3
2
10 16
3 2 2 3
2
16 11
3 2 2 3
2
11 16
3 2 2 3
2
16 13
3 2 2 3
2
13 16
3 2 2 3
2
16 35
3 2 2 3
2
35 16
3 2 2 3
2
16 49
3 2 2 3
2
49 16
3 2 2 3
2
17 11
3 2 2 3
2
11 17
3 2 2 3
2
17 18
3 2 2 3
2
18 17
3 2 2 3
2
17 56
3 2 2 3
2
56 17
3 2 2 3
2
18 15
3 2 2 3
2
15 18
3 2 2 3
2
19 13
3 2 2 3
2
13 19
3 2 2 3
2
19 15
3 2 2 3
2
15 19
3 2 2 3
2
19 21
3 2 2 3
2
21 19
3 2 2 3
2
19 23
3 2 2 3
2
23 19
3 2 2 3
2
19 31
3 2 2 3
2
31 19
3 2 2 3
2
20 17
3 2 2 3
2
17 20
3 2 2 3
2
20 21
3 2 2 3
2
21 20
3 2 2 3
2
20 24
3 2 2 3
2
24 20
3 2 2 3
2
20 26
3 2 2 3
2
26 20
3 2 2 3
2
20 47
3 2 2 3
2
47 20
3 2 2 3
2
21 20
3 2 2 3
2
20 21
3 2 2 3
2
21 24
3 2 2 3
2
24 21
3 2 2 3
2
21 26
3 2 2 3
2
26 21
3 2 2 3
2
22 9
3 2 2 3
2
9 22
3 2 2 3
2
22 23
3 2 2 3
2
23 22
3 2 2 3
2
22 25
3 2 2 3
2
25 22
3 2 2 3
2
22 26
3 2 2 3
2
26 22
3 2 2 3
2
22 28
3 2 2 3
2
28 22
3 2 2 3
2
23 0
3 2 2 3
2
0 23
3 2 2 3
2
23 7
3 2 2 3
2
7 23
3 2 2 3
2
23 20
3 2 2 3
2
20 23
3 2 2 3
2
23 22
3 2 2 3
2
22 23
3 2 2 3
2
23 25
3 2 2 3
2
25 23
3 2 2 3
2
23 26
3 2 2 3
2
26 23
3 2 2 3
2
23 27
3 2 2 3
2
27 23
3 2 2 3
2
23 29
3 2 2 3
2
29 23
3 2 2 3
2
23 39
3 2 2 3
2
39 23
3 2 2 3
2
23 48
3 2 2 3
2
48 23
3 2 2 3
2
24 11
3 2 2 3
2
11 24
3 2 2 3
2
24 19
3 2 2 3
2
19 24
3 2 2 3
2
24 27
3 2 2 3
2
27 24
3 2 2 3
2
24 34
3 2 2 3
2
34 24
3 2 2 3
2
24 41
3 2 2 3
2
41 24
3 2 2 3
2
24 46
3 2 2 3
2
46 24
3 2 2 3
2
25 9
3 2 2 3
2
9 25
3 2 2 3
2
25 20
3 2 2 3
2
20 25
3 2 2 3
2
25 23
3 2 2 3
2
23 25
3 2 2 3
2
25 26
3 2 2 3
2
26 25
3 2 2 3
2
25 27
3 2 2 3
2
27 25
3 2 2 3
2
25 28
3 2 2 3
2
28 25
3 2 2 3
2
25 29
3 2 2 3
2
29 25
3 2 2 3
2
26 25
3 2 2 3
2
25 26
3 2 2 3
2
26 33
3 2 2 3
2
33 26
3 2 2 3
2
26 40
3 2 2 3
2
40 26
3 2 2 3
2
26 56
3 2 2 3
2
56 26
3 2 2 3
2
27 9
3 2 2 3
2
9 27
3 2 2 3
2
27 21
3 2 2 3
2
21 27
3 2 2 3
2
27 22
3 2 2 3
2
22 27
3 2 2 3
2
27 24
3 2 2 3
2
24 27
3 2 2 3
2
27 25
3 2 2 3
2
25 27
3 2 2 3
2
27 29
3 2 2 3
2
29 27
3 2 2 3
2
28 22
3 2 2 3
2
22 28
3 2 2 3
2
28 24
3 2 2 3
2
24 28
3 2 2 3
2
28 29
3 2 2 3
2
29 28
3 2 2 3
2
28 38
3 2 2 3
2
38 28
3 2 2 3
2
29 21
3 2 2 3
2
21 29
3 2 2 3
2
29 22
3 2 2 3
2
22 29
3 2 2 3
2
29 25
3 2 2 3
2
25 29
3 2 2 3
2
29 26
3 2 2 3
2
26 29
3 2 2 3
2
29 55
3 2 2 3
2
55 29
3 2 2 3
2
30 4
3 2 2 3
2
4 30
3 2 2 3
2
30 20
3 2 2 3
2
20 30
3 2 2 3
2
30 27
3 2 2 3
2
27 30
3 2 2 3
2
30 29
3 2 2 3
2
29 30
3 2 2 3
2
30 31
3 2 2 3
2
31 30
3 2 2 3
2
30 35
3 2 2 3
2
35 30
3 2 2 3
2
30 52
3 2 2 3
2
52 30
3 2 2 3
2
31 10
3 2 2 3
2
10 31
3 2 2 3
2
31 24
3 2 2 3
2
24 31
3 2 2 3
2
31 30
3 2 2 3
2
30 31
3 2 2 3
2
31 32
3 2 2 3
2
32 31
3 2 2 3
2
31 33
3 2 2 3
2
33 31
3 2 2 3
2
31 34
3 2 2 3
2
34 31
3 2 2 3
2
31 35
3 2 2 3
2
35 31
3 2 2 3
2
31 36
3 2 2 3
2
36 31
3 2 2 3
2
31 37
3 2 2 3
2
37 31
3 2 2 3
2
31 39
3 2 2 3
2
39 31
3 2 2 3
2
32 5
3 2 2 3
2
5 32
3 2 2 3
2
32 13
3 2 2 3
2
13 32
3 2 2 3
2
32 30
3 2 2 3
2
30 32
3 2 2 3
2
32 34
3 2 2 3
2
34 32
3 2 2 3
2
32 36
3 2 2 3
2
36 32
3 2 2 3
2
32 38
3 2 2 3
2
38 32
3 2 2 3
2
32 55
3 2 2 3
2
55 32
3 2 2 3
2
33 31
3 2 2 3
2
31 33
3 2 2 3
2
33 37
3 2 2 3
2
37 33
3 2 2 3
2
34 35
3 2 2 3
2
35 34
3 2 2 3
2
34 37
3 2 2 3
2
37 34
3 2 2 3
2
35 19
3 2 2 3
2
19 35
3 2 2 3
2
35 21
3 2 2 3
2
21 35
3 2 2 3
2
35 29
3 2 2 3
2
29 35
3 2 2 3
2
35 30
3 2 2 3
2
30 35
3 2 2 3
2
35 32
3 2 2 3
2
32 35
3 2 2 3
2
35 34
3 2 2 3
2
34 35
3 2 2 3
2
35 36
3 2 2 3
2
36 35
3 2 2 3
2
35 37
3 2 2 3
2
37 35
3 2 2 3
2
35 39
3 2 2 3
2
39 35
3 2 2 3
2
35 50
3 2 2 3
2
50 35
3 2 2 3
2
36 21
3 2 2 3
2
21 36
3 2 2 3
2
36 31
3 2 2 3
2
31 36
3 2 2 3
2
36 32
3 2 2 3
2
32 36
3 2 2 3
2
36 33
3 2 2 3
2
33 36
3 2 2 3
2
36 35
3 2 2 3
2
35 36
3 2 2 3
2
36 37
3 2 2 3
2
37 36
3 2 2 3
2
36 39
3 2 2 3
2
39 36
3 2 2 3
2
37 21
3 2 2 3
2
21 37
3 2 2 3
2
37 30
3 2 2 3
2
30 37
3 2 2 3
2
37 31
3 2 2 3
2
31 37
3 2 2 3
2
37 33
3 2 2 3
2
33 37
3 2 2 3
2
37 36
3 2 2 3
2
36 37
3 2 2 3
2
37 51
3 2 2 3
2
51 37
3 2 2 3
2
38 19
3 2 2 3
2
19 38
3 2 2 3
2
38 25
3 2 2 3
2
25 38
3 2 2 3
2
38 34
3 2 2 3
2
34 38
3 2 2 3
2
38 35
3 2 2 3
2
35 38
3 2 2 3
2
39 17
3 2 2 3
2
17 39
3 2 2 3
2
39 19
3 2 2 3
2
19 39
3 2 2 3
2
39 23
3 2 2 3
2
23 39
3 2 2 3
2
39 34
3 2 2 3
2
34 39
3 2 2 3
2
39 38
3 2 2 3
2
38 39
3 2 2 3
2
40 41
3 2 2 3
2
41 40
3 2 2 3
2
40 44
3 2 2 3
2
44 40
3 2 2 3
2
40 48
3 2 2 3
2
48 40
3 2 2 3
2
41 14
3 2 2 3
2
14 41
3 2 2 3
2
41 42
3 2 2 3
2
42 41
3 2 2 3
2
41 44
3 2 2 3
2
44 41
3 2 2 3
2
41 49
3 2 2 3
2
49 41
3 2 2 3
2
42 27
3 2 2 3
2
27 42
3 2 2 3
2
42 36
3 2 2 3
2
36 42
3 2 2 3
2
42 39
3 2 2 3
2
39 42
3 2 2 3
2
42 41
3 2 2 3
2
41 42
3 2 2 3
2
42 43
3 2 2 3
2
43 42
3 2 2 3
2
43 9
3 2 2 3
2
9 43
3 2 2 3
2
43 24
3 2 2 3
2
24 43
3 2 2 3
2
43 41
3 2 2 3
2
41 43
3 2 2 3
2
43 56
3 2 2 3
2
56 43
3 2 2 3
2
44 17
3 2 2 3
2
17 44
3 2 2 3
2
44 26
3 2 2 3
2
26 44
3 2 2 3
2
44 37
3 2 2 3
2
37 44
3 2 2 3
2
44 42
3 2 2 3
2
42 44
3 2 2 3
2
44 48
3 2 2 3
2
48 44
3 2 2 3
2
45 19
3 2 2 3
2
19 45
3 2 2 3
2
45 38
3 2 2 3
2
38 45
3 2 2 3
2
45 41
3 2 2 3
2
41 45
3 2 2 3
2
45 43
3 2 2 3
2
43 45
3 2 2 3
2
45 44
3 2 2 3
2
44 45
3 2 2 3
2
46 11
3 2 2 3
2
11 46
3 2 2 3
2
46 12
3 2 2 3
2
12 46
3 2 2 3
2
46 22
3 2 2 3
2
22 46
3 2 2 3
2
46 23
3 2 2 3
2
23 46
3 2 2 3
2
46 26
3 2 2 3
2
26 46
3 2 2 3
2
46 33
3 2 2 3
2
33 46
3 2 2 3
2
46 40
3 2 2 3
2
40 46
3 2 2 3
2
46 44
3 2 2 3
2
44 46
3 2 2 3
2
46 45
3 2 2 3
2
45 46
3 2 2 3
2
46 47
3 2 2 3
2
47 46
3 2 2 3
2
46 48
3 2 2 3
2
48 46
3 2 2 3
2
48 20
3 2 2 3
2
20 48
3 2 2 3
2
48 36
3 2 2 3
2
36 48
3 2 2 3
2
48 41
3 2 2 3
2
41 48
3 2 2 3
2
48 44
3 2 2 3
2
44 48
3 2 2 3
2
48 49
3 2 2 3
2
49 48
3 2 2 3
2
49 16
3 2 2 3
2
16 49
3 2 2 3
2
49 29
3 2 2 3
2
29 49
3 2 2 3
2
49 34
3 2 2 3
2
34 49
3 2 2 3
2
49 42
3 2 2 3
2
42 49
3 2 2 3
2
49 43
3 2 2 3
2
43 49
3 2 2 3
2
50 6
3 2 2 3
2
6 50
3 2 2 3
2
50 16
3 2 2 3
2
16 50
3 2 2 3
2
50 39
3 2 2 3
2
39 50
3 2 2 3
2
50 43
3 2 2 3
2
43 50
3 2 2 3
2
50 55
3 2 2 3
2
55 50
3 2 2 3
2
50 57
3 2 2 3
2
57 50
3 2 2 3
2
51 16
3 2 2 3
2
16 51
3 2 2 3
2
51 32
3 2 2 3
2
32 51
3 2 2 3
2
51 53
3 2 2 3
2
53 51
3 2 2 3
2
51 54
3 2 2 3
2
54 51
3 2 2 3
2
51 57
3 2 2 3
2
57 51
3 2 2 3
2
51 58
3 2 2 3
2
58 51
3 2 2 3
2
52 2
3 2 2 3
2
2 52
3 2 2 3
2
52 10
3 2 2 3
2
10 52
3 2 2 3
2
52 54
3 2 2 3
2
54 52
3 2 2 3
2
52 56
3 2 2 3
2
56 52
3 2 2 3
2
52 57
3 2 2 3
2
57 52
3 2 2 3
2
52 59
3 2 2 3
2
59 52
3 2 2 3
2
53 31
3 2 2 3
2
31 53
3 2 2 3
2
53 39
3 2 2 3
2
39 53
3 2 2 3
2
53 43
3 2 2 3
2
43 53
3 2 2 3
2
53 51
3 2 2 3
2
51 53
3 2 2 3
2
53 57
3 2 2 3
2
57 53
3 2 2 3
2
54 7
3 2 2 3
2
7 54
3 2 2 3
2
54 8
3 2 2 3
2
8 54
3 2 2 3
2
54 9
3 2 2 3
2
9 54
3 2 2 3
2
54 11
3 2 2 3
2
11 54
3 2 2 3
2
54 34
3 2 2 3
2
34 54
3 2 2 3
2
54 38
3 2 2 3
2
38 54
3 2 2 3
2
54 56
3 2 2 3
2
56 54
3 2 2 3
2
55 16
3 2 2 3
2
16 55
3 2 2 3
2
55 51
3 2 2 3
2
51 55
3 2 2 3
2
55 52
3 2 2 3
2
52 55
3 2 2 3
2
55 59
3 2 2 3
2
59 55
3 2 2 3
2
56 24
3 2 2 3
2
24 56
3 2 2 3
2
56 36
3 2 2 3
2
36 56
3 2 2 3
2
56 53
3 2 2 3
2
53 56
3 2 2 3
2
57 22
3 2 2 3
2
22 57
3 2 2 3
2
57 46
3 2 2 3
2
46 57
3 2 2 3
2
57 52
3 2 2 3
2
52 57
3 2 2 3
2
57 58
3 2 2 3
2
58 57
3 2 2 3
2
58 0
3 2 2 3
2
0 58
3 2 2 3
2
58 54
3 2 2 3
2
54 58
3 2 2 3
2
58 55
3 2 2 3
2
55 58
3 2 2 3
2
58 57
3 2 2 3
2
57 58
3 2 2 3
2
58 59
3 2 2 3
2
59 58
3 2 2 3
2
59 14
3 2 2 3
2
14 59
3 2 2 3
2
59 17
3 2 2 3
2
17 59
3 2 2 3
2
59 21
3 2 2 3
2
21 59
3 2 2 3
2
59 28
3 2 2 3
2
28 59
3 2 2 3
2
59 29
3 2 2 3
2
29 59
3 2 2 3
2
59 58
3 2 2 3
2
58 59
3 2 2 3
