1 4 0 0
4 1 0 0
1 6 0 0
6 1 0 0
1 11 0 0
11 1 0 0
2 1 0 0
1 2 0 0
2 5 0 0
5 2 0 0
2 7 0 0
7 2 0 0
2 17 0 0
17 2 0 0
2 38 0 0
38 2 0 0
2 46 0 0
46 2 0 0
3 2 0 0
2 3 0 0
3 4 0 0
4 3 0 0
3 5 0 0
5 3 0 0
3 22 0 0
22 3 0 0
3 27 0 0
27 3 0 0
3 36 0 0
36 3 0 0
3 49 0 0
49 3 0 0
4 1 0 0
1 4 0 0
4 2 0 0
2 4 0 0
4 6 0 0
6 4 0 0
4 7 0 0
7 4 0 0
4 10 0 0
10 4 0 0
4 60 0 0
60 4 0 0
5 1 0 0
1 5 0 0
5 4 0 0
4 5 0 0
5 6 0 0
6 5 0 0
5 7 0 0
7 5 0 0
5 8 0 0
8 5 0 0
5 9 0 0
9 5 0 0
5 35 0 0
35 5 0 0
5 60 0 0
60 5 0 0
6 1 0 0
1 6 0 0
6 2 0 0
2 6 0 0
6 4 0 0
4 6 0 0
6 9 0 0
9 6 0 0
6 26 0 0
26 6 0 0
6 44 0 0
44 6 0 0
6 60 0 0
60 6 0 0
7 3 0 0
3 7 0 0
7 4 0 0
4 7 0 0
7 9 0 0
9 7 0 0
7 49 0 0
49 7 0 0
8 3 0 0
3 8 0 0
8 5 0 0
5 8 0 0
8 10 0 0
10 8 0 0
9 3 0 0
3 9 0 0
9 4 0 0
4 9 0 0
9 6 0 0
6 9 0 0
9 10 0 0
10 9 0 0
9 35 0 0
35 9 0 0
9 41 0 0
41 9 0 0
9 47 0 0
47 9 0 0
10 2 0 0
2 10 0 0
10 5 0 0
5 10 0 0
10 8 0 0
8 10 0 0
10 13 0 0
13 10 0 0
10 15 0 0
15 10 0 0
10 19 0 0
19 10 0 0
10 34 0 0
34 10 0 0
10 43 0 0
43 10 0 0
10 59 0 0
59 10 0 0
11 15 0 0
15 11 0 0
11 16 0 0
16 11 0 0
11 17 0 0
17 11 0 0
11 18 0 0
18 11 0 0
11 26 0 0
26 11 0 0
11 35 0 0
35 11 0 0
11 49 0 0
49 11 0 0
11 55 0 0
55 11 0 0
11 56 0 0
56 11 0 0
12 15 0 0
15 12 0 0
12 35 0 0
35 12 0 0
13 9 0 0
9 13 0 0
13 11 0 0
11 13 0 0
13 17 0 0
17 13 0 0
14 11 0 0
11 14 0 0
14 17 0 0
17 14 0 0
14 18 0 0
18 14 0 0
14 40 0 0
40 14 0 0
15 4 0 0
4 15 0 0
15 14 0 0
14 15 0 0
15 16 0 0
16 15 0 0
15 57 0 0
57 15 0 0
16 9 0 0
9 16 0 0
16 19 0 0
19 16 0 0
16 20 0 0
20 16 0 0
16 23 0 0
23 16 0 0
17 9 0 0
9 17 0 0
17 29 0 0
29 17 0 0
17 38 0 0
38 17 0 0
17 40 0 0
40 17 0 0
18 4 0 0
4 18 0 0
18 11 0 0
11 18 0 0
18 15 0 0
15 18 0 0
18 17 0 0
17 18 0 0
18 20 0 0
20 18 0 0
18 29 0 0
29 18 0 0
18 58 0 0
58 18 0 0
19 6 0 0
6 19 0 0
19 9 0 0
9 19 0 0
19 42 0 0
42 19 0 0
19 59 0 0
59 19 0 0
20 3 0 0
3 20 0 0
20 15 0 0
15 20 0 0
20 18 0 0
18 20 0 0
20 21 0 0
21 20 0 0
20 25 0 0
25 20 0 0
20 28 0 0
28 20 0 0
20 56 0 0
56 20 0 0
20 57 0 0
57 20 0 0
21 22 0 0
22 21 0 0
21 26 0 0
26 21 0 0
22 4 0 0
4 22 0 0
22 11 0 0
11 22 0 0
22 23 0 0
23 22 0 0
22 25 0 0
25 22 0 0
22 47 0 0
47 22 0 0
23 17 0 0
17 23 0 0
23 25 0 0
25 23 0 0
23 49 0 0
49 23 0 0
24 19 0 0
19 24 0 0
24 23 0 0
23 24 0 0
24 25 0 0
25 24 0 0
24 26 0 0
26 24 0 0
24 28 0 0
28 24 0 0
24 31 0 0
31 24 0 0
24 49 0 0
49 24 0 0
24 52 0 0
52 24 0 0
25 1 0 0
1 25 0 0
25 15 0 0
15 25 0 0
25 23 0 0
23 25 0 0
25 26 0 0
26 25 0 0
25 28 0 0
28 25 0 0
25 60 0 0
60 25 0 0
26 3 0 0
3 26 0 0
26 30 0 0
30 26 0 0
26 49 0 0
49 26 0 0
26 57 0 0
57 26 0 0
27 2 0 0
2 27 0 0
27 7 0 0
7 27 0 0
27 17 0 0
17 27 0 0
27 21 0 0
21 27 0 0
27 22 0 0
22 27 0 0
28 21 0 0
21 28 0 0
28 23 0 0
23 28 0 0
28 26 0 0
26 28 0 0
28 27 0 0
27 28 0 0
28 29 0 0
29 28 0 0
28 58 0 0
58 28 0 0
28 59 0 0
59 28 0 0
29 2 0 0
2 29 0 0
29 10 0 0
10 29 0 0
29 60 0 0
60 29 0 0
30 4 0 0
4 30 0 0
30 22 0 0
22 30 0 0
30 27 0 0
27 30 0 0
30 28 0 0
28 30 0 0
30 46 0 0
46 30 0 0
31 5 0 0
5 31 0 0
31 25 0 0
25 31 0 0
31 33 0 0
33 31 0 0
31 40 0 0
40 31 0 0
31 42 0 0
42 31 0 0
31 44 0 0
44 31 0 0
32 6 0 0
6 32 0 0
32 33 0 0
33 32 0 0
32 34 0 0
34 32 0 0
32 36 0 0
36 32 0 0
32 38 0 0
38 32 0 0
32 39 0 0
39 32 0 0
32 53 0 0
53 32 0 0
32 56 0 0
56 32 0 0
33 12 0 0
12 33 0 0
33 13 0 0
13 33 0 0
33 15 0 0
15 33 0 0
33 35 0 0
35 33 0 0
33 38 0 0
38 33 0 0
33 40 0 0
40 33 0 0
34 8 0 0
8 34 0 0
34 32 0 0
32 34 0 0
34 33 0 0
33 34 0 0
34 35 0 0
35 34 0 0
35 13 0 0
13 35 0 0
35 36 0 0
36 35 0 0
35 37 0 0
37 35 0 0
35 39 0 0
39 35 0 0
35 40 0 0
40 35 0 0
35 41 0 0
41 35 0 0
35 56 0 0
56 35 0 0
36 7 0 0
7 36 0 0
36 10 0 0
10 36 0 0
36 19 0 0
19 36 0 0
36 20 0 0
20 36 0 0
36 21 0 0
21 36 0 0
36 31 0 0
31 36 0 0
36 34 0 0
34 36 0 0
36 35 0 0
35 36 0 0
36 38 0 0
38 36 0 0
36 57 0 0
57 36 0 0
37 34 0 0
34 37 0 0
37 35 0 0
35 37 0 0
37 36 0 0
36 37 0 0
38 1 0 0
1 38 0 0
38 16 0 0
16 38 0 0
38 31 0 0
31 38 0 0
38 32 0 0
32 38 0 0
38 40 0 0
40 38 0 0
38 42 0 0
42 38 0 0
38 44 0 0
44 38 0 0
39 1 0 0
1 39 0 0
39 18 0 0
18 39 0 0
39 32 0 0
32 39 0 0
39 33 0 0
33 39 0 0
39 36 0 0
36 39 0 0
39 38 0 0
38 39 0 0
40 17 0 0
17 40 0 0
40 32 0 0
32 40 0 0
40 39 0 0
39 40 0 0
41 4 0 0
4 41 0 0
41 16 0 0
16 41 0 0
41 34 0 0
34 41 0 0
41 37 0 0
37 41 0 0
41 38 0 0
38 41 0 0
41 45 0 0
45 41 0 0
41 53 0 0
53 41 0 0
42 16 0 0
16 42 0 0
42 20 0 0
20 42 0 0
42 32 0 0
32 42 0 0
42 34 0 0
34 42 0 0
42 37 0 0
37 42 0 0
42 43 0 0
43 42 0 0
42 46 0 0
46 42 0 0
42 48 0 0
48 42 0 0
42 49 0 0
49 42 0 0
43 11 0 0
11 43 0 0
43 18 0 0
18 43 0 0
43 41 0 0
41 43 0 0
43 47 0 0
47 43 0 0
44 17 0 0
17 44 0 0
44 41 0 0
41 44 0 0
44 43 0 0
43 44 0 0
44 45 0 0
45 44 0 0
44 46 0 0
46 44 0 0
44 47 0 0
47 44 0 0
44 48 0 0
48 44 0 0
44 49 0 0
49 44 0 0
45 50 0 0
50 45 0 0
46 19 0 0
19 46 0 0
46 33 0 0
33 46 0 0
46 42 0 0
42 46 0 0
46 45 0 0
45 46 0 0
46 47 0 0
47 46 0 0
46 50 0 0
50 46 0 0
46 53 0 0
53 46 0 0
47 41 0 0
41 47 0 0
47 42 0 0
42 47 0 0
47 44 0 0
44 47 0 0
47 45 0 0
45 47 0 0
47 46 0 0
46 47 0 0
48 4 0 0
4 48 0 0
48 21 0 0
21 48 0 0
48 44 0 0
44 48 0 0
49 2 0 0
2 49 0 0
49 12 0 0
12 49 0 0
49 16 0 0
16 49 0 0
49 21 0 0
21 49 0 0
49 42 0 0
42 49 0 0
49 43 0 0
43 49 0 0
49 45 0 0
45 49 0 0
49 47 0 0
47 49 0 0
50 2 0 0
2 50 0 0
50 27 0 0
27 50 0 0
50 37 0 0
37 50 0 0
50 43 0 0
43 50 0 0
50 45 0 0
45 50 0 0
50 46 0 0
46 50 0 0
50 49 0 0
49 50 0 0
50 51 0 0
51 50 0 0
50 53 0 0
53 50 0 0
51 5 0 0
5 51 0 0
51 15 0 0
15 51 0 0
51 52 0 0
52 51 0 0
51 54 0 0
54 51 0 0
51 57 0 0
57 51 0 0
51 59 0 0
59 51 0 0
52 9 0 0
9 52 0 0
52 37 0 0
37 52 0 0
52 48 0 0
48 52 0 0
52 51 0 0
51 52 0 0
52 59 0 0
59 52 0 0
52 60 0 0
60 52 0 0
53 7 0 0
7 53 0 0
53 9 0 0
9 53 0 0
53 20 0 0
20 53 0 0
53 23 0 0
23 53 0 0
53 54 0 0
54 53 0 0
53 55 0 0
55 53 0 0
54 18 0 0
18 54 0 0
54 21 0 0
21 54 0 0
54 29 0 0
29 54 0 0
54 57 0 0
57 54 0 0
54 60 0 0
60 54 0 0
55 9 0 0
9 55 0 0
55 51 0 0
51 55 0 0
55 53 0 0
53 55 0 0
56 41 0 0
41 56 0 0
56 51 0 0
51 56 0 0
56 52 0 0
52 56 0 0
56 54 0 0
54 56 0 0
57 7 0 0
7 57 0 0
57 13 0 0
13 57 0 0
57 26 0 0
26 57 0 0
57 40 0 0
40 57 0 0
57 58 0 0
58 57 0 0
58 7 0 0
7 58 0 0
58 46 0 0
46 58 0 0
58 51 0 0
51 58 0 0
58 53 0 0
53 58 0 0
58 59 0 0
59 58 0 0
59 4 0 0
4 59 0 0
59 16 0 0
16 59 0 0
59 32 0 0
32 59 0 0
59 38 0 0
38 59 0 0
59 53 0 0
53 59 0 0
60 3 0 0
3 60 0 0
60 4 0 0
4 60 0 0
60 46 0 0
46 60 0 0
60 53 0 0
53 60 0 0
60 55 0 0
55 60 0 0
