40 380
2
0 1
3 2 2 3
2
1 0
3 2 2 3
2
0 4
3 2 2 3
2
4 0
3 2 2 3
2
0 6
3 2 2 3
2
6 0
3 2 2 3
2
0 8
3 2 2 3
2
8 0
3 2 2 3
2
0 9
3 2 2 3
2
9 0
3 2 2 3
2
0 13
3 2 2 3
2
13 0
3 2 2 3
2
0 37
3 2 2 3
2
37 0
3 2 2 3
2
1 0
3 2 2 3
2
0 1
3 2 2 3
2
1 2
3 2 2 3
2
2 1
3 2 2 3
2
1 6
3 2 2 3
2
6 1
3 2 2 3
2
1 25
3 2 2 3
2
25 1
3 2 2 3
2
2 1
3 2 2 3
2
1 2
3 2 2 3
2
2 4
3 2 2 3
2
4 2
3 2 2 3
2
2 5
3 2 2 3
2
5 2
3 2 2 3
2
2 9
3 2 2 3
2
9 2
3 2 2 3
2
2 12
3 2 2 3
2
12 2
3 2 2 3
2
2 24
3 2 2 3
2
24 2
3 2 2 3
2
3 5
3 2 2 3
2
5 3
3 2 2 3
2
3 15
3 2 2 3
2
15 3
3 2 2 3
2
3 38
3 2 2 3
2
38 3
3 2 2 3
2
4 5
3 2 2 3
2
5 4
3 2 2 3
2
4 19
3 2 2 3
2
19 4
3 2 2 3
2
4 21
3 2 2 3
2
21 4
3 2 2 3
2
4 36
3 2 2 3
2
36 4
3 2 2 3
2
5 0
3 2 2 3
2
0 5
3 2 2 3
2
5 2
3 2 2 3
2
2 5
3 2 2 3
2
5 4
3 2 2 3
2
4 5
3 2 2 3
2
5 6
3 2 2 3
2
6 5
3 2 2 3
2
5 7
3 2 2 3
2
7 5
3 2 2 3
2
5 8
3 2 2 3
2
8 5
3 2 2 3
2
6 2
3 2 2 3
2
2 6
3 2 2 3
2
6 3
3 2 2 3
2
3 6
3 2 2 3
2
6 4
3 2 2 3
2
4 6
3 2 2 3
2
6 7
3 2 2 3
2
7 6
3 2 2 3
2
7 5
3 2 2 3
2
5 7
3 2 2 3
2
7 9
3 2 2 3
2
9 7
3 2 2 3
2
8 0
3 2 2 3
2
0 8
3 2 2 3
2
8 1
3 2 2 3
2
1 8
3 2 2 3
2
8 2
3 2 2 3
2
2 8
3 2 2 3
2
8 6
3 2 2 3
2
6 8
3 2 2 3
2
8 7
3 2 2 3
2
7 8
3 2 2 3
2
9 1
3 2 2 3
2
1 9
3 2 2 3
2
9 5
3 2 2 3
2
5 9
3 2 2 3
2
9 6
3 2 2 3
2
6 9
3 2 2 3
2
9 8
3 2 2 3
2
8 9
3 2 2 3
2
9 26
3 2 2 3
2
26 9
3 2 2 3
2
10 0
3 2 2 3
2
0 10
3 2 2 3
2
11 12
3 2 2 3
2
12 11
3 2 2 3
2
11 13
3 2 2 3
2
13 11
3 2 2 3
2
11 15
3 2 2 3
2
15 11
3 2 2 3
2
11 18
3 2 2 3
2
18 11
3 2 2 3
2
12 10
3 2 2 3
2
10 12
3 2 2 3
2
12 11
3 2 2 3
2
11 12
3 2 2 3
2
12 13
3 2 2 3
2
13 12
3 2 2 3
2
12 14
3 2 2 3
2
14 12
3 2 2 3
2
12 15
3 2 2 3
2
15 12
3 2 2 3
2
12 16
3 2 2 3
2
16 12
3 2 2 3
2
13 8
3 2 2 3
2
8 13
3 2 2 3
2
13 11
3 2 2 3
2
11 13
3 2 2 3
2
13 17
3 2 2 3
2
17 13
3 2 2 3
2
13 18
3 2 2 3
2
18 13
3 2 2 3
2
14 1
3 2 2 3
2
1 14
3 2 2 3
2
14 11
3 2 2 3
2
11 14
3 2 2 3
2
14 17
3 2 2 3
2
17 14
3 2 2 3
2
14 19
3 2 2 3
2
19 14
3 2 2 3
2
14 32
3 2 2 3
2
32 14
3 2 2 3
2
14 33
3 2 2 3
2
33 14
3 2 2 3
2
15 18
3 2 2 3
2
18 15
3 2 2 3
2
15 31
3 2 2 3
2
31 15
3 2 2 3
2
16 14
3 2 2 3
2
14 16
3 2 2 3
2
16 15
3 2 2 3
2
15 16
3 2 2 3
2
16 26
3 2 2 3
2
26 16
3 2 2 3
2
17 8
3 2 2 3
2
8 17
3 2 2 3
2
17 11
3 2 2 3
2
11 17
3 2 2 3
2
17 14
3 2 2 3
2
14 17
3 2 2 3
2
17 19
3 2 2 3
2
19 17
3 2 2 3
2
18 1
3 2 2 3
2
1 18
3 2 2 3
2
18 12
3 2 2 3
2
12 18
3 2 2 3
2
18 17
3 2 2 3
2
17 18
3 2 2 3
2
18 19
3 2 2 3
2
19 18
3 2 2 3
2
18 27
3 2 2 3
2
27 18
3 2 2 3
2
18 29
3 2 2 3
2
29 18
3 2 2 3
2
18 30
3 2 2 3
2
30 18
3 2 2 3
2
19 4
3 2 2 3
2
4 19
3 2 2 3
2
19 11
3 2 2 3
2
11 19
3 2 2 3
2
19 12
3 2 2 3
2
12 19
3 2 2 3
2
19 14
3 2 2 3
2
14 19
3 2 2 3
2
19 16
3 2 2 3
2
16 19
3 2 2 3
2
19 32
3 2 2 3
2
32 19
3 2 2 3
2
19 34
3 2 2 3
2
34 19
3 2 2 3
2
20 7
3 2 2 3
2
7 20
3 2 2 3
2
20 21
3 2 2 3
2
21 20
3 2 2 3
2
20 22
3 2 2 3
2
22 20
3 2 2 3
2
20 23
3 2 2 3
2
23 20
3 2 2 3
2
20 26
3 2 2 3
2
26 20
3 2 2 3
2
20 27
3 2 2 3
2
27 20
3 2 2 3
2
20 36
3 2 2 3
2
36 20
3 2 2 3
2
20 39
3 2 2 3
2
39 20
3 2 2 3
2
21 22
3 2 2 3
2
22 21
3 2 2 3
2
21 23
3 2 2 3
2
23 21
3 2 2 3
2
21 25
3 2 2 3
2
25 21
3 2 2 3
2
21 28
3 2 2 3
2
28 21
3 2 2 3
2
21 29
3 2 2 3
2
29 21
3 2 2 3
2
21 36
3 2 2 3
2
36 21
3 2 2 3
2
22 1
3 2 2 3
2
1 22
3 2 2 3
2
22 7
3 2 2 3
2
7 22
3 2 2 3
2
22 16
3 2 2 3
2
16 22
3 2 2 3
2
22 21
3 2 2 3
2
21 22
3 2 2 3
2
22 23
3 2 2 3
2
23 22
3 2 2 3
2
22 24
3 2 2 3
2
24 22
3 2 2 3
2
22 25
3 2 2 3
2
25 22
3 2 2 3
2
22 26
3 2 2 3
2
26 22
3 2 2 3
2
22 29
3 2 2 3
2
29 22
3 2 2 3
2
22 31
3 2 2 3
2
31 22
3 2 2 3
2
23 21
3 2 2 3
2
21 23
3 2 2 3
2
23 22
3 2 2 3
2
22 23
3 2 2 3
2
23 26
3 2 2 3
2
26 23
3 2 2 3
2
23 38
3 2 2 3
2
38 23
3 2 2 3
2
23 39
3 2 2 3
2
39 23
3 2 2 3
2
24 20
3 2 2 3
2
20 24
3 2 2 3
2
24 26
3 2 2 3
2
26 24
3 2 2 3
2
24 27
3 2 2 3
2
27 24
3 2 2 3
2
24 29
3 2 2 3
2
29 24
3 2 2 3
2
24 34
3 2 2 3
2
34 24
3 2 2 3
2
25 13
3 2 2 3
2
13 25
3 2 2 3
2
25 17
3 2 2 3
2
17 25
3 2 2 3
2
25 27
3 2 2 3
2
27 25
3 2 2 3
2
25 29
3 2 2 3
2
29 25
3 2 2 3
2
26 17
3 2 2 3
2
17 26
3 2 2 3
2
26 20
3 2 2 3
2
20 26
3 2 2 3
2
26 32
3 2 2 3
2
32 26
3 2 2 3
2
26 39
3 2 2 3
2
39 26
3 2 2 3
2
27 12
3 2 2 3
2
12 27
3 2 2 3
2
27 18
3 2 2 3
2
18 27
3 2 2 3
2
27 22
3 2 2 3
2
22 27
3 2 2 3
2
27 23
3 2 2 3
2
23 27
3 2 2 3
2
27 26
3 2 2 3
2
26 27
3 2 2 3
2
27 28
3 2 2 3
2
28 27
3 2 2 3
2
27 29
3 2 2 3
2
29 27
3 2 2 3
2
27 36
3 2 2 3
2
36 27
3 2 2 3
2
28 5
3 2 2 3
2
5 28
3 2 2 3
2
28 25
3 2 2 3
2
25 28
3 2 2 3
2
28 29
3 2 2 3
2
29 28
3 2 2 3
2
28 31
3 2 2 3
2
31 28
3 2 2 3
2
29 14
3 2 2 3
2
14 29
3 2 2 3
2
29 28
3 2 2 3
2
28 29
3 2 2 3
2
30 20
3 2 2 3
2
20 30
3 2 2 3
2
30 37
3 2 2 3
2
37 30
3 2 2 3
2
31 5
3 2 2 3
2
5 31
3 2 2 3
2
31 19
3 2 2 3
2
19 31
3 2 2 3
2
31 32
3 2 2 3
2
32 31
3 2 2 3
2
31 35
3 2 2 3
2
35 31
3 2 2 3
2
31 37
3 2 2 3
2
37 31
3 2 2 3
2
31 38
3 2 2 3
2
38 31
3 2 2 3
2
32 8
3 2 2 3
2
8 32
3 2 2 3
2
32 10
3 2 2 3
2
10 32
3 2 2 3
2
33 10
3 2 2 3
2
10 33
3 2 2 3
2
33 15
3 2 2 3
2
15 33
3 2 2 3
2
33 34
3 2 2 3
2
34 33
3 2 2 3
2
33 38
3 2 2 3
2
38 33
3 2 2 3
2
34 27
3 2 2 3
2
27 34
3 2 2 3
2
34 28
3 2 2 3
2
28 34
3 2 2 3
2
34 35
3 2 2 3
2
35 34
3 2 2 3
2
34 36
3 2 2 3
2
36 34
3 2 2 3
2
34 38
3 2 2 3
2
38 34
3 2 2 3
2
35 31
3 2 2 3
2
31 35
3 2 2 3
2
35 37
3 2 2 3
2
37 35
3 2 2 3
2
35 39
3 2 2 3
2
39 35
3 2 2 3
2
36 12
3 2 2 3
2
12 36
3 2 2 3
2
36 34
3 2 2 3
2
34 36
3 2 2 3
2
36 35
3 2 2 3
2
35 36
3 2 2 3
2
37 4
3 2 2 3
2
4 37
3 2 2 3
2
37 7
3 2 2 3
2
7 37
3 2 2 3
2
37 30
3 2 2 3
2
30 37
3 2 2 3
2
37 32
3 2 2 3
2
32 37
3 2 2 3
2
37 38
3 2 2 3
2
38 37
3 2 2 3
2
37 39
3 2 2 3
2
39 37
3 2 2 3
2
38 10
3 2 2 3
2
10 38
3 2 2 3
2
38 12
3 2 2 3
2
12 38
3 2 2 3
2
38 17
3 2 2 3
2
17 38
3 2 2 3
2
38 22
3 2 2 3
2
22 38
3 2 2 3
2
38 27
3 2 2 3
2
27 38
3 2 2 3
2
38 31
3 2 2 3
2
31 38
3 2 2 3
2
38 33
3 2 2 3
2
33 38
3 2 2 3
2
38 36
3 2 2 3
2
36 38
3 2 2 3
2
39 12
3 2 2 3
2
12 39
3 2 2 3
2
39 32
3 2 2 3
2
32 39
3 2 2 3
2
39 35
3 2 2 3
2
35 39
3 2 2 3
2
39 36
3 2 2 3
2
36 39
3 2 2 3
2
39 37
3 2 2 3
2
37 39
3 2 2 3
