1 4 0 0
4 1 0 0
1 7 0 0
7 1 0 0
1 8 0 0
8 1 0 0
1 10 0 0
10 1 0 0
1 24 0 0
24 1 0 0
2 1 0 0
1 2 0 0
2 4 0 0
4 2 0 0
2 6 0 0
6 2 0 0
2 9 0 0
9 2 0 0
2 10 0 0
10 2 0 0
2 14 0 0
14 2 0 0
3 1 0 0
1 3 0 0
3 5 0 0
5 3 0 0
3 6 0 0
6 3 0 0
3 8 0 0
8 3 0 0
3 33 0 0
33 3 0 0
4 5 0 0
5 4 0 0
4 7 0 0
7 4 0 0
4 10 0 0
10 4 0 0
5 2 0 0
2 5 0 0
5 8 0 0
8 5 0 0
5 9 0 0
9 5 0 0
5 10 0 0
10 5 0 0
5 34 0 0
34 5 0 0
6 5 0 0
5 6 0 0
6 7 0 0
7 6 0 0
6 8 0 0
8 6 0 0
6 9 0 0
9 6 0 0
6 29 0 0
29 6 0 0
6 39 0 0
39 6 0 0
7 4 0 0
4 7 0 0
7 6 0 0
6 7 0 0
7 19 0 0
19 7 0 0
8 2 0 0
2 8 0 0
8 4 0 0
4 8 0 0
8 5 0 0
5 8 0 0
8 6 0 0
6 8 0 0
8 9 0 0
9 8 0 0
8 13 0 0
13 8 0 0
8 18 0 0
18 8 0 0
9 7 0 0
7 9 0 0
10 1 0 0
1 10 0 0
10 17 0 0
17 10 0 0
10 37 0 0
37 10 0 0
11 13 0 0
13 11 0 0
11 16 0 0
16 11 0 0
11 17 0 0
17 11 0 0
11 19 0 0
19 11 0 0
11 20 0 0
20 11 0 0
11 28 0 0
28 11 0 0
12 14 0 0
14 12 0 0
12 16 0 0
16 12 0 0
12 17 0 0
17 12 0 0
12 19 0 0
19 12 0 0
12 34 0 0
34 12 0 0
12 38 0 0
38 12 0 0
13 14 0 0
14 13 0 0
13 18 0 0
18 13 0 0
13 20 0 0
20 13 0 0
13 26 0 0
26 13 0 0
14 4 0 0
4 14 0 0
14 12 0 0
12 14 0 0
14 13 0 0
13 14 0 0
14 18 0 0
18 14 0 0
15 4 0 0
4 15 0 0
15 11 0 0
11 15 0 0
15 20 0 0
20 15 0 0
15 25 0 0
25 15 0 0
16 13 0 0
13 16 0 0
16 14 0 0
14 16 0 0
16 15 0 0
15 16 0 0
16 18 0 0
18 16 0 0
16 22 0 0
22 16 0 0
16 25 0 0
25 16 0 0
16 31 0 0
31 16 0 0
16 37 0 0
37 16 0 0
17 13 0 0
13 17 0 0
17 16 0 0
16 17 0 0
17 18 0 0
18 17 0 0
17 19 0 0
19 17 0 0
17 20 0 0
20 17 0 0
17 40 0 0
40 17 0 0
18 1 0 0
1 18 0 0
18 3 0 0
3 18 0 0
18 5 0 0
5 18 0 0
18 8 0 0
8 18 0 0
18 13 0 0
13 18 0 0
18 15 0 0
15 18 0 0
18 39 0 0
39 18 0 0
19 13 0 0
13 19 0 0
19 17 0 0
17 19 0 0
19 18 0 0
18 19 0 0
19 20 0 0
20 19 0 0
19 27 0 0
27 19 0 0
20 13 0 0
13 20 0 0
20 16 0 0
16 20 0 0
20 18 0 0
18 20 0 0
20 34 0 0
34 20 0 0
20 39 0 0
39 20 0 0
21 8 0 0
8 21 0 0
21 18 0 0
18 21 0 0
21 22 0 0
22 21 0 0
21 24 0 0
24 21 0 0
21 25 0 0
25 21 0 0
22 21 0 0
21 22 0 0
22 26 0 0
26 22 0 0
22 37 0 0
37 22 0 0
23 10 0 0
10 23 0 0
23 21 0 0
21 23 0 0
23 27 0 0
27 23 0 0
23 29 0 0
29 23 0 0
23 30 0 0
30 23 0 0
24 18 0 0
18 24 0 0
24 19 0 0
19 24 0 0
24 22 0 0
22 24 0 0
24 27 0 0
27 24 0 0
25 14 0 0
14 25 0 0
25 21 0 0
21 25 0 0
25 24 0 0
24 25 0 0
25 40 0 0
40 25 0 0
26 8 0 0
8 26 0 0
26 23 0 0
23 26 0 0
26 24 0 0
24 26 0 0
26 29 0 0
29 26 0 0
26 33 0 0
33 26 0 0
27 1 0 0
1 27 0 0
27 28 0 0
28 27 0 0
27 32 0 0
32 27 0 0
27 40 0 0
40 27 0 0
28 13 0 0
13 28 0 0
28 17 0 0
17 28 0 0
28 24 0 0
24 28 0 0
28 26 0 0
26 28 0 0
28 27 0 0
27 28 0 0
28 29 0 0
29 28 0 0
28 30 0 0
30 28 0 0
28 38 0 0
38 28 0 0
29 3 0 0
3 29 0 0
29 5 0 0
5 29 0 0
29 17 0 0
17 29 0 0
29 21 0 0
21 29 0 0
29 26 0 0
26 29 0 0
29 28 0 0
28 29 0 0
29 32 0 0
32 29 0 0
30 13 0 0
13 30 0 0
30 14 0 0
14 30 0 0
30 17 0 0
17 30 0 0
30 25 0 0
25 30 0 0
30 27 0 0
27 30 0 0
30 29 0 0
29 30 0 0
31 35 0 0
35 31 0 0
31 37 0 0
37 31 0 0
32 24 0 0
24 32 0 0
32 33 0 0
33 32 0 0
32 36 0 0
36 32 0 0
33 7 0 0
7 33 0 0
33 20 0 0
20 33 0 0
33 35 0 0
35 33 0 0
33 36 0 0
36 33 0 0
33 38 0 0
38 33 0 0
33 39 0 0
39 33 0 0
33 40 0 0
40 33 0 0
34 20 0 0
20 34 0 0
34 35 0 0
35 34 0 0
34 37 0 0
37 34 0 0
34 39 0 0
39 34 0 0
35 1 0 0
1 35 0 0
35 6 0 0
6 35 0 0
35 27 0 0
27 35 0 0
36 31 0 0
31 36 0 0
36 32 0 0
32 36 0 0
36 35 0 0
35 36 0 0
37 17 0 0
17 37 0 0
37 31 0 0
31 37 0 0
37 33 0 0
33 37 0 0
37 34 0 0
34 37 0 0
38 1 0 0
1 38 0 0
38 18 0 0
18 38 0 0
38 23 0 0
23 38 0 0
38 31 0 0
31 38 0 0
38 32 0 0
32 38 0 0
39 31 0 0
31 39 0 0
39 35 0 0
35 39 0 0
39 36 0 0
36 39 0 0
39 37 0 0
37 39 0 0
39 40 0 0
40 39 0 0
40 31 0 0
31 40 0 0
40 36 0 0
36 40 0 0
40 37 0 0
37 40 0 0
