1 4 0 0
4 1 0 0
1 7 0 0
7 1 0 0
1 26 0 0
26 1 0 0
1 30 0 0
30 1 0 0
2 1 0 0
1 2 0 0
2 7 0 0
7 2 0 0
2 9 0 0
9 2 0 0
2 10 0 0
10 2 0 0
3 16 0 0
16 3 0 0
3 23 0 0
23 3 0 0
4 3 0 0
3 4 0 0
4 5 0 0
5 4 0 0
4 6 0 0
6 4 0 0
4 9 0 0
9 4 0 0
4 18 0 0
18 4 0 0
4 20 0 0
20 4 0 0
4 23 0 0
23 4 0 0
4 35 0 0
35 4 0 0
5 1 0 0
1 5 0 0
5 4 0 0
4 5 0 0
5 9 0 0
9 5 0 0
5 10 0 0
10 5 0 0
5 16 0 0
16 5 0 0
5 23 0 0
23 5 0 0
6 5 0 0
5 6 0 0
6 8 0 0
8 6 0 0
6 9 0 0
9 6 0 0
7 1 0 0
1 7 0 0
7 4 0 0
4 7 0 0
7 9 0 0
9 7 0 0
7 22 0 0
22 7 0 0
7 24 0 0
24 7 0 0
8 5 0 0
5 8 0 0
8 24 0 0
24 8 0 0
9 1 0 0
1 9 0 0
9 8 0 0
8 9 0 0
9 26 0 0
26 9 0 0
9 39 0 0
39 9 0 0
10 1 0 0
1 10 0 0
10 2 0 0
2 10 0 0
10 3 0 0
3 10 0 0
10 8 0 0
8 10 0 0
10 14 0 0
14 10 0 0
10 38 0 0
38 10 0 0
11 15 0 0
15 11 0 0
12 11 0 0
11 12 0 0
12 13 0 0
13 12 0 0
12 19 0 0
19 12 0 0
12 36 0 0
36 12 0 0
13 5 0 0
5 13 0 0
13 17 0 0
17 13 0 0
13 40 0 0
40 13 0 0
14 12 0 0
12 14 0 0
14 13 0 0
13 14 0 0
14 15 0 0
15 14 0 0
14 20 0 0
20 14 0 0
15 19 0 0
19 15 0 0
15 34 0 0
34 15 0 0
16 6 0 0
6 16 0 0
16 18 0 0
18 16 0 0
16 20 0 0
20 16 0 0
17 13 0 0
13 17 0 0
17 18 0 0
18 17 0 0
17 26 0 0
26 17 0 0
18 13 0 0
13 18 0 0
18 14 0 0
14 18 0 0
18 15 0 0
15 18 0 0
18 28 0 0
28 18 0 0
18 38 0 0
38 18 0 0
19 12 0 0
12 19 0 0
19 16 0 0
16 19 0 0
19 17 0 0
17 19 0 0
19 25 0 0
25 19 0 0
19 28 0 0
28 19 0 0
19 31 0 0
31 19 0 0
20 1 0 0
1 20 0 0
20 11 0 0
11 20 0 0
20 13 0 0
13 20 0 0
20 14 0 0
14 20 0 0
20 16 0 0
16 20 0 0
20 17 0 0
17 20 0 0
20 30 0 0
30 20 0 0
20 39 0 0
39 20 0 0
21 25 0 0
25 21 0 0
22 25 0 0
25 22 0 0
22 28 0 0
28 22 0 0
22 29 0 0
29 22 0 0
22 40 0 0
40 22 0 0
23 29 0 0
29 23 0 0
24 6 0 0
6 24 0 0
24 20 0 0
20 24 0 0
24 22 0 0
22 24 0 0
24 30 0 0
30 24 0 0
25 21 0 0
21 25 0 0
26 5 0 0
5 26 0 0
26 8 0 0
8 26 0 0
26 22 0 0
22 26 0 0
26 25 0 0
25 26 0 0
26 29 0 0
29 26 0 0
27 6 0 0
6 27 0 0
27 24 0 0
24 27 0 0
27 26 0 0
26 27 0 0
27 28 0 0
28 27 0 0
28 2 0 0
2 28 0 0
28 20 0 0
20 28 0 0
28 25 0 0
25 28 0 0
29 22 0 0
22 29 0 0
29 24 0 0
24 29 0 0
29 26 0 0
26 29 0 0
29 27 0 0
27 29 0 0
30 12 0 0
12 30 0 0
30 22 0 0
22 30 0 0
30 24 0 0
24 30 0 0
30 26 0 0
26 30 0 0
30 39 0 0
39 30 0 0
31 7 0 0
7 31 0 0
31 12 0 0
12 31 0 0
31 30 0 0
30 31 0 0
31 32 0 0
32 31 0 0
31 35 0 0
35 31 0 0
31 36 0 0
36 31 0 0
31 37 0 0
37 31 0 0
31 38 0 0
38 31 0 0
31 40 0 0
40 31 0 0
32 5 0 0
5 32 0 0
32 16 0 0
16 32 0 0
32 31 0 0
31 32 0 0
32 36 0 0
36 32 0 0
32 37 0 0
37 32 0 0
32 38 0 0
38 32 0 0
33 34 0 0
34 33 0 0
33 35 0 0
35 33 0 0
33 36 0 0
36 33 0 0
33 40 0 0
40 33 0 0
34 26 0 0
26 34 0 0
34 36 0 0
36 34 0 0
35 34 0 0
34 35 0 0
35 38 0 0
38 35 0 0
35 40 0 0
40 35 0 0
36 39 0 0
39 36 0 0
36 40 0 0
40 36 0 0
37 23 0 0
23 37 0 0
37 31 0 0
31 37 0 0
37 34 0 0
34 37 0 0
37 36 0 0
36 37 0 0
38 13 0 0
13 38 0 0
38 33 0 0
33 38 0 0
38 37 0 0
37 38 0 0
38 39 0 0
39 38 0 0
39 31 0 0
31 39 0 0
39 36 0 0
36 39 0 0
40 24 0 0
24 40 0 0
40 37 0 0
37 40 0 0
40 38 0 0
38 40 0 0
